 # Triggers are in Province scope. The From Scope contains the settlement holder (character)
 # start trigger is in title scope.

tribal = {	
	tb_wildling_barracks = {
		desc = ca_wildling_barracks_desc
		potential = {
			FROM = {
				wildling_culture_trigger = yes
			}
		}
		trigger = { 
			TECH_CASTLE_CONSTRUCTION = 0 
		}
		
		convert_to_castle = ca_wildling_barracks
		
		archers = 50
		light_infantry = 150
		tax_income = 1
		levy_reinforce_rate = 0.15
		#gold_cost = 50
		prestige_cost = 60
		build_time = 180
		ai_creation_factor = 200
		extra_tech_building_start = 10.0 # Never get at start of game
	}

	tb_wildling_barracks2 = {
		desc = ca_wildling_barracks2_desc
		potential = {
			FROM = {
				wildling_culture_trigger = yes
			}
		}
		trigger = { 
			TECH_CASTLE_CONSTRUCTION = 0 
		}
		#trigger = { FROM = { prestige = 125 } }
		
		convert_to_castle = ca_wildling_barracks2
		
		upgrades_from = tb_wildling_barracks
		archers = 100
		light_infantry = 300
		tax_income = 1.5
		levy_reinforce_rate = 0.15
		#gold_cost = 50
		prestige_cost = 125
		build_time = 180
		ai_creation_factor = 200
		
		extra_tech_building_start = 10.0 # Never get at start of game
	}

	tb_wildling_barracks3 = {
		desc = ca_wildling_barracks3_desc
		potential = {
			FROM = {
				wildling_culture_trigger = yes
			}
		}	
		trigger = { 
			TECH_CASTLE_CONSTRUCTION = 0 
		}
		#trigger = { FROM = { prestige = 250 } }
		
		convert_to_castle = ca_wildling_barracks3
		upgrades_from = tb_wildling_barracks2
		archers = 200
		light_infantry = 600
		tax_income = 2.5
		levy_reinforce_rate = 0.15
		#gold_cost = 100
		prestige_cost = 250
		build_time = 365
		ai_creation_factor = 200
		
		extra_tech_building_start = 10.0 # Never get at start of game
	}

	tb_wildling_barracks4 = {
		desc = ca_wildling_barracks4_desc
		potential = {
			FROM = {
				wildling_culture_trigger = yes
			}
		}
		trigger = { 
			TECH_CASTLE_CONSTRUCTION = 0 
		}
		#trigger = { FROM = { prestige = 500 } }
		
		convert_to_castle = ca_wildling_barracks4
		upgrades_from = tb_wildling_barracks3
		archers = 400
		light_infantry = 800
		tax_income = 4
		levy_reinforce_rate = 0.15
		#gold_cost = 200
		prestige_cost = 500
		build_time = 365
		ai_creation_factor = 200
		
		extra_tech_building_start = 10.0 # Never get at start of game
	}
	
	
	tb_market_town_1 = {
		desc = tb_market_town_1_desc
		trigger = { TECH_CITY_CONSTRUCTION = 0 }
		gold_cost = 25
		build_time = 365
		
		tax_income = 0.5
		ai_creation_factor = 97
		ai_feudal_modifier = -10
		ai_republic_modifier = 10
		
		extra_tech_building_start = 10.0 # Never get at start of game
	}
	
	tb_market_town_2 = {
		desc = tb_market_town_2_desc
		trigger = { TECH_CITY_CONSTRUCTION = 0 }
		upgrades_from = tb_market_town_1
		gold_cost = 50
		build_time = 365
		
		tax_income = 0.5
		ai_creation_factor = 98
		ai_feudal_modifier = -10
		ai_republic_modifier = 10
		
		convert_to_castle = ca_town_1
		
		extra_tech_building_start = 10.0 # Never get at start of game
	}
	
	tb_market_town_3 = {
		desc = tb_market_town_3_desc
		trigger = { TECH_CITY_CONSTRUCTION = 0 }
		upgrades_from = tb_market_town_2
		gold_cost = 75
		build_time = 365
		
		tax_income = 0.5
		ai_creation_factor = 99
		ai_feudal_modifier = -10
		ai_republic_modifier = 10
		
		extra_tech_building_start = 10.0 # Never get at start of game
	}
	
	tb_market_town_4 = {
		desc = tb_market_town_4_desc
		trigger = { TECH_CITY_CONSTRUCTION = 0 }
		upgrades_from = tb_market_town_3
		gold_cost = 100
		build_time = 365
		
		tax_income = 0.5
		ai_creation_factor = 100
		ai_feudal_modifier = -10
		ai_republic_modifier = 10
		
		convert_to_castle = ca_town_2
		
		extra_tech_building_start = 10.0 # Never get at start of game
	}
	
	
	
	
	
	
	
	
}
