pragmatist_pattern_for = {
	icon = 6
	pattern_type = for

	declare_war_interaction = {
		OR = {
			custom_tooltip = {
				text = pattern_pragmatist_weak_opponent_custom_tooltip
				hidden_tooltip = {
					AND = { # Attacking a weak opponent for land
						FROM = { # Attacker
							relative_power_including_allies_attacker = {
								who = ROOT_FROMFROM # Defender
								power = 1.3
							}
						}
						NOR = {
							stored_token_trigger = other_claim
							stored_token_trigger = other_claim_on_liege
						}
					}	
				}
			}
			custom_tooltip = {
				text = pattern_pragmatist_de_jure_or_culture_custom_tooltip
				hidden_tooltip = {
					AND = { # Attacking de-jure or culture-group provinces
						FROM = { # Attacker
							relative_power_including_allies_attacker = {
								who = ROOT_FROMFROM # Defender
								power = 0.8
							}
						}
						FROMFROMFROMFROM = { # Thirdparty-title
							OR = {
								AND = {
									tier = count
									OR = {
										location = {
											culture_group = ROOT_FROM # Attacker
										}
										any_de_jure_liege_title = {
											holder_scope = {
												character = ROOT_FROM # Attacker
											}
										}
									}
								}
								any_de_jure_vassal_title = {
									tier = count
									holder_scope = {
										OR = {
											character = ROOT_FROMFROM # Defender
											any_liege = {
												character = ROOT_FROMFROM # Defender
											}
										}
									}
									OR = {
										location = {
											culture_group = ROOT_FROM # Attacker
										}
										any_de_jure_liege_title = {
											holder_scope = {
												character = ROOT_FROM # Attacker
											}
										}
									}
								}
							}
						}
						NOR = {
							stored_token_trigger = excommunicated_ruler
							stored_token_trigger = embargo_cb
							stored_token_trigger = restore_nightswatch
							stored_token_trigger = dynasty_plot_claim
							stored_token_trigger = anti_piracy
							stored_token_trigger = slave_raid
							stored_token_trigger = war_of_emancipation
							stored_token_trigger = dothraki_raid
							stored_token_trigger = nomad_dispute
							stored_token_trigger = cb_liberate_nomad_duchy
						}
					}
				}
			}
		}
		NOT = {
			custom_tooltip = {
				text = pattern_pragmatist_were_not_already_busy_fighting_tooltip
				hidden_tooltip = {
					liege = {
						OR = {
							is_primary_war_attacker = yes
							is_primary_war_defender = yes
						}
					}
				}
			}
		}
	}
	ask_to_embargo = {
		custom_tooltip = {
			text = pattern_pragmatist_weak_opponent_custom_tooltip # Attacking a weak opponent for land
			hidden_tooltip = {
				OR = {
					FROM = { # Liege
						relative_power = {
							who = ROOT_FROMFROMFROMFROM # Defender
							power = 1.3
						}
					}	
					FROMFROM = { # Attacker
						relative_power_including_allies_attacker = {
							who = ROOT_FROMFROMFROMFROM # Defender
							power = 1.3
						}
					}
				}	
			}
		}
		NOT = {
			custom_tooltip = {
				text = pattern_pragmatist_were_not_already_busy_fighting_tooltip
				hidden_tooltip = {
					liege = {
						OR = {
							is_primary_war_attacker = yes
							is_primary_war_defender = yes
						}
					}
				}
			}
		}
	}
	ask_for_vassalization_interaction = {
		OR = {
			custom_tooltip = {
				text = pattern_pragmatist_rightful_dejure_lord_custom_tooltip
				hidden_tooltip = {
					FROMFROM = {
						de_jure_liege_or_above = ROOT_FROM
					}
				}
			}	
			custom_tooltip = {
				text = pattern_pragmatist_ruler_strong_culturereligion_custom_tooltip
				hidden_tooltip = {
					AND = {
						FROMFROM = {
							relative_power = {
								who = ROOT_FROM
								power = 2
							}
							culture_group = ROOT
							religion = ROOT
						}
					}
				}
			}
		}
	}
	
	revoke_title_interaction = {
		custom_tooltip = {
			text = pattern_pragmatist_dislike_large_demesne_custom_tooltip
			hidden_tooltip = {
				FROMFROMFROM = { lower_tier_than = DUKE }
				FROMFROM = {
					demesne_size = 2
					NOT = { character = ROOT }
				}	
			}
		}
	}
	retract_vassal_interaction = {
		custom_tooltip = {
			text = pattern_pragmatist_dislike_nondejure_vassal_custom_tooltip
			hidden_tooltip = {
				FROMFROMFROM = {
					NOT = { de_jure_liege_or_above = ROOT_FROMFROM }
				}
			}
		}
	}
	transfer_vassal_interaction = {
		OR = {
			custom_tooltip = {
				text = pattern_pragmatist_like_dejure_vassal_custom_tooltip
				hidden_tooltip = {
					FROMFROMFROM = {
						de_jure_liege_or_above = ROOT_FROMFROM
					}
				}
			}
			custom_tooltip = {
				text = pattern_over_vassal_limit_custom_tooltip
				hidden_tooltip = {
					FROM = { over_vassal_limit = 1 }
				}
			}
		}	
	}
	ransom_character_interaction = {
		custom_tooltip = {
			text = pattern_pragmatist_need_the_ransom_cash_tooltip
			hidden_tooltip = {
				OR = {
					FROMFROM = {
						reverse_opinion = { who = ROOT value = 0 }
					}
					AND = {
						FROM = { 
							OR = {
								NOT = { wealth = 0 } 
								has_character_modifier = loan_timer
							}	
						}
						FROMFROM = {
							reverse_opinion = { who = ROOT value = -39 }
						}
					}				
				}	
			}
		}
	}
	ransom_all = {
		custom_tooltip = {
			text = pattern_pragmatist_need_the_ransom_cash_tooltip
			hidden_tooltip = {
				FROM = { 
					OR = {
						NOT = { wealth = 0 } 
						has_character_modifier = loan_timer
					}	
				}
			}
		}
	}
	assign_voter_title_interaction = {
		#OR = {
			custom_tooltip = {
				text = pattern_pragmatist_good_councillor_tooltip
				hidden_tooltip = {
					FROMFROM = {
						reverse_opinion = { who = ROOT value = 0 }
						OR = {
							stewardship = 12
							diplomacy = 12
							martial = 12
							intrigue = 12
						}
					}
				}
			}
		#}	
	}
	revoke_voter_title_interaction = {
		#OR = {
			custom_tooltip = {
				text = pattern_pragmatist_bad_councillor_tooltip
				hidden_tooltip = {
					FROMFROM = {
						NOT = { reverse_opinion = { who = ROOT value = 0 } }
						NOR = {
							stewardship = 8
							diplomacy = 8
							martial = 8
							intrigue = 8
							trait = maester
							trait = archmaester
						}
					}
				}
			}
		#}	
	}
	seek_raiding_redress = {
		custom_tooltip = {
			text = pattern_pragmatist_weak_opponent_custom_tooltip
			hidden_tooltip = {
				# Attacking a weak opponent for land
				liege = { # Attacker
					relative_power_including_allies_attacker = {
						who = ROOT_FROMFROMFROM # Defender
						power = 1.3
					}
				}
			}
		}
		NOT = {
			custom_tooltip = {
				text = pattern_pragmatist_were_not_already_busy_fighting_tooltip
				hidden_tooltip = {
					liege = {
						OR = {
							is_primary_war_attacker = yes
							is_primary_war_defender = yes
						}
					}
				}
			}
		}
	}
	demand_return_of_valyrian_steel = {
		custom_tooltip = {
			text = pattern_pragmatist_weak_opponent_custom_tooltip
			hidden_tooltip = {
				# Attacking a weak opponent for land
				liege = { # Attacker
					relative_power_including_allies_attacker = {
						who = ROOT_FROMFROMFROM # Defender
						power = 1.3
					}
				}
			}
		}
		NOT = {
			custom_tooltip = {
				text = pattern_pragmatist_were_not_already_busy_fighting_tooltip
				hidden_tooltip = {
					liege = {
						OR = {
							is_primary_war_attacker = yes
							is_primary_war_defender = yes
						}
					}
				}
			}
		}
	}
	declare_feud = {
		custom_tooltip = {
			text = pattern_pragmatist_weak_opponent_custom_tooltip
			hidden_tooltip = {
				# Attacking a weak opponent for land
				liege = { # Attacker
					relative_power_including_allies_attacker = {
						who = ROOT_FROMFROMFROM # Defender
						power = 1.3
					}
				}
			}
		}
		NOT = {
			custom_tooltip = {
				text = pattern_pragmatist_were_not_already_busy_fighting_tooltip
				hidden_tooltip = {
					liege = {
						OR = {
							is_primary_war_attacker = yes
							is_primary_war_defender = yes
						}
					}
				}
			}
		}
	}
	break_non_aggression_pact = {
		custom_tooltip = {
			text = pattern_pragmatist_weak_opponent_custom_tooltip
			hidden_tooltip = {
				# Attacking a weak opponent for land
				FROM = { # Attacker
					relative_power_including_allies_attacker = {
						who = ROOT_FROMFROMFROM # Defender
						power = 1.3
					}
				}	
			}
		}
	}
	dissolve_alliance_interaction = {
		custom_tooltip = {
			text = pattern_pragmatist_weak_opponent_custom_tooltip
			hidden_tooltip = {
				# Attacking a weak opponent for land
				FROM = { # Attacker
					relative_power_including_allies_attacker = {
						who = ROOT_FROMFROMFROM # Defender
						power = 1.3
					}
				}	
			}
		}
	}
	form_non_aggression_pact_interaction = {
		custom_tooltip = {
			text = pattern_pragmatist_strong_opponent_custom_tooltip
			hidden_tooltip = {
				NOT = { # Attacking a strong opponent risking the safety of the realm
					FROM = { # Attacker
						relative_power_including_allies_attacker = {
							who = ROOT_FROMFROMFROM # Defender
							power = 0.75
						}
					}
				}
			}
		}
	}
	form_alliance_interaction = {
		custom_tooltip = {
			text = pattern_pragmatist_strong_opponent_custom_tooltip
			hidden_tooltip = {
				NOT = { # Attacking a strong opponent risking the safety of the realm
					FROM = { # Attacker
						relative_power_including_allies_attacker = {
							who = ROOT_FROMFROMFROM # Defender
							power = 0.75
						}
					}
				}
			}
		}
	}
	
	investiture_law_0 = { 
		opinion = {
			who = liege
			value = 20
		}
	}
	investiture_law_1 = { 
		opinion = {
			who = liege
			value = 20
		} 
	}
	investiture_law_2 = { 
		opinion = {
			who = liege
			value = 20
		}
	}
	investiture_law_3 = { 
		opinion = {
			who = liege
			value = 20
		}
	}
}


pragmatist_pattern_against = {
	icon = 6
	pattern_type = against
	
	declare_war_interaction = {
		OR = {
			custom_tooltip = {
				text = pattern_pragmatist_were_already_busy_fighting_tooltip
				hidden_tooltip = {
					liege = {
						OR = {
							is_primary_war_attacker = yes
							is_primary_war_defender = yes
						}
					}
				}
			}
			custom_tooltip = {
				text = pattern_pragmatist_strong_opponent_custom_tooltip
				hidden_tooltip = {
					NOT = { # Attacking a strong opponent risking the safety of the realm
						FROM = { # Attacker
							relative_power_including_allies_attacker = {
								who = ROOT_FROMFROM # Defender
								power = 1
							}
						}
					}
				}
			}
		}
	}
	ask_to_embargo = {
		OR = {
			custom_tooltip = {
				text = pattern_pragmatist_were_already_busy_fighting_tooltip
				hidden_tooltip = {
					liege = {
						OR = {
							is_primary_war_attacker = yes
							is_primary_war_defender = yes
						}
					}
				}
			}
			custom_tooltip = {
				text = pattern_pragmatist_strong_opponent_custom_tooltip
				hidden_tooltip = {
					NOR = { # Attacking a strong opponent risking the safety of the realm
						FROM = { # Liege
							relative_power = {
								who = ROOT_FROMFROMFROMFROM # Defender
								power = 1
							}
						}
						FROMFROM = { # Attacker
							relative_power_including_allies_attacker = {
								who = ROOT_FROMFROMFROMFROM # Defender
								power = 1
							}
						}
					}
				}
			}
		}
	}
	
	# ROOT - Voter, FROM - Actor, FROMFROM - Recipient, FROMFROMFROM - Revoked title.
	grant_landed_title_interaction = {
		hidden_tooltip = { NOT = { character = FROMFROM } }
		OR = {
			custom_tooltip = {
				text = pattern_pragmatist_dislike_large_demesne_custom_tooltip
				hidden_tooltip = {
					FROMFROMFROM = { lower_tier_than = DUKE }
					FROMFROM = {
						demesne_size = 2
						NOT = { character = ROOT }
					}
				}
			}
			custom_tooltip = {
				text = pattern_independent_title_grant_custom_tooltip
				hidden_tooltip = {
					FROMFROMFROM = {
						tier = ROOT_FROM
					}
					FROMFROM = {
						de_jure_liege_or_above = ROOT_FROM
					}
				}
			}	
		}	
	}
	retract_vassal_interaction = {
		OR = {
			custom_tooltip = {
				text = pattern_pragmatist_wary_of_large_vassal_custom_tooltip
				hidden_tooltip = {
					FROMFROM = {
						OR = {
							AND = {
								among_most_powerful_vassals = 3
								relative_power_to_liege = 0.15
							}	
							relative_power_to_liege = 0.3
						}
						NAND = {
							prisoner = yes
							host = { character = ROOT_FROM }
						}
					}
				}
			}
			custom_tooltip = {
				text = pattern_selfish_affects_council_stability_tooltip
				hidden_tooltip = {
					FROMFROM = {
						is_voter = yes
						same_liege = ROOT
						reverse_opinion = { who = ROOT value = -19 }
					}
				}
			}
		}	
	}
	transfer_vassal_interaction = {
		hidden_tooltip = { NOT = { character = FROMFROMFROM } }
		custom_tooltip = {
			text = pattern_pragmatist_keep_dejure_vassal_custom_tooltip
			hidden_tooltip = {
				FROMFROMFROM = {
					NOT = { de_jure_liege_or_above = ROOT_FROMFROM }
					any_demesne_title = { dejure_liege_title = { holder = ROOT_FROM } }
				}
				FROM = { NOT = { over_vassal_limit = 5 } }
			}
		}
	}
	revoke_title_interaction = {
		OR = {
			custom_tooltip = {
				text = pattern_pragmatist_wary_of_large_vassal_custom_tooltip
				hidden_tooltip = {
					FROMFROM = {
						liege = { character = ROOT_FROM }
						OR = {
							AND = {
								among_most_powerful_vassals = 3
								relative_power_to_liege = 0.15
							}	
							relative_power_to_liege = 0.3
						}
						NAND = {
							prisoner = yes
							host = { character = ROOT_FROM }
						}
					}
				}
			}
			custom_tooltip = {
				text = pattern_selfish_affects_council_stability_tooltip
				hidden_tooltip = {
					FROMFROM = {
						is_voter = yes
						same_liege = ROOT
						reverse_opinion = { who = ROOT value = -19 }
					}
				}
			}
		}	
	}
	imprison_character_interaction = {
		OR = {
			custom_tooltip = {
				text = pattern_pragmatist_wary_of_large_vassal_custom_tooltip
				hidden_tooltip = {
					FROMFROM = {
						is_ruler = yes
						liege = { character = ROOT_FROM }
						OR = {
							AND = {
								among_most_powerful_vassals = 3
								relative_power_to_liege = 0.15
							}	
							relative_power_to_liege = 0.3
						}
					}
				}
			}
			custom_tooltip = {
				text = pattern_selfish_affects_council_stability_tooltip
				hidden_tooltip = {
					FROMFROM = {
						is_voter = yes
						same_liege = ROOT
						reverse_opinion = { who = ROOT value = -19 }
					}
				}
			}
		}	
	}
	release_vassal_interaction = {
		OR = {
			custom_tooltip = {
				text = pattern_pragmatist_rightful_dejure_lord_custom_tooltip
				hidden_tooltip = {
					FROMFROM = {
						de_jure_liege_or_above = ROOT_FROM
					}
				}
			}	
			custom_tooltip = {
				text = pattern_pragmatist_ruler_weak_culturereligion_custom_tooltip
				hidden_tooltip = {
					FROMFROM = {
						NOT = {
							relative_power = {
								who = ROOT_FROM
								power = 0.5
							}
						}
						OR = {
							culture_group = ROOT
							religion = ROOT
						}	
					}
				}
			}
		}
	}
	assign_voter_title_interaction = {
		#OR = {
			custom_tooltip = {
				text = pattern_pragmatist_bad_councillor_tooltip
				hidden_tooltip = {
					FROMFROM = {
						NOR = {
							stewardship = 8
							diplomacy = 8
							martial = 8
							intrigue = 8
							trait = maester
							trait = archmaester
						}
					}
				}
			}
		#}	
	}
	revoke_voter_title_interaction = {
		#OR = {
			custom_tooltip = {
				text = pattern_pragmatist_good_councillor_tooltip
				hidden_tooltip = {
					FROMFROM = {
						reverse_opinion = { who = ROOT value = 0 }
						OR = {
							stewardship = 12
							diplomacy = 12
							martial = 12
							intrigue = 12
						}
					}
				}
			}
		#}	
	}
	absorb_clan_interaction = {
		OR = {
			custom_tooltip = {
				text = pattern_pragmatist_wary_of_large_vassal_custom_tooltip
				hidden_tooltip = {
					FROMFROM = {
						liege = { character = ROOT_FROM }
						OR = {
							AND = {
								among_most_powerful_vassals = 3
								relative_power_to_liege = 0.15
							}	
							relative_power_to_liege = 0.3
						}
						NAND = {
							prisoner = yes
							host = { character = ROOT_FROM }
						}
					}
				}
			}
			custom_tooltip = {
				text = pattern_selfish_affects_council_stability_tooltip
				hidden_tooltip = {
					FROMFROM = {
						is_voter = yes
						same_liege = ROOT
						reverse_opinion = { who = ROOT value = -19 }
					}
				}
			}
			custom_tooltip = {
				text = pattern_pragmatist_too_much_clan_land_tooltip
				hidden_tooltip = {
					FROM = { risks_minor_clan_rising = yes }
				}
			}
			
		}	
	}
	revoke_royal_privilege = {
		OR = {
			custom_tooltip = {
				text = pattern_pragmatist_wary_of_large_vassal_custom_tooltip
				hidden_tooltip = {
					FROMFROMFROM = {
						liege = { character = ROOT_FROM }
						OR = {
							AND = {
								among_most_powerful_vassals = 3
								relative_power_to_liege = 0.15
							}	
							relative_power_to_liege = 0.3
						}
						NAND = {
							prisoner = yes
							host = { character = ROOT_FROM }
						}
					}
				}
			}
			custom_tooltip = {
				text = pattern_selfish_affects_council_stability_tooltip
				hidden_tooltip = {
					FROMFROMFROM = {
						is_voter = yes
						same_liege = ROOT
						reverse_opinion = { who = ROOT value = -19 }
					}
				}
			}
		}	
	}
	seek_raiding_redress = {
		OR = {
			custom_tooltip = {
				text = pattern_pragmatist_were_already_busy_fighting_tooltip
				hidden_tooltip = {
					liege = {
						OR = {
							is_primary_war_attacker = yes
							is_primary_war_defender = yes
						}
					}
				}
			}
			custom_tooltip = {
				text = pattern_pragmatist_strong_opponent_custom_tooltip
				hidden_tooltip = {
					NOT = { # Attacking a strong opponent risking the safety of the realm
						FROM = { # Attacker
							relative_power_including_allies_attacker = {
								who = ROOT_FROMFROMFROM # Defender
								power = 0.75
							}
						}
					}
				}
			}
		}
	}
	demand_return_of_valyrian_steel = {
		OR = {
			custom_tooltip = {
				text = pattern_pragmatist_were_already_busy_fighting_tooltip
				hidden_tooltip = {
					liege = {
						OR = {
							is_primary_war_attacker = yes
							is_primary_war_defender = yes
						}
					}
				}
			}
			custom_tooltip = {
				text = pattern_pragmatist_strong_opponent_custom_tooltip
				hidden_tooltip = {
					NOT = { # Attacking a strong opponent risking the safety of the realm
						FROM = { # Attacker
							relative_power_including_allies_attacker = {
								who = ROOT_FROMFROMFROM # Defender
								power = 0.75
							}
						}
					}
				}
			}
			custom_tooltip = {
				text = pattern_pragmatist_valyrian_steel_war_pointless_tooltip
				hidden_tooltip = {
					trait = cynical
				}
			}
		}
	}
	declare_feud = {
		OR = {
			custom_tooltip = {
				text = pattern_pragmatist_were_already_busy_fighting_tooltip
				hidden_tooltip = {
					liege = {
						OR = {
							is_primary_war_attacker = yes
							is_primary_war_defender = yes
						}
					}
				}
			}
			custom_tooltip = {
				text = pattern_pragmatist_strong_opponent_custom_tooltip
				hidden_tooltip = {
					NOT = { # Attacking a strong opponent risking the safety of the realm
						FROM = { # Attacker
							relative_power_including_allies_attacker = {
								who = ROOT_FROMFROMFROM # Defender
								power = 0.75
							}
						}
					}
				}
			}
		}
	}
	insult_character = {
		custom_tooltip = {
			text = pattern_pragmatist_strong_opponent_custom_tooltip
			hidden_tooltip = {
				NOT = { # Attacking a strong opponent risking the safety of the realm
					FROM = { # Attacker
						relative_power_including_allies_attacker = {
							who = ROOT_FROMFROMFROM # Defender
							power = 0.75
						}
					}
				}
			}
		}
	}
	NW_grant_command = {
		hidden_tooltip = { NOT = { character = FROMFROMFROM } }
		custom_tooltip = {
			text = pattern_pragmatist_dislike_large_demesne_custom_tooltip
			hidden_tooltip = {
				FROMFROM = {
					demesne_size = 2
					NOT = { character = ROOT }
				}
			}
		}	
	}
	break_non_aggression_pact = {
		custom_tooltip = {
			text = pattern_pragmatist_strong_opponent_custom_tooltip
			hidden_tooltip = {
				NOT = { # Attacking a strong opponent risking the safety of the realm
					FROM = { # Attacker
						relative_power_including_allies_attacker = {
							who = ROOT_FROMFROMFROM # Defender
							power = 0.75
						}
					}
				}
			}
		}
	}
	dissolve_alliance_interaction = {
		custom_tooltip = {
			text = pattern_pragmatist_strong_opponent_custom_tooltip
			hidden_tooltip = {
				NOT = { # Attacking a strong opponent risking the safety of the realm
					FROM = { # Attacker
						relative_power_including_allies_attacker = {
							who = ROOT_FROMFROMFROM # Defender
							power = 0.75
						}
					}
				}
			}
		}
	}
	
	# investiture_law_0 = { 
	# }
	# investiture_law_1 = { 
	# }
	# investiture_law_2 = { 
	# }
	# investiture_law_3 = { 
	# }
}
