selfish_pattern_for = {
	icon = 9
	pattern_type = for
	
	declare_war_interaction = {
	# Councillor might gain a title
		custom_tooltip = {
			text = pattern_selfish_gain_title_custom_tooltip
			hidden_tooltip = {
				FROMFROMFROM = { # Gainer
					character = ROOT
				}	
			}
		}
	}
	ask_to_embargo = {
	# Councillor might gain a title
		custom_tooltip = {
			text = pattern_selfish_patrician_embargo_custom_tooltip
			hidden_tooltip = {
				is_patrician = yes
			}
		}
	}
	
	grant_landed_title_interaction = {
		custom_tooltip = {
			text = pattern_selfish_gain_title_custom_tooltip
			hidden_tooltip = {
				character = FROMFROM
			}
		}
	}
	grant_lp = {
		custom_tooltip = {
			text = pattern_selfish_gain_title_custom_tooltip
			hidden_tooltip = {
				character = FROMFROMFROM
			}
		}
	}
	grant_lp_landless = {
		custom_tooltip = {
			text = pattern_selfish_gain_title_custom_tooltip
			hidden_tooltip = {
				character = FROMFROMFROM
			}
		}
	}
	nominate_prince = {
		custom_tooltip = {
			text = pattern_selfish_gain_title_custom_tooltip
			hidden_tooltip = {
				character = FROMFROMFROM
			}
		}
	}
	transfer_vassal_interaction = {
		custom_tooltip = {
			text = pattern_selfish_gain_title_custom_tooltip
			hidden_tooltip = {
				character = FROMFROM
			}
		}
	}
	release_vassal_interaction = {
		custom_tooltip = {
			text = pattern_selfish_indepedence_custom_tooltip
			hidden_tooltip = {
				FROMFROM = {
					character = ROOT
					in_faction = faction_independence
				}
			}
		}
	}
	assign_voter_title_interaction = {
		OR = {
			custom_tooltip = {
				text = pattern_selfish_gain_title_custom_tooltip
				hidden_tooltip = {
					character = FROMFROM
				}
			}
			custom_tooltip = {
				text = pattern_selfish_need_maester_custom_tooltip
				hidden_tooltip = {
					FROM = {
						OR = {
							AND = {
								NOT = { has_landed_title = e_iron_throne }
								ROOT_FROMFROM = { trait = maester }
							}	
							AND = { #Iron Throne employs Grand Maester
								has_landed_title = e_iron_throne
								ROOT_FROMFROM = { 
									trait = archmaester
									has_character_flag = grandmaester
								}
							}
						}
						OR = {
							AND = {
								culture_group = andal
								NOT = { culture = old_andal }
							}	
							culture_group = iron_isles_culture
							AND = {
								culture_group = dornish
								NOT = { culture = rhoynar }
							}	
							culture = high_valyrian
							culture = western_valyrian
							AND = {
								culture_group = first_men
								NOT = { culture = moon_clansman }
							}
							culture_group = first_men
							culture = skagosi
							trait = wildling
						}						
					}
				}
			}
		}	
	}
	grant_royal_privilege = {
		custom_tooltip = {
			text = pattern_selfish_gain_title_custom_tooltip
			hidden_tooltip = {
				character = FROMFROMFROM
			}
		}
	}
	NW_grant_command = {
		custom_tooltip = {
			text = pattern_selfish_gain_title_custom_tooltip
			hidden_tooltip = {
				character = FROMFROMFROM
			}
		}
	}
	name_co_triarch_for_life = {
		custom_tooltip = {
			text = pattern_selfish_gain_title_custom_tooltip
			hidden_tooltip = {
				character = FROMFROMFROM
			}
		}
	}
	form_non_aggression_pact_interaction = {
		custom_tooltip = {
			text = pattern_selfish_gain_title_custom_tooltip
			hidden_tooltip = {
				character = FROMFROM
			}
		}
	}
	form_alliance_interaction = {
		custom_tooltip = {
			text = pattern_selfish_gain_title_custom_tooltip
			hidden_tooltip = {
				character = FROMFROM
			}
		}
	}
	# enforce_peace = {
		# OR = {
			# custom_tooltip = {
				# text = pattern_selfish_save_my_hide_custom_tooltip
				# hidden_tooltip = {
					# any_war = {
						# defender = {
							# OR = {
								# character = ROOT
								# is_allied_with = ROOT
							# }
						# }
						# attacker = {
							# is_liege_or_above = FROM
						# }
						# OR = {
							# war_score = -5
							# defender = {
								# attacker = {
									# relative_power_including_allies_attacker = {
										# who = PREV # Defender
										# power = 1.0
									# }
								# }
							# }
						# }
					# }
				# }
			# }

			# custom_tooltip = {
				# text = pattern_selfish_save_ally_custom_tooltip
				# hidden_tooltip = {
					# any_allied_character = {
						# any_war = {
							# defender = {
								# is_allied_with = ROOT
							# }
							# attacker = {
								# is_liege_or_above = FROM
							# }
							# OR = {
								# war_score = -5
								# defender = {
									# attacker = {
										# relative_power_including_allies_attacker = {
											# who = PREV # Defender
											# power = 1.0
										# }
									# }
								# }
							# }
						# }
					# }	
				# }
			# }
		# }
	# }
}

selfish_pattern_against = {
	icon = 10
	pattern_type = against
	
	declare_war_interaction = {
	# Councillor might lose a title
		custom_tooltip = {
			text = pattern_selfish_lose_title_custom_tooltip
			hidden_tooltip = {
				OR = {
					FROMFROM = { # Defender
						character = ROOT
					}
					AND = {
						FROMFROMFROMFROM = { # Thirdparty_title
							holder_scope = {
								character = ROOT
								is_liege_or_above = ROOT_FROMFROM
							}
						}
					}
				}
			}
		}
	}
	
	# ROOT - Voter, FROM - Actor, FROMFROM - Recipient, FROMFROMFROM - Revoked title.
	revoke_title_interaction = {
		custom_tooltip = {
			text = pattern_selfish_lose_title_custom_tooltip
			hidden_tooltip = {
				character = FROMFROM	
			}
		}
	}
	imprison_character_interaction = {
		OR = {
			custom_tooltip = {
				text = pattern_selfish_affects_me_custom_tooltip
				hidden_tooltip = {
					character = FROMFROM
				}
			}
			custom_tooltip = {
				text = pattern_selfish_my_supported_claimant_custom_tooltip
				hidden_tooltip = {
					OR = {
						AND = {
							OR = {
								leads_faction = faction_claimant
								in_faction = faction_claimant
							}
							supported_claimant = { character = FROMFROM }
						}
						AND = {
							OR = {
								leads_faction = faction_depose_liege
								in_faction = faction_depose_liege
							}
							FROM = { current_heir = { character = ROOT_FROMFROM } }
						}
					}	
				}
			}
		}	
	}
	retract_vassal_interaction = {
		custom_tooltip = {
			text = pattern_selfish_lose_title_custom_tooltip
			hidden_tooltip = {
				character = FROMFROM	
			}
		}
	}
	# ROOT - Voter, FROM - Actor, FROMFROM - Recipient, FROMFROMFROM - Granted title.
	grant_landed_title_interaction = {
		hidden_tooltip = { NOT = { character = FROMFROM } }
		OR = {
			custom_tooltip = {
				text = pattern_i_am_unlanded_custom_tooltip
				hidden_tooltip = {			
					AND = {
						is_landed = no							
						liege = { 
							is_nomadic = no
							NOT = { over_max_demesne_size = 2 }
						}						
						can_press_claims_trigger = yes
						OR = {
							is_female = no
							liege = {
								primary_title = {
									OR = {
										has_law = enatic_cognatic_succession
										has_law = enatic_succession
									}
								}
							}
							liege = { #Females must be blood relatives to ask for titles under true cognatic
								dynasty = ROOT
								primary_title = { has_law = true_cognatic_succession }
							}
						}
						OR = {
							is_female = yes
							liege = {
								primary_title = {
									OR = {
										has_law = cognatic_succession
										has_law = agnatic_succession
										has_law = true_cognatic_succession
									}
								}
							}
						}
					}	
					OR = { #If I don't have a claim, Recipient must be unrelated to liege or already landed, and I must desire land
						has_claim = FROMFROMFROM
						AND = {
							FROMFROMFROM = { lower_tier_than = DUKE }
							FROMFROM = {
								OR = {
									is_landed = yes
									NOT = { is_close_relative = ROOT_FROM }
								}	
							}
							OR = {	
								has_ambition = obj_wants_landed_title
								trait = ambitious
								AND = {
									OR = {
										trait = proud
										trait = envious
										trait = greedy
									}	
									NOT = { trait = content }
								}
							}
						}
					}
					NAND = { #Only covet military commands if higher titles aren't realistic
						FROMFROMFROM = { has_title_flag = military_command }
						OR = {
							has_minor_title = title_regent
							has_job_title = job_castellan
							any_claim = { higher_tier_than = BARON }
							any_heir_title = { always = yes }
							father_even_if_dead = { higher_tier_than = COUNT }
							has_severe_disability_trigger = yes
						}
					}
				}
			}
			custom_tooltip = {
				text = pattern_I_have_a_claim_custom_tooltip
				hidden_tooltip = {
					has_claim = FROMFROMFROM
					is_ruler = yes
					NOT = { trait = kingsguard }
					NOT = { trait = nightswatch }
				}	
			}	
			FROMFROMFROM = {
				OR = {
					custom_tooltip = {
						text = pattern_my_de_jure_title_custom_tooltip
						hidden_tooltip = {
							any_direct_de_jure_vassal_title = {
								holder_scope = { character = ROOT }
							}	
						}
					}
					custom_tooltip = {
						text = pattern_i_desire_this_title_custom_tooltip
						hidden_tooltip = {
							any_de_jure_liege_title = {
								holder_scope = { character = ROOT }
							}	
						}
					}
				}
			}
		}
	}
	grant_lp = {
		hidden_tooltip = { NOT = { character = FROMFROMFROM } }
		OR = {
			custom_tooltip = {
				text = pattern_I_have_a_claim_custom_tooltip
				hidden_tooltip = {
					FROMFROMFROM = { capital_scope = { kingdom = { ROOT = { has_claim = PREV } } } }
					is_ruler = yes
					NOT = { trait = kingsguard }
					NOT = { trait = nightswatch }
				}	
			}
			FROMFROMFROM = {
				capital_scope = {
					kingdom = {
						OR = {
							custom_tooltip = {
								text = pattern_my_de_jure_title_custom_tooltip
								hidden_tooltip = {
									any_direct_de_jure_vassal_title = {
										holder_scope = { character = ROOT }
									}	
								}
							}
							custom_tooltip = {
								text = pattern_i_desire_this_title_custom_tooltip
								hidden_tooltip = {
									any_de_jure_liege_title = {
										holder_scope = { character = ROOT }
									}	
								}
							}
						}
					}
				}	
			}
		}	
	}
	# grant_lp_landless = {
		# hidden_tooltip = { NOT = { character = FROMFROMFROM } }
		# OR = {
			# custom_tooltip = {
				# text = pattern_I_have_a_claim_custom_tooltip
				# hidden_tooltip = {
					# FROMFROMFROM = { capital_scope = { kingdom = { ROOT = { has_claim = PREV } } } }
					# is_ruler = yes
					# NOT = { trait = kingsguard }
					# NOT = { trait = nightswatch }
				# }	
			# }
			# FROMFROMFROM = {
				# capital_scope = {
					# kingdom = {
						# OR = {
							# custom_tooltip = {
								# text = pattern_my_de_jure_title_custom_tooltip
								# hidden_tooltip = {
									# any_direct_de_jure_vassal_title = {
										# holder_scope = { character = ROOT }
									# }	
								# }
							# }
							# custom_tooltip = {
								# text = pattern_i_desire_this_title_custom_tooltip
								# hidden_tooltip = {
									# any_de_jure_liege_title = {
										# holder_scope = { character = ROOT }
									# }	
								# }
							# }
						# }
					# }
				# }	
			# }
		# }
	# }
	NW_grant_command = {
		hidden_tooltip = { NOT = { character = FROMFROMFROM } }
		custom_tooltip = {
			text = pattern_i_am_unlanded_custom_tooltip
			hidden_tooltip = {			
				is_landed = no							
				liege = { 
					is_nomadic = no
					NOT = { over_max_demesne_size = 2 }
				}	
				trait = nightswatch
				NOR = {
					trait = maester
					trait = archmaester
					has_priest_trait_trigger = yes
				}	
				#I must desire land
				OR = {
					has_ambition = obj_wants_landed_title
					trait = ambitious
					AND = {
						OR = {
							trait = proud
							trait = envious
							trait = greedy
						}	
						NOT = { trait = content }
					}
				}	
			}
		}
	}
	
	transfer_vassal_interaction = {
		hidden_tooltip = { NOT = { character = FROMFROM } }
		custom_tooltip = {
			text = pattern_selfish_vassal_is_mine_custom_tooltip
			hidden_tooltip = {
				is_ruler = yes
				FROMFROMFROM = {
					de_jure_liege_or_above = ROOT
				}
			}
		}
	}
	release_vassal_interaction = {
		custom_tooltip = {
			text = pattern_selfish_NO_independence_custom_tooltip
			hidden_tooltip = {
				character = FROMFROM
				NOT = { in_faction = faction_independence }
				opinion = { who = FROM value = -30 }
				OR = {
					de_jure_liege_or_above = FROM
					culture_group = FROM
					religion = FROM
				}
			}
		}
	}
	# ROOT - Voter, FROM - Actor, FROMFROM - Recipient
	exile_imprisoned_interaction = {
		custom_tooltip = {
			text = pattern_selfish_affects_me_custom_tooltip
			hidden_tooltip = {
				character = FROMFROM
			}
		}
	}
	# ROOT - Voter, FROM - Actor, FROMFROM - Recipient
	execute_decision = {
		custom_tooltip = {
			text = pattern_selfish_affects_me_custom_tooltip
			hidden_tooltip = {
				character = FROMFROMFROM
			}
		}
	}
	revoke_voter_title_interaction = {
		custom_tooltip = {
			text = pattern_selfish_lose_title_custom_tooltip
			hidden_tooltip = {
				character = FROMFROM	
			}
		}
	}
	absorb_clan_interaction = {
		custom_tooltip = {
			text = pattern_selfish_lose_title_custom_tooltip
			hidden_tooltip = {
				character = FROMFROM	
			}
		}
	}
	grant_royal_privilege = {
		custom_tooltip = {
			text = pattern_selfish_royal_privilege_tooltip
			hidden_tooltip = {
				NOT = { character = FROMFROMFROM }
				any_demesne_title = {
					tier = KING
					controls_religion = no
					is_landless_type_title = no
					NOT = { has_law = privilege_vassal_king }
					is_variable_equal = { which = "lord_paramount_status" value = 1 } #1 = lord paramount, 2 = interregnum
				}
			}
		}
	}
	revoke_royal_privilege = {
		custom_tooltip = {
			text = pattern_selfish_lose_title_custom_tooltip
			hidden_tooltip = {
				character = FROMFROMFROM	
			}
		}
	}
	declare_feud = {
		custom_tooltip = {
			text = pattern_selfish_affects_me_custom_tooltip
			hidden_tooltip = {
				character = FROMFROMFROM
			}
		}
	}
	insult_character = {
		custom_tooltip = {
			text = pattern_selfish_affects_me_custom_tooltip
			hidden_tooltip = {
				character = FROMFROMFROM
			}
		}
	}
	break_non_aggression_pact = {
		custom_tooltip = {
			text = pattern_selfish_affects_me_custom_tooltip
			hidden_tooltip = {
				character = FROMFROMFROM
			}
		}
	}
	dissolve_alliance_interaction = {
		custom_tooltip = {
			text = pattern_selfish_affects_me_custom_tooltip
			hidden_tooltip = {
				character = FROMFROMFROM
			}
		}
	}
	demand_return_of_valyrian_steel = {
		custom_tooltip = {
			text = pattern_selfish_affects_me_custom_tooltip
			hidden_tooltip = {
				character = FROMFROMFROM
			}
		}
	}
	# ROOT - Voter, FROM = Liege, FROMFROM = Vote Starter
	# enforce_peace = {
		# OR = {
			# custom_tooltip = {
				# text = pattern_selfish_i_am_winning_custom_tooltip
				# hidden_tooltip = {
					# any_war = {
						# attacker = {
							# OR = {
								# character = ROOT
								# is_allied_with = ROOT
							# }
						# }
						# defender = {
							# is_liege_or_above = FROM
						# }
						# OR = {
							# war_score = 5
							# defender = {
								# attacker = {
									# relative_power_including_allies_attacker = {
										# who = PREV # Defender
										# power = 1.0
									# }
								# }
							# }
						# }
					# }	
				# }
			# }
			
			# custom_tooltip = {
				# text = pattern_selfish_ally_is_winning_custom_tooltip
				# hidden_tooltip = {
						# any_allied_character = {
						# any_war = {
							# attacker = {
								# is_allied_with = ROOT
							# }
							# defender = {
								# is_liege_or_above = FROM
							# }
							# OR = {
								# war_score = 5
								# defender = {
									# attacker = {
										# relative_power_including_allies_attacker = {
											# who = PREV # Defender
											# power = 1.0
										# }
									# }
								# }
							# }
						# }
					# }
				# }
			# }
		# }
	# }
}