name = "MERGED A Game of Thrones"
path = "mod/Merged AGOT"
user_dir = "A Game of Thrones"

replace_path = "history/characters"
replace_path = "history/diplomacy"
replace_path = "history/provinces"
replace_path = "history/titles"
replace_path = "history/wars"
replace_path = "history/technology"
replace_path = "history/eu4_converter"
replace_path = "history/offmap_powers"
replace_path = "common/alternate_start"
replace_path = "common/artifact_spawns"
replace_path = "common/artifacts"
replace_path = "common/bloodlines"
replace_path = "common/bookmarks"
replace_path = "common/buildings"
replace_path = "common/cb_types"
replace_path = "common/combat_tactics"
replace_path = "common/council_positions"
replace_path = "common/council_voting"
replace_path = "common/cultures"
replace_path = "common/death"
replace_path = "common/death_text"
replace_path = "common/disease"
replace_path = "common/dynasties"
replace_path = "common/event_modifiers"
replace_path = "common/execution_methods"
replace_path = "common/game_rules"
replace_path = "common/government_flavor"
replace_path = "common/governments"
replace_path = "common/graphicalculturetypes"
replace_path = "common/heir_text"
replace_path = "common/holding_types"
replace_path = "common/job_actions"
replace_path = "common/job_titles"
replace_path = "common/landed_titles"
replace_path = "common/laws"
replace_path = "common/mercenaries"
replace_path = "common/minor_titles"
replace_path = "common/modifier_definitions"
replace_path = "common/nicknames"
replace_path = "common/objectives"
replace_path = "common/offmap_powers"
replace_path = "common/on_actions"
replace_path = "common/opinion_modifiers"
replace_path = "common/province_setup"
replace_path = "common/religion_features"
replace_path = "common/religion_modifiers"
replace_path = "common/religions"
replace_path = "common/religious_titles"
replace_path = "common/retinue_subunits"
replace_path = "common/save_conversion"
replace_path = "common/scripted_effects"
replace_path = "common/scripted_score_values"
replace_path = "common/scripted_triggers"
replace_path = "common/societies"
replace_path = "common/special_troops"
replace_path = "common/succession_voting"
replace_path = "common/trade_routes"
replace_path = "common/traits"
replace_path = "common/tributary_types"
replace_path = "common/triggered_modifiers"
replace_path = "common/wonders"
replace_path = "common/wonder_upgrades"
replace_path = "gfx/flags"
replace_path = "events"
replace_path = "decisions"
replace_path = "dlc_metadata"