##  House Ramesh
10055960 = {
	name="Danh"	# not a lord
	dynasty=55960

	religion="yiti_gods"
	culture="yi_ti"

	2958.1.1 = {birth="2958.1.1"}
	2974.1.1 = {add_trait=poor_warrior}
	2976.1.1 = {add_spouse=40055960}
	3031.1.1 = {death="3031.1.1"}
}
40055960 = {
	name="Hoa"
	female=yes

	religion="yiti_gods"
	culture="yi_ti"

	2958.1.1 = {birth="2958.1.1"}
	3031.1.1 = {death="3031.1.1"}
}
10155960 = {
	name="Mu"	# not a lord
	female=yes
	dynasty=55960

	religion="yiti_gods"
	culture="yi_ti"

	father=10055960
	mother=40055960

	2984.1.1 = {birth="2984.1.1"}
	3019.1.1 = {death="3019.1.1"}
}
10255960 = {
	name="Vien"	# a lord
	dynasty=55960

	religion="yiti_gods"
	culture="yi_ti"

	father=10055960
	mother=40055960

	2987.1.1 = {birth="2987.1.1"}
	3003.1.1 = {add_trait=poor_warrior}
	3005.1.1 = {add_spouse=40255960}
	3055.1.1 = {death="3055.1.1"}
}
40255960 = {
	name="Zu"
	female=yes

	religion="yiti_gods"
	culture="yi_ti"

	2987.1.1 = {birth="2987.1.1"}
	3055.1.1 = {death="3055.1.1"}
}
10355960 = {
	name="Kim Cuc"	# not a lord
	female=yes
	dynasty=55960

	religion="yiti_gods"
	culture="yi_ti"

	father=10055960
	mother=40055960

	2988.1.1 = {birth="2988.1.1"}
	3043.1.1 = {death="3043.1.1"}
}
10455960 = {
	name="Huan"	# not a lord
	dynasty=55960

	religion="yiti_gods"
	culture="yi_ti"

	father=10255960
	mother=40255960

	3009.1.1 = {birth="3009.1.1"}
	3025.1.1 = {add_trait=poor_warrior}
	3040.1.1 = {death="3040.1.1"}
}
10555960 = {
	name="Xhe"	# a lord
	dynasty=55960

	religion="yiti_gods"
	culture="yi_ti"

	father=10255960
	mother=40255960

	3012.1.1 = {birth="3012.1.1"}
	3028.1.1 = {add_trait=poor_warrior}
	3030.1.1 = {add_spouse=40555960}
	3070.1.1 = {death="3070.1.1"}
}
40555960 = {
	name="Chi"
	female=yes

	religion="yiti_gods"
	culture="yi_ti"

	3012.1.1 = {birth="3012.1.1"}
	3070.1.1 = {death="3070.1.1"}
}
10655960 = {
	name="Truc"	# not a lord
	dynasty=55960

	religion="yiti_gods"
	culture="yi_ti"

	father=10255960
	mother=40255960

	3013.1.1 = {birth="3013.1.1"}
	3029.1.1 = {add_trait=trained_warrior}
	3067.1.1 = {death="3067.1.1"}
}
10755960 = {
	name="Ming"	# not a lord
	female=yes
	dynasty=55960

	religion="yiti_gods"
	culture="yi_ti"

	father=10255960
	mother=40255960

	3014.1.1 = {birth="3014.1.1"}
	3063.1.1 = {death="3063.1.1"}
}
10855960 = {
	name="Xun"	# a lord
	dynasty=55960

	religion="yiti_gods"
	culture="yi_ti"

	father=10555960
	mother=40555960

	3044.1.1 = {birth="3044.1.1"}
	3060.1.1 = {add_trait=poor_warrior}
	3062.1.1 = {add_spouse=40855960}
	3091.1.1 = {death = {death_reason = death_murder}}
}
40855960 = {
	name="Ling"
	female=yes

	religion="yiti_gods"
	culture="yi_ti"

	3044.1.1 = {birth="3044.1.1"}
	3091.1.1 = {death="3091.1.1"}
}
10955960 = {
	name="Mai"	# not a lord
	female=yes
	dynasty=55960

	religion="yiti_gods"
	culture="yi_ti"

	father=10555960
	mother=40555960

	3047.1.1 = {birth="3047.1.1"}
	3092.1.1 = {death="3092.1.1"}
}
11055960 = {
	name="Vinh"	# not a lord
	dynasty=55960

	religion="yiti_gods"
	culture="yi_ti"

	father=10555960
	mother=40555960

	3049.1.1 = {birth="3049.1.1"}
	3065.1.1 = {add_trait=poor_warrior}
	3107.1.1 = {death="3107.1.1"}
}
11155960 = {
	name="Quan"	# a lord
	dynasty=55960

	religion="yiti_gods"
	culture="yi_ti"

	father=10855960
	mother=40855960

	3072.1.1 = {birth="3072.1.1"}
	3088.1.1 = {add_trait=trained_warrior}
	3090.1.1 = {add_spouse=41155960}
	3125.1.1 = {death="3125.1.1"}
}
41155960 = {
	name="Tu"
	female=yes

	religion="yiti_gods"
	culture="yi_ti"

	3072.1.1 = {birth="3072.1.1"}
	3125.1.1 = {death="3125.1.1"}
}
11255960 = {
	name="Sang"	# not a lord
	dynasty=55960

	religion="yiti_gods"
	culture="yi_ti"

	father=10855960
	mother=40855960

	3075.1.1 = {birth="3075.1.1"}
	3091.1.1 = {add_trait=skilled_warrior}
	3126.1.1 = {death="3126.1.1"}
}
11355960 = {
	name="Huan"	# a lord
	dynasty=55960

	religion="yiti_gods"
	culture="yi_ti"

	father=11155960
	mother=41155960

	3094.1.1 = {birth="3094.1.1"}
	3110.1.1 = {add_trait=skilled_warrior}
	3112.1.1 = {add_spouse=41355960}
	3131.1.1 = {death = {death_reason = death_execution}}
}
41355960 = {
	name="Hong"
	female=yes

	religion="yiti_gods"
	culture="yi_ti"

	3094.1.1 = {birth="3094.1.1"}
	3131.1.1 = {death="3131.1.1"}
}
11455960 = {
	name="Ba"	# not a lord
	dynasty=55960

	religion="yiti_gods"
	culture="yi_ti"

	father=11155960
	mother=41155960

	3097.1.1 = {birth="3097.1.1"}
	3113.1.1 = {add_trait=master_warrior}
	3124.1.1 = {death = {death_reason = death_murder}}
}
11555960 = {
	name="Hao"	# not a lord
	dynasty=55960

	religion="yiti_gods"
	culture="yi_ti"

	father=11155960
	mother=41155960

	3098.1.1 = {birth="3098.1.1"}
	3114.1.1 = {add_trait=poor_warrior}
	3153.1.1 = {death="3153.1.1"}
}
11655960 = {
	name="Thi"	# not a lord
	female=yes
	dynasty=55960

	religion="yiti_gods"
	culture="yi_ti"

	father=11355960
	mother=41355960

	3113.1.1 = {birth="3113.1.1"}
	3168.1.1 = {death="3168.1.1"}
}
11755960 = {
	name="Hong"	# not a lord
	female=yes
	dynasty=55960

	religion="yiti_gods"
	culture="yi_ti"

	father=11355960
	mother=41355960

	3114.1.1 = {birth="3114.1.1"}
	3149.1.1 = {death="3149.1.1"}
}
11855960 = {
	name="Chun"	# a lord
	dynasty=55960

	religion="yiti_gods"
	culture="yi_ti"

	father=11355960
	mother=41355960

	3115.1.1 = {birth="3115.1.1"}
	3131.1.1 = {add_trait=poor_warrior}
	3133.1.1 = {add_spouse=41855960}
	3142.1.1 = {death="3142.1.1"}
}
41855960 = {
	name="Cam"
	female=yes

	religion="yiti_gods"
	culture="yi_ti"

	3115.1.1 = {birth="3115.1.1"}
	3142.1.1 = {death="3142.1.1"}
}
11955960 = {
	name="Phong"	# not a lord
	dynasty=55960

	religion="yiti_gods"
	culture="yi_ti"

	father=11355960
	mother=41355960

	3118.1.1 = {birth="3118.1.1"}
	3134.1.1 = {add_trait=poor_warrior}
	3175.1.1 = {death="3175.1.1"}
}
12055960 = {
	name="Dai"	# a lord
	dynasty=55960

	religion="yiti_gods"
	culture="yi_ti"

	father=11855960
	mother=41855960

	3134.1.1 = {birth="3134.1.1"}
	3150.1.1 = {add_trait=poor_warrior}
	3152.1.1 = {add_spouse=42055960}
	3182.1.1 = {death="3182.1.1"}
}
42055960 = {
	name="Shi"
	female=yes

	religion="yiti_gods"
	culture="yi_ti"

	3134.1.1 = {birth="3134.1.1"}
	3182.1.1 = {death="3182.1.1"}
}
12155960 = {
	name="Chi"	# not a lord
	female=yes
	dynasty=55960

	religion="yiti_gods"
	culture="yi_ti"

	father=12055960
	mother=42055960

	3155.1.1 = {birth="3155.1.1"}
	3232.1.1 = {death="3232.1.1"}
}
12255960 = {
	name="Hai"	# a lord
	dynasty=55960

	religion="yiti_gods"
	culture="yi_ti"

	father=12055960
	mother=42055960

	3157.1.1 = {birth="3157.1.1"}
	3173.1.1 = {add_trait=skilled_warrior}
	3175.1.1 = {add_spouse=42255960}
	3235.1.1 = {death="3235.1.1"}
}
42255960 = {
	name="Chau"
	female=yes

	religion="yiti_gods"
	culture="yi_ti"

	3157.1.1 = {birth="3157.1.1"}
	3235.1.1 = {death="3235.1.1"}
}
12355960 = {
	name="Chinh"	# not a lord
	dynasty=55960

	religion="yiti_gods"
	culture="yi_ti"

	father=12055960
	mother=42055960

	3159.1.1 = {birth="3159.1.1"}
	3175.1.1 = {add_trait=poor_warrior}
	3232.1.1 = {death="3232.1.1"}
}
12455960 = {
	name="Quy"	# not a lord
	dynasty=55960

	religion="yiti_gods"
	culture="yi_ti"

	father=12055960
	mother=42055960

	3160.1.1 = {birth="3160.1.1"}
	3176.1.1 = {add_trait=skilled_warrior}
	3198.1.1 = {death="3198.1.1"}
}
12555960 = {
	name="Qi"	# not a lord
	female=yes
	dynasty=55960

	religion="yiti_gods"
	culture="yi_ti"

	father=12255960
	mother=42255960

	3178.1.1 = {birth="3178.1.1"}
	3239.1.1 = {death="3239.1.1"}
}
12655960 = {
	name="Shi"	# not a lord
	female=yes
	dynasty=55960

	religion="yiti_gods"
	culture="yi_ti"

	father=12255960
	mother=42255960

	3181.1.1 = {birth="3181.1.1"}
	3260.1.1 = {death="3260.1.1"}
}
12755960 = {
	name="Zuang"	# a lord
	dynasty=55960

	religion="yiti_gods"
	culture="yi_ti"

	father=12255960
	mother=42255960

	3184.1.1 = {birth="3184.1.1"}
	3200.1.1 = {add_trait=trained_warrior}
	3202.1.1 = {add_spouse=42755960}
	3238.1.1 = {death="3238.1.1"}
}
42755960 = {
	name="Thi"
	female=yes

	religion="yiti_gods"
	culture="yi_ti"

	3184.1.1 = {birth="3184.1.1"}
	3238.1.1 = {death="3238.1.1"}
}
12855960 = {
	name="Ngon"	# not a lord
	female=yes
	dynasty=55960

	religion="yiti_gods"
	culture="yi_ti"

	father=12255960
	mother=42255960

	3186.1.1 = {birth="3186.1.1"}
	3231.1.1 = {death="3231.1.1"}
}
12955960 = {
	name="Trai"	# a lord
	dynasty=55960

	religion="yiti_gods"
	culture="yi_ti"

	father=12755960
	mother=42755960

	3203.1.1 = {birth="3203.1.1"}
	3219.1.1 = {add_trait=trained_warrior}
	3221.1.1 = {add_spouse=42955960}
	3262.1.1 = {death="3262.1.1"}
}
42955960 = {
	name="Xiu"
	female=yes

	religion="yiti_gods"
	culture="yi_ti"

	3203.1.1 = {birth="3203.1.1"}
	3262.1.1 = {death="3262.1.1"}
}
13055960 = {
	name="Huan"	# not a lord
	dynasty=55960

	religion="yiti_gods"
	culture="yi_ti"

	father=12755960
	mother=42755960

	3204.1.1 = {birth="3204.1.1"}
	3220.1.1 = {add_trait=poor_warrior}
	3264.1.1 = {death="3264.1.1"}
}
13155960 = {
	name="Zu"	# not a lord
	female=yes
	dynasty=55960

	religion="yiti_gods"
	culture="yi_ti"

	father=12755960
	mother=42755960

	3206.1.1 = {birth="3206.1.1"}
	3250.1.1 = {death="3250.1.1"}
}
13255960 = {
	name="Hai"	# not a lord
	dynasty=55960

	religion="yiti_gods"
	culture="yi_ti"

	father=12755960
	mother=42755960

	3207.1.1 = {birth="3207.1.1"}
	3223.1.1 = {add_trait=poor_warrior}
	3249.1.1 = {death = {death_reason = death_accident}}
}
13355960 = {
	name="Bai"	# a lord
	dynasty=55960

	religion="yiti_gods"
	culture="yi_ti"

	father=12955960
	mother=42955960

	3222.1.1 = {birth="3222.1.1"}
	3238.1.1 = {add_trait=poor_warrior}
	3286.1.1 = {death = {death_reason = death_accident}}
}
13455960 = {
	name="Ling"	# not a lord
	female=yes
	dynasty=55960

	religion="yiti_gods"
	culture="yi_ti"

	father=12955960
	mother=42955960

	3224.1.1 = {birth="3224.1.1"}
	3278.1.1 = {death="3278.1.1"}
}
13555960 = {
	name="Chien"	# not a lord
	dynasty=55960

	religion="yiti_gods"
	culture="yi_ti"

	father=12955960
	mother=42955960

	3225.1.1 = {birth="3225.1.1"}
	3241.1.1 = {add_trait=skilled_warrior}
	3257.1.1 = {death="3257.1.1"}
}
13655960 = {
	name="Bu"	# a lord
	dynasty=55960

	religion="yiti_gods"
	culture="yi_ti"

	father=12955960
	mother=42955960

	3227.1.1 = {birth="3227.1.1"}
	3243.1.1 = {add_trait=trained_warrior}
	3245.1.1 = {add_spouse=43655960}
	3277.1.1 = {death="3277.1.1"}
}
43655960 = {
	name="Hong"
	female=yes

	religion="yiti_gods"
	culture="yi_ti"

	3227.1.1 = {birth="3227.1.1"}
	3277.1.1 = {death="3277.1.1"}
}
13755960 = {
	name="Bao"	# a lord
	dynasty=55960

	religion="yiti_gods"
	culture="yi_ti"

	father=13655960
	mother=43655960

	3254.1.1 = {birth="3254.1.1"}
	3270.1.1 = {add_trait=skilled_warrior}
	3272.1.1 = {add_spouse=43755960}
}
43755960 = {
	name="Nguyet"
	female=yes

	religion="yiti_gods"
	culture="yi_ti"

	3254.1.1 = {birth="3254.1.1"}
}
13855960 = {
	name="Minh"	# not a lord
	dynasty=55960

	religion="yiti_gods"
	culture="yi_ti"

	father=13655960
	mother=43655960

	3255.1.1 = {birth="3255.1.1"}
	3271.1.1 = {add_trait=poor_warrior}
}
13955960 = {
	name="Cho"	# a lord
	dynasty=55960

	religion="yiti_gods"
	culture="yi_ti"

	father=13755960
	mother=43755960

	3275.1.1 = {birth="3275.1.1"}
	3291.1.1 = {add_trait=trained_warrior}
}


####  House Alhazred - Empresses of Leng
15055963 = {
	name="Khiara"	# The great
	female=yes
	dynasty=55963
	
	martial = 5
	diplomacy = 8
	stewardship = 8
	intrigue = 7
	learning = 6

	religion="yiti_gods"
	culture="lengi"
	
	add_trait = fair
	add_trait = tall
	add_trait = grey_eminence
	add_trait = just
	add_trait = humble
	add_trait = diligent
	
	2875.1.1 = {birth="2875.1.1"}
	2902.1.1 = {add_matrilineal_spouse=45055963}
	2920.1.1 = {give_nickname = nick_the_great}
	2941.1.1 = {death="2941.1.1"}
}
45055963 = {
	name="Gang"

	religion="yiti_gods"
	culture="yi_ti"

	2875.1.1 = {birth="2875.1.1"}
	2891.1.1 = {add_trait=trained_warrior}
	2941.1.1 = {death="2941.1.1"}
}
15155963 = {
	name="Turua"	# a lord
	female=yes
	dynasty=55963

	religion="yiti_gods"
	culture="lengi"
	
	mother=15055963
	father=45055963

	2905.1.1 = {birth="2905.1.1"}
	2926.1.1 = {add_matrilineal_spouse=45155963}
	2962.1.1 = {death="2962.1.1"}
}
45155963 = {
	name="Chinh"

	religion="yiti_gods"
	culture="yi_ti"

	2905.1.1 = {birth="2905.1.1"}
	2921.1.1 = {add_trait=trained_warrior}
	2962.1.1 = {death="2962.1.1"}
}
15255963 = {
	name="Lavinia"	# a lord
	female=yes
	dynasty=55963

	religion="yiti_gods"
	culture="lengi"
	
	mother=15155963
	father=45155963
	
	add_trait = tall

	2931.1.1 = {birth="2931.1.1"}
	2951.1.1 = {add_matrilineal_spouse=45255963}
	2995.1.1 = {death="2995.1.1"}
}
45255963 = {
	name="Van"

	religion="yiti_gods"
	culture="yi_ti"

	2931.1.1 = {birth="2931.1.1"}
	2947.1.1 = {add_trait=trained_warrior}
	2995.1.1 = {death="2995.1.1"}
}
10055963 = {
	name="Kassogtha"	# a lord
	female=yes
	dynasty=55963

	religion="yiti_gods"
	culture="lengi"
	
	mother=15255963
	father=45255963
	
	add_trait = tall

	2965.1.1 = {birth="2965.1.1"}
	2983.1.1 = {add_matrilineal_spouse=40055963}
	3031.1.1 = {death="3031.1.1"}
}
40055963 = {
	name="Tu"

	religion="yiti_gods"
	culture="yi_ti"

	2965.1.1 = {birth="2965.1.1"}
	2981.1.1 = {add_trait=poor_warrior}
	3031.1.1 = {death="3031.1.1"}
}
10155963 = {
	name="Gzxtyos"	# not a lord
	female=yes
	dynasty=55963

	religion="yiti_gods"
	culture="lengi"

	mother=10055963
	father=40055963
	
	add_trait = tall

	2989.1.1 = {birth="2989.1.1"}
	3032.1.1 = {death="3032.1.1"}
}
10255963 = {
	name="Khiara"	# a lord
	female=yes
	dynasty=55963

	religion="yiti_gods"
	culture="lengi"

	mother=10055963
	father=40055963

	2991.1.1 = {birth="2991.1.1"}
	3009.1.1 = {add_matrilineal_spouse=40255963}
	3039.1.1 = {death="3039.1.1"}
}
40255963 = {
	name="Truc"

	religion="yiti_gods"
	culture="yi_ti"

	2991.1.1 = {birth="2991.1.1"}
	3007.1.1 = {add_trait=poor_warrior}
	3039.1.1 = {death="3039.1.1"}
}
10355963 = {
	name="Gleetha"	# not a lord
	female=yes
	dynasty=55963

	religion="yiti_gods"
	culture="lengi"

	mother=10055963
	father=40055963

	2993.1.1 = {birth="2993.1.1"}
	3028.1.1 = {death="3028.1.1"}
}
10455963 = {
	name="Voltiyiga"	# not a lord
	female=yes
	dynasty=55963

	religion="yiti_gods"
	culture="lengi"

	mother=10255963
	father=40255963
	
	add_trait = tall

	3012.1.1 = {birth="3012.1.1"}
	3048.1.1 = {death="3048.1.1"}
}
10555963 = {
	name="Abigail"	# not a lord
	female=yes
	dynasty=55963

	religion="yiti_gods"
	culture="lengi"

	mother=10255963
	father=40255963

	3013.1.1 = {birth="3013.1.1"}
	3063.1.1 = {death="3063.1.1"}
}
10655963 = {
	name="Dzewa"	# a lord
	female=yes
	dynasty=55963

	religion="yiti_gods"
	culture="lengi"

	mother=10255963
	father=40255963
	
	add_trait = tall

	3016.1.1 = {birth="3016.1.1"}
	3034.1.1 = {add_matrilineal_spouse=40655963}
	3075.1.1 = {death="3075.1.1"}
}
40655963 = {
	name="Hai"

	religion="yiti_gods"
	culture="yi_ti"

	3016.1.1 = {birth="3016.1.1"}
	3032.1.1 = {add_trait=poor_warrior}
	3075.1.1 = {death="3075.1.1"}
}
10755963 = {
	name="Lavinia"
	female=yes
	dynasty=55963

	religion="yiti_gods"
	culture="lengi"

	mother=10655963
	father=40655963

	3040.1.1 = {birth="3040.1.1"}
	3056.1.1 = {add_trait=poor_warrior}
	3058.1.1 = {add_spouse=40755963}
	3096.1.1 = {death = {death_reason = death_murder}}
}
40755963 = {
	name="Sang"	# a lord

	religion="yiti_gods"
	culture="yi_ti"

	3040.1.1 = {birth="3040.1.1"}
	3096.1.1 = {death="3096.1.1"}
}
10855963 = {
	name="Cthylla"	# a lord
	female=yes
	dynasty=55963

	religion="yiti_gods"
	culture="lengi"

	mother=10755963
	father=40755963

	3072.1.1 = {birth="3072.1.1"}
	3090.1.1 = {add_matrilineal_spouse=40855963}
	3126.1.1 = {death = {death_reason = death_murder}}
}
40855963 = {
	name="Duc"

	religion="yiti_gods"
	culture="yi_ti"

	3072.1.1 = {birth="3072.1.1"}
	3088.1.1 = {add_trait=poor_warrior}
	3126.1.1 = {death="3126.1.1"}
}
10955963 = {
	name="Ei'lor"	# not a lord
	dynasty=55963

	religion="yiti_gods"
	culture="lengi"

	mother=10755963
	father=40755963

	3073.1.1 = {birth="3073.1.1"}
	3089.1.1 = {add_trait=poor_warrior}
	3132.1.1 = {death="3132.1.1"}
}
11055963 = {
	name="Obed"	# not a lord
	dynasty=55963

	religion="yiti_gods"
	culture="lengi"

	mother=10755963
	father=40755963

	3075.1.1 = {birth="3075.1.1"}
	3091.1.1 = {add_trait=poor_warrior}
	3127.1.1 = {death="3127.1.1"}
}
11155963 = {
	name="Mynoghra"	# not a lord
	female=yes
	dynasty=55963

	religion="yiti_gods"
	culture="lengi"

	mother=10855963
	father=40855963
	
	add_trait = tall

	3090.1.1 = {birth="3090.1.1"}
	3123.1.1 = {death="3123.1.1"}
}
11255963 = {
	name="Khiara"	# a lord
	female=yes
	dynasty=55963

	religion="yiti_gods"
	culture="lengi"

	mother=10855963
	father=40855963
	
	add_trait = tall

	3092.1.1 = {birth="3092.1.1"}
	3110.1.1 = {add_matrilineal_spouse=41255963}
	3147.1.1 = {death="3147.1.1"}
}
41255963 = {
	name="Bo"

	religion="yiti_gods"
	culture="yi_ti"

	3092.1.1 = {birth="3092.1.1"}
	3108.1.1 = {add_trait=poor_warrior}
	3147.1.1 = {death="3147.1.1"}
}
11355963 = {
	name="Zanthu"	# not a lord
	dynasty=55963

	religion="yiti_gods"
	culture="lengi"

	mother=10855963
	father=40855963
	
	add_trait = tall

	3094.1.1 = {birth="3094.1.1"}
	3110.1.1 = {add_trait=skilled_warrior}
	3164.1.1 = {death="3164.1.1"}
}
11455963 = {
	name="Dhumin"	# not a lord
	dynasty=55963

	religion="yiti_gods"
	culture="lengi"

	mother=10855963
	father=40855963

	3095.1.1 = {birth="3095.1.1"}
	3111.1.1 = {add_trait=poor_warrior}
	3148.1.1 = {death="3148.1.1"}
}
11555963 = {
	name="Byatis"	# not a lord
	dynasty=55963

	religion="yiti_gods"
	culture="lengi"

	mother=11255963
	father=41255963

	3113.1.1 = {birth="3113.1.1"}
	3129.1.1 = {add_trait=poor_warrior}
	3147.1.1 = {death = {death_reason = death_murder}}
}
11655963 = {
	name="Zanthu"	# a lord
	female=yes
	dynasty=55963

	religion="yiti_gods"
	culture="lengi"

	mother=11255963
	father=41255963
	
	add_trait = tall

	3114.1.1 = {birth="3114.1.1"}
	3132.1.1 = {add_matrilineal_spouse=41655963}
	3177.1.1 = {death="3177.1.1"}
}
41655963 = {
	name="Trang"

	religion="yiti_gods"
	culture="yi_ti"

	3114.1.1 = {birth="3114.1.1"}
	3130.1.1 = {add_trait=poor_warrior}
	3177.1.1 = {death="3177.1.1"}
}
11755963 = {
	name="Exior"	# not a lord
	dynasty=55963

	religion="yiti_gods"
	culture="lengi"

	mother=11255963
	father=41255963

	3115.1.1 = {birth="3115.1.1"}
	3131.1.1 = {add_trait=trained_warrior}
	3162.1.1 = {death="3162.1.1"}
}
11855963 = {
	name="Turua"	# a lord
	female=yes
	dynasty=55963

	religion="yiti_gods"
	culture="lengi"

	mother=11655963
	father=41655963
	
	add_trait = tall

	3143.1.1 = {birth="3143.1.1"}
	3161.1.1 = {add_matrilineal_spouse=41855963}
	3197.1.1 = {death="3197.1.1"}
}
41855963 = {
	name="Sang"

	religion="yiti_gods"
	culture="yi_ti"

	3143.1.1 = {birth="3143.1.1"}
	3159.1.1 = {add_trait=poor_warrior}
	3197.1.1 = {death="3197.1.1"}
}
11955963 = {
	name="Quyagen"	# not a lord
	dynasty=55963

	religion="yiti_gods"
	culture="lengi"

	mother=11655963
	father=41655963
	
	add_trait = tall

	3146.1.1 = {birth="3146.1.1"}
	3162.1.1 = {add_trait=poor_warrior}
	3167.1.1 = {death="3167.1.1"}
}
12055963 = {
	name="Thanaroa"	# a lord
	female=yes
	dynasty=55963

	religion="yiti_gods"
	culture="lengi"

	mother=11855963
	father=41855963

	3170.1.1 = {birth="3170.1.1"}
	3188.1.1 = {add_matrilineal_spouse=42055963}
	3221.1.1 = {death="3221.1.1"}
}
42055963 = {
	name="Zong"

	religion="yiti_gods"
	culture="yi_ti"

	3170.1.1 = {birth="3170.1.1"}
	3186.1.1 = {add_trait=poor_warrior}
	3221.1.1 = {death="3221.1.1"}
}
12155963 = {
	name="Ruhtra"	# not a lord
	dynasty=55963

	religion="yiti_gods"
	culture="lengi"

	mother=11855963
	father=41855963

	3172.1.1 = {birth="3172.1.1"}
	3188.1.1 = {add_trait=poor_warrior}
	3224.1.1 = {death="3224.1.1"}
}
12255963 = {
	name="Dygra"	# a lord
	female=yes
	dynasty=55963

	religion="yiti_gods"
	culture="lengi"

	mother=12055963
	father=42055963

	3204.1.1 = {birth="3204.1.1"}
	3222.1.1 = {add_matrilineal_spouse=42255963}
	3265.1.1 = {death="3265.1.1"}
}
42255963 = {
	name="Han"

	religion="yiti_gods"
	culture="yi_ti"

	3204.1.1 = {birth="3204.1.1"}
	3220.1.1 = {add_trait=poor_warrior}
	3265.1.1 = {death="3265.1.1"}
}
12355963 = {
	name="Istasha"	# not a lord
	female=yes
	dynasty=55963

	religion="yiti_gods"
	culture="lengi"

	mother=12055963
	father=42055963
	
	add_trait = tall

	3206.1.1 = {birth="3206.1.1"}
	3280.1.1 = {death="3280.1.1"}
}
12455963 = {
	name="Lavinia"	# not a lord
	female=yes
	dynasty=55963

	religion="yiti_gods"
	culture="lengi"

	mother=12255963
	father=42255963
	
	add_trait = tall

	3235.1.1 = {birth="3235.1.1"}
	3282.1.1 = {death="3282.1.1"}
}
12555963 = {
	name="Inpesca"	# a lord
	female=yes
	dynasty=55963

	religion="yiti_gods"
	culture="lengi"

	mother=12255963
	father=42255963
	
	add_trait = tall

	3237.1.1 = {birth="3237.1.1"}
	3255.1.1 = {add_matrilineal_spouse=42555963}
}
42555963 = {
	name="Truc"

	religion="yiti_gods"
	culture="yi_ti"

	3237.1.1 = {birth="3237.1.1"}
	3253.1.1 = {add_trait=poor_warrior}
}
12655963 = {
	name="Khiara"	# not a lord
	female=yes
	dynasty=55963

	religion="yiti_gods"
	culture="lengi"

	mother=12255963
	father=42255963

	3238.1.1 = {birth="3238.1.1"}
}
12755963 = {
	name="Ragnalla"	# not a lord
	female=yes
	dynasty=55963

	religion="yiti_gods"
	culture="lengi"

	mother=12255963
	father=42255963
	
	add_trait = tall

	3241.1.1 = {birth="3241.1.1"}
}
12855963 = {
	name="Xotli"	# not a lord
	female=yes
	dynasty=55963

	religion="yiti_gods"
	culture="lengi"

	mother=12555963
	father=42555963

	3261.1.1 = {birth="3261.1.1"}
	3296.1.1 = {death="3296.1.1"}
}
42855963 = {
	name="Trai"

	religion="yiti_gods"
	culture="yi_ti"

	3261.1.1 = {birth="3261.1.1"}
	3277.1.1 = {add_trait=poor_warrior}
	3279.1.1 = {add_matrilineal_spouse=12855963}
	3296.1.1 = {death="3296.1.1"}
}
12955963 = {
	name="Saa'itii"	# not a lord
	female=yes
	dynasty=55963

	religion="yiti_gods"
	culture="lengi"

	mother=12555963
	father=42555963
	
	add_trait = tall

	3262.1.1 = {birth="3262.1.1"}
	3297.1.1 = {death="3297.1.1"}
}
13055963 = {
	name="Xirdneth"	# not a lord
	dynasty=55963

	religion="yiti_gods"
	culture="lengi"

	mother=12555963
	father=42555963

	3263.1.1 = {birth="3263.1.1"}
	3279.1.1 = {add_trait=poor_warrior}
}
13155963 = {
	name="Khiara"	# not a lord
	female=yes
	dynasty=55963

	religion="yiti_gods"
	culture="lengi"

	father=42855963
	mother=12855963
	
	add_trait = tall

	3283.1.1 = {birth="3283.1.1"}
}


###  House Chandesh
100055962 = {
	name="Yusuf"	# a lord
	dynasty=55962

	religion="yiti_gods"
	culture="lengi"
	
	add_trait=tall

	2953.1.1 = {birth="2953.1.1"}
	2969.1.1 = {add_trait=poor_warrior}
	2971.1.1 = {add_spouse=400055962}
	3038.1.1 = {death="3038.1.1"}
}
400055962 = {
	name="Paymaneh"
	female=yes

	religion="yiti_gods"
	culture="lengi"
	
	add_trait=tall

	2953.1.1 = {birth="2953.1.1"}
	3038.1.1 = {death="3038.1.1"}
}
100155962 = {
	name="Mirza"	# a lord
	dynasty=55962

	religion="yiti_gods"
	culture="lengi"

	father=100055962
	mother=400055962
	
	add_trait=tall

	2978.1.1 = {birth="2978.1.1"}
	2994.1.1 = {add_trait=poor_warrior}
	2996.1.1 = {add_spouse=400155962}
	3053.1.1 = {death="3053.1.1"}
}
400155962 = {
	name="Nyawela"
	female=yes

	religion="yiti_gods"
	culture="lengi"
	
	add_trait=tall

	2978.1.1 = {birth="2978.1.1"}
	3053.1.1 = {death="3053.1.1"}
}
100255962 = {
	name="Azam"	# not a lord
	dynasty=55962

	religion="yiti_gods"
	culture="lengi"
	
	add_trait=tall

	father=100055962
	mother=400055962

	2979.1.1 = {birth="2979.1.1"}
	2995.1.1 = {add_trait=skilled_warrior}
	3038.1.1 = {death="3038.1.1"}
}
100355962 = {
	name="Hussayn"	# not a lord
	dynasty=55962

	religion="yiti_gods"
	culture="lengi"
	
	add_trait=tall

	father=100055962
	mother=400055962

	2981.1.1 = {birth="2981.1.1"}
	2996.1.1 = {add_trait=trained_warrior}
	3006.1.1 = {death="3006.1.1"}
}
100455962 = {
	name="Paywand"	# not a lord
	female=yes
	dynasty=55962

	religion="yiti_gods"
	culture="lengi"
	
	add_trait=tall

	father=100055962
	mother=400055962

	2983.1.1 = {birth="2983.1.1"}
	3029.1.1 = {death="3029.1.1"}
}
100555962 = {
	name="Sajida"	# not a lord
	female=yes
	dynasty=55962

	religion="yiti_gods"
	culture="lengi"
	
	add_trait=tall

	father=100055962
	mother=400055962

	2984.1.1 = {birth="2984.1.1"}
	3038.1.1 = {death="3038.1.1"}
}
100655962 = {
	name="Mukhtar"	# a lord
	dynasty=55962

	religion="yiti_gods"
	culture="lengi"
	
	add_trait=tall

	father=100155962
	mother=400155962

	3012.1.1 = {birth="3012.1.1"}
	3028.1.1 = {add_trait=trained_warrior}
	3030.1.1 = {add_spouse=400655962}
	3076.1.1 = {death="3076.1.1"}
}
400655962 = {
	name="Zaynab"
	female=yes

	religion="yiti_gods"
	culture="lengi"
	
	add_trait=tall

	3012.1.1 = {birth="3012.1.1"}
	3076.1.1 = {death="3076.1.1"}
}
100755962 = {
	name="Uways"	# not a lord
	dynasty=55962

	religion="yiti_gods"
	culture="lengi"

	father=100155962
	mother=400155962

	3014.1.1 = {birth="3014.1.1"}
	3030.1.1 = {add_trait=trained_warrior}
	3092.1.1 = {death="3092.1.1"}
}
100855962 = {
	name="Saaman"	# not a lord
	female=yes
	dynasty=55962

	religion="yiti_gods"
	culture="lengi"
	
	add_trait=tall

	father=100655962
	mother=400655962

	3045.1.1 = {birth="3045.1.1"}
	3092.1.1 = {death="3092.1.1"}
}
100955962 = {
	name="Husam"	# a lord
	dynasty=55962

	religion="yiti_gods"
	culture="lengi"
	
	add_trait=tall

	father=100655962
	mother=400655962

	3047.1.1 = {birth="3047.1.1"}
	3063.1.1 = {add_trait=skilled_warrior}
	3065.1.1 = {add_spouse=400955962}
	3117.1.1 = {death = {death_reason = death_accident}}
}
400955962 = {
	name="Sheeftah"
	female=yes

	religion="yiti_gods"
	culture="lengi"
	
	add_trait=tall

	3047.1.1 = {birth="3047.1.1"}
	3117.1.1 = {death="3117.1.1"}
}
101055962 = {
	name="Tanaz"	# not a lord
	female=yes
	dynasty=55962

	religion="yiti_gods"
	culture="lengi"

	father=100955962
	mother=400955962

	3069.1.1 = {birth="3069.1.1"}
	3120.1.1 = {death="3120.1.1"}
}
101155962 = {
	name="Mubarak"	# not a lord
	dynasty=55962

	religion="yiti_gods"
	culture="lengi"

	father=100955962
	mother=400955962

	3072.1.1 = {birth="3072.1.1"}
	3088.1.1 = {add_trait=trained_warrior}
	3108.1.1 = {death="3108.1.1"}
}
101255962 = {
	name="Yusuf"	# a lord
	dynasty=55962

	religion="yiti_gods"
	culture="lengi"

	father=100955962
	mother=400955962
	
	add_trait=tall

	3073.1.1 = {birth="3073.1.1"}
	3089.1.1 = {add_trait=poor_warrior}
	3091.1.1 = {add_spouse=401255962}
	3118.1.1 = {death="3118.1.1"}
}
401255962 = {
	name="Sabba"
	female=yes

	religion="yiti_gods"
	culture="lengi"
	
	add_trait=tall

	3073.1.1 = {birth="3073.1.1"}
	3118.1.1 = {death="3118.1.1"}
}
101355962 = {
	name="Youkhanna"	# a lord
	dynasty=55962

	religion="yiti_gods"
	culture="lengi"

	father=101255962
	mother=401255962
	
	add_trait=tall

	3097.1.1 = {birth="3097.1.1"}
	3113.1.1 = {add_trait=poor_warrior}
	3115.1.1 = {add_spouse=401355962}
	3167.1.1 = {death="3167.1.1"}
}
401355962 = {
	name="Shogofa"
	female=yes

	religion="yiti_gods"
	culture="lengi"
	
	add_trait=tall

	3097.1.1 = {birth="3097.1.1"}
	3167.1.1 = {death="3167.1.1"}
}
101455962 = {
	name="Rasa"	# not a lord
	female=yes
	dynasty=55962

	religion="yiti_gods"
	culture="lengi"

	father=101255962
	mother=401255962
	
	add_trait=tall

	3100.1.1 = {birth="3100.1.1"}
	3131.1.1 = {death="3131.1.1"}
}
101555962 = {
	name="Najib"	# a lord
	dynasty=55962

	religion="yiti_gods"
	culture="lengi"

	father=101355962
	mother=401355962
	
	add_trait=tall

	3121.1.1 = {birth="3121.1.1"}
	3137.1.1 = {add_trait=poor_warrior}
	3139.1.1 = {add_spouse=401555962}
	3177.1.1 = {death="3177.1.1"}
}
401555962 = {
	name="Saghar"
	female=yes

	religion="yiti_gods"
	culture="lengi"
	
	add_trait=tall

	3121.1.1 = {birth="3121.1.1"}
	3177.1.1 = {death="3177.1.1"}
}
101655962 = {
	name="Adila"	# not a lord
	female=yes
	dynasty=55962

	religion="yiti_gods"
	culture="lengi"

	father=101355962
	mother=401355962

	3123.1.1 = {birth="3123.1.1"}
	3152.1.1 = {death = {death_reason = death_accident}}
}
101755962 = {
	name="Fadl"	# not a lord
	dynasty=55962

	religion="yiti_gods"
	culture="lengi"

	father=101355962
	mother=401355962
	
	add_trait=tall

	3125.1.1 = {birth="3125.1.1"}
	3141.1.1 = {add_trait=poor_warrior}
	3167.1.1 = {death="3167.1.1"}
}
101855962 = {
	name="Uways"	# a lord
	dynasty=55962

	religion="yiti_gods"
	culture="lengi"

	father=101555962
	mother=401555962
	
	add_trait=tall

	3144.1.1 = {birth="3144.1.1"}
	3160.1.1 = {add_trait=trained_warrior}
	3162.1.1 = {add_spouse=401855962}
	3179.1.1 = {death="3179.1.1"}
}
401855962 = {
	name="Faghira"
	female=yes

	religion="yiti_gods"
	culture="lengi"

	3144.1.1 = {
		birth="3144.1.1"
		effect = { set_character_flag = no_tallness }
	}
	3190.1.1 = {death="3190.1.1"}
}
101955962 = {
	name="Halil"	# not a lord
	dynasty=55962

	religion="yiti_gods"
	culture="lengi"

	father=101555962
	mother=401555962
	
	add_trait=tall

	3145.1.1 = {birth="3145.1.1"}
	3161.1.1 = {add_trait=trained_warrior}
	3201.1.1 = {death="3201.1.1"}
}
102055962 = {
	name="Jahaira"	# not a lord
	female=yes
	dynasty=55962

	religion="yiti_gods"
	culture="lengi"

	father=101555962
	mother=401555962
	
	add_trait=tall

	3148.1.1 = {birth="3148.1.1"}
	3208.1.1 = {death="3208.1.1"}
}
102155962 = {
	name="Uways"	# a lord
	dynasty=55962

	religion="yiti_gods"
	culture="lengi"

	father=101855962
	mother=401855962

	3164.1.1 = {birth="3164.1.1"}
	3180.1.1 = {add_trait=poor_warrior}
	3195.1.1 = {add_spouse=402155962}
	3222.1.1 = {death = {death_reason = death_accident}}
}
402155962 = {
	name="Semeah"
	female=yes

	religion="yiti_gods"
	culture="lengi"
	
	add_trait=tall

	3177.1.1 = {birth="3177.1.1"}
	3222.1.1 = {death="3222.1.1"}
}
102255962 = {
	name="Muzaffaraddin"	# not a lord
	dynasty=55962

	religion="yiti_gods"
	culture="lengi"

	father=101855962
	mother=401855962
	
	add_trait=tall

	3169.1.1 = {birth="3169.1.1"}
	3185.1.1 = {add_trait=skilled_warrior}
	3234.1.1 = {death="3234.1.1"}
}
102355962 = {
	name="Uways"	# not a lord
	dynasty=55962

	religion="yiti_gods"
	culture="lengi"

	father=101855962
	mother=401855962
	
	add_trait=tall

	3172.1.1 = {birth="3172.1.1"}
	3188.1.1 = {add_trait=trained_warrior}
	3228.1.1 = {death="3228.1.1"}
}
102455962 = {
	name="Sami"	# a lord
	dynasty=55962

	religion="yiti_gods"
	culture="lengi"

	father=102155962
	mother=402155962
	
	add_trait=tall

	3206.1.1 = {birth="3206.1.1"}
	3222.1.1 = {add_trait=skilled_warrior}
	3224.1.1 = {add_spouse=402455962}
	3276.1.1 = {death="3276.1.1"}
}
402455962 = {
	name="Sajida"
	female=yes

	religion="yiti_gods"
	culture="lengi"
	
	add_trait=tall

	3206.1.1 = {birth="3206.1.1"}
	3276.1.1 = {death="3276.1.1"}
}
102555962 = {
	name="Shokouh"	# not a lord
	female=yes
	dynasty=55962

	religion="yiti_gods"
	culture="lengi"

	father=102155962
	mother=402155962
	
	add_trait=tall

	3208.1.1 = {birth="3208.1.1"}
	3240.1.1 = {death="3240.1.1"}
}
102655962 = {
	name="Rashida"	# not a lord
	female=yes
	dynasty=55962

	religion="yiti_gods"
	culture="lengi"

	father=102155962
	mother=402155962
	
	add_trait=tall

	3209.1.1 = {birth="3209.1.1"}
	3259.1.1 = {death="3259.1.1"}
}
102755962 = {
	name="Shamir"	# not a lord
	dynasty=55962

	religion="yiti_gods"
	culture="lengi"

	father=102155962
	mother=402155962

	3212.1.1 = {birth="3212.1.1"}
	3228.1.1 = {add_trait=trained_warrior}
	3255.1.1 = {death="3255.1.1"}
}
102855962 = {
	name="Kamala"	# not a lord
	female=yes
	dynasty=55962

	religion="yiti_gods"
	culture="lengi"

	father=102455962
	mother=402455962
	
	add_trait=tall

	3241.1.1 = {birth="3241.1.1"}
	3276.1.1 = {death="3276.1.1"}
}
102955962 = {
	name="Alim"	# a lord
	dynasty=55962

	religion="yiti_gods"
	culture="lengi"

	father=102455962
	mother=402455962
	
	add_trait=tall

	3242.1.1 = {birth="3242.1.1"}
	3258.1.1 = {add_trait=skilled_warrior}
	3260.1.1 = {add_spouse=402955962}
	3288.1.1 = {death="3288.1.1"}
}
402955962 = {
	name="Shararah"
	female=yes

	religion="yiti_gods"
	culture="lengi"

	3242.1.1 = {
		birth="3242.1.1"
		effect = { set_character_flag = no_tallness }
	}
	3288.1.1 = {death="3288.1.1"}
}
103055962 = {
	name="Bakr"	# not a lord
	dynasty=55962

	religion="yiti_gods"
	culture="lengi"

	father=102455962
	mother=402455962
	
	add_trait=tall

	3243.1.1 = {birth="3243.1.1"}
	3259.1.1 = {add_trait=poor_warrior}
	3291.1.1 = {death="3291.1.1"}
}
103155962 = {
	name="Shokouh"	# not a lord
	female=yes
	dynasty=55962

	religion="yiti_gods"
	culture="lengi"

	father=102955962
	mother=402955962
	
	add_trait=tall

	3265.1.1 = {birth="3265.1.1"}
	3311.1.1 = {death="3311.1.1"}
}
103255962 = {
	name="Jaleel"	# a lord
	dynasty=55962

	religion="yiti_gods"
	culture="lengi"

	father=102955962
	mother=402955962
	
	add_trait=tall

	3268.1.1 = {birth="3268.1.1"}
	3284.1.1 = {add_trait=poor_warrior}
	3286.1.1 = {add_spouse=403255962}
}
403255962 = {
	name="Taneen"
	female=yes

	religion="yiti_gods"
	culture="lengi"
	
	add_trait=tall

	3268.1.1 = {birth="3268.1.1"}
}
103355962 = {
	name="Adila"	# not a lord
	female=yes
	dynasty=55962

	religion="yiti_gods"
	culture="lengi"

	father=103255962
	mother=403255962
	
	add_trait=tall

	3288.1.1 = {birth="3288.1.1"}
}
103455962 = {
	name="Khaireddin"	# not a lord
	dynasty=55962

	religion="yiti_gods"
	culture="lengi"

	father=103255962
	mother=403255962
	
	add_trait=tall

	3291.1.1 = {birth="3291.1.1"}
	3307.1.1 = {add_trait=poor_warrior}
}

## House Xu Lo
10065971 = {
	name="Yu"	# a lord
	dynasty=65971

	religion="yiti_gods"
	culture="yi_ti"

	2944.1.1 = {birth="2944.1.1"}
	2960.1.1 = {add_trait=trained_warrior}
	2962.1.1 = {add_spouse=40065971}
	3023.1.1 = {death="3023.1.1"}
}
40065971 = {
	name="Kim"
	female=yes

	religion="yiti_gods"
	culture="yi_ti"

	2944.1.1 = {birth="2944.1.1"}
	3023.1.1 = {death="3023.1.1"}
}
10165971 = {
	name="Xuan"	# a lord
	dynasty=65971

	religion="yiti_gods"
	culture="yi_ti"

	father=10065971
	mother=40065971

	2971.1.1 = {birth="2971.1.1"}
	2987.1.1 = {add_trait=trained_warrior}
	2989.1.1 = {add_spouse=40165971}
	3030.1.1 = {death = {death_reason = death_accident}}
}
40165971 = {
	name="Shu"
	female=yes

	religion="yiti_gods"
	culture="yi_ti"

	2971.1.1 = {birth="2971.1.1"}
	3030.1.1 = {death="3030.1.1"}
}
10265971 = {
	name="Xhe"	# not a lord
	dynasty=65971

	religion="yiti_gods"
	culture="yi_ti"

	father=10065971
	mother=40065971

	2973.1.1 = {birth="2973.1.1"}
	2989.1.1 = {add_trait=trained_warrior}
	3008.1.1 = {death="3008.1.1"}
}
10365971 = {
	name="Mai"	# not a lord
	female=yes
	dynasty=65971

	religion="yiti_gods"
	culture="yi_ti"

	father=10065971
	mother=40065971

	2975.1.1 = {birth="2975.1.1"}
	3031.1.1 = {death="3031.1.1"}
}
10465971 = {
	name="Doq"	# not a lord
	dynasty=65971

	religion="yiti_gods"
	culture="yi_ti"

	father=10065971
	mother=40065971

	2977.1.1 = {birth="2977.1.1"}
	2993.1.1 = {add_trait=poor_warrior}
	3034.1.1 = {death="3034.1.1"}
}
10565971 = {
	name="Bai"	# a lord
	dynasty=65971

	religion="yiti_gods"
	culture="yi_ti"

	father=10165971
	mother=40165971

	2999.1.1 = {birth="2999.1.1"}
	3015.1.1 = {add_trait=skilled_warrior}
	3017.1.1 = {add_spouse=40565971}
	3051.1.1 = {death="3051.1.1"}
}
40565971 = {
	name="Bich"
	female=yes

	religion="yiti_gods"
	culture="yi_ti"

	2999.1.1 = {birth="2999.1.1"}
	3051.1.1 = {death="3051.1.1"}
}
10665971 = {
	name="Dai"	# not a lord
	dynasty=65971

	religion="yiti_gods"
	culture="yi_ti"

	father=10165971
	mother=40165971

	3001.1.1 = {birth="3001.1.1"}
	3017.1.1 = {add_trait=trained_warrior}
	3047.1.1 = {death="3047.1.1"}
}
10765971 = {
	name="Yu"	# a lord
	dynasty=65971

	religion="yiti_gods"
	culture="yi_ti"

	father=10565971
	mother=40565971

	3022.1.1 = {birth="3022.1.1"}
	3038.1.1 = {add_trait=trained_warrior}
	3040.1.1 = {add_spouse=40765971}
	3092.1.1 = {death="3092.1.1"}
}
40765971 = {
	name="Tu"
	female=yes

	religion="yiti_gods"
	culture="yi_ti"

	3022.1.1 = {birth="3022.1.1"}
	3092.1.1 = {death="3092.1.1"}
}
10865971 = {
	name="Zong"	# not a lord
	dynasty=65971

	religion="yiti_gods"
	culture="yi_ti"

	father=10565971
	mother=40565971

	3025.1.1 = {birth="3025.1.1"}
	3041.1.1 = {add_trait=poor_warrior}
	3043.1.1 = {add_spouse=40865971}
	3085.1.1 = {death="3085.1.1"}
}
40865971 = {
	name="Xiu"
	female=yes

	religion="yiti_gods"
	culture="yi_ti"

	3025.1.1 = {birth="3025.1.1"}
	3085.1.1 = {death="3085.1.1"}
}
10965971 = {
	name="Cuc"	# not a lord
	female=yes
	dynasty=65971

	religion="yiti_gods"
	culture="yi_ti"

	father=10765971
	mother=40765971

	3054.1.1 = {birth="3054.1.1"}
	3092.1.1 = {death="3092.1.1"}
}
11065971 = {
	name="Ya"	# not a lord
	female=yes
	dynasty=65971

	religion="yiti_gods"
	culture="yi_ti"

	father=10865971
	mother=40865971

	3052.1.1 = {birth="3052.1.1"}
	3103.1.1 = {death="3103.1.1"}
}
11165971 = {
	name="Gai"	# a lord
	dynasty=65971

	religion="yiti_gods"
	culture="yi_ti"

	father=10865971
	mother=40865971

	3055.1.1 = {birth="3055.1.1"}
	3071.1.1 = {add_trait=poor_warrior}
	3073.1.1 = {add_spouse=41165971}
	3100.1.1 = {death="3100.1.1"}
}
41165971 = {
	name="Ngoc"
	female=yes

	religion="yiti_gods"
	culture="yi_ti"

	3055.1.1 = {birth="3055.1.1"}
	3100.1.1 = {death="3100.1.1"}
}
11265971 = {
	name="Ly"	# not a lord
	female=yes
	dynasty=65971

	religion="yiti_gods"
	culture="yi_ti"

	father=11165971
	mother=41165971

	3075.1.1 = {birth="3075.1.1"}
	3121.1.1 = {death="3121.1.1"}
}
11365971 = {
	name="Peng"	# not a lord
	female=yes
	dynasty=65971

	religion="yiti_gods"
	culture="yi_ti"

	father=11165971
	mother=41165971

	3076.1.1 = {birth="3076.1.1"}
	3122.1.1 = {death="3122.1.1"}
}
11465971 = {
	name="Xiu"	# not a lord
	female=yes
	dynasty=65971

	religion="yiti_gods"
	culture="yi_ti"

	father=11165971
	mother=41165971

	3078.1.1 = {birth="3078.1.1"}
	3102.1.1 = {death="3102.1.1"}
}
11565971 = {
	name="Thinh"	# a lord
	dynasty=65971

	religion="yiti_gods"
	culture="yi_ti"

	father=11165971
	mother=41165971

	3081.1.1 = {birth="3081.1.1"}
	3097.1.1 = {add_trait=trained_warrior}
	3099.1.1 = {add_spouse=41565971}
	3134.1.1 = {death="3134.1.1"}
}
41565971 = {
	name="Linh"
	female=yes

	religion="yiti_gods"
	culture="yi_ti"

	3081.1.1 = {birth="3081.1.1"}
	3134.1.1 = {death="3134.1.1"}
}
11665971 = {
	name="Bu"	# a lord
	dynasty=65971

	religion="yiti_gods"
	culture="yi_ti"

	father=11565971
	mother=41565971

	3100.1.1 = {birth="3100.1.1"}
	3116.1.1 = {add_trait=poor_warrior}
	3118.1.1 = {add_spouse=41665971}
	3136.1.1 = {death="3136.1.1"}
}
41665971 = {
	name="Hoa"
	female=yes

	religion="yiti_gods"
	culture="yi_ti"

	3100.1.1 = {birth="3100.1.1"}
	3136.1.1 = {death="3136.1.1"}
}
11765971 = {
	name="Nguyet"	# not a lord
	female=yes
	dynasty=65971

	religion="yiti_gods"
	culture="yi_ti"

	father=11565971
	mother=41565971

	3101.1.1 = {birth="3101.1.1"}
	3155.1.1 = {death="3155.1.1"}
}
11865971 = {
	name="An"	# a lord
	dynasty=65971

	religion="yiti_gods"
	culture="yi_ti"

	father=11665971
	mother=41665971

	3122.1.1 = {birth="3122.1.1"}
	3138.1.1 = {add_trait=skilled_warrior}
	3140.1.1 = {add_spouse=41865971}
	3188.1.1 = {death="3188.1.1"}
}
41865971 = {
	name="Tu"
	female=yes

	religion="yiti_gods"
	culture="yi_ti"

	3122.1.1 = {birth="3122.1.1"}
	3188.1.1 = {death="3188.1.1"}
}
11965971 = {
	name="Fai"	# a lord
	dynasty=65971

	religion="yiti_gods"
	culture="yi_ti"

	father=11865971
	mother=41865971

	3144.1.1 = {birth="3144.1.1"}
	3160.1.1 = {add_trait=trained_warrior}
	3162.1.1 = {add_spouse=41965971}
	3198.1.1 = {death="3198.1.1"}
}
41965971 = {
	name="Linh"
	female=yes

	religion="yiti_gods"
	culture="yi_ti"

	3144.1.1 = {birth="3144.1.1"}
	3198.1.1 = {death="3198.1.1"}
}
12065971 = {
	name="Tien"	# not a lord
	female=yes
	dynasty=65971

	religion="yiti_gods"
	culture="yi_ti"

	father=11865971
	mother=41865971

	3147.1.1 = {birth="3147.1.1"}
	3198.1.1 = {death="3198.1.1"}
}
12165971 = {
	name="Gang"	# not a lord
	dynasty=65971

	religion="yiti_gods"
	culture="yi_ti"

	father=11865971
	mother=41865971

	3150.1.1 = {birth="3150.1.1"}
	3166.1.1 = {add_trait=poor_warrior}
	3203.1.1 = {death="3203.1.1"}
}
12265971 = {
	name="Nguyet"	# not a lord
	female=yes
	dynasty=65971

	religion="yiti_gods"
	culture="yi_ti"

	father=11865971
	mother=41865971

	3153.1.1 = {birth="3153.1.1"}
	3222.1.1 = {death="3222.1.1"}
}
12365971 = {
	name="Hieu"	# not a lord
	dynasty=65971

	religion="yiti_gods"
	culture="yi_ti"

	father=11865971
	mother=41865971

	3156.1.1 = {birth="3156.1.1"}
	3172.1.1 = {add_trait=trained_warrior}
	3209.1.1 = {death="3209.1.1"}
}
12465971 = {
	name="Mo"	# a lord
	dynasty=65971

	religion="yiti_gods"
	culture="yi_ti"

	father=11965971
	mother=41965971

	3169.1.1 = {birth="3169.1.1"}
	3185.1.1 = {add_trait=skilled_warrior}
	3187.1.1 = {add_spouse=42465971}
	3207.1.1 = {death = {death_reason = death_battle}}
}
42465971 = {
	name="Ya"
	female=yes

	religion="yiti_gods"
	culture="yi_ti"

	3169.1.1 = {birth="3169.1.1"}
	3207.1.1 = {death="3207.1.1"}
}
12565971 = {
	name="Ru"	# not a lord
	dynasty=65971

	religion="yiti_gods"
	culture="yi_ti"

	father=11965971
	mother=41965971

	3170.1.1 = {birth="3170.1.1"}
	3186.1.1 = {add_trait=skilled_warrior}
	3188.1.1 = {add_spouse=42565971}
	3214.1.1 = {death="3214.1.1"}
}
42565971 = {
	name="Cuc"
	female=yes

	religion="yiti_gods"
	culture="yi_ti"

	3170.1.1 = {birth="3170.1.1"}
	3214.1.1 = {death="3214.1.1"}
}
12665971 = {
	name="Hao"	# a lord
	dynasty=65971

	religion="yiti_gods"
	culture="yi_ti"

	father=12465971
	mother=42465971

	3187.1.1 = {birth="3187.1.1"}
	3203.1.1 = {add_trait=poor_warrior}
	3205.1.1 = {add_spouse=42665971}
	3247.1.1 = {death="3247.1.1"}
}
42665971 = {
	name="Shu"
	female=yes

	religion="yiti_gods"
	culture="yi_ti"

	3187.1.1 = {birth="3187.1.1"}
	3247.1.1 = {death="3247.1.1"}
}
12765971 = {
	name="Ngon"	# not a lord
	female=yes
	dynasty=65971

	religion="yiti_gods"
	culture="yi_ti"

	father=12465971
	mother=42465971

	3190.1.1 = {birth="3190.1.1"}
	3269.1.1 = {death="3269.1.1"}
}
12865971 = {
	name="Hue"	# not a lord
	female=yes
	dynasty=65971

	religion="yiti_gods"
	culture="yi_ti"

	father=12665971
	mother=42665971

	3213.1.1 = {birth="3213.1.1"}
	3272.1.1 = {death="3272.1.1"}
}
12965971 = {
	name="Han"	# a lord
	dynasty=65971

	religion="yiti_gods"
	culture="yi_ti"

	father=12565971
	mother=42565971

	3191.1.1 = {birth="3191.1.1"}
	3207.1.1 = {add_trait=skilled_warrior}
	3209.1.1 = {add_spouse=42965971}
	3268.1.1 = {death = {death_reason = death_battle}}
}
42965971 = {
	name="Shu"
	female=yes

	religion="yiti_gods"
	culture="yi_ti"

	3191.1.1 = {birth="3191.1.1"}
	3268.1.1 = {death="3268.1.1"}
}
13065971 = {
	name="Peng"	# not a lord
	female=yes
	dynasty=65971

	religion="yiti_gods"
	culture="yi_ti"

	father=12565971
	mother=42565971

	3194.1.1 = {birth="3194.1.1"}
	3245.1.1 = {death="3245.1.1"}
}
13165971 = {
	name="Ning"	# not a lord
	female=yes
	dynasty=65971

	religion="yiti_gods"
	culture="yi_ti"

	father=12965971
	mother=42965971

	3225.1.1 = {birth="3225.1.1"}
	3280.1.1 = {death="3280.1.1"}
}
13265971 = {
	name="Joq"	# not a lord
	dynasty=65971

	religion="yiti_gods"
	culture="yi_ti"

	father=12965971
	mother=42965971

	3228.1.1 = {birth="3228.1.1"}
	3244.1.1 = {add_trait=poor_warrior}
	3246.1.1 = {add_spouse=43265971}
	3262.1.1 = {death="3262.1.1"}
}
43265971 = {
	name="Kim"
	female=yes

	religion="yiti_gods"
	culture="yi_ti"

	3228.1.1 = {birth="3228.1.1"}
	3262.1.1 = {death="3262.1.1"}
}
13365971 = {
	name="Ba"	# not a lord
	dynasty=65971

	religion="yiti_gods"
	culture="yi_ti"

	father=12965971
	mother=42965971

	3230.1.1 = {birth="3230.1.1"}
	3246.1.1 = {add_trait=poor_warrior}
	3266.1.1 = {death="3266.1.1"}
}
13465971 = {
	name="Loi"	# a lord
	dynasty=65971

	religion="yiti_gods"
	culture="yi_ti"

	father=13265971
	mother=43265971

	3249.1.1 = {birth="3249.1.1"}
	3265.1.1 = {add_trait=poor_warrior}
	3267.1.1 = {add_spouse=43465971}
}
43465971 = {
	name="Ngon"
	female=yes

	religion="yiti_gods"
	culture="yi_ti"

	3249.1.1 = {birth="3249.1.1"}
}
13565971 = {
	name="Huynh"	# not a lord
	dynasty=65971

	religion="yiti_gods"
	culture="yi_ti"

	father=13265971
	mother=43265971

	3252.1.1 = {birth="3252.1.1"}
	3268.1.1 = {add_trait=trained_warrior}
}
13665971 = {
	name="Chinh"	# not a lord
	dynasty=65971

	religion="yiti_gods"
	culture="yi_ti"

	father=13465971
	mother=43465971

	3267.1.1 = {birth="3267.1.1"}
	3283.1.1 = {add_trait=poor_warrior}
}
13765971 = {
	name="Shi"	# not a lord
	female=yes
	dynasty=65971

	religion="yiti_gods"
	culture="yi_ti"

	father=13465971
	mother=43465971

	3268.1.1 = {birth="3268.1.1"}
}
### House Son
10065977 = {
	name="Minh"	# a lord
	dynasty=65977

	religion="yiti_gods"
	culture="yi_ti"

	2965.1.1 = {birth="2965.1.1"}
	2981.1.1 = {add_trait=poor_warrior}
	2983.1.1 = {add_spouse=40065977}
	3040.1.1 = {death="3040.1.1"}
}
40065977 = {
	name="Thu"
	female=yes

	religion="yiti_gods"
	culture="yi_ti"

	2965.1.1 = {birth="2965.1.1"}
	3040.1.1 = {death="3040.1.1"}
}
10165977 = {
	name="Shu"	# not a lord
	female=yes
	dynasty=65977

	religion="yiti_gods"
	culture="yi_ti"

	father=10065977
	mother=40065977

	2997.1.1 = {birth="2997.1.1"}
	3045.1.1 = {death="3045.1.1"}
}
10265977 = {
	name="Xun"	# a lord
	dynasty=65977

	religion="yiti_gods"
	culture="yi_ti"

	father=10065977
	mother=40065977

	2999.1.1 = {birth="2999.1.1"}
	3015.1.1 = {add_trait=skilled_warrior}
	3017.1.1 = {add_spouse=40265977}
	3057.1.1 = {death="3057.1.1"}
}
40265977 = {
	name="Qi"
	female=yes

	religion="yiti_gods"
	culture="yi_ti"

	2999.1.1 = {birth="2999.1.1"}
	3057.1.1 = {death="3057.1.1"}
}
10365977 = {
	name="Huynh"	# not a lord
	dynasty=65977

	religion="yiti_gods"
	culture="yi_ti"

	father=10065977
	mother=40065977

	3002.1.1 = {birth="3002.1.1"}
	3018.1.1 = {add_trait=trained_warrior}
	3044.1.1 = {death="3044.1.1"}
}
10465977 = {
	name="Phuong"	# not a lord
	female=yes
	dynasty=65977

	religion="yiti_gods"
	culture="yi_ti"

	father=10265977
	mother=40265977

	3018.1.1 = {birth="3018.1.1"}
	3066.1.1 = {death="3066.1.1"}
}
10565977 = {
	name="Gai"	# not a lord
	dynasty=65977

	religion="yiti_gods"
	culture="yi_ti"

	father=10265977
	mother=40265977

	3019.1.1 = {birth="3019.1.1"}
	3035.1.1 = {add_trait=skilled_warrior}
	3037.1.1 = {add_spouse=40565977}
	3057.1.1 = {death = {death_reason = death_murder}}
}
40565977 = {
	name="Chau"
	female=yes

	religion="yiti_gods"
	culture="yi_ti"

	3019.1.1 = {birth="3019.1.1"}
	3057.1.1 = {death="3057.1.1"}
}
10665977 = {
	name="Xhe"	# a lord
	dynasty=65977

	religion="yiti_gods"
	culture="yi_ti"

	father=10565977
	mother=40565977

	3043.1.1 = {birth="3043.1.1"}
	3059.1.1 = {add_trait=skilled_warrior}
	3061.1.1 = {add_spouse=40665977}
	3101.1.1 = {death="3101.1.1"}
}
40665977 = {
	name="Hanh"
	female=yes

	religion="yiti_gods"
	culture="yi_ti"

	3043.1.1 = {birth="3043.1.1"}
	3101.1.1 = {death="3101.1.1"}
}
10765977 = {
	name="Phuc"	# a lord
	dynasty=65977

	religion="yiti_gods"
	culture="yi_ti"

	father=10565977
	mother=40565977

	3044.1.1 = {birth="3044.1.1"}
	3060.1.1 = {add_trait=trained_warrior}
	3062.1.1 = {add_spouse=40765977}
	3113.1.1 = {death="3113.1.1"}
}
40765977 = {
	name="Chau"
	female=yes

	religion="yiti_gods"
	culture="yi_ti"

	3044.1.1 = {birth="3044.1.1"}
	3113.1.1 = {death="3113.1.1"}
}
10865977 = {
	name="Ly"	# not a lord
	female=yes
	dynasty=65977

	religion="yiti_gods"
	culture="yi_ti"

	father=10665977
	mother=40665977

	3071.1.1 = {birth="3071.1.1"}
	3133.1.1 = {death="3133.1.1"}
}
10965977 = {
	name="Thao"	# a lord
	dynasty=65977

	religion="yiti_gods"
	culture="yi_ti"

	father=10765977
	mother=40765977

	3067.1.1 = {birth="3067.1.1"}
	3083.1.1 = {add_trait=trained_warrior}
	3085.1.1 = {add_spouse=40965977}
	3126.1.1 = {death="3126.1.1"}
}
40965977 = {
	name="Ngoc"
	female=yes

	religion="yiti_gods"
	culture="yi_ti"

	3067.1.1 = {birth="3067.1.1"}
	3126.1.1 = {death="3126.1.1"}
}
11065977 = {
	name="Hieu"	# a lord
	dynasty=65977

	religion="yiti_gods"
	culture="yi_ti"

	father=10965977
	mother=40965977

	3100.1.1 = {birth="3100.1.1"}
	3116.1.1 = {add_trait=master_warrior}
	3118.1.1 = {add_spouse=41065977}
	3160.1.1 = {death="3160.1.1"}
}
41065977 = {
	name="Thuy"
	female=yes

	religion="yiti_gods"
	culture="yi_ti"

	3100.1.1 = {birth="3100.1.1"}
	3160.1.1 = {death="3160.1.1"}
}
11165977 = {
	name="Phuong"	# not a lord
	female=yes
	dynasty=65977

	religion="yiti_gods"
	culture="yi_ti"

	father=10965977
	mother=40965977

	3102.1.1 = {birth="3102.1.1"}
	3135.1.1 = {death="3135.1.1"}
}
11265977 = {
	name="Chen"	# not a lord
	dynasty=65977

	religion="yiti_gods"
	culture="yi_ti"

	father=10965977
	mother=40965977

	3103.1.1 = {birth="3103.1.1"}
	3119.1.1 = {add_trait=trained_warrior}
	3183.1.1 = {death="3183.1.1"}
}
11365977 = {
	name="Kim"	# not a lord
	female=yes
	dynasty=65977

	religion="yiti_gods"
	culture="yi_ti"

	father=10965977
	mother=40965977

	3105.1.1 = {birth="3105.1.1"}
	3136.1.1 = {death="3136.1.1"}
}
11465977 = {
	name="Shu"	# not a lord
	female=yes
	dynasty=65977

	religion="yiti_gods"
	culture="yi_ti"

	father=10965977
	mother=40965977

	3107.1.1 = {birth="3107.1.1"}
	3157.1.1 = {death="3157.1.1"}
}
11565977 = {
	name="Xuan"	# a lord
	dynasty=65977

	religion="yiti_gods"
	culture="yi_ti"

	father=11065977
	mother=41065977

	3123.1.1 = {birth="3123.1.1"}
	3139.1.1 = {add_trait=trained_warrior}
	3141.1.1 = {add_spouse=41565977}
	3176.1.1 = {death="3176.1.1"}
}
41565977 = {
	name="Kim"
	female=yes

	religion="yiti_gods"
	culture="yi_ti"

	3123.1.1 = {birth="3123.1.1"}
	3176.1.1 = {death="3176.1.1"}
}
11665977 = {
	name="Cuc"	# not a lord
	female=yes
	dynasty=65977

	religion="yiti_gods"
	culture="yi_ti"

	father=11065977
	mother=41065977

	3124.1.1 = {birth="3124.1.1"}
	3200.1.1 = {death="3200.1.1"}
}
11765977 = {
	name="Tien"	# not a lord
	female=yes
	dynasty=65977

	religion="yiti_gods"
	culture="yi_ti"

	father=11065977
	mother=41065977

	3127.1.1 = {birth="3127.1.1"}
	3163.1.1 = {death="3163.1.1"}
}
11865977 = {
	name="Huynh"	# not a lord
	dynasty=65977

	religion="yiti_gods"
	culture="yi_ti"

	father=11065977
	mother=41065977

	3129.1.1 = {birth="3129.1.1"}
	3145.1.1 = {add_trait=trained_warrior}
	3152.1.1 = {death="3152.1.1"}
}
11965977 = {
	name="Hoa"	# not a lord
	female=yes
	dynasty=65977

	religion="yiti_gods"
	culture="yi_ti"

	father=11565977
	mother=41565977

	3152.1.1 = {birth="3152.1.1"}
	3206.1.1 = {death="3206.1.1"}
}
12065977 = {
	name="Quan"	# a lord
	dynasty=65977

	religion="yiti_gods"
	culture="yi_ti"

	father=11565977
	mother=41565977

	3155.1.1 = {birth="3155.1.1"}
	3171.1.1 = {add_trait=skilled_warrior}
	3173.1.1 = {add_spouse=42065977}
	3209.1.1 = {death="3209.1.1"}
}
42065977 = {
	name="Bich"
	female=yes

	religion="yiti_gods"
	culture="yi_ti"

	3155.1.1 = {birth="3155.1.1"}
	3209.1.1 = {death="3209.1.1"}
}
12165977 = {
	name="Phuc"	# not a lord
	dynasty=65977

	religion="yiti_gods"
	culture="yi_ti"

	father=11565977
	mother=41565977

	3157.1.1 = {birth="3157.1.1"}
	3173.1.1 = {add_trait=skilled_warrior}
	3226.1.1 = {death="3226.1.1"}
}
12265977 = {
	name="Thao"	# a lord
	dynasty=65977

	religion="yiti_gods"
	culture="yi_ti"

	father=12065977
	mother=42065977

	3181.1.1 = {birth="3181.1.1"}
	3197.1.1 = {add_trait=skilled_warrior}
	3199.1.1 = {add_spouse=42265977}
	3236.1.1 = {death="3236.1.1"}
}
42265977 = {
	name="Shu"
	female=yes

	religion="yiti_gods"
	culture="yi_ti"

	3181.1.1 = {birth="3181.1.1"}
	3236.1.1 = {death="3236.1.1"}
}
12365977 = {
	name="Shu"	# not a lord
	female=yes
	dynasty=65977

	religion="yiti_gods"
	culture="yi_ti"

	father=12265977
	mother=42265977

	3208.1.1 = {birth="3208.1.1"}
	3270.1.1 = {death="3270.1.1"}
}
12465977 = {
	name="Van"	# a lord
	dynasty=65977

	religion="yiti_gods"
	culture="yi_ti"

	father=12265977
	mother=42265977

	3210.1.1 = {birth="3210.1.1"}
	3226.1.1 = {add_trait=poor_warrior}
	3228.1.1 = {add_spouse=42465977}
	3267.1.1 = {death="3267.1.1"}
}
42465977 = {
	name="Quyen"
	female=yes

	religion="yiti_gods"
	culture="yi_ti"

	3210.1.1 = {birth="3210.1.1"}
	3267.1.1 = {death="3267.1.1"}
}
12565977 = {
	name="Dong"	# not a lord
	dynasty=65977

	religion="yiti_gods"
	culture="yi_ti"

	father=12265977
	mother=42265977

	3213.1.1 = {birth="3213.1.1"}
	3229.1.1 = {add_trait=poor_warrior}
	3289.1.1 = {death="3289.1.1"}
}
12665977 = {
	name="Ngoc"	# not a lord
	female=yes
	dynasty=65977

	religion="yiti_gods"
	culture="yi_ti"

	father=12265977
	mother=42265977

	3215.1.1 = {birth="3215.1.1"}
	3273.1.1 = {death="3273.1.1"}
}
12765977 = {
	name="Ling"	# not a lord
	female=yes
	dynasty=65977

	religion="yiti_gods"
	culture="yi_ti"

	father=12265977
	mother=42265977

	3217.1.1 = {birth="3217.1.1"}
	3283.1.1 = {death="3283.1.1"}
}
12865977 = {
	name="An"	# a lord
	dynasty=65977

	religion="yiti_gods"
	culture="yi_ti"

	father=12465977
	mother=42465977

	3242.1.1 = {birth="3242.1.1"}
	3258.1.1 = {add_trait=trained_warrior}
	3260.1.1 = {add_spouse=42865977}
}
42865977 = {
	name="Shu"
	female=yes

	religion="yiti_gods"
	culture="yi_ti"

	3242.1.1 = {birth="3242.1.1"}
}
12965977 = {
	name="Nguyet"	# not a lord
	female=yes
	dynasty=65977

	religion="yiti_gods"
	culture="yi_ti"

	father=12465977
	mother=42465977

	3244.1.1 = {birth="3244.1.1"}
	3290.1.1 = {death="3290.1.1"}
}
13065977 = {
	name="Minh"	# not a lord
	dynasty=65977

	religion="yiti_gods"
	culture="yi_ti"

	father=12465977
	mother=42465977

	3246.1.1 = {birth="3246.1.1"}
	3262.1.1 = {add_trait=poor_warrior}
	3264.1.1 = {add_spouse=43065977}
}
43065977 = {
	name="Ly"
	female=yes

	religion="yiti_gods"
	culture="yi_ti"

	3246.1.1 = {birth="3246.1.1"}
}
13165977 = {
	name="Minh"	# not a lord
	dynasty=65977

	religion="yiti_gods"
	culture="yi_ti"

	father=12865977
	mother=42865977

	3271.1.1 = {birth="3271.1.1"}
	3287.1.1 = {add_trait=trained_warrior}
}
13265977 = {
	name="Hong"	# not a lord
	female=yes
	dynasty=65977

	religion="yiti_gods"
	culture="yi_ti"

	father=12865977
	mother=42865977

	3272.1.1 = {birth="3272.1.1"}
}
13365977 = {
	name="Tien"	# not a lord
	female=yes
	dynasty=65977

	religion="yiti_gods"
	culture="yi_ti"

	father=12865977
	mother=42865977

	3275.1.1 = {birth="3275.1.1"}
}
13465977 = {
	name="Zuang"	# not a lord
	dynasty=65977

	religion="yiti_gods"
	culture="yi_ti"

	father=13065977
	mother=43065977

	3267.1.1 = {birth="3267.1.1"}
	3283.1.1 = {add_trait=trained_warrior}
}
13565977 = {
	name="Danh"	# not a lord
	dynasty=65977

	religion="yiti_gods"
	culture="yi_ti"

	father=13065977
	mother=43065977

	3268.1.1 = {birth="3268.1.1"}
	3284.1.1 = {add_trait=skilled_warrior}
}
13665977 = {
	name="Phuong"	# not a lord
	female=yes
	dynasty=65977

	religion="yiti_gods"
	culture="yi_ti"

	father=13065977
	mother=43065977

	3270.1.1 = {birth="3270.1.1"}
}

###House Gtuhanai
10055988 = {
	name="Shathak"	# a lord
	dynasty=55988

	religion="yiti_gods"
	culture="lengi"

	2959.1.1 = {birth="2959.1.1"}
	2975.1.1 = {add_trait=trained_warrior}
	2977.1.1 = {add_spouse=40055988}
	3016.1.1 = {death="3016.1.1"}
}
40055988 = {
	name="Thanaroa"
	female=yes

	religion="yiti_gods"
	culture="lengi"

	2959.1.1 = {birth="2959.1.1"}
	3016.1.1 = {death="3016.1.1"}
}
10155988 = {
	name="Vibur"	# a lord
	dynasty=55988

	religion="yiti_gods"
	culture="lengi"

	father=10055988
	mother=40055988

	2992.1.1 = {birth="2992.1.1"}
	3008.1.1 = {add_trait=trained_warrior}
	3022.1.1 = {death="3022.1.1"}
}
10255988 = {
	name="Yakthoob"	# a lord
	dynasty=55988

	religion="yiti_gods"
	culture="lengi"

	father=10055988
	mother=40055988

	2994.1.1 = {birth="2994.1.1"}
	3010.1.1 = {add_trait=trained_warrior}
	3012.1.1 = {add_spouse=40255988}
	3074.1.1 = {death="3074.1.1"}
}
40255988 = {
	name="Dythalla"
	female=yes

	religion="yiti_gods"
	culture="lengi"

	2994.1.1 = {birth="2994.1.1"}
	3074.1.1 = {death="3074.1.1"}
}
10355988 = {
	name="Pharol"	# not a lord
	dynasty=55988

	religion="yiti_gods"
	culture="lengi"

	father=10255988
	mother=40255988

	3015.1.1 = {birth="3015.1.1"}
	3031.1.1 = {add_trait=poor_warrior}
	3033.1.1 = {add_spouse=40355988}
	3065.1.1 = {death = {death_reason = death_murder}}
}
40355988 = {
	name="Lavinia"
	female=yes

	religion="yiti_gods"
	culture="lengi"

	3015.1.1 = {birth="3015.1.1"}
	3065.1.1 = {death="3065.1.1"}
}
10455988 = {
	name="Y'lla"	# not a lord
	female=yes
	dynasty=55988

	religion="yiti_gods"
	culture="lengi"

	father=10355988
	mother=40355988

	3044.1.1 = {birth="3044.1.1"}
	3103.1.1 = {death="3103.1.1"}
}
10555988 = {
	name="Japhet"	# a lord
	dynasty=55988

	religion="yiti_gods"
	culture="lengi"

	father=10355988
	mother=40355988

	3045.1.1 = {birth="3045.1.1"}
	3061.1.1 = {add_trait=poor_warrior}
	3063.1.1 = {add_spouse=40555988}
	3090.1.1 = {death="3090.1.1"}
}
40555988 = {
	name="Idh-yaa"
	female=yes

	religion="yiti_gods"
	culture="lengi"

	3045.1.1 = {birth="3045.1.1"}
	3090.1.1 = {death="3090.1.1"}
}
10655988 = {
	name="Abdul"	# not a lord
	dynasty=55988

	religion="yiti_gods"
	culture="lengi"

	father=10355988
	mother=40355988

	3047.1.1 = {birth="3047.1.1"}
	3063.1.1 = {add_trait=poor_warrior}
	3121.1.1 = {death="3121.1.1"}
}
10755988 = {
	name="Lavinia"	# not a lord
	female=yes
	dynasty=55988

	religion="yiti_gods"
	culture="lengi"

	father=10555988
	mother=40555988

	3068.1.1 = {birth="3068.1.1"}
	3125.1.1 = {death="3125.1.1"}
}
10855988 = {
	name="Kassogtha"	# not a lord
	female=yes
	dynasty=55988

	religion="yiti_gods"
	culture="lengi"

	father=10555988
	mother=40555988

	3069.1.1 = {birth="3069.1.1"}
	3111.1.1 = {death = {death_reason = death_murder}}
}
10955988 = {
	name="Yhagni"	# not a lord
	female=yes
	dynasty=55988

	religion="yiti_gods"
	culture="lengi"

	father=10555988
	mother=40555988

	3071.1.1 = {birth="3071.1.1"}
	3116.1.1 = {death = {death_reason = death_murder}}
}
11055988 = {
	name="Pharol"	# a lord
	dynasty=55988

	religion="yiti_gods"
	culture="lengi"

	father=10555988
	mother=40555988

	3073.1.1 = {birth="3073.1.1"}
	3089.1.1 = {add_trait=skilled_warrior}
	3091.1.1 = {add_spouse=41055988}
	3124.1.1 = {death="3124.1.1"}
}
41055988 = {
	name="Scathach"
	female=yes

	religion="yiti_gods"
	culture="lengi"

	3073.1.1 = {birth="3073.1.1"}
	3124.1.1 = {death="3124.1.1"}
}
11155988 = {
	name="Hastalyk"	# a lord
	dynasty=55988

	religion="yiti_gods"
	culture="lengi"

	father=11055988
	mother=41055988

	3095.1.1 = {birth="3095.1.1"}
	3111.1.1 = {add_trait=trained_warrior}
	3113.1.1 = {add_spouse=41155988}
	3143.1.1 = {death="3143.1.1"}
}
41155988 = {
	name="Thanaroa"
	female=yes

	religion="yiti_gods"
	culture="lengi"

	3095.1.1 = {birth="3095.1.1"}
	3143.1.1 = {death="3143.1.1"}
}
11255988 = {
	name="Mormo"	# not a lord
	dynasty=55988

	religion="yiti_gods"
	culture="lengi"

	father=11055988
	mother=41055988

	3096.1.1 = {birth="3096.1.1"}
	3112.1.1 = {add_trait=skilled_warrior}
	3143.1.1 = {death="3143.1.1"}
}
11355988 = {
	name="Dygra"	# not a lord
	female=yes
	dynasty=55988

	religion="yiti_gods"
	culture="lengi"

	father=11055988
	mother=41055988

	3097.1.1 = {birth="3097.1.1"}
	3156.1.1 = {death="3156.1.1"}
}
11455988 = {
	name="Xotli"	# not a lord
	female=yes
	dynasty=55988

	religion="yiti_gods"
	culture="lengi"

	father=11155988
	mother=41155988

	3123.1.1 = {birth="3123.1.1"}
	3180.1.1 = {death="3180.1.1"}
}
11555988 = {
	name="Summanus"	# a lord
	dynasty=55988

	religion="yiti_gods"
	culture="lengi"

	father=11155988
	mother=41155988

	3125.1.1 = {birth="3125.1.1"}
	3141.1.1 = {add_trait=trained_warrior}
	3143.1.1 = {add_spouse=41555988}
	3175.1.1 = {death="3175.1.1"}
}
41555988 = {
	name="Nctolhu"
	female=yes

	religion="yiti_gods"
	culture="lengi"

	3125.1.1 = {birth="3125.1.1"}
	3175.1.1 = {death="3175.1.1"}
}
11655988 = {
	name="Inpesca"	# not a lord
	female=yes
	dynasty=55988

	religion="yiti_gods"
	culture="lengi"

	father=11555988
	mother=41555988

	3154.1.1 = {birth="3154.1.1"}
	3220.1.1 = {death="3220.1.1"}
}
11755988 = {
	name="Kaalut"	# a lord
	dynasty=55988

	religion="yiti_gods"
	culture="lengi"

	father=11555988
	mother=41555988

	3157.1.1 = {birth="3157.1.1"}
	3173.1.1 = {add_trait=trained_warrior}
	3175.1.1 = {add_spouse=41755988}
	3182.1.1 = {death="3182.1.1"}
}
41755988 = {
	name="Sthanee"
	female=yes

	religion="yiti_gods"
	culture="lengi"

	3157.1.1 = {birth="3157.1.1"}
	3200.1.1 = {death="3200.1.1"}
}
11855988 = {
	name="Kassogtha"	# a lord
	female=yes
	dynasty=55988

	religion="yiti_gods"
	culture="lengi"

	father=11755988
	mother=41755988

	3180.1.1 = {birth="3180.1.1"}
	3237.1.1 = {death="3237.1.1"}
}
41855988 = {
	name="Ammutseba"

	religion="yiti_gods"
	culture="lengi"

	3186.1.1 = {birth="3186.1.1"}
	3202.1.1 = {add_trait=poor_warrior}
	3204.1.1 = {add_spouse=11855988}
	3237.1.1 = {death="3237.1.1"}
}
11955988 = {
	name="Ayi'ig"	# not a lord
	female=yes
	dynasty=55988

	religion="yiti_gods"
	culture="lengi"

	father=11755988
	mother=41755988

	3182.1.1 = {birth="3182.1.1"}
	3252.1.1 = {death="3252.1.1"}
}
12055988 = {
	name="Abdul"	# a lord
	dynasty=55988

	religion="yiti_gods"
	culture="lengi"

	father=41855988
	mother=11855988

	3215.1.1 = {birth="3215.1.1"}
	3231.1.1 = {add_trait=poor_warrior}
	3233.1.1 = {add_spouse=42055988}
	3262.1.1 = {death="3262.1.1"}
}
42055988 = {
	name="Istasha"
	female=yes

	religion="yiti_gods"
	culture="lengi"

	3215.1.1 = {birth="3215.1.1"}
	3262.1.1 = {death="3262.1.1"}
}
12155988 = {
	name="Inpesca"	# not a lord
	female=yes
	dynasty=55988

	religion="yiti_gods"
	culture="lengi"

	father=41855988
	mother=11855988

	3210.1.1 = {birth="3210.1.1"}
	3272.1.1 = {death="3272.1.1"}
}
12255988 = {
	name="Chaugnar"	# a lord
	dynasty=55988

	religion="yiti_gods"
	culture="lengi"

	father=12055988
	mother=42055988

	3247.1.1 = {birth="3247.1.1"}
	3263.1.1 = {add_trait=poor_warrior}
	3265.1.1 = {add_spouse=42255988}
	3278.1.1 = {death = {death_reason = death_battle}}
}
42255988 = {
	name="Gzxtyos"
	female=yes

	religion="yiti_gods"
	culture="lengi"

	3247.1.1 = {birth="3247.1.1"}
	3278.1.1 = {death="3278.1.1"}
}
12355988 = {
	name="Byatis"	# a lord
	dynasty=55988

	religion="yiti_gods"
	culture="lengi"

	father=12255988
	mother=42255988

	3265.1.1 = {birth="3265.1.1"}
	3281.1.1 = {add_trait=poor_warrior}
	3283.1.1 = {add_spouse=42355988}
}
42355988 = {
	name="Gleetha"
	female=yes

	religion="yiti_gods"
	culture="lengi"

	3265.1.1 = {birth="3265.1.1"}
}
12455988 = {
	name="Arwassa"	# not a lord
	dynasty=55988

	religion="yiti_gods"
	culture="lengi"

	father=12255988
	mother=42255988

	3267.1.1 = {birth="3267.1.1"}
	3283.1.1 = {add_trait=poor_warrior}
}
12555988 = {
	name="Gleetha"	# not a lord
	female=yes
	dynasty=55988

	religion="yiti_gods"
	culture="lengi"

	father=12255988
	mother=42255988

	3268.1.1 = {birth="3268.1.1"}
}
12655988 = {
	name="Kurpannga"	# not a lord
	dynasty=55988

	religion="yiti_gods"
	culture="lengi"

	father=12255988
	mother=42255988

	3269.1.1 = {birth="3269.1.1"}
	3285.1.1 = {add_trait=trained_warrior}
}
12755988 = {
	name="Kassogtha"	# not a lord
	female=yes
	dynasty=55988

	religion="yiti_gods"
	culture="lengi"

	father=12355988
	mother=42355988

	3286.1.1 = {birth="3286.1.1"}
}
12855988 = {
	name="Alijah"	# not a lord
	dynasty=55988

	religion="yiti_gods"
	culture="lengi"

	father=12355988
	mother=42355988

	3289.1.1 = {birth="3289.1.1"}
	3305.1.1 = {add_trait=poor_warrior}
}
12955988 = {
	name="Aylith"	# not a lord
	female=yes
	dynasty=55988

	religion="yiti_gods"
	culture="lengi"

	father=12355988
	mother=42355988

	3291.1.1 = {birth="3291.1.1"}
}
13055988 = {
	name="Saa'itii"	# not a lord
	female=yes
	dynasty=55988

	religion="yiti_gods"
	culture="lengi"

	father=12355988
	mother=42355988

	3292.1.1 = {birth="3292.1.1"}
}


