
###############################################   House Fisher  ####################################################################

10004430 = {
	name="Heward"	# a lord
	dynasty=174430

	religion="old_gods"
	culture="old_first_man"

	2970.1.1 = {birth="2970.1.1"}
	2986.1.1 = {add_trait=poor_warrior}
	2988.1.1 = {add_spouse=40004430}
	3032.1.1 = {death="3032.1.1"}
}
40004430 = {
	name="Barba"
	female=yes

	religion="old_gods"
	culture="old_first_man"

	2970.1.1 = {birth="2970.1.1"}
	3032.1.1 = {death="3032.1.1"}
}
10014430 = {
	name="Torren"	# a lord
	dynasty=174430

	religion="old_gods"
	culture="old_first_man"

	father=10004430
	mother=40004430

	2991.1.1 = {birth="2991.1.1"}
	3007.1.1 = {add_trait=skilled_warrior}
	3009.1.1 = {add_spouse=40014430}
	3068.1.1 = {death="3068.1.1"}
}
40014430 = {
	name="Alyssa"
	female=yes

	religion="old_gods"
	culture="old_first_man"

	2991.1.1 = {birth="2991.1.1"}
	3068.1.1 = {death="3068.1.1"}
}
10024430 = {
	name="Ondrew"	# not a lord
	dynasty=174430

	religion="old_gods"
	culture="old_first_man"

	father=10004430
	mother=40004430

	2994.1.1 = {birth="2994.1.1"}
	3010.1.1 = {add_trait=poor_warrior}
	3062.1.1 = {death="3062.1.1"}
}
10034430 = {
	name="Donnis"	# a lord
	dynasty=174430

	religion="old_gods"
	culture="old_first_man"

	father=10014430
	mother=40014430

	3015.1.1 = {birth="3015.1.1"}
	3031.1.1 = {add_trait=trained_warrior}
	3033.1.1 = {add_spouse=40034430}
	3069.1.1 = {death="3069.1.1"}
}
40034430 = {
	name="Serra"
	female=yes

	religion="old_gods"
	culture="old_first_man"

	3015.1.1 = {birth="3015.1.1"}
	3069.1.1 = {death="3069.1.1"}
}
10044430 = {
	name="Wyman"	# not a lord
	dynasty=174430

	religion="old_gods"
	culture="old_first_man"

	father=10034430
	mother=40034430

	3037.1.1 = {birth="3037.1.1"}
	3053.1.1 = {add_trait=poor_warrior}
	3069.1.1 = {death="3069.1.1"}
}
10054430 = {
	name="Edwyle"	# a lord
	dynasty=174430

	religion="old_gods"
	culture="old_first_man"

	father=10034430
	mother=40034430

	3038.1.1 = {birth="3038.1.1"}
	3054.1.1 = {add_trait=poor_warrior}
	3056.1.1 = {add_spouse=40054430}
	3092.1.1 = {death="3092.1.1"}
}
40054430 = {
	name="Shyra"
	female=yes

	religion="old_gods"
	culture="old_first_man"

	3038.1.1 = {birth="3038.1.1"}
	3092.1.1 = {death="3092.1.1"}
}
10064430 = {
	name="Ethan"	# not a lord
	dynasty=174430

	religion="old_gods"
	culture="old_first_man"

	father=10034430
	mother=40034430

	3041.1.1 = {birth="3041.1.1"}
	3057.1.1 = {add_trait=trained_warrior}
	3086.1.1 = {death="3086.1.1"}
}
10074430 = {
	name="Wynafryd"	# not a lord
	female=yes
	dynasty=174430

	religion="old_gods"
	culture="old_first_man"

	father=10054430
	mother=40054430

	3057.1.1 = {birth="3057.1.1"}
	3137.1.1 = {death="3137.1.1"}
}
10084430 = {
	name="Bartimus"	# a lord
	dynasty=174430

	religion="old_gods"
	culture="old_first_man"

	father=10054430
	mother=40054430

	3060.1.1 = {birth="3060.1.1"}
	3076.1.1 = {add_trait=skilled_warrior}
	3078.1.1 = {add_spouse=40084430}
	3093.1.1 = {death="3093.1.1"}
}
40084430 = {
	name="Lacey"
	female=yes

	religion="old_gods"
	culture="old_first_man"

	3060.1.1 = {birth="3060.1.1"}
	3093.1.1 = {death="3093.1.1"}
}
10094430 = {
	name="Wyl"	# not a lord
	dynasty=174430

	religion="old_gods"
	culture="old_first_man"

	father=10054430
	mother=40054430

	3063.1.1 = {birth="3063.1.1"}
	3079.1.1 = {add_trait=trained_warrior}
	3104.1.1 = {death="3104.1.1"}
}
10104430 = {
	name="Leana"	# not a lord
	female=yes
	dynasty=174430

	religion="old_gods"
	culture="old_first_man"

	father=10054430
	mother=40054430

	3065.1.1 = {birth="3065.1.1"}
	3124.1.1 = {death="3124.1.1"}
}
10114430 = {
	name="Rodrik"	# a lord
	dynasty=174430

	religion="old_gods"
	culture="old_first_man"

	father=10084430
	mother=40084430

	3081.1.1 = {birth="3081.1.1"}
	3097.1.1 = {add_trait=trained_warrior}
	3099.1.1 = {add_spouse=40114430}
	3147.1.1 = {death="3147.1.1"}
}
40114430 = {
	name="Meera"
	female=yes

	religion="old_gods"
	culture="old_first_man"

	3081.1.1 = {birth="3081.1.1"}
	3147.1.1 = {death="3147.1.1"}
}
10124430 = {
	name="Harlon"	# not a lord
	dynasty=174430

	religion="old_gods"
	culture="old_first_man"

	father=10084430
	mother=40084430

	3083.1.1 = {birth="3083.1.1"}
	3099.1.1 = {add_trait=poor_warrior}
	3133.1.1 = {death="3133.1.1"}
}
10134430 = {
	name="Alysane"	# not a lord
	female=yes
	dynasty=174430

	religion="old_gods"
	culture="old_first_man"

	father=10084430
	mother=40084430

	3086.1.1 = {birth="3086.1.1"}
	3133.1.1 = {death="3133.1.1"}
}
10144430 = {
	name="Maege"	# not a lord
	female=yes
	dynasty=174430

	religion="old_gods"
	culture="old_first_man"

	father=10084430
	mother=40084430

	3088.1.1 = {birth="3088.1.1"}
	3134.1.1 = {death="3134.1.1"}
}
10154430 = {
	name="Cley"	# not a lord
	dynasty=174430

	religion="old_gods"
	culture="old_first_man"

	father=10084430
	mother=40084430

	3089.1.1 = {birth="3089.1.1"}
	3105.1.1 = {add_trait=skilled_warrior}
	3159.1.1 = {death="3159.1.1"}
}
10164430 = {
	name="Eyron"	# a lord
	dynasty=174430

	religion="old_gods"
	culture="old_first_man"

	father=10114430
	mother=40114430

	3103.1.1 = {birth="3103.1.1"}
	3119.1.1 = {add_trait=poor_warrior}
	3121.1.1 = {add_spouse=40164430}
	3157.1.1 = {death="3157.1.1"}
}
40164430 = {
	name="Elyana"
	female=yes

	religion="old_gods"
	culture="old_first_man"

	3103.1.1 = {birth="3103.1.1"}
	3157.1.1 = {death="3157.1.1"}
}
10174430 = {
	name="Rowena"	# not a lord
	female=yes
	dynasty=174430

	religion="old_gods"
	culture="old_first_man"

	father=10114430
	mother=40114430

	3104.1.1 = {birth="3104.1.1"}
	3163.1.1 = {death="3163.1.1"}
}
10184430 = {
	name="Jeyne"	# not a lord
	female=yes
	dynasty=174430

	religion="old_gods"
	culture="old_first_man"

	father=10114430
	mother=40114430

	3106.1.1 = {birth="3106.1.1"}
	3165.1.1 = {death="3165.1.1"}
}
10194430 = {
	name="Medger"	# not a lord
	dynasty=174430

	religion="old_gods"
	culture="old_first_man"

	father=10164430
	mother=40164430

	3128.1.1 = {birth="3128.1.1"}
	3144.1.1 = {add_trait=poor_warrior}
	3156.1.1 = {death="3156.1.1"}
}
10204430 = {
	name="Alysane"	# not a lord
	female=yes
	dynasty=174430

	religion="old_gods"
	culture="old_first_man"

	father=10164430
	mother=40164430

	3130.1.1 = {birth="3130.1.1"}
	3203.1.1 = {death="3203.1.1"}
}
10214430 = {
	name="Harlon"	# a lord
	dynasty=174430

	religion="old_gods"
	culture="old_first_man"

	father=10164430
	mother=40164430

	3133.1.1 = {birth="3133.1.1"}
	3149.1.1 = {add_trait=poor_warrior}
	3151.1.1 = {add_spouse=40214430}
	3158.1.1 = {death="3158.1.1"}
}
40214430 = {
	name="Sansa"
	female=yes

	religion="old_gods"
	culture="old_first_man"

	3133.1.1 = {birth="3133.1.1"}
	3158.1.1 = {death="3158.1.1"}
}
10224430 = {
	name="Eddard"	# a lord
	dynasty=174430

	religion="old_gods"
	culture="old_first_man"

	father=10214430
	mother=40214430

	3161.1.1 = {birth="3161.1.1"}
	3177.1.1 = {add_trait=poor_warrior}
	3179.1.1 = {add_spouse=40224430}
	3210.1.1 = {death="3210.1.1"}
}
40224430 = {
	name="Morra"
	female=yes

	religion="old_gods"
	culture="old_first_man"

	3161.1.1 = {birth="3161.1.1"}
	3210.1.1 = {death="3210.1.1"}
}
10234430 = {
	name="Palla"	# not a lord
	female=yes
	dynasty=174430

	religion="old_gods"
	culture="old_first_man"

	father=10214430
	mother=40214430

	3164.1.1 = {birth="3164.1.1"}
	3228.1.1 = {death="3228.1.1"}
}
10244430 = {
	name="Torrhen"	# a lord
	dynasty=174430

	religion="old_gods"
	culture="old_first_man"

	father=10224430
	mother=40224430

	3196.1.1 = {birth="3196.1.1"}
	3212.1.1 = {add_trait=trained_warrior}
	3214.1.1 = {add_spouse=40244430}
	3250.1.1 = {death="3250.1.1"}
}
40244430 = {
	name="Maegelle"
	female=yes

	religion="old_gods"
	culture="old_first_man"

	3196.1.1 = {birth="3196.1.1"}
	3250.1.1 = {death="3250.1.1"}
}
10254430 = {
	name="Cayn"	# not a lord
	dynasty=174430

	religion="old_gods"
	culture="old_first_man"

	father=10224430
	mother=40224430

	3199.1.1 = {birth="3199.1.1"}
	3215.1.1 = {add_trait=trained_warrior}
	3267.1.1 = {death="3267.1.1"}
}
10264430 = {
	name="Bartimus"	# not a lord
	dynasty=174430

	religion="old_gods"
	culture="old_first_man"

	father=10224430
	mother=40224430

	3202.1.1 = {birth="3202.1.1"}
	3218.1.1 = {add_trait=trained_warrior}
	3270.1.1 = {death="3270.1.1"}
}
10274430 = {
	name="Aethan"	# a lord
	dynasty=174430

	religion="old_gods"
	culture="old_first_man"

	father=10244430
	mother=40244430

	3228.1.1 = {birth="3228.1.1"}
	3244.1.1 = {add_trait=poor_warrior}
	3246.1.1 = {add_spouse=40274430}
	3289.1.1 = {death="3289.1.1"}
}
40274430 = {
	name="Wynafryd"
	female=yes

	religion="old_gods"
	culture="old_first_man"

	3228.1.1 = {birth="3228.1.1"}
	3289.1.1 = {death="3289.1.1"}
}
10284430 = {
	name="Robb"	# not a lord
	dynasty=174430

	religion="old_gods"
	culture="old_first_man"

	father=10244430
	mother=40244430

	3229.1.1 = {birth="3229.1.1"}
	3245.1.1 = {add_trait=trained_warrior}
	3262.1.1 = {death="3262.1.1"}
}
10294430 = {
	name="Alys"	# not a lord
	female=yes
	dynasty=174430

	religion="old_gods"
	culture="old_first_man"

	father=10244430
	mother=40244430

	3230.1.1 = {birth="3230.1.1"}
	3267.1.1 = {death="3267.1.1"}
}
10304430 = {
	name="Arnolf"	# a lord
	dynasty=174430

	religion="old_gods"
	culture="old_first_man"

	father=10274430
	mother=40274430

	3259.1.1 = {birth="3259.1.1"}
	3275.1.1 = {add_trait=master_warrior}
	3277.1.1 = {add_spouse=40304430}
	3290.1.1 = {death="3290.1.1"}
}
40304430 = {
	name="Barbrey"
	female=yes

	religion="old_gods"
	culture="old_first_man"

	3259.1.1 = {birth="3259.1.1"}
	3290.1.1 = {death="3290.1.1"}
}
10314430 = {
	name="Pate"	# not a lord
	dynasty=174430

	religion="old_gods"
	culture="old_first_man"

	father=10274430
	mother=40274430

	3261.1.1 = {birth="3261.1.1"}
	3277.1.1 = {add_trait=poor_warrior}
	3313.1.1 = {death="3313.1.1"}
}
10324430 = {
	name="Willam"	# not a lord
	dynasty=174430

	religion="old_gods"
	culture="old_first_man"

	father=10274430
	mother=40274430

	3262.1.1 = {birth="3262.1.1"}
	3278.1.1 = {add_trait=trained_warrior}
	3302.1.1 = {death="3302.1.1"}
}
10334430 = {
	name="Barba"	# not a lord
	female=yes
	dynasty=174430

	religion="old_gods"
	culture="old_first_man"

	father=10274430
	mother=40274430

	3263.1.1 = {birth="3263.1.1"}
	3300.1.1 = {death="3300.1.1"}
}
10344430 = {
	name="Jojen"	# a lord
	dynasty=174430

	religion="old_gods"
	culture="old_first_man"

	father=10304430
	mother=40304430

	3278.1.1 = {birth="3278.1.1"}
	3294.1.1 = {add_trait=trained_warrior}
	3296.1.1 = {add_spouse=40344430}
	3341.1.1 = {death="3341.1.1"}
}
40344430 = {
	name="Larra"
	female=yes

	religion="old_gods"
	culture="old_first_man"

	3278.1.1 = {birth="3278.1.1"}
	3341.1.1 = {death="3341.1.1"}
}
10354430 = {
	name="Ethan"	# not a lord
	dynasty=174430

	religion="old_gods"
	culture="old_first_man"

	father=10304430
	mother=40304430

	3279.1.1 = {birth="3279.1.1"}
	3295.1.1 = {add_trait=trained_warrior}
	3344.1.1 = {death="3344.1.1"}
}
10364430 = {
	name="Erena"	# not a lord
	female=yes
	dynasty=174430

	religion="old_gods"
	culture="old_first_man"

	father=10304430
	mother=40304430

	3280.1.1 = {birth="3280.1.1"}
	3331.1.1 = {death="3331.1.1"}
}
10374430 = {
	name="Hugo"	# not a lord
	dynasty=174430

	religion="old_gods"
	culture="old_first_man"

	father=10304430
	mother=40304430

	3281.1.1 = {birth="3281.1.1"}
	3297.1.1 = {add_trait=trained_warrior}
	3343.1.1 = {death="3343.1.1"}
}
10384430 = {
	name="Barth"	# not a lord
	dynasty=174430

	religion="old_gods"
	culture="old_first_man"

	father=10304430
	mother=40304430

	3282.1.1 = {birth="3282.1.1"}
	3298.1.1 = {add_trait=poor_warrior}
	3339.1.1 = {death="3339.1.1"}
}
10394430 = {
	name="Leobald"	# a lord
	dynasty=174430

	religion="old_gods"
	culture="old_first_man"

	father=10344430
	mother=40344430

	3304.1.1 = {birth="3304.1.1"}
	3320.1.1 = {add_trait=skilled_warrior}
	3361.1.1 = {death="3361.1.1"}
}





#######################################   House Mudd  ##############################################################

10004399 = {
	name="Donnis"	# a lord
	dynasty=174399

	religion="old_gods"
	culture="old_first_man"

	2966.1.1 = {birth="2966.1.1"}
	2982.1.1 = {add_trait=poor_warrior}
	2984.1.1 = {add_spouse=40004399}
	3029.1.1 = {death="3029.1.1"}
}
40004399 = {
	name="Lacey"
	female=yes

	religion="old_gods"
	culture="old_first_man"

	2966.1.1 = {birth="2966.1.1"}
	3029.1.1 = {death="3029.1.1"}
}
10014399 = {
	name="Willam"	# a lord
	dynasty=174399

	religion="old_gods"
	culture="old_first_man"

	father=10004399
	mother=40004399

	2986.1.1 = {birth="2986.1.1"}
	3002.1.1 = {add_trait=skilled_warrior}
	3004.1.1 = {add_spouse=40014399}
	3038.1.1 = {death="3038.1.1"}
}
40014399 = {
	name="Alys"
	female=yes

	religion="old_gods"
	culture="old_first_man"

	2986.1.1 = {birth="2986.1.1"}
	3038.1.1 = {death="3038.1.1"}
}
10024399 = {
	name="Theo"	# a lord
	dynasty=174399

	religion="old_gods"
	culture="old_first_man"

	father=10014399
	mother=40014399

	3005.1.1 = {birth="3005.1.1"}
	3021.1.1 = {add_trait=knight add_trait=poor_warrior}
	3023.1.1 = {add_spouse=40024399}
	3046.1.1 = {death="3046.1.1"}
}
40024399 = {
	name="Sarra"
	female=yes

	religion="old_gods"
	culture="old_first_man"

	3005.1.1 = {birth="3005.1.1"}
	3046.1.1 = {death="3046.1.1"}
}
10034399 = {
	name="Arya"	# not a lord
	female=yes
	dynasty=174399

	religion="old_gods"
	culture="old_first_man"

	father=10014399
	mother=40014399

	3006.1.1 = {birth="3006.1.1"}
	3050.1.1 = {death="3050.1.1"}
}
10044399 = {
	name="Robb"	# not a lord
	dynasty=174399

	religion="old_gods"
	culture="old_first_man"

	father=10014399
	mother=40014399

	3008.1.1 = {birth="3008.1.1"}
	3024.1.1 = {add_trait=poor_warrior}
	3084.1.1 = {death="3084.1.1"}
}
10054399 = {
	name="Edrick"	# not a lord
	dynasty=174399

	religion="old_gods"
	culture="old_first_man"

	father=10014399
	mother=40014399

	3009.1.1 = {birth="3009.1.1"}
	3025.1.1 = {add_trait=trained_warrior}
	3043.1.1 = {death="3043.1.1"}
}
10064399 = {
	name="Brenett"	# a lord
	dynasty=174399

	religion="old_gods"
	culture="old_first_man"

	father=10024399
	mother=40024399

	3026.1.1 = {birth="3026.1.1"}
	3042.1.1 = {add_trait=poor_warrior}
	3044.1.1 = {add_spouse=40064399}
	3056.1.1 = {death="3056.1.1"}
}
40064399 = {
	name="Meliana"
	female=yes

	religion="old_gods"
	culture="old_first_man"

	3026.1.1 = {birth="3026.1.1"}
	3056.1.1 = {death="3056.1.1"}
}
10074399 = {
	name="Kyra"	# not a lord
	female=yes
	dynasty=174399

	religion="old_gods"
	culture="old_first_man"

	father=10024399
	mother=40024399

	3027.1.1 = {birth="3027.1.1"}
	3035.1.1 = {death = {death_reason = death_accident}}
}
10084399 = {
	name="Donnel"	# a lord
	dynasty=174399

	religion="old_gods"
	culture="old_first_man"

	father=10064399
	mother=40064399

	3060.1.1 = {birth="3060.1.1"}
	3076.1.1 = {add_trait=poor_warrior}
	3078.1.1 = {add_spouse=40084399}
	3129.1.1 = {death="3129.1.1"}
}
40084399 = {
	name="Cassana"
	female=yes

	religion="old_gods"
	culture="old_first_man"

	3060.1.1 = {birth="3060.1.1"}
	3129.1.1 = {death="3129.1.1"}
}
10094399 = {
	name="Maegelle"	# not a lord
	female=yes
	dynasty=174399

	religion="old_gods"
	culture="old_first_man"

	father=10084399
	mother=40084399

	3086.1.1 = {birth="3086.1.1"}
	3143.1.1 = {death="3143.1.1"}
}
10104399 = {
	name="Meera"	# not a lord
	female=yes
	dynasty=174399

	religion="old_gods"
	culture="old_first_man"

	father=10084399
	mother=40084399

	3087.1.1 = {birth="3087.1.1"}
	3131.1.1 = {death="3131.1.1"}
}
10114399 = {
	name="Porther"	# a lord
	dynasty=174399

	religion="old_gods"
	culture="old_first_man"

	father=10084399
	mother=40084399

	3090.1.1 = {birth="3090.1.1"}
	3106.1.1 = {add_trait=trained_warrior}
	3108.1.1 = {add_spouse=40114399}
	3141.1.1 = {death="3141.1.1"}
}
40114399 = {
	name="Alysane"
	female=yes

	religion="old_gods"
	culture="old_first_man"

	3090.1.1 = {birth="3090.1.1"}
	3141.1.1 = {death="3141.1.1"}
}
10124399 = {
	name="Rowena"	# not a lord
	female=yes
	dynasty=174399

	religion="old_gods"
	culture="old_first_man"

	father=10114399
	mother=40114399

	3123.1.1 = {birth="3123.1.1"}
	3165.1.1 = {death="3165.1.1"}
}
10134399 = {
	name="Helman"	# a lord
	dynasty=174399

	religion="old_gods"
	culture="old_first_man"

	father=10114399
	mother=40114399

	3126.1.1 = {birth="3126.1.1"}
	3142.1.1 = {add_trait=poor_warrior}
	3144.1.1 = {add_spouse=40134399}
	3179.1.1 = {death="3179.1.1"}
}
40134399 = {
	name="Kyra"
	female=yes

	religion="old_gods"
	culture="old_first_man"

	3126.1.1 = {birth="3126.1.1"}
	3179.1.1 = {death="3179.1.1"}
}
10144399 = {
	name="Sansa"	# not a lord
	female=yes
	dynasty=174399

	religion="old_gods"
	culture="old_first_man"

	father=10114399
	mother=40114399

	3127.1.1 = {birth="3127.1.1"}
	3176.1.1 = {death="3176.1.1"}
}
10154399 = {
	name="Jorah"	# not a lord
	dynasty=174399

	religion="old_gods"
	culture="old_first_man"

	father=10114399
	mother=40114399

	3130.1.1 = {birth="3130.1.1"}
	3146.1.1 = {add_trait=trained_warrior}
	3198.1.1 = {death="3198.1.1"}
}
10164399 = {
	name="Alyx"	# not a lord
	female=yes
	dynasty=174399

	religion="old_gods"
	culture="old_first_man"

	father=10134399
	mother=40134399

	3145.1.1 = {birth="3145.1.1"}
	3197.1.1 = {death="3197.1.1"}
}
10174399 = {
	name="Donnis"	# a lord
	dynasty=174399

	religion="old_gods"
	culture="old_first_man"

	father=10134399
	mother=40134399

	3147.1.1 = {birth="3147.1.1"}
	3163.1.1 = {add_trait=skilled_warrior}
	3165.1.1 = {add_spouse=40174399}
	3195.1.1 = {death="3195.1.1"}
}
40174399 = {
	name="Sarra"
	female=yes

	religion="old_gods"
	culture="old_first_man"

	3147.1.1 = {birth="3147.1.1"}
	3195.1.1 = {death="3195.1.1"}
}
10184399 = {
	name="Robin"	# not a lord
	dynasty=174399

	religion="old_gods"
	culture="old_first_man"

	father=10134399
	mother=40134399

	3149.1.1 = {birth="3149.1.1"}
	3165.1.1 = {add_trait=poor_warrior}
	3178.1.1 = {death="3178.1.1"}
}
10194399 = {
	name="Barba"	# not a lord
	female=yes
	dynasty=174399

	religion="old_gods"
	culture="old_first_man"

	father=10174399
	mother=40174399

	3178.1.1 = {birth="3178.1.1"}
	3250.1.1 = {death="3250.1.1"}
}
10204399 = {
	name="Harra"	# not a lord
	female=yes
	dynasty=174399

	religion="old_gods"
	culture="old_first_man"

	father=10174399
	mother=40174399

	3180.1.1 = {birth="3180.1.1"}
	3214.1.1 = {death="3214.1.1"}
}
10214399 = {
	name="Jorah"	# a lord
	dynasty=174399

	religion="old_gods"
	culture="old_first_man"

	father=10174399
	mother=40174399

	3181.1.1 = {birth="3181.1.1"}
	3197.1.1 = {add_trait=poor_warrior}
	3199.1.1 = {add_spouse=40214399}
	3226.1.1 = {death="3226.1.1"}
}
40214399 = {
	name="Elyana"
	female=yes

	religion="old_gods"
	culture="old_first_man"

	3181.1.1 = {birth="3181.1.1"}
	3226.1.1 = {death="3226.1.1"}
}
10224399 = {
	name="Jyana"	# not a lord
	female=yes
	dynasty=174399

	religion="old_gods"
	culture="old_first_man"

	father=10214399
	mother=40214399

	3213.1.1 = {birth="3213.1.1"}
	3247.1.1 = {death="3247.1.1"}
}
10234399 = {
	name="Alyssa"	# not a lord
	female=yes
	dynasty=174399

	religion="old_gods"
	culture="old_first_man"

	father=10214399
	mother=40214399

	3216.1.1 = {birth="3216.1.1"}
	3265.1.1 = {death="3265.1.1"}
}
10244399 = {
	name="Alyn"	# a lord
	dynasty=174399

	religion="old_gods"
	culture="old_first_man"

	father=10214399
	mother=40214399

	3219.1.1 = {birth="3219.1.1"}
	3235.1.1 = {add_trait=skilled_warrior}
	3237.1.1 = {add_spouse=40244399}
	3297.1.1 = {death="3297.1.1"}
}
40244399 = {
	name="Sarra"
	female=yes

	religion="old_gods"
	culture="old_first_man"

	3219.1.1 = {birth="3219.1.1"}
	3297.1.1 = {death="3297.1.1"}
}
10254399 = {
	name="Eddara"	# not a lord
	female=yes
	dynasty=174399

	religion="old_gods"
	culture="old_first_man"

	father=10244399
	mother=40244399

	3247.1.1 = {birth="3247.1.1"}
	3312.1.1 = {death="3312.1.1"}
}
10264399 = {
	name="Jon"	# a lord
	dynasty=174399

	religion="old_gods"
	culture="old_first_man"

	father=10244399
	mother=40244399

	3249.1.1 = {birth="3249.1.1"}
	3265.1.1 = {add_trait=skilled_warrior}
	3267.1.1 = {add_spouse=40264399}
	3319.1.1 = {death="3319.1.1"}
}
40264399 = {
	name="Meera"
	female=yes

	religion="old_gods"
	culture="old_first_man"

	3249.1.1 = {birth="3249.1.1"}
	3319.1.1 = {death="3319.1.1"}
}
10274399 = {
	name="Jyana"	# not a lord
	female=yes
	dynasty=174399

	religion="old_gods"
	culture="old_first_man"

	father=10244399
	mother=40244399

	3252.1.1 = {birth="3252.1.1"}
	3290.1.1 = {death="3290.1.1"}
}
10284399 = {
	name="Jonella"	# not a lord
	female=yes
	dynasty=174399

	religion="old_gods"
	culture="old_first_man"

	father=10264399
	mother=40264399

	3276.1.1 = {birth="3276.1.1"}
	3320.1.1 = {death="3320.1.1"}
}
10294399 = {
	name="Harmond"	# a lord
	dynasty=174399

	religion="old_gods"
	culture="old_first_man"

	father=10264399
	mother=40264399

	3278.1.1 = {birth="3278.1.1"}
	3294.1.1 = {add_trait=skilled_warrior}
	3296.1.1 = {add_spouse=40294399}
	3341.1.1 = {death="3341.1.1"}
}
40294399 = {
	name="Jeyne"
	female=yes

	religion="old_gods"
	culture="old_first_man"

	3278.1.1 = {birth="3278.1.1"}
	3341.1.1 = {death="3341.1.1"}
}
10304399 = {
	name="Bessa"	# not a lord
	female=yes
	dynasty=174399

	religion="old_gods"
	culture="old_first_man"

	father=10294399
	mother=40294399

	3313.1.1 = {birth="3313.1.1"}
	3392.1.1 = {death="3392.1.1"}
}
10314399 = {
	name="Marissa"	# not a lord
	female=yes
	dynasty=174399

	religion="old_gods"
	culture="old_first_man"

	father=10294399
	mother=40294399

	3316.1.1 = {birth="3316.1.1"}
	3381.1.1 = {death="3381.1.1"}
}
10324399 = {
	name="Benjicot"	# a lord
	dynasty=174399

	religion="old_gods"
	culture="old_first_man"

	father=10294399
	mother=40294399

	3318.1.1 = {birth="3318.1.1"}
	3334.1.1 = {add_trait=skilled_warrior}
	3384.1.1 = {death="3384.1.1"}
}



##################################################################   House Piper  #######################################################

2157 = {
	name="Edwyn"
	dynasty=157
	
	religion="old_gods"
	culture="old_first_man"
	
	father=3157
	
	3224.1.1 = {birth="3224.1.1"}
	3274.1.1 = {death="3274.1.1"}
}
6000157 = {
	name="Allen"
	dynasty=157
	
	religion="old_gods"
	culture="old_first_man"
	
	father=3157
	
	3229.1.1 = {birth="3229.1.1"}
	3274.1.1 = {death="3274.1.1"}
}
6100157 = {
	name="Mandon"
	dynasty=157
	
	religion="old_gods"
	culture="old_first_man"
	
	father=6000157
	
	3258.1.1 = {birth="3258.1.1"}
	3282.1.1 = {death= {death_reason = death_battle}}
}
3157 = {
	name="Roland"
	dynasty=157
	
	religion="old_gods"
	culture="old_first_man"
	
	father=4157
	
	3205.1.1 = {birth="3205.1.1"}
	3266.1.1 = {death="3266.1.1"}
}
4157 = {
	name="Manfred"
	dynasty=157
	
	religion="old_gods"
	culture="old_first_man"
	
	father=5157
	
	3184.1.1 = {birth="3184.1.1"}
	3237.1.1 = {death="3237.1.1"}
}
5157 = {
	name="Alyn"
	dynasty=157
	
	religion="old_gods"
	culture="old_first_man"
	
	father=6157
	
	3161.1.1 = {birth="3161.1.1"}
	3214.1.1 = {death="3214.1.1"}
}
6157 = {
	name="Marq"
	dynasty=157
	
	religion="old_gods"
	culture="old_first_man"
	
	father=7157
	
	3144.1.1 = {birth="3144.1.1"}
	3191.1.1 = {death="3191.1.1"}
}
7157 = {
	name="Willis"
	dynasty=157
	
	religion="old_gods"
	culture="old_first_man"
	
	father=8157
	
	3119.1.1 = {birth="3119.1.1"}
	3178.1.1 = {death="3178.1.1"}
}
8157 = {
	name="Willem" # Killed by Vermithor in at the second battle of Tumbleton
	dynasty=157
	
	religion="old_gods"
	culture="old_first_man"
	
	father=9157
	
	3094.1.1 = {birth="3094.1.1"}
	3130.5.8 = {death="3130.5.8"}
}
9157 = {
	name="Cosgrove"
	dynasty=157
	
	religion="old_gods"
	culture="old_first_man"
	
	father=10099157
	
	3067.1.1 = {birth="3067.1.1"}
	3124.1.1 = {death="3124.1.1"}
}
10099157 = {
	name="Lucan" #Not a Lord Piper
	dynasty=157
	
	religion="old_gods"
	culture="old_first_man"
	
	father=11157
	
	3041.1.1 = {birth="3041.1.1"}
	3079.1.1 = {death="3079.1.1"}
}
11157 = {
	name="Whalen"
	dynasty=157
	
	religion="old_gods"
	culture="old_first_man"
	
	father=12157
	
	3021.1.1 = {birth="3021.1.1"}
	3095.1.1 = {death="3095.1.1"}
}
12157 = {
	name="Jonothor"
	dynasty=157
	
	religion="old_gods"
	culture="old_first_man"
	
	father=13157
	
	2996.1.1 = {birth="2996.1.1"}
	3052.1.1 = {death="3052.1.1"}
}
13157 = {
	name="Theomar"
	dynasty=157
	
	religion="old_gods"
	culture="old_first_man"
	
	father=14157
	mother=17157
	
	2980.1.1 = {birth="2980.1.1"}
	3037.1.1 = {death="3037.1.1"}
}
14157 = {
	name="Alyn"
	dynasty=157
	
	religion="old_gods"
	culture="old_first_man"
	
	2955.1.1 = {birth="2955.1.1"}
	2979.1.1 = {add_spouse=17157}
	3008.1.1 = {death="3008.1.1"}
}
15157 = {
	name="Jammos"
	dynasty=157
	
	religion="old_gods"
	culture="old_first_man"
	
	father=14157
	mother=17157
	
	2983.1.1 = {birth="2983.1.1"}
	3042.1.1 = {death="3042.1.1"}
}
16157 = {
	name="Emberlei"
	female=yes
	dynasty=157
	
	religion="old_gods"
	culture="old_first_man"
	
	father=14157
	mother=17157
	
	2989.1.1 = {birth="2989.1.1"}
	3018.1.1 = {death="3018.1.1"}
}
17157 = {
	name="Leana"
	female=yes

	religion="old_gods"	
	culture="old_first_man"

	2963.1.1 = {birth="2963.1.1"}
	3009.1.1 = {death="3009.1.1"}
}


#####################################################################   House Mooton    #############################################################

#Petty Kings of Maidenpool
501138 = {
	name="Florian"
	dynasty=138
	
	religion="old_gods"
	culture="old_first_man"
		
	2957.1.1 = {birth="2957.1.1"}
	2973.1.1 = {
		add_trait=trained_warrior
	}
	3010.1.1 = {death="3010.1.1"}
}
502138 = {
	name="Florian"
	dynasty=138
	
	religion="old_gods"
	culture="old_first_man"
	
	father=501138
		
	2989.1.1 = {birth="2989.1.1"}
	3005.1.1 = {
		add_trait=trained_warrior
	}
	3027.1.1 = {death="3027.1.1"}
}
503138 = {
	name="Florian"
	dynasty=138
	
	religion="old_gods"
	culture="old_first_man"
	
	father=502138
		
	3011.1.1 = {birth="3011.1.1"}
	3027.1.1 = {
		add_trait=poor_warrior
	}
	3049.1.1 = {death="3049.1.1"}
}
504138 = {
	name="Florian"
	dynasty=138
	
	religion="old_gods"
	culture="old_first_man"
	
	father=503138
		
	3039.1.1 = {birth="3039.1.1"}
	3055.1.1 = {
		add_trait=trained_warrior
	}
	3060.1.1 = {death="3060.1.1"}
}

505138 = {
	name="Florian"
	dynasty=138
	
	religion="old_gods"
	culture="old_first_man"
	
	father=504138
	
	add_trait=brave
	
	3056.1.1 = {birth="3056.1.1"}
	3062.1.1 = {
		death= {
			death_reason =death_battle
		}
	}
}
507138 = { 
	name="Humfrey"
	
	religion="old_gods"
	culture="old_first_man"
	
	add_trait=strong
	add_trait=skilled_tactician
	
	2272.1.1 = {birth="2272.1.1"}
	2288.1.1 = {
		add_trait=skilled_warrior
		add_trait=brave
	}
	2325.1.1 = {death="2325.1.1"}
}
509138 = {
	name="Petyr"
	dynasty=138
	
	religion="old_gods"
	culture="old_first_man"
	
	2927.1.1 = {birth="2927.1.1"}
	2943.1.1 = {
		add_trait=trained_warrior
		add_trait=brave
	}
	2976.1.1 = {death="2976.1.1"}
}
###

11138 = {
	name="Olyvar"
	dynasty=138
	
	religion="old_gods"
	culture="old_first_man"
	
	father=12138
	
	3229.1.1 = {birth="3229.1.1"}
	3275.1.1 = {death="3275.1.1"}
}
12138 = {
	name="Geremy"
	dynasty=138
	
	religion="old_gods"
	culture="old_first_man"
	
	father=14138
	mother=404138
	
	3208.1.1 = {birth="3208.1.1"}
	3263.1.1 = {death="3263.1.1"}
}
13138 = {
	name="Lyman" #Current Lord's Father, never Lord himself
	dynasty=138
	
	religion="old_gods"
	culture="old_first_man"
	
	father=14138
	mother=404138
	
	3213.1.1 = {birth="3213.1.1"}
	3273.1.1 = {death="3273.1.1"}
}

14138 = {
	name="Edmure"
	dynasty=138
	
	religion="old_gods"
	culture="old_first_man"
	
	father=17138
	
	3176.1.1 = {birth="3176.1.1"}
	3192.1.1 = {add_trait=brave}
	3206.1.1 = {add_spouse=404138}
	3240.1.1 = {death="3240.1.1"}
}
404138 = {
	name="Perriane"
	female=yes
	
	religion="old_gods"
	culture="old_first_man"
	
	3180.1.1 = {birth="3180.1.1"}
	3233.1.1 = {death="3233.1.1"}
}
17138 = {
	name="Bryar"
	dynasty=138
	
	religion="old_gods"
	culture="old_first_man"
	
	father=16138 # Eusan Mooton
	
	3143.1.1 = {birth="3143.1.1"}
	3155.1.1 = {add_trait=squire}
	3159.1.1 = {add_trait=brave remove_trait=squire add_trait=trained_warrior}
	3176.1.1 = {death= {death_reason = death_accident}}
}
15138 = {
	name="Cormond"
	dynasty=138
	
	religion="old_gods"
	culture="old_first_man"
	
	father=16138 # Eusan Mooton
	
	3150.1.1 = {birth="3150.1.1"}
	3160.1.1 = {add_trait=squire}
	3166.1.1 = {add_trait=brave remove_trait=squire add_trait=trained_warrior}
	3190.1.1 = {death="3190.1.1"}
}
16138 = {
	name="Euson" 
	dynasty=138
	
	religion="old_gods"
	culture="old_first_man"
	
	father=18138 # Gaston Mooton
	
	3120.1.1 = {birth="3120.1.1"}
	3157.12.1 = {death= {death_reason =death_battle}}
}
10040138 = {
	name="Rormund" 
	dynasty=138
	
	religion="old_gods"
	culture="old_first_man"
	
	father=18138 # Gaston Mooton
	
	3123.1.1 = {birth="3123.1.1"}
	3140.1.1 = {add_trait=brave}
	3165.1.8 = {death = {death_reason = death_trait}}
}

###Mooton line continued###
18138 = {
	name="Gaston" 
	dynasty=138
	
	religion="old_gods"
	culture="old_first_man"
	
	father=19138 # Kirth Mooton
	mother=450138
	
	3100.1.1 = {birth="3100.1.1"}
	3167.1.1 = {death="3167.1.1"}
}
560138 = {
	name="Walys" # Eldest son of Kirth Mooton
	dynasty=138
	
	religion="old_gods"
	culture="old_first_man"
	
	father=19138 # Kirth Mooton
	mother=450138
	
	3097.1.1 = {birth="3097.1.1"}
	3129.5.1 = {death= {death_reason =death_battle}} # Dance of Dragons
}	
570138 = {
	name="Manfyrd" # Second son of Kirth Mooton
	dynasty=138
	
	religion="old_gods"
	culture="old_first_man"
	
	father=19138 # Kirth Mooton
	mother=450138
	
	3099.1.1 = {birth="3099.1.1"}
	3134.5.8 = {death="3134.5.8"} 
}

19138 = {
	name="Kirth" # Not a Lord Mooton
	dynasty=138
	
	religion="old_gods"
	culture="old_first_man"
	
	father=20138
	
	3067.1.1 = {birth="3067.1.1"}
	3089.1.1 = {add_spouse=450138}
	3111.1.1 = {death="3111.1.1"}
}
450138 = {
	name="Dalenna" #
	female=yes
	
	religion="old_gods"
	culture="old_first_man"
	
	3073.1.1 = {birth="3073.1.1"}
	3118.1.1 = {death="3118.1.1"}
}
550138 = {
	name="Austen" 
	dynasty=138
	
	religion="old_gods"
	culture="old_first_man"
	
	father=20138
	
	3069.1.1 = {birth="3069.1.1"}
	3115.7.8 = {death= {death_reason = death_rabble}}
}
20138 = {
	name="Ryger" 
	dynasty=138
	
	religion="old_gods"
	culture="old_first_man"
	
	father=21138
	
	3047.1.1 = {birth="3047.1.1"}
	3114.1.1 = {death="3114.1.1"}
}
21138 = {
	name="Jared"
	dynasty=138
	
	religion="old_gods"
	culture="old_first_man"
	
	father=22138
	
	3016.1.1 = {birth="3016.1.1"}
	3072.1.1 = {death="3072.1.1"}
}
22138 = {
	name="Meribald"
	dynasty=138
	
	religion="old_gods"
	culture="old_first_man"
	
	father=24138
	
	2990.1.1 = {birth="2990.1.1"}
	3039.1.1 = {death="3039.1.1"}
}
23138 = {
	name="Edwyn"
	dynasty=138
	
	add_trait=proud
	
	religion="old_gods"
	culture="old_first_man"
	
	father=250138
		
	2968.1.1 = {birth="2968.1.1"}
	2984.1.1 = {
		add_trait = brave
		add_trait = trained_warrior
	}
	2998.2.1 = {death="2998.2.1"}
}
24138 = {
	name="Jon"
	dynasty=138
	
	martial = 7
	
	add_trait=tough_soldier
	add_trait=ambitious
	
	religion="old_gods"
	culture="old_first_man"
	
	father=250138
		
	2970.1.1 = {birth="2970.1.1"}
	2984.1.1 = {
		add_trait = brave
		add_trait = skilled_warrior
	}
	3015.1.1 = {death="3015.1.1"}
}
250138 = {
	name="Manfred"
	dynasty=138
	
	religion="old_gods"
	culture="old_first_man"
	
	father=509138
		
	2949.1.1 = {birth="2949.1.1"}
	2965.1.1 = {
		add_trait = brave
		add_trait = poor_warrior
	}
	2985.1.1 = {death="2985.1.1"}
}


#######################################################################   House Darry   #########################################################

103137 = {
	name="Edwyn" #Not a Lord Darry
	dynasty=137
	
	religion="old_gods"
	culture="old_first_man"
	
	father=104137 # Merrett Darry
	
	3198.1.1 = {birth="3198.1.1"}
	3263.1.1 = {death="3263.1.1"}
}
104137 = {
	name="Merrett"
	dynasty=137
	
	religion="old_gods"
	culture="old_first_man"
	
	father=105137 # Jorin Darry
	mother=4500137
	
	3171.1.1 = {birth="3171.1.1"}
	3238.1.1 = {death="3238.1.1"}
}
5750137 = {
	name="Kenric"
	dynasty=137
	
	religion="old_gods"
	culture="old_first_man"
	
	father=105137 # Jorin Darry
	mother=4500137
	
	3172.1.1 = {birth="3172.1.1"}
	3196.1.6 = {death= {death_reason = death_battle}}
}
105137 = {
	name="Jorin" # Heir of Darry at the time of Dornish Conquest, after his father Desmond was killed.
	dynasty=137
	
	religion="old_gods"
	culture="old_first_man"
	
	father=106137 # Desmond Darry
	
	3147.1.1 = {birth="3147.1.1"}
	3167.1.1 = {add_spouse=4500137}
	3203.1.1 = {death="3203.1.1"}
}
4500137 = {
	name="Jannia" # 
	female=yes
	
	religion="old_gods"
	culture="old_first_man"
	
	
	3150.1.1 = {birth="3150.1.1"}
	3199.1.1 = {death="3199.1.1"}
}
5540137 = {
	name="Eddyn" # 
	dynasty=137
	
	religion="old_gods"
	culture="old_first_man"
	
	father=106137 # Desmond Darry
	
	3151.1.1 = {birth="3151.1.1"}
	3196.1.5 = {death= {death_reason = death_battle}}
}
5650137 = {
	name="Amyra" #
	dynasty=137
	female=yes
	
	religion="old_gods"
	culture="old_first_man"
	
	father=106137 # Desmond Darry
	
	3154.1.1 = {birth="3154.1.1"}
	3194.1.1 = {death= {death_reason = death_accident}}
}
106137 = {
	name="Desmond"
	dynasty=137
	
	religion="old_gods"
	culture="old_first_man"
	
	father=107137 # Roland Darry
	
	3125.1.1 = {birth="3125.1.1"}
	3140.1.1 = {add_trait=brave add_trait=skilled_warrior}
	3158.8.1 = {death= {death_reason = death_battle}} # Dorne
}
5710137 = {
	name="Olvar" 
	dynasty=137
	
	diplomacy=6
	
	religion="old_gods"
	culture="old_first_man"
	
	father=107137 # Roland Darry
	
	3130.1.1 = {birth="3130.1.1"}
	3146.1.1 = {add_trait=brave add_trait=skilled_warrior}
	3166.10.7 = {death= {death_reason = death_battle}}
}
###Darry line Continued###
5720137 = {
	name="Madden"
	dynasty=137
	
	
	religion="old_gods"
	culture="old_first_man"
	
	father=107137 # Roland Darry
	
	3133.1.1 = {birth="3133.1.1"}
	3149.1.1 = {add_trait=brave add_trait=trained_warrior}
	3173.10.7 = {add_trait=ill death= {death_reason = death_trait}}
}
5680137 = {
	name="Cerena" 
	dynasty=137
	female=yes
	
	religion="old_gods"
	culture="old_first_man"
	
	father=107137 # Roland Darry
	
	3134.1.1 = {birth="3134.1.1"}
	3171.1.1 = {death="3171.1.1"}
}
5700137 = {
	name="Estion" # 
	dynasty=137
	
	diplomacy=9
	learning=5
	
	religion="old_gods"
	culture="old_first_man"
	
	father=107137 # Roland Darry
	
	3140.1.1 = {birth="3140.1.1"}
	3156.1.1 = {add_trait=septon add_trait=kind add_trait=charitable}
	3156.10.7 = {death= {death_reason = death_accident}} # Crushed by a cart
}
107137 = {
	name="Roland"
	dynasty=137
	
	religion="old_gods"
	culture="old_first_man"
	
	father=108137 # Cleos Darry
	mother=4590137
	
	3107.1.1 = {birth="3107.1.1"}
	3168.1.1 = {death="3168.1.1"}
}
5640137 = {
	name="Kelis" #
	dynasty=137
	female=yes
	
	religion="old_gods"
	culture="old_first_man"
	
	father=108137 # Cleos Darry
	mother=4590137
	
	3103.2.1 = {birth="3103.2.1"}
	3125.12.1 = {death= {death_reason=death_dungeon}} # Died in childbirth
}
5500137 = {
	name="Jonothor" 
	dynasty=137
	
	religion="old_gods"
	culture="old_first_man"
	
	father=108137 # Cleos Darry
	mother=4590137
	
	3101.1.1 = {birth="3101.1.1"}
	3129.7.1 = {death= {death_reason = death_battle}}
}
###Jonothor's descendents###
5520137 = {
	name="Alvyn" # Heir to Darry, killed with his father
	dynasty=137
	
	religion="old_gods"
	culture="old_first_man"
	
	father=5500137 # Jonothor Darry
	
	3118.10.8 = {birth="3118.10.8"}
	3129.7.1 = {death= {death_reason = death_battle}}
}
5610137 = {
	name="Rosamund" # Married Carter Vypren
	dynasty=137
	female=yes
	
	religion="old_gods"
	culture="old_first_man"
	
	father=5500137 # Jonothor Darry
	
	3120.1.8 = {birth="3120.1.8"}
	3177.1.4 = {death="3177.1.4"}
}
5620137 = {
	name="Belarra" # Became a Septa
	dynasty=137
	female=yes
	
	learning=10
	
	religion="old_gods"
	culture="old_first_man"
	
	father=5500137 # Jonothor Darry
	
	3126.8.8 = {birth="3126.8.8"}
	3143.4.1 = {add_trait=septa add_trait=celibate add_trait=just}
	3190.1.2 = {death="3190.1.2"}
}
###Darry line continued###
5510137 = {
	name="Derrick" # Younger brother of Jonothor, became Lord after him,
	dynasty=137
	
	religion="old_gods"
	culture="old_first_man"
	
	father=108137 # Cleos Darry
	mother=4590137
	
	3105.1.1 = {birth="3105.1.1"}
	3131.1.5 = {death= {death_reason = death_battle}}
}
5530137 = {
	name="Garth" 
	dynasty=137
	
	religion="old_gods"
	culture="old_first_man"
	
	father=108137 # Cleos Darry
	mother=4590137
	
	3112.1.1 = {birth="3112.1.1"}
	3171.1.5 = {death= {death_reason = death_murder}}
}
###Darry line continued###
108137 = {
	name="Cleos" # a Lord
	dynasty=137
	
	religion="old_gods"
	culture="old_first_man"
	
	father=109137 # Lucias Darry
	mother=4600137
	
	3078.1.1 = {birth="3078.1.1"}
	3099.1.1 = {add_spouse=4590137}
	3100.1.1 = {add_trait=brave add_trait=trained_warrior}
	3117.7.1 = {death= {death_reason = death_accident}}
}
4590137 = {
	name="Arane"
	female=yes

	religion="old_gods"
	culture="old_first_man"

	3080.1.1 = {birth="3080.1.1"}
	3119.1.1 = {death="3119.1.1"}
}
5580137 = {
	name="Oren"	# not a lord, father of Leonylla
	dynasty=137

	religion="old_gods"
	culture="old_first_man"
	
	father=109137 # Lucias Darry
	mother=4600137

	3080.1.1 = {birth="3080.1.1"}
	3098.1.1 = {add_trait=poor_warrior add_trait=brave}
	3100.1.1 = {add_spouse=4580137}
	3130.1.1 = {death= {death_reason =death_battle}}
}
4580137 = {
	name="Roslin"
	female=yes

	religion="old_gods"
	culture="old_first_man"

	3080.1.1 = {birth="3080.1.1"}
	3130.1.1 = {death="3130.1.1"}
}
109137 = {
	name="Lucias" #
	dynasty=137
	
	religion="old_gods"
	culture="old_first_man"
	
	father=110137
	
	3064.1.1 = {birth="3064.1.1"}
	3081.1.1 = {add_spouse=4600137}
	3119.1.1 = {death="3119.1.1"}
}
4600137 = {
	name="Kelisa"
	female=yes

	religion="old_gods"
	culture="old_first_man"

	3060.1.1 = {birth="3060.1.1"}
	3114.1.1 = {death="3114.1.1"}
}
110137 = {
	name="Meribald"
	dynasty=137
	
	religion="old_gods"
	culture="old_first_man"
	
	father=111137
	
	3047.1.1 = {birth="3047.1.1"}
	3100.1.1 = {death="3100.1.1"}
}
111137 = {
	name="Garse"
	dynasty=137
	
	religion="old_gods"
	culture="old_first_man"
	
	father=112137
	
	3027.1.1 = {birth="3027.1.1"}
	3085.1.1 = {death="3085.1.1"}
}
112137 = {
	name="Denys"
	dynasty=137
	
	religion="old_gods"
	culture="old_first_man"
	
	father=113137
	
	3011.1.1 = {birth="3011.1.1"}
	3072.1.1 = {death="3072.1.1"}
}
113137 = {
	name="Androw"
	dynasty=137
	
	religion="old_gods"
	culture="old_first_man"
	
	father=114137
	mother=200137
	
	2995.1.1 = {birth="2995.1.1"}
	3052.1.1 = {death="3052.1.1"}
}
114137 = {
	name="Deremond"
	dynasty=137
	
	religion="old_gods"
	culture="old_first_man"
	
	2968.1.1 = {birth="2968.1.1"}
	2984.1.1 = {add_trait=brave add_trait=master_warrior add_trait=tough_soldier}
	2994.1.1 = {add_spouse=200137}
	3040.1.1 = {death="3040.1.1"}
}
200137 = {
	name="Cyrenna"
	female=yes

	religion="old_gods"	
	culture="old_first_man"

	2978.1.1 = {birth="2978.1.1"}
	3034.1.1 = {death="3034.1.1"}
}


#######################################################################   House Bracken  ####################################################################

7149 = {
	name="Edmyn"
	dynasty=149
	
	religion="old_gods"
	culture="old_first_man"

	add_trait="proud"
	
	
	father=8149
	
	3232.1.1 = {birth="3232.1.1"}
	3271.1.1 = {death="3271.1.1"}
}
8149 = {
	name="Karyl"
	dynasty=149
	
	religion="old_gods"
	culture="old_first_man"

	add_trait="proud"
	
	
	father=9149
	
	3205.1.1 = {
		birth="3205.1.1"
	}
	3278.1.1 = {death="3278.1.1"}
}
175149 = {
	name="Janos"
	dynasty=149
	
	religion="old_gods"
	culture="old_first_man"

	father=10149
	
	3184.1.1 = {
		birth="3184.1.1"
	}
	3200.1.1 = {
		add_trait="brave"
		add_trait="trained_warrior"
	}
	3209.6.1={death="3209.6.1"}
}
9149 = {
	name="Otho"
	dynasty=149
	
	religion="old_gods"
	culture="old_first_man"

	add_trait="proud"
	add_trait="ruthless"
	
	father=10149
	
	3186.1.1 = {
		birth="3186.1.1"
	}
	3202.1.1 = {
		add_trait="brave"
		add_trait="trained_warrior"
	}
	3243.1.1 = {death="3243.1.1"}
}
10149 = {
	name="Whalen"
	dynasty=149
	
	religion="old_gods"
	culture="old_first_man"

	add_trait="proud"
	
	
	father=11149
	
	3166.1.1 = {
		birth="3166.1.1"
	}
	3214.1.1 = {death="3214.1.1"}
}
11149 = {
	name="Harys"
	dynasty=149
	
	religion="old_gods"
	culture="old_first_man"

	add_trait="proud"
	
	
	father=15149
	mother=14149
	
	3138.1.1 = {birth="3138.1.1"}
	3199.1.1 = {death="3199.1.1"}
}
12149 = {
	name="Emmon"
	dynasty=149
	
	religion="old_gods"
	culture="old_first_man"

	add_trait="proud"
	
	
	father=15149
	mother=14149
	
	3132.1.1 = {birth="3132.1.1"}
	3170.1.1 = {death="3170.1.1"}
}

14149 = {
	name="Elyanna"
	female=yes
	
	religion="old_gods"
	culture="old_first_man"
	
	3115.1.1 = {birth="3115.1.1"}
	3179.1.1 = {death="3179.1.1"}
}

15149 = {
	name="Enger" #Lord Bracken
	dynasty=149
	
	religion="old_gods"
	culture="old_first_man"

	add_trait="proud"
	add_trait="ambitious"
	add_trait="familyperson"
	
	father=16149
	
	3112.1.1 = {birth="3112.1.1"}
	3131.1.1 = {add_spouse=14149}
	3178.6.1={death="3178.6.1"}
}
16149 = {
	name="Edmyn"
	dynasty=149
	
	religion="old_gods"
	culture="old_first_man"

	add_trait="proud"
	
	
	father=17149
	
	3094.1.1 = {
		birth="3094.1.1" 
	}
	3163.1.1 = {death="3163.1.1"}
}
17149 = {
	name="Walder"
	dynasty=149
	
	religion="old_gods"
	culture="old_first_man"

	add_trait="proud"
	
	
	father=18149
	
	3073.1.1 = {birth="3073.1.1" }
	3117.1.1 = {death="3117.1.1"}
}
18149 = {
	name="Theomar"
	dynasty=149
	
	religion="old_gods"
	culture="old_first_man"

	add_trait="proud"
	
	father=19149 # Jerion II Bracken
	
	3048.1.1 = {birth="3048.1.1"}
	3102.1.1 = {death="3102.1.1"}
}
60800149 = {
	name="Serelle"
	dynasty=149
	female=yes
	
	religion="old_gods"
	culture="old_first_man"

	add_trait=proud
	
	father=19149 # Jerion II Bracken
	
	3051.1.1 = {birth="3051.1.1"}
	3108.1.1 = {death="3108.1.1"}
}
19149 = {
	name="Jerion" # Lord Bracken 
	dynasty=149
	
	religion="old_gods"
	culture="old_first_man"

	add_trait="proud"
	
	
	father=20149
	mother=40300149
	
	3028.1.1 = {birth="3028.1.1"}
	3073.1.1 = {death="3073.1.1"}
}
60900149 = {
	name="Jeyne" #
	dynasty=149
	female=yes
	
	religion="old_gods"
	culture="old_first_man"

	add_trait="proud"
	
	
	father=20149
	mother=40300149
	
	3030.1.1 = {birth="3030.1.1"}
	3097.1.1 = {death="3097.1.1"}
}
20149 = {
	name="Lucas"
	dynasty=149
	
	religion="old_gods"
	culture="old_first_man"
	
	
	father=21149
	mother=40400149
	
	3008.1.1 = {birth="3008.1.1"}
	3020.1.1 = {add_trait=brave add_trait=trained_warrior add_trait=proud
	add_spouse=40300149}
	3053.1.1 = {death="3053.1.1"}
}
40300149 = {
	name="Jeyne" #
	female=yes
	
	religion="old_gods"
	culture="old_first_man"
	
	
	3007.1.1 = {birth="3007.1.1"}
	3048.1.1 = {death="3048.1.1"}
}
21149 = {
	name="Harys"
	dynasty=149
	
	religion="old_gods"
	culture="old_first_man"

	add_trait="proud"
	
	
	father=22149
	
	2986.1.1 = {birth="2986.1.1"}
	3002.1.1 = {add_spouse=40400149}
	3049.1.1 = {death="3049.1.1"}
}
40400149 = {
	name="Lysanne" #
	female=yes
	
	religion="old_gods"
	culture="old_first_man"
	
	
	2986.1.1 = {birth="2986.1.1"}
	3048.1.1 = {death="3048.1.1"}
}
24149 = {
	name="Androw"
	dynasty=149
	
	religion="old_gods"
	culture="old_first_man"

	add_trait="proud"
	
	
	father=22149
	
	2989.1.1 = {birth="2989.1.1"}
	3034.1.1 = {death="3034.1.1"}
}
25149 = {
	name="Ryella"
	female=yes
	dynasty=149
	
	religion="old_gods"
	culture="old_first_man"

	add_trait="proud"
	
	
	father=22149
	
	2995.1.1 = {birth="2995.1.1"}
	3052.1.1 = {death="3052.1.1"}
}
22149 = {
	name="Addam" 
	dynasty=149
	
	religion="old_gods"
	culture="old_first_man"
	
	father=60000149
	mother=40200149

	
		
	2963.1.1 = {birth="2963.1.1"}
	3013.1.1 = {death="3013.1.1"}
}
60700149 = {
	name="Alyn" # 
	dynasty=149
	
	religion="old_gods"
	culture="old_first_man"
	
	father=60000149
	mother=40200149

	
		
	2967.1.1 = {birth="2967.1.1"}
	2983.1.1 = {add_trait=proud add_trait=brave add_trait=trained_warrior}
	3018.1.1 = {death="3018.1.1"}
}

60000149 = {
	name="Jonos"
	dynasty=149
	
	religion="old_gods"
	culture="old_first_man"
	
	
	father=60200149 # Otho Bracken

	
	2940.1.1 = {birth="2940.1.1"}
	2956.1.1 = {add_trait=proud add_trait=brave add_trait=trained_warrior}
	2960.1.1 = {add_spouse=40200149}
	2986.1.1 = {death="2986.1.1"}
}
40200149 = {
	name="Tania" #
	female=yes
	
	religion="old_gods"
	culture="old_first_man"
	
	
	2942.1.1 = {birth="2942.1.1"}
	3022.1.1 = {death="3022.1.1"}
}
60100149 = {
	name="Hendry" # Not a Lord, without issue
	dynasty=149
	
	religion="old_gods"
	culture="old_first_man"

	
	father=60200149 # Otho Bracken
	
	
	2942.1.1 = {birth="2942.1.1"}
	2968.1.1 = {add_trait=proud add_trait=brave add_trait=trained_warrior}
	3003.1.1 = {death="3003.1.1"}
}
60200149 = {
	name="Otho" 
	dynasty=149
	
	religion="old_gods"
	culture="old_first_man"
	
	father=60300149
	mother=40100149

	
	2919.1.1 = {birth="2919.1.1"}
	2935.1.1 = {add_trait=proud add_trait=brave add_trait=trained_warrior}
	2952.1.1 = {death="2952.1.1"}
}
60300149 = {
	name="Lothar" # A Lord, with issue
	dynasty=149
	
	martial=5
	
	religion="old_gods"
	culture="old_first_man"
	
	father=60400149 # Gerold Bracken
	mother=40000149
	
	add_trait=brave 
	add_trait=ambitious
	add_trait=deceitful
	add_trait=proud 
	add_trait=tough_soldier

	2901.1.1 = {birth="2901.1.1"}
	2917.1.1 = {		
		add_trait=brave 
		add_trait=skilled_warrior 	
	}
	2920.1.1 = {add_spouse=40100149}
	2933.6.1 = {death="2933.6.1"}
}
40100149 = {
	name="Melona" #
	female=yes
	
	religion="old_gods"
	culture="old_first_man"
	
	
	2902.1.1 = {birth="2902.1.1"}
	2962.1.1 = {death="2962.1.1"}
}
60400149 = {
	name="Gerold" # A Lord, with issue
	dynasty=149
	
	religion="old_gods"
	culture="old_first_man"

	2877.1.1 = {birth="2877.1.1"}
	2893.1.1 = {add_trait=proud add_trait=brave add_trait=trained_warrior}
	2896.1.1 = {add_spouse=40000149}
	2916.8.1 = {death="2916.8.1"}
}
40000149 = {
	name="Barba" #
	female=yes
	
	religion="old_gods"
	culture="old_first_man"
	
	
	2880.1.1 = {birth="2880.1.1"}
	2982.1.1 = {death="2982.1.1"}
}


#########################################################################   House Blackwood  #############################################################

20150 = {
	name="Desmond" #Not a Lord Blackwood
	dynasty=150
	
	religion="old_gods"
	culture="old_first_man"

	add_trait="proud"
	add_trait="just"
	
	father=21150
	
	3217.1.1 = {birth="3217.1.1"}
	3233.1.1 = {add_trait="brave"}
	3244.1.1 = {death="3244.1.1"}
}
21150 = {
	name="Bennifer"
	dynasty=150
	
	religion="old_gods"
	culture="old_first_man"
	
	add_trait="proud"
	
	father=22150
	mother=42150
	
	3185.1.1 = {birth="3185.1.1" }
	3201.1.1 = { add_trait="brave" add_trait=trained_warrior }
	3258.1.1 = {death="3258.1.1"}
}
60150150 = {
	name="Roland"
	dynasty=150
	
	religion="old_gods"
	culture="old_first_man"
	
	mother=42150	
	father=22150
	
	3188.1.1 = {birth="3188.1.1" }
	3204.1.1 = { add_trait="brave" add_trait=poor_warrior }
	3233.1.1 = {death="3233.1.1"}
}
22150 = {
	name="Cregon"
	dynasty=150
	
	religion="old_gods"
	culture="old_first_man"
	
	add_trait="proud"
		
	father=26150 # Seth Blackwood
	
	3162.1.1 = {birth="3162.1.1"}
	3178.1.1 = {add_trait="brave" add_trait="skilled_warrior"}
	3185.1.1 = { add_spouse = 42150 }
	3230.1.1 = {death="3230.1.1"}
}
42150 = {
	name="Sylwa"
	female=yes
	
	religion="old_gods"
	culture="old_first_man"
	
	3162.1.1 = {birth="3162.1.1"}
	3230.1.1 = {death="3230.1.1"}
}
23150 = {
	name="Robert" #Brother to Cregon
	dynasty=150
	
	religion="old_gods"
	culture="old_first_man"
	
	add_trait="proud"
	
	father=26150 # Seth Blackwood
	
	3165.1.1 = {birth="3165.1.1"}
	3181.1.1 = {add_trait="brave" add_trait="poor_warrior"}
	3237.1.1 = {death="3237.1.1"}
}
24150 = {
	name="Roger" #Brother to Cregon
	dynasty=150
	
	religion="old_gods"
	culture="old_first_man"
	
	add_trait="proud"
	
	father=26150 # Seth Blackwood
	
	3170.1.1 = {birth="3170.1.1"}
	3186.1.1 = {add_trait="brave" add_trait="trained_warrior"}
	3245.1.1 = {death="3245.1.1"}
}
26150 = {
	name="Seth" # 
	dynasty=150
	
	religion="old_gods"
	culture="old_first_man"
	
	add_trait="proud"
	
	
	father=28150 # Benjicot Blackwood
	
	3138.1.1 = {birth="3138.1.1"}
	3154.1.1 = {add_trait="brave"}
	3205.1.1 = {death="3205.1.1"}
}
300150 = {
	name="Lorence" # Brother of Seth
	dynasty=150
	
	religion="old_gods"
	culture="old_first_man"
	
	add_trait="proud"
	
	
	father=28150 # Benjicot Blackwood
	
	3146.1.1 = {birth="3146.1.1"}
	3162.1.1 = {add_trait="brave" add_trait="trained_warrior"}
	3218.1.1 = {death="3218.1.1"}
}
28150 = {
	name="Benjen" # 
	dynasty=150
	
	religion="old_gods"
	culture="old_first_man"
	
	martial=8
	diplomacy=5
	stewardship=8
	
	father=30150
	
	3117.1.1 = {birth="3117.1.1"}
	3190.1.1 = {death="3190.1.1"}
}

###Blackwood line continued###

30150 = {
	name="Edwyn" # Father of Samwell Blackwood.
	dynasty=150
	
	religion="old_gods"
	culture="old_first_man"
	
	add_trait="proud"
	
	
	father=31150 # Roger Blackwood
	
	3079.1.1 = {birth="3079.1.1"}
	3121.1.1 = {death="3121.1.1"}
}
31150 = {
	name="Roger"
	dynasty=150
	
	religion="old_gods"
	culture="old_first_man"
	
	add_trait="proud"
	
	
	father=32150 # Roger Blackwood
	
	3059.1.1 = {birth="3059.1.1"}
	3109.1.1 = {death="3109.1.1"}
}
60800150 = {
	name="Edmund"
	dynasty=150
	
	religion="old_gods"
	culture="old_first_man"
	
	add_trait=proud
	
	
	father=32150 # Roger Blackwood
	
	3061.1.1 = {birth="3061.1.1"}
	3077.1.1 = {add_trait=brave add_trait=skilled_warrior add_trait=proud}
	3109.1.1 = {death="3109.1.1"}
}
60900150 = {
	name="Jeyne"
	dynasty=150
	female=yes
	
	religion="old_gods"
	culture="old_first_man"
	
	add_trait=proud
	
	
	father=32150 # Roger Blackwood
	
	3068.1.1 = {birth="3068.1.1"}
	3083.1.1 = {add_trait=brave add_trait=proud}
	3109.1.1 = {death="3109.1.1"}
}
32150 = {
	name="Andrey"
	dynasty=150
	
	religion="old_gods"
	culture="old_first_man"
	
	add_trait="proud"
	
	
	father=33150
	mother=40500150
	
	3034.1.1 = {birth="3034.1.1"}
	3050.1.1 = {add_trait=skilled_warrior}
	3078.1.1 = {death="3078.1.1"}
}
60700150 = {
	name="Theon" # 
	dynasty=150
	
	religion="old_gods"
	culture="old_first_man"
	
	
	
	father=33150
	mother=40500150
	
	3037.1.1 = {birth="3037.1.1"}
	3053.1.1 = {add_trait=trained_warrior}
	3098.1.1 = {death="3098.1.1"}
}
60800151 = {
	name="Serelle" # 
	dynasty=150
	female=yes
	
	religion="old_gods"
	culture="old_first_man"
	
	father=33150
	mother=40500150
	
	3028.1.1 = {birth="3028.1.1"}
	3103.1.1 = {death="3103.1.1"}
}
33150 = {
	name="Alyn"
	dynasty=150
	
	religion="old_gods"
	culture="old_first_man"
	
	add_trait="proud"
	
	
	father=34150
	
	3005.1.1 = {birth="3005.1.1" }
	3021.1.1 = {add_spouse=40500150}
	3054.1.1 = {death="3054.1.1"}
}
40500150 = {
	name="Thalia"
	female=yes

	religion="old_gods"	
	culture="old_first_man"

	3004.1.1 = {birth="3004.1.1"}
	3060.1.1 = {death="3060.1.1"}
}
34150 = {
	name="Gillam"
	dynasty=150
	
	religion="old_gods"
	culture="old_first_man"
	
	add_trait="proud"
	
	father=35150
	mother=36150
	
	2980.1.1 = {birth="2980.1.1"}
	3040.1.1 = {death="3040.1.1"}
}
35150 = {
	name="Theomar"
	dynasty=150
	
	religion="old_gods"
	culture="old_first_man"
	
	father=60000150 # Rodrik Blackwood
	mother=40000150
	
	add_trait="proud"

	2966.1.1 = {birth="2966.1.1" }
	2986.1.1 = {add_spouse=36150
	            add_trait=skilled_warrior}
	3006.1.1 = {death="3006.1.1"}
}
36150 = {
	name="Della"
	female=yes

	religion="old_gods"	
	culture="old_first_man"

	2965.1.1 = {birth="2965.1.1"}
	3012.1.1 = {death="3012.1.1"}
}
37150 = {
	name="Bethany"
	female=yes
	dynasty=150
	
	religion="old_gods"
	culture="old_first_man"
	
	add_trait="proud"
	
	
	father=35150
	mother=36150
	
	2986.10.1 = {birth="2986.10.1"}
	3051.1.1 = {death="3051.1.1"}
}
38150 = {
	name="Lucas"
	dynasty=150
	
	religion="old_gods"
	culture="old_first_man"
	

	
	
	father=35150
	mother=36150
	
	add_trait=quick
	
	2991.1.1 = {birth="2991.1.1" }
	3045.1.1 = {death="3045.1.1"}
}

60500150 = {
	name="Jonos"
	dynasty=150
	
	religion="old_gods"
	culture="old_first_man"
	
	father=60200150 # Brynden Blackwood
	

	2945.1.1 = {birth="2945.1.1"}
	2961.1.1 = {add_trait=trained_warrior add_trait=proud}
	2990.1.1 = {death="2990.1.1"}
}
60000150 = {
	name="Rodrik"
	dynasty=150
	
	religion="old_gods"
	culture="old_first_man"
	
	father=60200150 # Brynden Blackwood
	

	2940.1.1 = {birth="2940.1.1"}
	2956.1.1 = {add_trait=skilled_warrior add_trait=proud}
	2957.1.1 = {add_spouse=40000150}
	2995.1.1 = {death="2995.1.1"}
}
40000150 = {
	name="Melissa"
	female=yes

	religion="old_gods"	
	culture="old_first_man"

	2941.1.1 = {birth="2941.1.1"}
	3012.1.1 = {death="3012.1.1"}
}

65000150 = {
	name="Olyvar" #stangled to death
	dynasty=150
	
	religion="old_gods"
	culture="old_first_man"
	
	mother=60300150 #Agnes Blackwood
	father=40200150
	
	2920.1.1 = {birth="2920.1.1"}
	2933.1.1 = {death="2933.1.1"}
}
60200150 = {
	name="Brynden" 
	dynasty=150
	
	religion="old_gods"
	culture="old_first_man"
	
	mother=60300150 #Agnes Blackwood
	father=40200150
	
	2921.1.1 = {birth="2921.1.1"}
	2957.1.1 = {add_trait=skilled_warrior add_trait=proud}
	2980.1.1 = {death="2980.1.1"}
}
65200150 = {
	name="Waltyr"
	dynasty=150
	
	religion="old_gods"
	culture="old_first_man"
	
	mother=60300150 #Agnes Blackwood
	father=40200150
	
	2925.1.1 = {birth="2925.1.1"}
	2941.1.1 = {add_trait=trained_warrior }
	2980.1.1 = {death="2980.1.1"}
}
60300150 = {
	name="Agnes"
	female=yes
	dynasty=150
	
	religion="old_gods"
	culture="old_first_man"
	
	father=60400150 # Torrhen Blackwood
	mother=40100150
	
	add_trait=tough_soldier
	add_trait=proud
	add_trait=brave
	add_trait=authoritative

	2901.1.1 = {birth="2901.1.1"}
	2917.1.1 = {add_trait=skilled_warrior }
	2919.1.1 = {add_spouse=40200150}
	2933.1.1 = {death="2933.1.1"}
}
40200150 = {
	name="Lucas"

	religion="old_gods"	
	culture="northman"

	2899.1.1 = {birth="2899.1.1"}
	2967.1.1 = {death="2967.1.1"}
}
60400150 = {
	name="Torrhen"
	dynasty=150
	
	martial=7
	
	religion="old_gods"
	culture="old_first_man"
	
	father=156150

	2879.1.1 = {birth="2879.1.1"}
	2899.1.1 = {add_trait=master_warrior add_trait=proud add_trait=brave add_trait=cruel}
	2900.1.1 = {add_spouse=40100150}
	2917.11.7 = {death="2917.11.7"}
}
40100150 = {
	name="Rhea"
	female=yes

	religion="old_gods"	
	culture="northman"

	2880.1.1 = {birth="2880.1.1"}
	2938.1.1 = {death="2938.1.1"}
}



########################################################################   House Tully  ##############################################################################

560159 = {
	name="Edmure"	# First Named Tully
	dynasty=159

	religion="old_gods"
	culture="old_first_man"
	
	add_trait=brave
	add_trait=quick
	add_trait=honorable
	add_trait=cynical #converted

	3135.1.1 = {birth="3135.1.1"}
	3152.1.1 = {
		add_trait=skilled_warrior
		add_trait=tough_soldier
	}
	3182.1.1 = {
		death="3182.1.1"
	}
}
561159 = { # Canon,
	name="Axel"	# First lord of Riverrun
	dynasty=159

	religion="old_gods"
	culture="old_first_man"
	
	add_trait=patient
	add_trait=diligent
	add_trait=honorable
	add_trait=cynical #converted
	
	father = 560159

	3154.1.1 = {birth="3154.1.1"}
	3170.1.1 = {
		add_trait=skilled_warrior
		add_trait=tough_soldier
	}
	3215.1.1 = {
		death="3215.1.1"
	}
}
2280159 = {
	name="Edmund"	# 
	dynasty=159
	
	martial=5
	stewardship=6
	learning=6
	
	religion="the_seven"
	culture="old_first_man"

	father=561159 # Axel Tully

	3171.1.1 = {birth="3171.1.1"}
	3186.1.1 = {add_spouse=4500159}
	3195.12.10 = {death={death_reason =death_battle}}
}
4500159 = {
	name="Alynna"	#
	female=yes

	religion="the_seven"
	culture="old_first_man"


	3157.1.1 = {birth="3157.1.1"}
	3203.1.1 = {death="3203.1.1"}
}
1159 = {
	name="Medgar"	#  a lord
	dynasty=159

	religion="the_seven"
	culture="old_first_man"
	
	diplomacy=9
	stewardship=7
	
	father=2280159 # Edmund Tully
	mother=4500159

	3186.1.1 = {birth="3186.1.1"  }
	3201.1.1 = {add_spouse=400159}
	3210.1.1={death="3210.1.1"}
}
400159 = {
	name="Sarya"
	female=yes

	religion="the_seven"
	culture="old_first_man"

	3180.1.1 = {birth="3180.1.1"}
	3210.8.7 = {death="3210.8.7"}
}

5700159 = {
	name="Edmure"	# not a lord
	dynasty=159

	religion="the_seven"
	culture="old_first_man"

	father=2280159 # Edmund Tully
	mother=4500159

	3187.2.2 = {birth="3187.2.2"}
	3195.1.1 = {add_trait=squire add_trait=content add_trait=kind}
	3212.10.1 = {death="3212.10.1"}
}
31159 = {
	name="Pia"	#Not a Lord
	female=yes
	dynasty=159

	religion="the_seven"
	culture="old_first_man"

	father=1159
	mother=400159

	3201.1.1 = {birth="3201.1.1"}
	3247.1.1 = {death="3247.1.1"}
}
10159 = {
	name="Oscar" #
	dynasty=159
	
	martial = 10

	religion="the_seven"
	culture="old_first_man"
	
	father=1159
	mother=400159
	
	3202.1.1 = {birth="3202.1.1"  }
	3225.1.1 = {add_spouse=11159}
	3258.1.1 = {death="3258.1.1"} 
}
11159 = {
	name="Leslyn" 
    female=yes

	religion="the_seven"
	culture="old_first_man"
	
	3207.1.1 = {birth="3207.1.1"}
	3225.1.1 = {add_spouse=10159}
	3261.1.1 = {death="3261.1.1"}
}


#################
###House Ryger###
#################
13152 = {
	name="Jonothor"
	dynasty=152
	
	religion="old_gods"
	culture="old_first_man"
	
	father=14152
	
	3231.1.1 = {birth="3231.1.1"}
	3278.1.1 = {death="3278.1.1"}
}
14152 = {
	name="Martyn"
	dynasty=152
	
	religion="old_gods"
	culture="old_first_man"
	
	father=15152
	
	3208.1.1 = {birth="3208.1.1"}
	3245.1.1 = {death="3245.1.1"}
}
29152 = {
	name="Ellya" # Sister of Anguy Ryger
	dynasty=152
	female=yes
	
	religion="old_gods"
	culture="old_first_man"
	
	father=16152 # Willard Ryger
	
	3173.1.1 = {birth="3173.1.1"}
	3222.1.1 = {death="3222.1.1"}
}
15152 = {
	name="Anguy" #Not a Lord, son of Willard Ryger
	dynasty=152
	
	religion="old_gods"
	culture="old_first_man"
	
	father=16152 # Willard Ryger
	
	3170.1.1 = {birth="3170.1.1"}
	3214.1.1 = {death="3214.1.1"}
}
16152 = {
	name="Willard" # Son and heir of Terin Ryger, married Andyra Tully
	dynasty=152
	
	religion="old_gods"
	culture="old_first_man"
	
	father=17152 # Terin Ryger
	
	3145.1.1 = {birth="3145.1.1"}
	3155.1.1 = {add_trait=squire}
	3161.1.1 = {remove_trait=squire add_trait=knight add_trait=trained_warrior}
	3220.1.1 = {death="3220.1.1"}
}
30152 = {
	name="Idera" # Married Ser Walder Frey
	dynasty=152
	female=yes
	
	religion="old_gods"
	culture="old_first_man"
	
	father=17152 # Terin Ryger
	
	3142.1.1 = {birth="3142.1.1"}
	3202.1.1 = {death="3202.1.1"}
}
17152 = {
	name="Terin" # Master of Law, Lord of Willow Wood at the time of the Dornish Conquest, married Philena Lydden
	dynasty=152
	
	religion="old_gods"
	culture="old_first_man"
	
	diplomacy=8
	stewardship=7
	
	father=5500152 # Roger Ryger
	
	3121.1.1 = {birth="3121.1.1"}
	3137.1.1 = {add_trait=knight add_trait=trained_warrior add_trait=charismatic_negotiator}
	3190.1.1 = {death="3190.1.1"}
}
26152 = {
	name="Elyria" # Terin Ryger's sister. Married Tristifier Keath.
	dynasty=152
	female=yes
	
	religion="old_gods"
	culture="old_first_man"
	
	diplomacy=8
	
	father=5500152 # Roger Ryger
	
	3124.1.1 = {birth="3124.1.1"}
	3140.1.1 = {add_trait=charismatic_negotiator}
	3193.1.1 = {death="3193.1.1"}
}
27152 = {
	name="Tilly" # Terin Ryger's sister. Married her first husband Jeffroy Serry, her second being Cavan Ryswell.
	dynasty=152
	female=yes
	
	religion="old_gods"
	culture="old_first_man"
	
	father=5500152 # Roger Ryger
	
	3123.1.1 = {birth="3123.1.1"}
	3200.1.1 = {death="3200.1.1"}
}
28152 = {
	name="Alarra" # Terin Ryger's sister. Married Ser Nicol Beesbury
	dynasty=152
	female=yes
	
	religion="old_gods"
	culture="old_first_man"
	
	father=5500152 # Roger Ryger
	
	3131.1.1 = {birth="3131.1.1"}
	3200.1.1 = {death="3200.1.1"}
}
18152 = {
	name="Ryan" #his uncle, Ser Ryan Ryger, married Rolenna Pryor.
	dynasty=152
	
	religion="old_gods"
	culture="old_first_man"
	
	father=20152
	
	3108.1.1 = {birth="3108.1.1"}
	3133.9.8 = {death= {death_reason = death_battle}} # Dance of Dragons
}
19152 = {
	name="Jeromy" # Terin's other uncle, Married Dian Mallister
	dynasty=152
	
	religion="old_gods"
	culture="old_first_man"
	
	father=20152
	
	3111.1.1 = {birth="3111.1.1"}
	3161.8.1 = {death= {death_reason = death_battle}} # Died in the Dornish Conquest.
}
5500152 = {
	name="Roger" # Father of Terin Ryger
	dynasty=152
	
	religion="old_gods"
	culture="old_first_man"
	
	father=20152
	
	3105.1.1 = {birth="3105.1.1"}
	3135.2.7 = {death= {death_reason = death_accident}} # Died in the Dance of Dragon
}
20152 = {
	name="Androw"
	dynasty=152
	
	religion="old_gods"
	culture="old_first_man"
	
	father=21152
	
	3074.1.1 = {birth="3074.1.1"}
	3125.1.1 = {death="3125.1.1"}
}
21152 = {
	name="Whalen"
	dynasty=152
	
	religion="old_gods"
	culture="old_first_man"
	
	father=22152
	
	3051.1.1 = {birth="3051.1.1"}
	3098.1.1 = {death="3098.1.1"}
}
22152 = {
	name="Ambrose" #Not a Lord Ryger
	dynasty=152
	
	religion="old_gods"
	culture="old_first_man"
	
	father=23152
	
	3025.1.1 = {birth="3025.1.1"}
	3060.1.1 = {death="3060.1.1"}
}
23152 = {
	name="Halmon"
	dynasty=152
	
	religion="old_gods"
	culture="old_first_man"
	
	father=24152
	
	3002.1.1 = {birth="3002.1.1"}
	3064.1.1 = {death="3064.1.1"}
}
24152 = {
	name="Mohor"
	dynasty=152
	
	religion="old_gods"
	culture="old_first_man"
	
	father=25152
	
	2985.1.1 = {birth="2985.1.1"}
	3033.1.1 = {death="3033.1.1"}
}
25152 = {
	name="Denys"
	dynasty=152
	
	religion="old_gods"
	culture="old_first_man"
	
	2961.1.1 = {birth="2961.1.1"}
	3007.1.1 = {death="3007.1.1"}
}
#House Blanetree#
12155 = {
	name="Raymond"
	dynasty=155
	
	religion="old_gods"
	culture="old_first_man"
	
	father=13155
	
	3210.1.1 = {birth="3210.1.1"}
	3270.1.1 = {death="3270.1.1"}
}
13155 = {
	name="Franklyn"
	dynasty=155
	
	religion="old_gods"
	culture="old_first_man"
	
	father=14155
	
	3184.1.1 = {birth="3184.1.1"}
	3226.1.1 = {death="3226.1.1"}
}
14155 = {
	name="Perwyn"
	dynasty=155
	
	religion="old_gods"
	culture="old_first_man"
	
	father=16155
	
	3157.1.1 = {birth="3157.1.1"}
	3214.1.1 = {death="3214.1.1"}
}
15155 = {
	name="Willamen"
	dynasty=155
	
	religion="old_gods"
	culture="old_first_man"
	
	father=16155
	
	3155.1.1 = {birth="3155.1.1"}
	3207.1.1 = {death="3207.1.1"}
}
16155 = {
	name="Tion"
	dynasty=155
	
	religion="old_gods"
	culture="old_first_man"
	
	father=17155
	
	3128.1.1 = {birth="3128.1.1"}
	3201.1.1 = {death="3201.1.1"}
}
17155 = {
	name="Bennifer"
	dynasty=155
	
	religion="old_gods"
	culture="old_first_man"
	
	father=18155
	
	3112.1.1 = {birth="3112.1.1"}
	3155.1.1 = {death="3155.1.1"}
}
18155 = {
	name="Walder"
	dynasty=155
	
	religion="old_gods"
	culture="old_first_man"
	
	father=19155
	
	3079.1.1 = {birth="3079.1.1"}
	3141.1.1 = {death="3141.1.1"}
}
19155 = {
	name="Olyvar"
	dynasty=155
	
	religion="old_gods"
	culture="old_first_man"
	
	father=25155
	
	3063.1.1 = {birth="3063.1.1"}
	3121.1.1 = {death="3121.1.1"}
}
25155 = {
	name="Hibald"
	dynasty=155
	
	religion="old_gods"
	culture="old_first_man"
	
	father=21155
	
	3037.1.1 = {birth="3037.1.1"}
	3115.1.1 = {death="3115.1.1"}
}
21155 = {
	name="Alesander"
	dynasty=155
	
	religion="old_gods"
	culture="old_first_man"
	
	father=22155
	
	3010.1.1 = {birth="3010.1.1"}
	3079.1.1 = {death="3079.1.1"}
}
22155 = {
	name="Willum"
	dynasty=155
	
	religion="old_gods"
	culture="old_first_man"
	
	father=24155
	
	2991.1.1 = {birth="2991.1.1"}
	3031.1.1 = {death="3031.1.1"}
}
23155 = {
	name="Arlan"
	dynasty=155
	
	religion="old_gods"
	culture="old_first_man"
	
	father=24155
	
	2988.1.1 = {birth="2988.1.1"}
	3013.1.1 = {death="3013.1.1"}
}
24155 = {
	name="Waltyr"
	dynasty=155
	
	religion="old_gods"
	culture="old_first_man"
	
	2967.1.1 = {birth="2967.1.1"}
	3008.1.1 = {death="3008.1.1"}
}
###
###House Chambers
###
100178453 = {
	name="Arwyn"	# a lord
	dynasty=178453

	religion="old_gods"
	culture="old_first_man"

	2965.1.1 = {birth="2965.1.1"}
	2981.1.1 = {add_trait=knight add_trait=trained_warrior}
	2983.1.1 = {add_spouse=400178453}
	3006.1.1 = {death="3006.1.1"}
}
400178453 = {
	name="Jyzene"
	female=yes

	religion="old_gods"
	culture="old_first_man"

	2965.1.1 = {birth="2965.1.1"}
	2981.1.1 = {add_trait=poor_warrior}
	3006.1.1 = {death="3006.1.1"}
}
101178453 = {
	name="Patrek"	# a lord
	dynasty=178453

	religion="old_gods"
	culture="old_first_man"

	father=100178453
	mother=400178453

	2989.1.1 = {birth="2989.1.1"}
	3005.1.1 = {add_trait=knight add_trait=trained_warrior}
	3007.1.1 = {add_spouse=401178453}
	3030.1.1 = {death="3030.1.1"}
}
401178453 = {
	name="Joyeuse"
	female=yes

	religion="old_gods"
	culture="old_first_man"

	2989.1.1 = {birth="2989.1.1"}
	3005.1.1 = {add_trait=poor_warrior}
	3030.1.1 = {death="3030.1.1"}
}
102178453 = {
	name="Ambrose"	# not a lord
	dynasty=178453

	religion="old_gods"
	culture="old_first_man"

	father=100178453
	mother=400178453

	2990.1.1 = {birth="2990.1.1"}
	3006.1.1 = {add_trait=knight add_trait=skilled_warrior}
	3047.1.1 = {death="3047.1.1"}
}
103178453 = {
	name="Joyeuse"	# not a lord
	female=yes
	dynasty=178453

	religion="old_gods"
	culture="old_first_man"

	father=100178453
	mother=400178453

	2991.1.1 = {birth="2991.1.1"}
	3007.1.1 = {add_trait=skilled_warrior}
	3061.1.1 = {death="3061.1.1"}
}
104178453 = {
	name="Ellery"	# not a lord
	dynasty=178453

	religion="old_gods"
	culture="old_first_man"

	father=100178453
	mother=400178453

	2993.1.1 = {birth="2993.1.1"}
	3009.1.1 = {add_trait=knight add_trait=skilled_warrior}
	3046.1.1 = {death="3046.1.1"}
}
105178453 = {
	name="Damon"	# a lord
	dynasty=178453

	religion="old_gods"
	culture="old_first_man"

	father=101178453
	mother=401178453

	3008.1.1 = {birth="3008.1.1"}
	3024.1.1 = {add_trait=knight add_trait=trained_warrior}
	3026.1.1 = {add_spouse=405178453}
	3060.1.1 = {death="3060.1.1"}
}
405178453 = {
	name="Emphyria"
	female=yes

	religion="old_gods"
	culture="old_first_man"

	3008.1.1 = {birth="3008.1.1"}
	3024.1.1 = {add_trait=poor_warrior}
	3060.1.1 = {death="3060.1.1"}
}
106178453 = {
	name="Zia"	# not a lord
	female=yes
	dynasty=178453

	religion="old_gods"
	culture="old_first_man"

	father=105178453
	mother=405178453

	3041.1.1 = {birth="3041.1.1"}
	3057.1.1 = {add_trait=trained_warrior}
	3072.1.1 = {death="3072.1.1"}
}
107178453 = {
	name="Dennett"	# a lord
	dynasty=178453

	religion="old_gods"
	culture="old_first_man"

	father=105178453
	mother=405178453

	3042.1.1 = {birth="3042.1.1"}
	3058.1.1 = {add_trait=knight add_trait=poor_warrior}
	3060.1.1 = {add_spouse=407178453}
	3101.1.1 = {death="3101.1.1"}
}
407178453 = {
	name="Ellery"
	female=yes

	religion="old_gods"
	culture="old_first_man"

	3042.1.1 = {birth="3042.1.1"}
	3058.1.1 = {add_trait=poor_warrior}
	3101.1.1 = {death="3101.1.1"}
}
108178453 = {
	name="Leslyn"	# not a lord
	female=yes
	dynasty=178453

	religion="old_gods"
	culture="old_first_man"

	father=105178453
	mother=405178453

	3044.1.1 = {birth="3044.1.1"}
	3060.1.1 = {add_trait=trained_warrior}
	3095.1.1 = {death="3095.1.1"}
}
109178453 = {
	name="Quincy"	# not a lord
	dynasty=178453

	religion="old_gods"
	culture="old_first_man"

	father=105178453
	mother=405178453

	3046.1.1 = {birth="3046.1.1"}
	3062.1.1 = {add_trait=knight add_trait=skilled_warrior}
	3121.1.1 = {death="3121.1.1"}
}
110178453 = {
	name="Utherydes"	# not a lord
	dynasty=178453

	religion="old_gods"
	culture="old_first_man"

	father=107178453
	mother=407178453

	3067.1.1 = {birth="3067.1.1"}
	3083.1.1 = {add_trait=knight add_trait=skilled_warrior}
	3087.1.1 = {death="3087.1.1"}
}
111178453 = {
	name="Bennet"	# a lord
	dynasty=178453

	religion="old_gods"
	culture="old_first_man"

	father=107178453
	mother=407178453

	3069.1.1 = {birth="3069.1.1"}
	3085.1.1 = {add_trait=knight add_trait=skilled_warrior}
	3087.1.1 = {add_spouse=411178453}
	3123.1.1 = {death="3123.1.1"}
}
411178453 = {
	name="Walda"
	female=yes

	religion="old_gods"
	culture="old_first_man"

	3069.1.1 = {birth="3069.1.1"}
	3085.1.1 = {add_trait=poor_warrior}
	3123.1.1 = {death="3123.1.1"}
}
112178453 = {
	name="Rawney"	# a lord
	dynasty=178453

	religion="old_gods"
	culture="old_first_man"

	father=111178453
	mother=411178453

	3097.1.1 = {birth="3097.1.1"}
	3113.1.1 = {add_trait=knight add_trait=poor_warrior}
	3115.1.1 = {add_spouse=412178453}
	3139.1.1 = {death="3139.1.1"}
}
412178453 = {
	name="Marissa"
	female=yes

	religion="old_gods"
	culture="old_first_man"

	3097.1.1 = {birth="3097.1.1"}
	3113.1.1 = {add_trait=poor_warrior}
	3139.1.1 = {death="3139.1.1"}
}
113178453 = {
	name="Melwys"	# a lord
	dynasty=178453

	religion="old_gods"
	culture="old_first_man"

	father=112178453
	mother=412178453

	3120.1.1 = {birth="3120.1.1"}
	3136.1.1 = {add_trait=knight add_trait=poor_warrior}
	3138.1.1 = {add_spouse=413178453}
	3179.1.1 = {death="3179.1.1"}
}
413178453 = {
	name="Mariya"
	female=yes

	religion="old_gods"
	culture="old_first_man"

	3120.1.1 = {birth="3120.1.1"}
	3136.1.1 = {add_trait=poor_warrior}
	3179.1.1 = {death="3179.1.1"}
}
114178453 = {
	name="Arwyn"	# not a lord
	dynasty=178453

	religion="old_gods"
	culture="old_first_man"

	father=112178453
	mother=412178453

	3123.1.1 = {birth="3123.1.1"}
	3139.1.1 = {add_trait=knight add_trait=skilled_warrior}
	3141.1.1 = {add_spouse=414178453}
	3159.1.1 = {death = {death_reason = death_accident}}
}
414178453 = {
	name="Danelle"
	female=yes

	religion="old_gods"
	culture="old_first_man"

	3123.1.1 = {birth="3123.1.1"}
	3139.1.1 = {add_trait=poor_warrior}
	3164.1.1 = {death="3164.1.1"}
}
115178453 = {
	name="Jammos"	# not a lord
	dynasty=178453

	religion="old_gods"
	culture="old_first_man"

	father=112178453
	mother=412178453

	3125.1.1 = {birth="3125.1.1"}
	3141.1.1 = {add_trait=knight add_trait=trained_warrior}
	3143.1.1 = {add_spouse=415178453}
	3171.1.1 = {death="3171.1.1"}
}
415178453 = {
	name="Catelyn"
	female=yes

	religion="old_gods"
	culture="old_first_man"

	3125.1.1 = {birth="3125.1.1"}
	3141.1.1 = {add_trait=poor_warrior}
	3171.1.1 = {death="3171.1.1"}
}
116178453 = {
	name="Marissa"	# not a lord
	female=yes
	dynasty=178453

	religion="old_gods"
	culture="old_first_man"

	father=112178453
	mother=412178453

	3127.1.1 = {birth="3127.1.1"}
	3143.1.1 = {add_trait=skilled_warrior}
	3174.1.1 = {death="3174.1.1"}
}
117178453 = {
	name="Norbert"	# not a lord
	dynasty=178453

	religion="old_gods"
	culture="old_first_man"

	father=112178453
	mother=412178453

	3130.1.1 = {birth="3130.1.1"}
	3146.1.1 = {add_trait=knight add_trait=poor_warrior}
	3176.1.1 = {death="3176.1.1"}
}
118178453 = {
	name="Jeyne"	# not a lord
	female=yes
	dynasty=178453

	religion="old_gods"
	culture="old_first_man"

	father=113178453
	mother=413178453

	3144.1.1 = {birth="3144.1.1"}
	3160.1.1 = {add_trait=trained_warrior}
	3182.1.1 = {death="3182.1.1"}
}
119178453 = {
	name="Carellen"	# not a lord
	female=yes
	dynasty=178453

	religion="old_gods"
	culture="old_first_man"

	father=114178453
	mother=414178453

	3158.1.1 = {birth="3158.1.1"}
	3174.1.1 = {add_trait=trained_warrior}
	3227.1.1 = {death="3227.1.1"}
}
120178453 = {
	name="Jaime"	# a lord
	dynasty=178453

	religion="old_gods"
	culture="old_first_man"

	father=115178453
	mother=415178453

	3143.1.1 = {birth="3143.1.1"}
	3159.1.1 = {add_trait=knight add_trait=poor_warrior}
	3161.1.1 = {add_spouse=420178453}
	3213.1.1 = {death="3213.1.1"}
}
420178453 = {
	name="Harra"
	female=yes

	religion="old_gods"
	culture="old_first_man"

	3143.1.1 = {birth="3143.1.1"}
	3159.1.1 = {add_trait=poor_warrior}
	3213.1.1 = {death="3213.1.1"}
}
121178453 = {
	name="Shirei"	# not a lord
	female=yes
	dynasty=178453

	religion="old_gods"
	culture="old_first_man"

	father=115178453
	mother=415178453

	3144.1.1 = {birth="3144.1.1"}
	3160.1.1 = {add_trait=skilled_warrior}
	3202.1.1 = {death="3202.1.1"}
}
122178453 = {
	name="Leslyn"	# not a lord
	female=yes
	dynasty=178453

	religion="old_gods"
	culture="old_first_man"

	father=120178453
	mother=420178453

	3171.1.1 = {birth="3171.1.1"}
	3187.1.1 = {add_trait=trained_warrior}
	3211.1.1 = {death="3211.1.1"}
}
123178453 = {
	name="Pate"	# not a lord
	dynasty=178453

	religion="old_gods"
	culture="old_first_man"

	father=120178453
	mother=420178453

	3173.1.1 = {birth="3173.1.1"}
	3189.1.1 = {add_trait=knight add_trait=trained_warrior}
	3191.1.1 = {add_spouse=423178453}
	3210.1.1 = {death="3210.1.1"}
}
423178453 = {
	name="Marianne"
	female=yes

	religion="old_gods"
	culture="old_first_man"

	3173.1.1 = {birth="3173.1.1"}
	3189.1.1 = {add_trait=poor_warrior}
	3210.1.1 = {death="3210.1.1"}
}
124178453 = {
	name="Tysane"	# not a lord
	female=yes
	dynasty=178453

	religion="old_gods"
	culture="old_first_man"

	father=120178453
	mother=420178453

	3176.1.1 = {birth="3176.1.1"}
	3192.1.1 = {add_trait=poor_warrior}
	3199.1.1 = {death="3199.1.1"}
}
125178453 = {
	name="Merianne"	# not a lord
	female=yes
	dynasty=178453

	religion="old_gods"
	culture="old_first_man"

	father=123178453
	mother=423178453

	3194.1.1 = {birth="3194.1.1"}
	3210.1.1 = {add_trait=trained_warrior}
	3243.1.1 = {death="3243.1.1"}
}
126178453 = {
	name="Arwood"	# a lord
	dynasty=178453

	religion="old_gods"
	culture="old_first_man"

	father=123178453
	mother=423178453

	3195.1.1 = {birth="3195.1.1"}
	3211.1.1 = {add_trait=knight add_trait=poor_warrior}
	3213.1.1 = {add_spouse=426178453}
	3244.1.1 = {death="3244.1.1"}
}
426178453 = {
	name="Morya"
	female=yes

	religion="old_gods"
	culture="old_first_man"

	3195.1.1 = {birth="3195.1.1"}
	3211.1.1 = {add_trait=poor_warrior}
	3244.1.1 = {death="3244.1.1"}
}
127178453 = {
	name="Dickon"	# a lord
	dynasty=178453

	religion="old_gods"
	culture="old_first_man"

	father=126178453
	mother=426178453

	3224.1.1 = {birth="3224.1.1"}
	3240.1.1 = {add_trait=poor_warrior}
	3242.1.1 = {add_spouse=427178453}
	3276.1.1 = {death="3276.1.1"}
}
427178453 = {
	name="Carellen"
	female=yes

	religion="old_gods"
	culture="old_first_man"

	3224.1.1 = {birth="3224.1.1"}
	3240.1.1 = {add_trait=poor_warrior}
	3276.1.1 = {death="3276.1.1"}
}
128178453 = {
	name="Cleos"	# not a lord
	dynasty=178453

	religion="old_gods"
	culture="old_first_man"

	father=126178453
	mother=426178453

	3226.1.1 = {birth="3226.1.1"}
	3242.1.1 = {add_trait=knight add_trait=poor_warrior}
	3296.1.1 = {death="3296.1.1"}
}
129178453 = {
	name="Sylwa"	# not a lord
	female=yes
	dynasty=178453

	religion="old_gods"
	culture="old_first_man"

	father=126178453
	mother=426178453

	3228.1.1 = {birth="3228.1.1"}
	3244.1.1 = {add_trait=trained_warrior}
	3270.1.1 = {death="3270.1.1"}
}
130178453 = {
	name="Duncan"	# not a lord
	dynasty=178453

	religion="old_gods"
	culture="old_first_man"

	father=126178453
	mother=426178453

	3229.1.1 = {birth="3229.1.1"}
	3245.1.1 = {add_trait=knight add_trait=trained_warrior}
	3259.1.1 = {death="3259.1.1"}
}
131178453 = {
	name="Catelyn"	# not a lord
	female=yes
	dynasty=178453

	religion="old_gods"
	culture="old_first_man"

	father=126178453
	mother=426178453

	3232.1.1 = {birth="3232.1.1"}
	3248.1.1 = {add_trait=poor_warrior}
	3254.1.1 = {death="3254.1.1"}
}
132178453 = {
	name="Desmond"	# a lord
	dynasty=178453

	religion="old_gods"
	culture="old_first_man"

	father=127178453
	mother=427178453

	3253.1.1 = {birth="3253.1.1"}
	3269.1.1 = {add_trait=knight add_trait=trained_warrior}
	3271.1.1 = {add_spouse=432178453}
	3288.1.1 = {death="3288.1.1"}
}
432178453 = {
	name="Zia"
	female=yes

	religion="old_gods"
	culture="old_first_man"

	3253.1.1 = {birth="3253.1.1"}
	3269.1.1 = {add_trait=poor_warrior}
	3288.1.1 = {death="3288.1.1"}
}
133178453 = {
	name="Rhialta"	# not a lord
	female=yes
	dynasty=178453

	religion="old_gods"
	culture="old_first_man"

	father=127178453
	mother=427178453

	3254.1.1 = {birth="3254.1.1"}
	3270.1.1 = {add_trait=trained_warrior}
	3322.1.1 = {death="3322.1.1"}
}
134178453 = {
	name="Cynthea"	# not a lord
	female=yes
	dynasty=178453

	religion="old_gods"
	culture="old_first_man"

	father=127178453
	mother=427178453

	3257.1.1 = {birth="3257.1.1"}
	3273.1.1 = {add_trait=trained_warrior}
	3292.1.1 = {death="3292.1.1"}
}
135178453 = {
	name="Luceon"	# a lord
	dynasty=178453

	religion="old_gods"
	culture="old_first_man"

	father=127178453
	mother=427178453

	3258.1.1 = {birth="3258.1.1"}
	3274.1.1 = {add_trait=knight add_trait=poor_warrior}
	3276.1.1 = {add_spouse=435178453}
	3300.1.1 = {death="3300.1.1"}
}
435178453 = {
	name="Nolla"
	female=yes

	religion="old_gods"
	culture="old_first_man"

	3258.1.1 = {birth="3258.1.1"}
	3274.1.1 = {add_trait=poor_warrior}
	3300.1.1 = {death="3300.1.1"}
}
136178453 = {
	name="Willum"	# a lord
	dynasty=178453

	religion="old_gods"
	culture="old_first_man"

	father=135178453
	mother=435178453

	3283.1.1 = {birth="3283.1.1"}
	3299.1.1 = {add_trait=knight add_trait=poor_warrior}
}
137178453 = {
	name="Tristifer"	# not a lord
	dynasty=178453

	religion="old_gods"
	culture="old_first_man"

	father=135178453
	mother=435178453

	3284.1.1 = {birth="3284.1.1"}
	3300.1.1 = {add_trait=knight add_trait=poor_warrior}
}
138178453 = {
	name="Ellery"	# not a lord
	dynasty=178453

	religion="old_gods"
	culture="old_first_man"

	father=135178453
	mother=435178453

	3285.1.1 = {birth="3285.1.1"}
	3301.1.1 = {add_trait=knight add_trait=poor_warrior}
}
#House Thorne#
6000030 = {
	name="Arneld"	# a lord
	dynasty=30

	religion="old_gods"
	culture="old_first_man"

	2962.1.1 = {birth="2962.1.1"}
	2978.1.1 = {add_trait=knight add_trait=skilled_warrior}
	2980.1.1 = {add_spouse=5000030}
	3032.1.1 = {death="3032.1.1"}
}
5000030 = {
	name="Moelle"
	female=yes

	religion="old_gods"
	culture="old_first_man"

	2962.1.1 = {birth="2962.1.1"}
	3032.1.1 = {death="3032.1.1"}
}
6000130 = {
	name="Justin"	# a lord
	dynasty=30

	religion="old_gods"
	culture="old_first_man"

	father=6000030
	mother=5000030

	2995.1.1 = {birth="2995.1.1"}
	3011.1.1 = {add_trait=knight add_trait=poor_warrior}
	3013.1.1 = {add_spouse=5000130}
	3047.1.1 = {death="3047.1.1"}
}
5000130 = {
	name="Alyce"
	female=yes

	religion="old_gods"
	culture="old_first_man"

	2995.1.1 = {birth="2995.1.1"}
	3047.1.1 = {death="3047.1.1"}
}
6000230 = {
	name="Alyn"	# not a lord
	dynasty=30

	religion="old_gods"
	culture="old_first_man"

	father=6000030
	mother=5000030

	2996.1.1 = {birth="2996.1.1"}
	3012.1.1 = {add_trait=knight add_trait=trained_warrior}
	3050.1.1 = {death="3050.1.1"}
}
6000330 = {
	name="Jeyne"	# not a lord
	female=yes
	dynasty=30

	religion="old_gods"
	culture="old_first_man"

	father=6000030
	mother=5000030

	2998.1.1 = {birth="2998.1.1"}
	3062.1.1 = {death="3062.1.1"}
}
6000430 = {
	name="Jacelyn"	# a lord
	dynasty=30

	religion="old_gods"
	culture="old_first_man"

	father=6000130
	mother=5000130

	3018.1.1 = {birth="3018.1.1"}
	3034.1.1 = {add_trait=poor_warrior}
	3036.1.1 = {add_spouse=5000430}
	3063.1.1 = {death="3063.1.1"}
}
5000430 = {
	name="Senelle"
	female=yes

	religion="old_gods"
	culture="old_first_man"

	3018.1.1 = {birth="3018.1.1"}
	3063.1.1 = {death="3063.1.1"}
}
6000530 = {
	name="Alliser"	# a lord
	dynasty=30

	religion="old_gods"
	culture="old_first_man"

	father=6000430
	mother=5000430

	3044.1.1 = {birth="3044.1.1"}
	3060.1.1 = {add_trait=poor_warrior}
	3062.1.1 = {add_spouse=5000530}
	3084.1.1 = {death="3084.1.1"}
}
5000530 = {
	name="Scolera"
	female=yes

	religion="old_gods"
	culture="old_first_man"

	3044.1.1 = {birth="3044.1.1"}
	3084.1.1 = {death="3084.1.1"}
}
6000630 = {
	name="Aglantine"	# not a lord
	female=yes
	dynasty=30

	religion="old_gods"
	culture="old_first_man"

	father=6000430
	mother=5000430

	3046.1.1 = {birth="3046.1.1"}
	3099.1.1 = {death="3099.1.1"}
}
6000730 = {
	name="Mary"	# not a lord
	female=yes
	dynasty=30

	religion="old_gods"
	culture="old_first_man"

	father=6000430
	mother=5000430

	3047.1.1 = {birth="3047.1.1"}
	3056.1.1 = {death = {death_reason = death_accident}}
}
6000830 = {
	name="Leonette"	# not a lord
	female=yes
	dynasty=30

	religion="old_gods"
	culture="old_first_man"

	father=6000530
	mother=5000530

	3063.1.1 = {birth="3063.1.1"}
	3096.1.1 = {death="3096.1.1"}
}
6000930 = {
	name="Mortimer"	# a lord
	dynasty=30

	religion="old_gods"
	culture="old_first_man"

	father=6000530
	mother=5000530

	3066.1.1 = {birth="3066.1.1"}
	3082.1.1 = {add_trait=knight add_trait=poor_warrior}
	3084.1.1 = {add_spouse=5000930}
	3112.1.1 = {death="3112.1.1"}
}
5000930 = {
	name="Ermesande"
	female=yes

	religion="old_gods"
	culture="old_first_man"

	3066.1.1 = {birth="3066.1.1"}
	3112.1.1 = {death="3112.1.1"}
}
6001030 = {
	name="Brella"	# not a lord
	female=yes
	dynasty=30

	religion="old_gods"
	culture="old_first_man"

	father=6000530
	mother=5000530

	3069.1.1 = {birth="3069.1.1"}
	3077.1.1 = {death = {death_reason = death_accident}}
}
6001130 = {
	name="Renfred"	# not a lord
	dynasty=30

	religion="old_gods"
	culture="old_first_man"

	father=6000530
	mother=5000530

	3071.1.1 = {birth="3071.1.1"}
	3087.1.1 = {add_trait=knight add_trait=master_warrior}
	3140.1.1 = {death="3140.1.1"}
}
6001230 = {
	name="Simon"	# a lord
	dynasty=30

	religion="old_gods"
	culture="old_first_man"

	father=6000930
	mother=5000930

	3101.1.1 = {birth="3101.1.1"}
	3113.1.1 = {death="3113.1.1"}
}
6001330 = {
	name="Dontos"	# a lord
	dynasty=30

	religion="old_gods"
	culture="old_first_man"

	father=6000930
	mother=5000930

	3104.1.1 = {birth="3104.1.1"}
	3120.1.1 = {add_trait=poor_warrior}
	3122.1.1 = {add_spouse=5001330}
	3161.1.1 = {death="3161.1.1"}
}
5001330 = {
	name="Cassana"
	female=yes

	religion="old_gods"
	culture="old_first_man"

	3104.1.1 = {birth="3104.1.1"}
	3161.1.1 = {death="3161.1.1"}
}
6001430 = {
	name="Rorge"	# not a lord
	dynasty=30

	religion="old_gods"
	culture="old_first_man"

	father=6000930
	mother=5000930

	3106.1.1 = {birth="3106.1.1"}
	3164.1.1 = {death="3164.1.1"}
}
6001530 = {
	name="Eglantine"	# not a lord
	female=yes
	dynasty=30

	religion="old_gods"
	culture="old_first_man"

	father=6000930
	mother=5000930

	3108.1.1 = {birth="3108.1.1"}
	3168.1.1 = {death="3168.1.1"}
}
6001630 = {
	name="Aglantine"	# not a lord
	female=yes
	dynasty=30

	religion="old_gods"
	culture="old_first_man"

	father=6001330
	mother=5001330

	3122.1.1 = {birth="3122.1.1"}
	3182.1.1 = {death="3182.1.1"}
}
6001730 = {
	name="Marei"	# not a lord
	female=yes
	dynasty=30

	religion="old_gods"
	culture="old_first_man"

	father=6001330
	mother=5001330

	3125.1.1 = {birth="3125.1.1"}
	3156.1.1 = {death="3156.1.1"}
}
6001830 = {
	name="Hubard"	# a lord
	dynasty=30

	religion="old_gods"
	culture="old_first_man"

	father=6001330
	mother=5001330

	3126.1.1 = {birth="3126.1.1"}
	3142.1.1 = {add_trait=trained_warrior}
	3144.1.1 = {add_spouse=5001830}
	3170.1.1 = {death="3170.1.1"}
}
5001830 = {
	name="Cassana"
	female=yes

	religion="old_gods"
	culture="old_first_man"

	3126.1.1 = {birth="3126.1.1"}
	3170.1.1 = {death="3170.1.1"}
}
6001930 = {
	name="Perkin"	# not a lord
	dynasty=30

	religion="old_gods"
	culture="old_first_man"

	father=6001330
	mother=5001330

	3127.1.1 = {birth="3127.1.1"}
	3143.1.1 = {add_trait=knight add_trait=trained_warrior}
	3184.1.1 = {death="3184.1.1"}
}
6002030 = {
	name="Alynne"	# not a lord
	female=yes
	dynasty=30

	religion="old_gods"
	culture="old_first_man"

	father=6001330
	mother=5001330

	3129.1.1 = {birth="3129.1.1"}
	3171.1.1 = {death="3171.1.1"}
}
6002130 = {
	name="Wallace"	# a lord
	dynasty=30

	religion="old_gods"
	culture="old_first_man"

	father=6001830
	mother=5001830

	3151.1.1 = {birth="3151.1.1"}
	3167.1.1 = {add_trait=poor_warrior}
	3169.1.1 = {add_spouse=5002130}
	3204.1.1 = {death="3204.1.1"}
}
5002130 = {
	name="Unella"
	female=yes

	religion="old_gods"
	culture="old_first_man"

	3151.1.1 = {birth="3151.1.1"}
	3204.1.1 = {death="3204.1.1"}
}
6002230 = {
	name="Eglantine"	# not a lord
	female=yes
	dynasty=30

	religion="old_gods"
	culture="old_first_man"

	father=6001830
	mother=5001830

	3152.1.1 = {birth="3152.1.1"}
	3202.1.1 = {death="3202.1.1"}
}
6002330 = {
	name="Marei"	# not a lord
	female=yes
	dynasty=30

	religion="old_gods"
	culture="old_first_man"

	father=6001830
	mother=5001830

	3153.1.1 = {birth="3153.1.1"}
	3207.1.1 = {death="3207.1.1"}
}
6002430 = {
	name="Devan"	# a lord
	dynasty=30

	religion="old_gods"
	culture="old_first_man"

	father=6002130
	mother=5002130

	3180.1.1 = {birth="3180.1.1"}
	3196.1.1 = {add_trait=knight add_trait=poor_warrior}
	3198.1.1 = {add_spouse=5002430}
	3256.1.1 = {death="3256.1.1"}
}
5002430 = {
	name="Cassana"
	female=yes

	religion="old_gods"
	culture="old_first_man"

	3180.1.1 = {birth="3180.1.1"}
	3256.1.1 = {death="3256.1.1"}
}
6002530 = {
	name="Denyse"	# not a lord
	female=yes
	dynasty=30

	religion="old_gods"
	culture="old_first_man"

	father=6002130
	mother=5002130

	3181.1.1 = {birth="3181.1.1"}
	3241.1.1 = {death="3241.1.1"}
}
6002630 = {
	name="Malora"	# not a lord
	female=yes
	dynasty=30

	religion="old_gods"
	culture="old_first_man"

	father=6002430
	mother=5002430

	3198.1.1 = {birth="3198.1.1"}
	3231.1.1 = {death = {death_reason = death_accident}}
}
6002730 = {
	name="Rorge"	# not a lord
	dynasty=30

	religion="old_gods"
	culture="old_first_man"

	father=6002430
	mother=5002430

	3200.1.1 = {birth="3200.1.1"}
	3206.1.1 = {death="3206.1.1"}
}
6002830 = {
	name="Allard"	# not a lord
	dynasty=30

	religion="old_gods"
	culture="old_first_man"

	father=6002430
	mother=5002430

	3202.1.1 = {birth="3202.1.1"}
	3206.1.1 = {death="3206.1.1"}
}
6002930 = {
	name="Belis"	# not a lord
	dynasty=30

	religion="old_gods"
	culture="old_first_man"

	father=6002430
	mother=5002430

	3204.1.1 = {birth="3204.1.1"}
	3220.1.1 = {add_trait=knight add_trait=poor_warrior}
	3222.1.1 = {add_spouse=5002930}
	3256.1.1 = {death="3256.1.1"}
}
5002930 = {
	name="Bethany"
	female=yes

	religion="old_gods"
	culture="old_first_man"

	3204.1.1 = {birth="3204.1.1"}
	3256.1.1 = {death="3256.1.1"}
}
6003030 = {
	name="Alys"	# not a lord
	female=yes
	dynasty=30

	religion="old_gods"
	culture="old_first_man"

	father=6002430
	mother=5002430

	3205.1.1 = {birth="3205.1.1"}
	3226.1.1 = {death="3226.1.1"}
}
6003130 = {
	name="Shireen"	# not a lord
	female=yes
	dynasty=30

	religion="old_gods"
	culture="old_first_man"

	father=6002930
	mother=5002930

	3222.1.1 = {birth="3222.1.1"}
	3275.1.1 = {death = {death_reason = death_murder}}
}
6003230 = {
	name="Alerie"	# not a lord
	female=yes
	dynasty=30

	religion="old_gods"
	culture="old_first_man"

	father=6002930
	mother=5002930

	3223.1.1 = {birth="3223.1.1"}
	3289.1.1 = {death="3289.1.1"}
}
6003330 = {
	name="Cyrenna"	# not a lord
	female=yes
	dynasty=30

	religion="old_gods"
	culture="old_first_man"

	father=6002930
	mother=5002930

	3226.1.1 = {birth="3226.1.1"}
	3274.1.1 = {death="3274.1.1"}
}
6003430 = {
	name="Moelle"	# not a lord
	female=yes
	dynasty=30

	religion="old_gods"
	culture="old_first_man"

	father=6002930
	mother=5002930

	3227.1.1 = {birth="3227.1.1"}
	3269.1.1 = {death="3269.1.1"}
}

#House Butterwell#
1143 = {
	name="Geremy"
	dynasty=143
	
	religion="old_gods"
	culture="old_first_man"
	
	father=2143
	
	3218.1.1 = {birth="3218.1.1"}
	3277.1.1 = {death="3277.1.1"}
}
2143 = {
	name="Lister" #Not a Lord Butterwell, Ambrose's Nephew
	dynasty=143
	
	religion="old_gods"
	culture="old_first_man"
	
	father=12143
	
	3193.1.1 = {birth="3193.1.1"}
	3236.1.1 = {death="3236.1.1"}
}
3143 = {
	name="Aubrey" 
	dynasty=143
	
	religion="old_gods"
	culture="old_first_man"
	
	father=13143
	mother=14143
	
	3162.1.1 = {birth="3162.1.1"}
	3178.1.1 = {add_spouse=4143}
	3214.12.2 = {add_spouse=13127}
	3240.1.1 = {death="3240.1.1"}
}

#Ambrose's First Wife#
4143 = {
	name="Liane"
	female=yes
	
	religion="old_gods"
	culture="old_first_man"
	
	3162.1.1 = {birth="3162.1.1"}
	3214.1.1 = {death="3214.1.1"}
}
#Ambrose's Children#
5143 = {
	name="Roland"
	dynasty=143
	
	religion="old_gods"
	culture="old_first_man"
	
	father=3143
	mother=4143
	
	3178.1.1 = {birth="3178.1.1"}
	3199.1.1 = {death= {
		death_reason=death_battle
		}
	}
}
6143 = {
	name="Derek"
	dynasty=143
	
	religion="old_gods"
	culture="old_first_man"
	
	father=3143
	mother=4143
	
	3179.1.1 = {birth="3179.1.1"}
	3200.1.1 = {death= {
		death_reason=death_battle
		}
	}
}
7143 = {
	name="Osfryd"
	dynasty=143
	
	religion="old_gods"
	culture="old_first_man"
	
	father=3143
	mother=4143
	
	3184.1.1 = {birth="3184.1.1"}
	3213.1.1={
		death = yes
	}
}
8143 = {
	name="Ryella" #Wife of Tom Heddle
	dynasty=143
	female=yes
	
	religion="old_gods"
	culture="old_first_man"
	
	father=3143
	mother=4143
	
	3185.1.1 = {birth="3185.1.1"}
	3238.1.1 = {death="3238.1.1"}
}
10143 = {
	name="Cass" #Married Eden Risley
	dynasty=143
	female=yes
	
	religion="old_gods"
	culture="old_first_man"
	
	father=3143
	mother=4143
	
	3187.1.1 = {birth="3187.1.1"}
	3256.1.1 = {death="3256.1.1"}
}
11143 = {
	name="Sharna" #Married Lord Costayne
	dynasty=143
	female=yes
	
	religion="old_gods"
	culture="old_first_man"
	
	father=3143
	mother=4143
	
	3191.1.1 = {birth="3191.1.1"}
	3263.1.1 = {death="3263.1.1"}
}

12143 = {
	name="Clarence" #Ambrose's Brother, Not canon, just to explain Continuation of Line
	dynasty=143
	
	religion="old_gods"
	culture="old_first_man"
	
	father=13143
	mother=14143
	
	3168.1.1 = {birth="3168.1.1"}
	3225.1.1 = {death="3225.1.1"}
}
13143 = {
	name="Petyr"
	dynasty=143
	
	religion="old_gods"
	culture="old_first_man"
	
	father=17143
	mother=18143
	
	3143.1.1 = {birth="3143.1.1"}
	3159.1.1 = {add_spouse=14143}
	3184.1.1 = {death="3184.1.1"}
}
14143 = {
	name="Leana"
	female=yes
	
	religion="old_gods"
	culture="old_first_man"
	
	3143.1.1 = {birth="3143.1.1"}
	3211.1.1 = {death="3211.1.1"}
}
15143 = {
	name="Tyta"
	dynasty=143
	female=yes
	
	religion="old_gods"
	culture="old_first_man"
	
	father=17143
	mother=18143
	
	3150.1.1 = {birth="3150.1.1"}
	3217.1.1 = {death="3217.1.1"}
}
16143 = {
	name="Emberlei"
	dynasty=143
	female=yes
	
	religion="old_gods"
	culture="old_first_man"
	
	father=17143
	mother=18143
	
	3154.1.1 = {birth="3154.1.1"}
	3222.1.1 = {death="3222.1.1"}
}
26143 = {
	name="Catelyn"
	dynasty=143
	female=yes
	
	religion="old_gods"
	culture="old_first_man"
	
	father=17143
	mother=18143
	
	3144.1.1 = {birth="3144.1.1"}
	3221.1.1 = {death="3221.1.1"}
}
17143 = {
	name="Harold"
	dynasty=143
	
	religion="old_gods"
	culture="old_first_man"
	
	father=19143
	
	3125.1.1 = {birth="3125.1.1"}
	3142.1.1 = {add_spouse=18143}
	3177.1.1 = {death="3177.1.1"}
}
18143 = {
	name="Jyanna"
	female=yes
	
	religion="old_gods"
	culture="old_first_man"
	
	3126.1.1 = {birth="3126.1.1"}
	3185.1.1 = {death="3185.1.1"}
}
19143 = {
	name="Lucias"
	dynasty=143
	
	religion="old_gods"
	culture="old_first_man"
	
	father=20143
	
	3104.1.1 = {birth="3104.1.1"}
	3158.1.1 = {death="3158.1.1"}
}
20143 = {
	name="Lyonel"
	dynasty=143
	
	religion="old_gods"
	culture="old_first_man"
	
	father=21143
	
	3084.1.1 = {birth="3084.1.1"}
	3136.1.1 = {death="3136.1.1"}
}
21143 = {
	name="Luke"
	dynasty=143
	
	religion="old_gods"
	culture="old_first_man"
	
	father=22143
	
	3053.1.1 = {birth="3053.1.1"}
	3111.1.1 = {death="3111.1.1"}
}
22143 = {
	name="Harys"
	dynasty=143
	
	religion="old_gods"
	culture="old_first_man"
	
	father=23143
	
	3037.1.1 = {birth="3037.1.1"}
	3102.1.1 = {death="3102.1.1"}
}
23143 = {
	name="Allard"  
	dynasty=143
	
	religion="old_gods"
	culture="old_first_man"

	father=24143
	
	3019.1.1 = {birth="3019.1.1"}
	3086.1.1 = {death="3086.1.1"}
}
88000255 = {
	name="Emma" 
	female=yes
	dynasty=143
	
	religion="old_gods"
	culture="old_first_man"
	
	father=24143
	
	3020.1.1 = {
		birth="3020.1.1"
	}
	3070.1.1 = {death="3070.1.1"}
}
24143 = {
	name="Hosteen"
	dynasty=143
	
	religion="old_gods"
	culture="old_first_man"
	
	father=25143
	
	2995.1.1 = {birth="2995.1.1"}
	3044.1.1 = {death="3044.1.1"}
}

25143 = {
	name="Lymond"
	dynasty=143
	
	religion="old_gods"
	culture="old_first_man"
	
	2966.1.1 = {birth="2966.1.1"}
	3012.1.1 = {death="3012.1.1"}
}



#############################################################################   House Mallister   ###################################################################3

18128 = {
	name="Emmon"
	dynasty=128
	
	religion="old_gods"
	culture="old_first_man"
	
	father=7128
	
	3195.1.1 = {birth="3195.1.1"}
	3239.1.1 = {death="3239.1.1"}
}
175128 = {
	name="Desmond" #Friends with Loron Greyjoy
	dynasty=128
	
	religion="old_gods"
	culture="old_first_man"
	
	father=7128
	
	3196.1.1 = {birth="3196.1.1"}
	3212.1.1={
		add_trait="knight"
		add_trait="trained_warrior"
	}
	3244.1.1 = {death="3244.1.1"}
}
6128 = {
	name="Joseth" # a Lord # Canon
	dynasty=128
	
	religion="old_gods"
	culture="old_first_man"
	
	father=8128 # Luceon Mallister
	
	3180.1.1 = {birth="3180.1.1"}
	3196.1.1 = {add_trait="knight" add_trait="trained_warrior"}
	3247.1.1 = {death="3247.1.1"}
}
7128 = {
	name="Denys" # Not a Lord Mallister
	dynasty=128
	
	religion="old_gods"
	culture="old_first_man"
	
	father=8128 # Luceon Mallister
	
	3175.1.1 = {birth="3175.1.1"}
	3191.1.1 = {add_trait="knight" add_trait="trained_warrior"}
	3195.11.2 = {death= {death_reason = death_battle}}
}
5000128 = {
	name="Edmure" # Not a Lord Mallister
	dynasty=128
	
	religion="old_gods"
	culture="old_first_man"
	
	father=8128 # Luceon Mallister
	
	3176.1.1 = {birth="3176.1.1"}
	3193.1.1 = {add_trait="knight" add_trait="trained_warrior" add_trait="content"}
	3195.11.2 = {death= {death_reason = death_battle}}
}
5100128 = {
	name="Syrelle" # Not a Lord Mallister
	dynasty=128
	female=yes
	
	religion="old_gods"
	culture="old_first_man"
	
	father=8128 # Luceon Mallister
	
	3179.1.1 = {birth="3179.1.1"}
	3210.1.1 = {death="3210.1.1"}
}
8128 = {
	name="Luceon" # Lord at the time of the Dance of Dragons
	dynasty=128
	
	religion="old_gods"
	culture="old_first_man"
	
	father=9128
	
	3156.1.1 = {birth="3156.1.1"}
	3217.1.1 = {death="3217.1.1"}
}
9128 = {
	name="Androw"
	dynasty=128
	
	religion="old_gods"
	culture="old_first_man"
	
	father=10128
	
	3130.1.1 = {birth="3130.1.1"}
	3180.1.1 = {death="3180.1.1"}
}
10128 = {
	name="Lewys"
	dynasty=128
	
	religion="old_gods"
	culture="old_first_man"
	
	father=11128
	
	3107.1.1 = {birth="3107.1.1"}
	3165.1.1 = {death="3165.1.1"}
}
11128 = {
	name="Alyn" # Not a Lord
	dynasty=128
	
	religion="old_gods"
	culture="old_first_man"
	
	father=13128
	
	3082.1.1 = {birth="3082.1.1"}
	3140.1.1 = {death="3140.1.1"}
}
12128 = {
	name="Lymond" # Lord, canon, held tourney
	dynasty=128
	
	religion="old_gods"
	culture="old_first_man"
	
	father=13128
	
	3080.1.1 = {birth="3080.1.1"}
	3096.1.1 = { add_trait = knight add_trait = skilled_warrior }
	3108.1.1 = {death="3108.1.1"}
}
13128 = {
	name="Raymun"
	dynasty=128
	
	religion="old_gods"
	culture="old_first_man"
	
	father=14128
	
	3054.1.1 = {birth="3054.1.1"}
	3098.1.1 = {death="3098.1.1"}
}
14128 = {
	name="Osmynd"
	dynasty=128
	
	religion="old_gods"
	culture="old_first_man"
	
	father=15128
	
	3027.1.1 = {birth="3027.1.1"}
	3080.1.1 = {death="3080.1.1"}
}
15128 = {
	name="Walder"
	dynasty=128
	
	religion="old_gods"
	culture="old_first_man"
	
	father=16128
	
	2998.1.1 = {birth="2998.1.1"}
	3048.1.1 = {death="3048.1.1"}
}
16128 = {
	name="Garse" #Not a Lord Mallister
	dynasty=128
	
	religion="old_gods"
	culture="old_first_man"
	
	father=17128
	mother=200128
	
	2982.1.1 = {birth="2982.1.1"}
	3020.1.1 = {death="3020.1.1"}
}
17128 = {
	name="Illifer"
	dynasty=128
	
	diplomacy = 10
	martial = 5
	stewardship = 7
	intrigue = 3
	learning = 6
	
	religion="old_gods"
	culture="old_first_man"
	
	father=555128
	mother=455128
	
	add_trait = skilled_tactician
	add_trait = ambitious
	add_trait = trusting
	add_trait = brave
	add_trait = cruel
	
	2962.1.1 = {birth="2962.1.1"}
	2978.1.1 = {
		add_trait = knight
		add_trait = skilled_warrior
	}
	2981.1.1 = {add_spouse=200128}
	2996.1.1 = { effect = { prestige = 400 } }
	3022.1.1 = {death="3022.1.1"}
}
200128 = {
	name="Alyna"
	female=yes

	religion="old_gods"	
	culture="old_first_man"

	2966.1.1 = {birth="2966.1.1"}
	3008.1.1 = {death="3008.1.1"}
}
19128 = {
	name="Jeyne"
	female=yes
	dynasty=128

	religion="old_gods"	
	culture="old_first_man"

	father=17128
	mother=200128
	
	2984.1.1 = {birth="2984.1.1"}
	3031.1.1 = {death="3031.1.1"}
}

#Ancient Mallisters
550128 = {
	name="Petyr" #Pretender River King
	dynasty=128
	
	religion="old_gods"
	culture="old_first_man"
	
	add_trait=ambitious
	add_trait=just
	add_trait=envious
	
	2802.1.1 = {birth="2802.1.1"}
	2818.1.1 = {add_trait=knight add_trait=trained_warrior}
	2820.1.1 = {add_spouse=450128}
	2843.1.1 = {
		death = {
			death_reason = death_battle
		}
	}
}
450128 = {
	name="Alys"
	female=yes

	religion="old_gods"
	culture="old_first_man"

	2802.1.1 = {birth="2802.1.1"}
	2843.1.1 = {death="2843.1.1"}
}
551128 = {
	name="Zachery"	# a lord
	dynasty=128

	religion="old_gods"
	culture="old_first_man"

	father=550128
	mother=450128

	2828.1.1 = {birth="2828.1.1"}
	2844.1.1 = {add_trait=knight add_trait=skilled_warrior}
	2846.1.1 = {add_spouse=451128}
	2884.1.1 = {death="2884.1.1"}
}
451128 = {
	name="Ellery"
	female=yes

	religion="old_gods"
	culture="old_first_man"

	2828.1.1 = {birth="2828.1.1"}
	2884.1.1 = {death="2884.1.1"}
}
552128 = {
	name="Jonthor"	# a lord
	dynasty=128

	religion="old_gods"
	culture="old_first_man"

	father=551128
	mother=451128

	2852.1.1 = {birth="2852.1.1"}
	2868.1.1 = {add_trait=knight add_trait=poor_warrior}
	2870.1.1 = {add_spouse=452128}
	2917.1.1 = {death="2917.1.1"}
}
452128 = {
	name="Shella"
	female=yes

	religion="old_gods"
	culture="old_first_man"

	2852.1.1 = {birth="2852.1.1"}
	2917.1.1 = {death="2917.1.1"}
}
553128 = {
	name="Bennifer"	# a lord
	dynasty=128

	religion="old_gods"
	culture="old_first_man"

	father=552128
	mother=452128

	2886.1.1 = {birth="2886.1.1"}
	2902.1.1 = {add_trait=knight add_trait=trained_warrior}
	2904.1.1 = {add_spouse=453128}
	2946.1.1 = {death="2946.1.1"}
}
453128 = {
	name="Sarya"
	female=yes

	religion="old_gods"
	culture="old_first_man"

	2886.1.1 = {birth="2886.1.1"}
	2946.1.1 = {death="2946.1.1"}
}
554128 = {
	name="Petyr"	# a lord
	dynasty=128

	religion="old_gods"
	culture="old_first_man"

	father=553128
	mother=453128

	2909.1.1 = {birth="2909.1.1"}
	2925.1.1 = {add_trait=knight add_trait=trained_warrior}
	2927.1.1 = {add_spouse=454128}
	2968.1.1 = {death="2968.1.1"}
}
454128 = {
	name="Emphyria"
	female=yes

	religion="old_gods"
	culture="old_first_man"

	2909.1.1 = {birth="2909.1.1"}
	2968.1.1 = {death="2968.1.1"}
}
555128 = {
	name="Walder"	# a lord
	dynasty=128

	religion="old_gods"
	culture="old_first_man"

	father=554128
	mother=454128

	2935.1.1 = {birth="2935.1.1"}
	2951.1.1 = {add_trait=knight add_trait=poor_warrior}
	2953.1.1 = {add_spouse=455128}
	2986.1.1 = {death="2986.1.1"}
}
455128 = {
	name="Tyta"
	female=yes

	religion="old_gods"
	culture="old_first_man"

	2935.1.1 = {birth="2935.1.1"}
	2986.1.1 = {death="2986.1.1"}
}
557128 = {
	name="Tytos"	# not a lord
	dynasty=128

	religion="old_gods"
	culture="old_first_man"

	father=555128
	mother=455128

	2964.1.1 = {birth="2964.1.1"}
	2980.1.1 = {add_trait=knight add_trait=skilled_warrior}
	3002.1.1 = {death="3002.1.1"}
}

