# These laws give the council more or less power over certain decisions

law_groups = {
	law_voting_power = {
		law_type = council
		allowed_for_councillors = yes
	}
	diplomacy_voting_power = {
		law_type = council
		allowed_for_councillors = yes
	}
	titles_voting_power = {
		law_type = council
		allowed_for_councillors = yes
	}
	justice_voting_power = {
		law_type = council
		allowed_for_councillors = yes
	}
}

laws = {
	# COUNCIL POWER LAWS
	##############################

	#VOTE ON LAW CHANGES
	law_voting_power_0 = {
		group = law_voting_power
		
		default = yes
		
		allow = {
			has_law = law_voting_power_1
			has_law = titles_voting_power_0
			has_law = justice_voting_power_0
			has_law = diplomacy_voting_power_0
			NOT = { is_nomadic = yes }
			holder_scope = { 
				NOT = { is_in_interregnum_trigger = yes } 
				NOT = { government = noble_oligarchy }
			}
		}
		potential = {
			has_dlc = "Zeus"
			higher_tier_than = baron
		}
		revoke_allowed = {
			always = no
		}			
		ai_will_do = {
			factor = 1
			modifier = {
				factor = 0.001
			}
			modifier = {
				factor = 0
				holder_scope = {
					OR = {
						war = yes
						trait = honorable
						trait = just
						trait = content
					}
				}
			}
			modifier = {
				factor = 0
				holder_scope = {
					NOR = {
						trait = ruthless
						trait = ambitious
						trait = arbitrary
						trait = envious
					}
				}
			}
			modifier = { #Do not do this if a strong vassal doesn't like me
				factor = 0
				holder_scope = {
					any_vassal = { 
						relative_power_to_liege = 0.2
						NOT = { opinion = { who = PREV value = -25 } } 
					}
				}
			}
		}
		ai_will_revoke = {
			factor = 0
		}
		pass_effect = {
			hidden_tooltip = {
				if = {
					limit = { 
						has_law = law_voting_power_1 
						holder_scope = {
							primary_title = {
								title = PREVPREV
							}
						}
					}
					holder_scope = {
						any_vassal = {
							limit = {
								NOT = { has_opinion_modifier = { who = ROOT modifier = opinion_decreased_council_power } }
							}
							opinion = {
								who = ROOT
								modifier = opinion_decreased_council_power
								years = 5
							}
						}
						any_courtier = {
							limit = {
								NOT = { has_opinion_modifier = { who = ROOT modifier = opinion_decreased_council_power } }
							}
							opinion = {
								who = ROOT
								modifier = opinion_decreased_council_power
								years = 5
							}
						}
					}
				}
				disable_council_voting_on_issue = enforce_peace
			}
		}
		effect = {
			disable_council_voting_on_issue = laws
			# custom_tooltip = {
				# text = council_off_custom
			# }
			hidden_tooltip = {
				revoke_law = law_voting_power_1
				disable_council_voting_on_issue = enforce_peace
				
				set_allow_title_revokation = yes
			}
		}	
		demesne_size = 1
	}

	law_voting_power_1 = {
		group = law_voting_power
		
		default_selection = {
			factor = 10
		}
		
		allow = {
			has_law = law_voting_power_0
		}
		potential = {
			has_dlc = "Zeus"
			higher_tier_than = baron
		}
		revoke_allowed = {
			always = no
		}			
		ai_will_do = {
			factor = 1
			modifier = {
				factor = 0.005
			}
			modifier = {
				factor = 0
				holder_scope = {
					NOR = {
						trait = honorable
						trait = just
						trait = diligent
						trait = humble
					}
				}
			}
			modifier = {
				factor = 0
				holder_scope = {
					OR = {
						trait = ruthless
						trait = ambitious
						trait = arbitrary
						trait = envious
						trait = proud
					}
				}
			}
		}
		ai_will_revoke = {
			factor = 0
		}
		pass_effect = {
			hidden_tooltip = {
				if = {
					limit = { 
						has_law = law_voting_power_0
						holder_scope = {
							primary_title = {
								title = PREVPREV
							}
						}
					}
					holder_scope = {
						any_vassal = {
							limit = {
								NOT = { has_opinion_modifier = { who = ROOT modifier = opinion_increased_council_power } }
							}
							opinion = {
								who = ROOT
								modifier = opinion_increased_council_power
								years = 5
							}
						}
						any_courtier = {
							limit = {
								NOT = { has_opinion_modifier = { who = ROOT modifier = opinion_increased_council_power } }
							}
							opinion = {
								who = ROOT
								modifier = opinion_increased_council_power
								years = 5
							}
						}
					}
				}
			}
		}
		effect = {
			enable_council_voting_on_issue = laws
			# custom_tooltip = {
				# text = council_on_custom
			# }
			hidden_tooltip = {
				revoke_law = law_voting_power_0
				disable_council_voting_on_issue = enforce_peace
				
				set_allow_title_revokation = yes
			}
		}
	}

	#VOTE ON DIPLOMACY
	diplomacy_voting_power_0 = {
		group = diplomacy_voting_power
		default = yes
		
		allow = {
			has_law = diplomacy_voting_power_1
			NOT = { is_nomadic = yes }
			holder_scope = { 
				NOT = { is_in_interregnum_trigger = yes } 
				NOT = { government = noble_oligarchy }
			}
		}
		potential = {
			has_dlc = "Zeus"
			higher_tier_than = baron
		}
		revoke_allowed = {
			always = no
		}			
		ai_will_do = {
			factor = 1
			modifier = {
				factor = 0.005
			}
			modifier = {
				factor = 0
				holder_scope = {
					OR = {
						is_nomadic = yes	
						is_tribal = yes	
						is_republic = yes
						government = alliance_government
						government = theocratic_feudal_government
					}
					OR = {
						trait = just
						NOR = {
							trait = ruthless
							trait = ambitious
							trait = arbitrary
							trait = envious
						}
					}
				}
			}
			modifier = {
				factor = 0
				holder_scope = {
					OR = {
						war = yes
						trait = honorable
						trait = content
					}
				}
			}
		}
		ai_will_revoke = {
			factor = 0
		}
		pass_effect = {
			hidden_tooltip = {
				if = {
					limit = { 
						has_law = diplomacy_voting_power_1
						holder_scope = {
							primary_title = {
								title = PREVPREV
							}
						}
					}
					holder_scope = {
						any_vassal = {
							limit = {
								NOT = { has_opinion_modifier = { who = ROOT modifier = opinion_decreased_council_power } }
							}
							opinion = {
								who = ROOT
								modifier = opinion_decreased_council_power
								years = 5
							}
						}
						any_courtier = {
							limit = {
								NOT = { has_opinion_modifier = { who = ROOT modifier = opinion_decreased_council_power } }
							}
							opinion = {
								who = ROOT
								modifier = opinion_decreased_council_power
								years = 5
							}
						}
					}
				}
			}
		}
		effect = {
			disable_council_voting_on_issue = declare_war_interaction
			hidden_tooltip = { disable_council_voting_on_issue = ask_to_embargo }
			disable_council_voting_on_issue = ask_for_vassalization_interaction
			disable_council_voting_on_issue = release_vassal_interaction
			disable_council_voting_on_issue = seek_raiding_redress
			disable_council_voting_on_issue = declare_feud
			disable_council_voting_on_issue = insult_character		
			custom_tooltip = {
				text = TOOLTIPdiplomacy_voting_power_PACTS_disable
				hidden_tooltip = {
					disable_council_voting_on_issue = form_non_aggression_pact_interaction
					disable_council_voting_on_issue = break_non_aggression_pact
					disable_council_voting_on_issue = form_alliance_interaction
					disable_council_voting_on_issue = dissolve_alliance_interaction
				}
			}
			disable_council_voting_on_issue = demand_return_of_valyrian_steel
			custom_tooltip = {
				text = TOOLTIPdiplomacy_voting_power_STANDDOWN_disable
			}
			# custom_tooltip = {
				# text = council_war_off_custom
			# }
			hidden_tooltip = {
				revoke_law = diplomacy_voting_power_1
			}
		}
	}

	diplomacy_voting_power_1 = {
		group = diplomacy_voting_power
		
		default_selection = {
			factor = 0
			
			additive_modifier = { 
				value = 10			
				holder_scope = { 
					OR = {
						is_nomadic = yes	
						is_tribal = yes	
						is_republic = yes
						government = alliance_government
						government = noble_oligarchy
						government = theocratic_feudal_government
					}
				}
			}
		}
		
		allow = {
			has_law = law_voting_power_1
			has_law = diplomacy_voting_power_0
		}
		potential = {
			has_dlc = "Zeus"
			higher_tier_than = baron
		}
		revoke_allowed = {
			always = no
		}			
		ai_will_do = {
			factor = 1
			modifier = {
				factor = 0.005
			}
			modifier = {
				factor = 0
				holder_scope = {
					NOR = {
						trait = honorable
						trait = just
						trait = diligent
						trait = humble
					}
				}
			}
			modifier = {
				factor = 0
				holder_scope = {
					OR = {
						NOR = {
							is_nomadic = yes	
							is_tribal = yes	
							is_republic = yes
							government = alliance_government
							government = theocratic_feudal_government
						}
						trait = ruthless
						trait = ambitious
						trait = arbitrary
						trait = envious
						trait = proud
					}
				}
			}
		}
		ai_will_revoke = {
			factor = 0
		}
		pass_effect = {
			hidden_tooltip = {
				if = {
					limit = { 
						has_law = diplomacy_voting_power_0
						holder_scope = {
							primary_title = {
								title = PREVPREV
							}
						}
					}
					holder_scope = {
						any_vassal = {
							limit = {
								NOT = { has_opinion_modifier = { who = ROOT modifier = opinion_increased_council_power } }
							}
							opinion = {
								who = ROOT
								modifier = opinion_increased_council_power
								years = 5
							}
						}
						any_courtier = {
							limit = {
								NOT = { has_opinion_modifier = { who = ROOT modifier = opinion_increased_council_power } }
							}
							opinion = {
								who = ROOT
								modifier = opinion_increased_council_power
								years = 5
							}
						}
					}
				}
			}
		}
		effect = {
			enable_council_voting_on_issue = declare_war_interaction
			hidden_tooltip = { enable_council_voting_on_issue = ask_to_embargo }
			enable_council_voting_on_issue = ask_for_vassalization_interaction
			enable_council_voting_on_issue = release_vassal_interaction
			enable_council_voting_on_issue = seek_raiding_redress
			enable_council_voting_on_issue = declare_feud
			enable_council_voting_on_issue = insult_character
			custom_tooltip = {
				text = TOOLTIPdiplomacy_voting_power_PACTS_enable
				hidden_tooltip = {
					enable_council_voting_on_issue = form_non_aggression_pact_interaction
					enable_council_voting_on_issue = break_non_aggression_pact
					enable_council_voting_on_issue = form_alliance_interaction
					enable_council_voting_on_issue = dissolve_alliance_interaction
				}
			}				
			enable_council_voting_on_issue = demand_return_of_valyrian_steel
			custom_tooltip = {
				text = TOOLTIPdiplomacy_voting_power_STANDDOWN_enable
			}
			# custom_tooltip = {
				# text = council_war_on_custom
			# }
			hidden_tooltip = {
				revoke_law = diplomacy_voting_power_0
			}
		}		
		vassal_limit = 3
	}

	#VOTE ON TITLES/OFFICES
	titles_voting_power_0 = {
		group = titles_voting_power
		default = yes
		
		allow = {
			has_law = titles_voting_power_1
			NOT = { is_nomadic = yes }
			holder_scope = { 
				NOT = { is_in_interregnum_trigger = yes } 
				NOT = { government = noble_oligarchy }
			}
		}
		potential = {
			has_dlc = "Zeus"
			higher_tier_than = baron
		}
		revoke_allowed = {
			always = no
		}			
		ai_will_do = {
			factor = 1
			modifier = {
				factor = 0.005
			}
			modifier = {
				factor = 0
				holder_scope = {
					OR = {
						is_nomadic = yes	
						is_tribal = yes	
						is_republic = yes
						government = alliance_government
						government = theocratic_feudal_government
					}
					OR = {
						trait = just
						NOR = {
							trait = ruthless
							trait = ambitious
							trait = arbitrary
							trait = envious
						}
					}
				}
			}
			modifier = {
				factor = 0
				holder_scope = {
					OR = {
						war = yes
						trait = honorable
						trait = content
					}
				}
			}
		}
		ai_will_revoke = {
			factor = 0
		}
		pass_effect = {
			hidden_tooltip = {
				if = {
					limit = { 
						has_law = titles_voting_power_1
						holder_scope = {
							primary_title = {
								title = PREVPREV
							}
						}
					}
					holder_scope = {
						any_vassal = {
							limit = {
								NOT = { has_opinion_modifier = { who = ROOT modifier = opinion_decreased_council_power } }
							}
							opinion = {
								who = ROOT
								modifier = opinion_decreased_council_power
								years = 5
							}
						}
						any_courtier = {
							limit = {
								NOT = { has_opinion_modifier = { who = ROOT modifier = opinion_decreased_council_power } }
							}
							opinion = {
								who = ROOT
								modifier = opinion_decreased_council_power
								years = 5
							}
						}
					}
				}
			}
		}
		effect = {
			hidden_tooltip = {
				revoke_law = titles_voting_power_1
			}
			custom_tooltip = {
				text = TOOLTIPtitles_voting_power_TITLES_disable
				hidden_tooltip = { 
					disable_council_voting_on_issue = revoke_title_interaction
					disable_council_voting_on_issue = grant_landed_title_interaction	
					disable_council_voting_on_issue = grant_lp
					disable_council_voting_on_issue = grant_lp_landless
					disable_council_voting_on_issue = NW_grant_command
					disable_council_voting_on_issue = make_noble
					disable_council_voting_on_issue = nominate_prince
					disable_council_voting_on_issue = revoke_freehold
					disable_council_voting_on_issue = name_co_triarch_for_life
				}
			}			
			custom_tooltip = {
				text = TOOLTIPtitles_voting_power_VASSALS_disable
				hidden_tooltip = { 
					disable_council_voting_on_issue = retract_vassal_interaction
					disable_council_voting_on_issue = transfer_vassal_interaction
				}
			}		
			# custom_tooltip = {
				# text = TOOLTIPtitles_voting_power_COUNCIL_disable
				# hidden_tooltip = { 
					# disable_council_voting_on_issue = assign_voter_title_interaction
					# disable_council_voting_on_issue = revoke_voter_title_interaction
				# }
			# }	
			disable_council_voting_on_issue = absorb_clan_interaction
			custom_tooltip = {
				text = TOOLTIPtitles_voting_power_PRIVILEGES_disable
				hidden_tooltip = { 
					disable_council_voting_on_issue = grant_royal_privilege
					disable_council_voting_on_issue = revoke_royal_privilege
				}
			}
		}
	}

	titles_voting_power_1 = {
		group = titles_voting_power
		
		default_selection = {
			factor = 0
			
			additive_modifier = { 
				value = 10			
				holder_scope = { 
					OR = {
						is_nomadic = yes	
						is_tribal = yes	
						is_republic = yes
						government = alliance_government
						government = noble_oligarchy
						government = theocratic_feudal_government
					}
				}
			}
		}
		
		allow = {
			has_law = law_voting_power_1
			has_law = titles_voting_power_0
		}
		potential = {
			has_dlc = "Zeus"
			higher_tier_than = baron
		}
		revoke_allowed = {
			always = no
		}			
		ai_will_do = {
			factor = 1
			modifier = {
				factor = 0.005
			}
			modifier = {
				factor = 0
				holder_scope = {
					NOR = {
						trait = honorable
						trait = just
						trait = diligent
						trait = humble
					}
				}
			}
			modifier = {
				factor = 0
				holder_scope = {
					OR = {
						NOR = {
							is_nomadic = yes	
							is_tribal = yes	
							is_republic = yes
							government = alliance_government
							government = theocratic_feudal_government
						}
						trait = ruthless
						trait = ambitious
						trait = arbitrary
						trait = envious
						trait = proud
					}
				}
			}
		}
		ai_will_revoke = {
			factor = 0
		}
		pass_effect = {
			hidden_tooltip = {
				if = {
					limit = { 
						has_law = titles_voting_power_0
						#is_landed_title_being_created = no
						holder_scope = {
							primary_title = {
								title = PREVPREV
							}
						}
					}
					holder_scope = { 
						any_vassal = {
							limit = {
								NOT = { has_opinion_modifier = { who = ROOT modifier = opinion_increased_council_power } }
							}
							opinion = {
								who = ROOT
								modifier = opinion_increased_council_power
								years = 5
							}
						}
						any_courtier = {
							limit = {
								NOT = { has_opinion_modifier = { who = ROOT modifier = opinion_increased_council_power } }
							}
							opinion = {
								who = ROOT
								modifier = opinion_increased_council_power
								years = 5
							}
						}
					}
				}
			}
		}
		effect = {
			hidden_tooltip = {
				revoke_law = titles_voting_power_0
			}
			custom_tooltip = {
				text = TOOLTIPtitles_voting_power_TITLES_enable
				hidden_tooltip = { 
					enable_council_voting_on_issue = revoke_title_interaction
					enable_council_voting_on_issue = grant_landed_title_interaction	
					enable_council_voting_on_issue = grant_lp
					enable_council_voting_on_issue = grant_lp_landless
					enable_council_voting_on_issue = NW_grant_command
					enable_council_voting_on_issue = make_noble
					enable_council_voting_on_issue = nominate_prince
					enable_council_voting_on_issue = revoke_freehold
					enable_council_voting_on_issue = name_co_triarch_for_life
				}
			}		
			custom_tooltip = {
				text = TOOLTIPtitles_voting_power_VASSALS_enable
				hidden_tooltip = { 
					enable_council_voting_on_issue = retract_vassal_interaction
					enable_council_voting_on_issue = transfer_vassal_interaction
				}
			}		
			# custom_tooltip = {
				# text = TOOLTIPtitles_voting_power_COUNCIL_enable
				# hidden_tooltip = { 
					# enable_council_voting_on_issue = assign_voter_title_interaction
					# enable_council_voting_on_issue = revoke_voter_title_interaction
				# }
			# }						
			enable_council_voting_on_issue = absorb_clan_interaction
			custom_tooltip = {
				text = TOOLTIPtitles_voting_power_PRIVILEGES_enable
				hidden_tooltip = { 
					enable_council_voting_on_issue = grant_royal_privilege
					enable_council_voting_on_issue = revoke_royal_privilege
				}
			}
		}
		vassal_limit = 3
	}

	#VOTE ON JUSTICE
	justice_voting_power_0 = {
		group = justice_voting_power
		default = yes
		
		allow = {
			has_law = justice_voting_power_1
			NOT = { is_nomadic = yes }
			holder_scope = { 
				NOT = { is_in_interregnum_trigger = yes } 
				NOT = { government = noble_oligarchy }
			}
		}
		potential = {
			has_dlc = "Zeus"
			higher_tier_than = baron
		}
		revoke_allowed = {
			always = no
		}			
		ai_will_do = {
			factor = 1
			modifier = {
				factor = 0.005
			}
			modifier = {
				factor = 0
				holder_scope = {
					OR = {
						is_nomadic = yes	
						is_tribal = yes	
						is_republic = yes
						government = alliance_government
						government = theocratic_feudal_government
					}
					OR = {
						trait = just
						NOR = {
							trait = ruthless
							trait = ambitious
							trait = arbitrary
							trait = envious
						}
					}
				}
			}
			modifier = {
				factor = 0
				holder_scope = {
					OR = {
						war = yes
						trait = honorable
						trait = content
					}
				}
			}
		}
		ai_will_revoke = {
			factor = 0
		}
		pass_effect = {
			hidden_tooltip = {
				if = {
					limit = { 
						has_law = justice_voting_power_1
						holder_scope = {
							primary_title = {
								title = PREVPREV
							}
						}
					}
					holder_scope = {
						any_vassal = {
							limit = {
								NOT = { has_opinion_modifier = { who = ROOT modifier = opinion_decreased_council_power } }
							}
							opinion = {
								who = ROOT
								modifier = opinion_decreased_council_power
								years = 5
							}
						}
						any_courtier = {
							limit = {
								NOT = { has_opinion_modifier = { who = ROOT modifier = opinion_decreased_council_power } }
							}
							opinion = {
								who = ROOT
								modifier = opinion_decreased_council_power
								years = 5
							}
						}
					}
				}
			}
		}
		effect = {
			hidden_tooltip = {
				revoke_law = justice_voting_power_1
			}
			disable_council_voting_on_issue = imprison_character_interaction
			custom_tooltip = {
				text = TOOLTIPjustice_voting_power_PUNISHMENT_disable
				hidden_tooltip = { 
					#disable_council_voting_on_issue = execute_imprisoned_interaction
					disable_council_voting_on_issue = execute_decision
					disable_council_voting_on_issue = exile_imprisoned_interaction
					disable_council_voting_on_issue = vassal_castrate_decision_AGOT
					disable_council_voting_on_issue = vassal_blinding_decision_AGOT
					disable_council_voting_on_issue = banish_prisoner
					disable_council_voting_on_issue = take_prisoner_as_wife
					disable_council_voting_on_issue = torture_prisoner
					disable_council_voting_on_issue = prisoner_to_oubilette
					disable_council_voting_on_issue = prisoner_torture
					disable_council_voting_on_issue = prisoner_mutilate
					disable_council_voting_on_issue = prisoner_humiliation
					disable_council_voting_on_issue = sell_prisoner
					disable_council_voting_on_issue = enslave_prisoner
					disable_council_voting_on_issue = recruit_prisoner
					disable_council_voting_on_issue = release_from_prison_interaction
				}
			}			
			disable_council_voting_on_issue = ransom_character_interaction
			hidden_tooltip = {
				disable_council_voting_on_issue = ransom_all			
			}
		}
	}

	justice_voting_power_1 = {
		group = justice_voting_power
		
		default_selection = {
			factor = 0
			
			additive_modifier = { 
				value = 10			
				holder_scope = { 
					OR = {
						is_nomadic = yes	
						is_tribal = yes	
						is_republic = yes
						government = alliance_government
						government = noble_oligarchy
						government = theocratic_feudal_government
					}
				}
			}
		}
		
		allow = {
			has_law = law_voting_power_1
			has_law = justice_voting_power_0
		}
		potential = {
			has_dlc = "Zeus"
			higher_tier_than = baron
		}
		revoke_allowed = {
			always = no
		}			
		ai_will_do = {
			factor = 1
			modifier = {
				factor = 0.005
			}
			modifier = {
				factor = 0
				holder_scope = {
					NOR = {
						trait = honorable
						trait = just
						trait = diligent
						trait = humble
					}
				}
			}
			modifier = {
				factor = 0
				holder_scope = {
					OR = {
						NOR = {
							is_nomadic = yes	
							is_tribal = yes	
							is_republic = yes
							government = alliance_government
							government = theocratic_feudal_government
						}
						trait = ruthless
						trait = ambitious
						trait = arbitrary
						trait = envious
						trait = proud
					}
				}
			}
		}
		ai_will_revoke = {
			factor = 0
		}
		pass_effect = {
			hidden_tooltip = {
				if = {
					limit = { 
						has_law = justice_voting_power_0
						holder_scope = {
							primary_title = {
								title = PREVPREV
							}
						}
					}
					holder_scope = {
						any_vassal = {
							limit = {
								NOT = { has_opinion_modifier = { who = ROOT modifier = opinion_increased_council_power } }
							}
							opinion = {
								who = ROOT
								modifier = opinion_increased_council_power
								years = 5
							}
						}
						any_courtier = {
							limit = {
								NOT = { has_opinion_modifier = { who = ROOT modifier = opinion_increased_council_power } }
							}
							opinion = {
								who = ROOT
								modifier = opinion_increased_council_power
								years = 5
							}
						}
					}
				}
			}
		}
		effect = {
			hidden_tooltip = { revoke_law = justice_voting_power_0 }
			enable_council_voting_on_issue = imprison_character_interaction
			custom_tooltip = {
				text = TOOLTIPjustice_voting_power_PUNISHMENT_enable
				hidden_tooltip = { 
					#enable_council_voting_on_issue = execute_imprisoned_interaction
					enable_council_voting_on_issue = execute_decision
					enable_council_voting_on_issue = exile_imprisoned_interaction
					enable_council_voting_on_issue = vassal_castrate_decision_AGOT
					enable_council_voting_on_issue = vassal_blinding_decision_AGOT
					enable_council_voting_on_issue = banish_prisoner
					enable_council_voting_on_issue = take_prisoner_as_wife
					enable_council_voting_on_issue = torture_prisoner
					enable_council_voting_on_issue = prisoner_to_oubilette
					enable_council_voting_on_issue = prisoner_torture
					enable_council_voting_on_issue = prisoner_mutilate
					enable_council_voting_on_issue = prisoner_humiliation
					enable_council_voting_on_issue = sell_prisoner
					enable_council_voting_on_issue = enslave_prisoner
					enable_council_voting_on_issue = recruit_prisoner
					enable_council_voting_on_issue = release_from_prison_interaction
				}
			}		
			enable_council_voting_on_issue = ransom_character_interaction
			hidden_tooltip = {
				enable_council_voting_on_issue = ransom_all			
			}
		}
		vassal_limit = 5
	}
}