#CODE;ENGLISH;FRENCH;GERMAN;;SPANISH;;;;;;;;;x
congenital_crown_1;Durrandon Crown;;;;;;;;;;;;;x
congenital_crown_1_desc;An elegant crown of gold decorated with small gold antlers bracing a large oval-cut Citrine.;;;;;;;;;;;;;x
congenital_crown_2;Durrandon Crown;;;;;;;;;;;;;x
congenital_crown_2_desc;A crown of two thin bands of gold held together by golden antlers decorated in pearls and a large Yellow Sapphire.;;;;;;;;;;;;;x
congenital_crown_3;Durrandon Crown;;;;;;;;;;;;;x
congenital_crown_3_desc;A slender gold band with 3 points, 1 addorned with the head of a stag.;;;;;;;;;;;;;x
congenital_crown_4;Reyne Crown;;;;;;;;;;;;;x
congenital_crown_4_desc;An ornate crown made of red gold with silver Lions holding up cross points decorated in Rubies and Pearls.;;;;;;;;;;;;;x
congenital_crown_5;Tully Crown;;;;;;;;;;;;;x
congenital_crown_5_desc;A thin gold band crown decorated with silver fish, 4 trident shaped points each circle the band decorated with a Sapphire each.;;;;;;;;;;;;;x
congenital_crown_6;Lannister Crown;;;;;;;;;;;;;x
congenital_crown_6_desc;An ornate crown made of gold with golden Lions holding up cross points decorated in Rubies and Pearls.;;;;;;;;;;;;;x
congenital_crown_7;Arryn Crown;;;;;;;;;;;;;x
congenital_crown_7_desc;A thin white-gold band in the shape of an Eagle holding a Diamond.;;;;;;;;;;;;;x
congenital_crown_8;Tyrell Crown;;;;;;;;;;;;;x
congenital_crown_8_desc;An ornate crown of golden vines weaved together decorated with golden roses.;;;;;;;;;;;;;x
congenital_crown_9;Dayne Crown;;;;;;;;;;;;;x
congenital_crown_9_desc;A pale silver crown decorated with Amethyst.;;;;;;;;;;;;;x
congenital_crown_10;Tarth Crown;;;;;;;;;;;;;x
congenital_crown_10_desc;A silver crown decorated with a large silver Sunburst over a golden peak.;;;;;;;;;;;;;x
congenital_crown_11;Frey Crown;;;;;;;;;;;;;x
congenital_crown_11_desc;A banded silver crown covered in sapphires with golden keep peaks.;;;;;;;;;;;;;x
congenital_crown_12;Hightower Crown;;;;;;;;;;;;;x
congenital_crown_12_desc;A thin band of gold with pointed high tower peaks.;;;;;;;;;;;;;x