### House Owyang
34569208 = {
	name="Dilen"	# a lord
	dynasty=69208

	religion="gods_nghai"
	culture="nghai"
	
	7830.1.1 = {birth="7830.1.1"}
	7882.1.1 = {death="7882.1.1"}
}
34469208 = {
	name="Yanin"	# a lord
	dynasty=69208

	religion="gods_nghai"
	culture="nghai"

	father=34569208
	
	7853.1.1 = {birth="7853.1.1"}
	7907.1.1 = {death="7907.1.1"}
}
34369208 = {
	name="Tshala"	# a lord
	dynasty=69208

	religion="gods_nghai"
	culture="nghai"

	father=34469208
	
	7872.1.1 = {birth="7872.1.1"}
	7935.1.1 = {death="7935.1.1"}
}
34269208 = {
	name="Sabo"	# a lord
	dynasty=69208

	religion="gods_nghai"
	culture="nghai"

	father=34369208
	
	7898.1.1 = {birth="7898.1.1"}
	7960.1.1 = {death="7960.1.1"}
}
34169208 = {
	name="Harubu"	# a lord
	dynasty=69208

	religion="gods_nghai"
	culture="nghai"

	father=34269208
	
	7921.1.1 = {birth="7921.1.1"}
	7983.1.1 = {death="7983.1.1"}
}
34069208 = {
	name="Baishar"	# a lord
	dynasty=69208

	religion="gods_nghai"
	culture="nghai"

	father=34169208
	
	7944.1.1 = {birth="7944.1.1"}
	7995.1.1 = {death="7995.1.1"}
}
10069208 = {
	name="Jalil"	# a lord
	dynasty=69208

	religion="gods_nghai"
	culture="nghai"
	
	father=34069208

	7965.1.1 = {birth="7965.1.1"}
	7981.1.1 = {add_trait=poor_warrior}
	8023.1.1 = {death="8023.1.1"}
}
10369208 = {
	name="Jalil"	# a lord
	dynasty=69208

	religion="gods_nghai"
	culture="nghai"

	father=10069208

	7990.1.1 = {birth="7990.1.1"}
	8006.1.1 = {add_trait=trained_warrior}
	8028.1.1 = {death="8028.1.1"}
}
10469208 = {
	name="Fadil"	# a lord
	dynasty=69208

	religion="gods_nghai"
	culture="nghai"

	father=10369208

	8010.1.1 = {birth="8010.1.1"}
	8026.1.1 = {add_trait=trained_warrior}
	8068.1.1 = {death="8068.1.1"}
}
10769208 = {
	name="Mansur"	# a lord
	dynasty=69208

	religion="gods_nghai"
	culture="nghai"

	father=10469208

	8033.1.1 = {birth="8033.1.1"}
	8049.1.1 = {add_trait=trained_warrior}
	8090.1.1 = {death="8090.1.1"}
}
10869208 = {
	name="Zeyd"	# a lord
	dynasty=69208

	religion="gods_nghai"
	culture="nghai"

	father=10769208

	8067.1.1 = {birth="8067.1.1"}
	8083.1.1 = {add_trait=skilled_warrior}
	8117.1.1 = {death="8117.1.1"}
}
11069208 = {
	name="Mansur"	# a lord
	dynasty=69208

	religion="gods_nghai"
	culture="nghai"

	father=10869208

	8085.1.1 = {birth="8085.1.1"}
	8101.1.1 = {add_trait=poor_warrior}
	8119.1.1 = {death="8119.1.1"}
}
11169208 = {
	name="Gafur"	# a lord
	dynasty=69208

	religion="gods_nghai"
	culture="nghai"

	father=11069208

	8108.1.1 = {birth="8108.1.1"}
	8124.1.1 = {add_trait=poor_warrior}
	8151.1.1 = {death="8151.1.1"}
}
11569208 = {
	name="Mahdi"	# a lord
	dynasty=69208

	religion="gods_nghai"
	culture="nghai"

	father=11169208

	8133.1.1 = {birth="8133.1.1"}
	8149.1.1 = {add_trait=trained_warrior}
	8185.1.1 = {death="8185.1.1"}
}
11869208 = {
	name="Azam"	# a lord
	dynasty=69208

	religion="gods_nghai"
	culture="nghai"

	father=11569208

	8160.1.1 = {birth="8160.1.1"}
	8176.1.1 = {add_trait=poor_warrior}
	8208.1.1 = {death="8208.1.1"}
}
12069208 = {
	name="Ramadan"	# a lord
	dynasty=69208

	religion="gods_nghai"
	culture="nghai"

	father=11869208

	8187.1.1 = {birth="8187.1.1"}
	8203.1.1 = {add_trait=skilled_warrior}
	8229.1.1 = {death="8229.1.1"}
}
12269208 = {
	name="Husam"	# a lord
	dynasty=69208

	religion="gods_nghai"
	culture="nghai"

	father=12069208

	8208.1.1 = {birth="8208.1.1"}
	8224.1.1 = {add_trait=master_warrior}
	8262.1.1 = {death="8262.1.1"}
}
12469208 = {
	name="Uways"	# a lord
	dynasty=69208

	religion="gods_nghai"
	culture="nghai"

	father=12269208

	8240.1.1 = {birth="8240.1.1"}
	8256.1.1 = {add_trait=skilled_warrior}
	8292.1.1 = {death="8292.1.1"}
}
12769208 = {
	name="Halil"	# a lord
	dynasty=69208

	religion="gods_nghai"
	culture="nghai"

	father=12469208

	8269.1.1 = {birth="8269.1.1"}
	8285.1.1 = {add_trait=trained_warrior}
}
13169208 = {
	name="Ubayd"	# not a lord
	dynasty=69208

	religion="gods_nghai"
	culture="nghai"

	father=12769208

	8293.1.1 = {birth="8293.1.1"}
}

### House Jeung
34569206 = {
	name="Niomog"	# a lord
	dynasty=69206

	religion="gods_nghai"
	culture="nghai"
	
	7805.1.1 = {birth="7805.1.1"}
	7872.1.1 = {death="7872.1.1"}
}
34469206 = {
	name="Dorhan"	# a lord
	dynasty=69206

	religion="gods_nghai"
	culture="nghai"

	father=34569206
	
	7828.1.1 = {birth="7828.1.1"}
	7891.1.1 = {death="7891.1.1"}
}
34369206 = {
	name="Yundeshi"	# a lord
	dynasty=69206

	religion="gods_nghai"
	culture="nghai"

	father=34469206
	
	7855.1.1 = {birth="7855.1.1"}
	7924.1.1 = {death="7924.1.1"}
}
34269206 = {
	name="Temer"	# a lord
	dynasty=69206

	religion="gods_nghai"
	culture="nghai"

	father=34369206
	
	7882.1.1 = {birth="7882.1.1"}
	7937.1.1 = {death="7937.1.1"}
}
34169206 = {
	name="Niargun"	# a lord
	dynasty=69206

	religion="gods_nghai"
	culture="nghai"

	father=34269206
	
	7915.1.1 = {birth="7915.1.1"}
	7966.1.1 = {death="7966.1.1"}
}
34069206 = {
	name="Dileqa"	# a lord
	dynasty=69206

	religion="gods_nghai"
	culture="nghai"

	father=34169206
	
	7939.1.1 = {birth="7939.1.1"}
	7994.1.1 = {death="7994.1.1"}
}
10069206 = {
	name="Qawurd"	# a lord
	dynasty=69206

	religion="gods_nghai"
	culture="nghai"
	
	father=34069206

	7963.1.1 = {birth="7963.1.1"}
	7979.1.1 = {add_trait=poor_warrior}
	8021.1.1 = {death="8021.1.1"}
}
10469206 = {
	name="Mahdi"	# a lord
	dynasty=69206

	religion="gods_nghai"
	culture="nghai"

	father=10069206

	7996.1.1 = {birth="7996.1.1"}
	8012.1.1 = {add_trait=skilled_warrior}
	8054.1.1 = {death="8054.1.1"}
}
10569206 = {
	name="Nasr"	# a lord
	dynasty=69206

	religion="gods_nghai"
	culture="nghai"

	father=10469206

	8024.1.1 = {birth="8024.1.1"}
	8040.1.1 = {add_trait=skilled_warrior}
	8079.1.1 = {death="8079.1.1"}
}
11069206 = {
	name="Is'mail"	# a lord
	dynasty=69206

	religion="gods_nghai"
	culture="nghai"

	father=10569206

	8048.1.1 = {birth="8048.1.1"}
	8064.1.1 = {add_trait=trained_warrior}
	8103.1.1 = {death="8103.1.1"}
}
11169206 = {
	name="Nizam"	# a lord
	dynasty=69206

	religion="gods_nghai"
	culture="nghai"

	father=11069206

	8081.1.1 = {birth="8081.1.1"}
	8097.1.1 = {add_trait=poor_warrior}
	8126.1.1 = {death="8126.1.1"}
}
11369206 = {
	name="Bakr"	# a lord
	dynasty=69206

	religion="gods_nghai"
	culture="nghai"

	father=11169206

	8105.1.1 = {birth="8105.1.1"}
	8121.1.1 = {add_trait=poor_warrior}
	8152.1.1 = {death="8152.1.1"}
}
11669206 = {
	name="Ghalib"	# a lord
	dynasty=69206

	religion="gods_nghai"
	culture="nghai"

	father=11369206

	8126.1.1 = {birth="8126.1.1"}
	8142.1.1 = {add_trait=trained_warrior}
	8193.1.1 = {death="8193.1.1"}
}
12069206 = {
	name="Aram"	# a lord
	dynasty=69206

	religion="gods_nghai"
	culture="nghai"

	father=11669206

	8146.1.1 = {birth="8146.1.1"}
	8162.1.1 = {add_trait=skilled_warrior}
	8197.1.1 = {death = {death_reason = death_accident}}
}
12169206 = {
	name="Aram"	# a lord
	dynasty=69206

	religion="gods_nghai"
	culture="nghai"

	father=12069206

	8172.1.1 = {birth="8172.1.1"}
	8188.1.1 = {add_trait=poor_warrior}
	8235.1.1 = {death="8235.1.1"}
}
12469206 = {
	name="Yusuf"	# a lord
	dynasty=69206

	religion="gods_nghai"
	culture="nghai"

	father=12169206

	8190.1.1 = {birth="8190.1.1"}
	8206.1.1 = {add_trait=poor_warrior}
	8259.1.1 = {death="8259.1.1"}
}
12769206 = {
	name="Nasr"	# a lord
	dynasty=69206

	religion="gods_nghai"
	culture="nghai"

	father=12469206

	8216.1.1 = {birth="8216.1.1"}
	8232.1.1 = {add_trait=poor_warrior}
	8294.1.1 = {death = {death_reason = death_murder}}
}
12969206 = {
	name="Qawurd"	# a lord
	dynasty=69206

	religion="gods_nghai"
	culture="nghai"

	father=12769206

	8247.1.1 = {birth="8247.1.1"}
	8263.1.1 = {add_trait=poor_warrior}
}
13469206 = {
	name="Azam"	# not a lord
	dynasty=69206

	religion="gods_nghai"
	culture="nghai"

	father=12969206

	8267.1.1 = {birth="8267.1.1"}
	8283.1.1 = {add_trait=poor_warrior}
	8285.1.1 = {add_spouse=43469206}
}
43469206 = {
	name="Parand"
	female=yes

	religion="gods_nghai"
	culture="nghai"

	8267.1.1 = {birth="8267.1.1"}
}
13569206 = {
	name="Fadil"	# not a lord
	dynasty=69206

	religion="gods_nghai"
	culture="nghai"

	father=13469206
	mother=43469206

	8285.1.1 = {birth="8285.1.1"}
}

### House Hawang
34569207 = {
	name="Urelbun"	# a lord
	dynasty=69207

	religion="gods_nghai"
	culture="nghai"
	
	7827.1.1 = {birth="7827.1.1"}
	7883.1.1 = {death="7883.1.1"}
}
34469207 = {
	name="Hailin"	# a lord
	dynasty=69207

	religion="gods_nghai"
	culture="nghai"

	father=34569207
	
	7855.1.1 = {birth="7855.1.1"}
	7912.1.1 = {death="7912.1.1"}
}
34369207 = {
	name="Dzuburug"	# a lord
	dynasty=69207

	religion="gods_nghai"
	culture="nghai"

	father=34469207
	
	7878.1.1 = {birth="7878.1.1"}
	7929.1.1 = {death="7929.1.1"}
}
34269207 = {
	name="Ugul"	# a lord
	dynasty=69207

	religion="gods_nghai"
	culture="nghai"

	father=34369207
	
	7902.1.1 = {birth="7902.1.1"}
	7966.1.1 = {death="7966.1.1"}
}
34169207 = {
	name="Bian"	# a lord
	dynasty=69207

	religion="gods_nghai"
	culture="nghai"

	father=34269207
	
	7925.1.1 = {birth="7925.1.1"}
	7977.1.1 = {death="7977.1.1"}
}
34069207 = {
	name="Diolin"	# a lord
	dynasty=69207

	religion="gods_nghai"
	culture="nghai"

	father=34169207
	
	7946.1.1 = {birth="7946.1.1"}
	7993.1.1 = {death="7993.1.1"}
}
10069207 = {
	name="Akin"	# a lord
	dynasty=69207

	religion="gods_nghai"
	culture="nghai"

	father=34069207
	
	7969.1.1 = {birth="7969.1.1"}
	7985.1.1 = {add_trait=poor_warrior}
	8037.1.1 = {death="8037.1.1"}
}
10269207 = {
	name="Khalil"	# a lord
	dynasty=69207

	religion="gods_nghai"
	culture="nghai"

	father=10069207

	7992.1.1 = {birth="7992.1.1"}
	8008.1.1 = {add_trait=skilled_warrior}
	8051.1.1 = {death="8051.1.1"}
}
10769207 = {
	name="Idris"	# a lord
	dynasty=69207

	religion="gods_nghai"
	culture="nghai"

	father=10269207

	8031.1.1 = {birth="8031.1.1"}
	8047.1.1 = {add_trait=poor_warrior}
	8067.1.1 = {death="8067.1.1"}
}
10969207 = {
	name="Zeyd"	# a lord
	dynasty=69207

	religion="gods_nghai"
	culture="nghai"

	father=10769207

	8052.1.1 = {birth="8052.1.1"}
	8068.1.1 = {add_trait=skilled_warrior}
	8108.1.1 = {death="8108.1.1"}
}
11369207 = {
	name="Akin"	# a lord
	dynasty=69207

	religion="gods_nghai"
	culture="nghai"

	father=10969207

	8077.1.1 = {birth="8077.1.1"}
	8093.1.1 = {add_trait=skilled_warrior}
	8134.1.1 = {death="8134.1.1"}
}
11469207 = {
	name="Fadl"	# a lord
	dynasty=69207

	religion="gods_nghai"
	culture="nghai"

	father=11369207

	8101.1.1 = {birth="8101.1.1"}
	8117.1.1 = {add_trait=skilled_warrior}
	8155.1.1 = {death="8155.1.1"}
}
11669207 = {
	name="Youkhanna"	# a lord
	dynasty=69207

	religion="gods_nghai"
	culture="nghai"

	father=11469207

	8119.1.1 = {birth="8119.1.1"}
	8135.1.1 = {add_trait=poor_warrior}
	8168.1.1 = {death="8168.1.1"}
}
11969207 = {
	name="Mirza"	# a lord
	dynasty=69207

	religion="gods_nghai"
	culture="nghai"

	father=11669207

	8143.1.1 = {birth="8143.1.1"}
	8159.1.1 = {add_trait=poor_warrior}
	8189.1.1 = {death="8189.1.1"}
}
12069207 = {
	name="Zeyd"	# a lord
	dynasty=69207

	religion="gods_nghai"
	culture="nghai"

	father=11969207

	8161.1.1 = {birth="8161.1.1"}
	8177.1.1 = {add_trait=master_warrior}
	8220.1.1 = {death="8220.1.1"}
}
12169207 = {
	name="Ghalib"	# a lord
	dynasty=69207

	religion="gods_nghai"
	culture="nghai"

	father=12069207

	8182.1.1 = {birth="8182.1.1"}
	8198.1.1 = {add_trait=skilled_warrior}
	8244.1.1 = {death="8244.1.1"}
}
12569207 = {
	name="Shamir"	# a lord
	dynasty=69207

	religion="gods_nghai"
	culture="nghai"

	father=12169207

	8205.1.1 = {birth="8205.1.1"}
	8221.1.1 = {add_trait=poor_warrior}
	8261.1.1 = {death="8261.1.1"}
}
12969207 = {
	name="Yahya"	# a lord
	dynasty=69207

	religion="gods_nghai"
	culture="nghai"

	father=12569207

	8234.1.1 = {birth="8234.1.1"}
	8250.1.1 = {add_trait=poor_warrior}
}
13069207 = {
	name="Ali"	# not a lord
	dynasty=69207

	religion="gods_nghai"
	culture="nghai"

	father=12969207

	8267.1.1 = {birth="8267.1.1"}
	8283.1.1 = {add_trait=poor_warrior}
	8285.1.1 = {add_spouse=43069207}
}
43069207 = {
	name="Shararah"
	female=yes

	religion="gods_nghai"
	culture="nghai"

	8267.1.1 = {birth="8267.1.1"}
}
13369207 = {
	name="Sami"	# not a lord
	dynasty=69207

	religion="gods_nghai"
	culture="nghai"

	father=13069207
	mother=43069207

	8295.1.1 = {birth="8295.1.1"}
	8311.1.1 = {add_trait=poor_warrior}
}
13469207 = {
	name="Tanaz"	# not a lord
	female=yes
	dynasty=69207

	religion="gods_nghai"
	culture="nghai"

	father=13069207
	mother=43069207

	8297.1.1 = {birth="8297.1.1"}
}
13569207 = {
	name="Nyawela"	# not a lord
	female=yes
	dynasty=69207

	religion="gods_nghai"
	culture="nghai"

	father=13069207
	mother=43069207

	8298.1.1 = {birth="8298.1.1"}
}