600.1.1={
	liege="d_trader_town"
}
7995.1.1 = { holder=10069166 }
8031.1.1 = { holder=10169166 }
8058.1.1 = { holder=10569166 }
8080.1.1 = { holder=10769166 }
8131.1.1 = { holder=11069166 }
8136.1.1 = { holder=11169166 }
8185.1.1 = { holder=11369166 }
8191.1.1 = { holder=11769166 }
8210.1.1 = { holder=11969166 }
8265.1.1 = { holder=12269166 }
8276.1.1 = { holder=12769166 }
8281.1.1 = { holder=13169166 }


