600.1.1={
	liege="d_linhan"
}
7995.1.1 = { holder=10069192 }
8034.1.1 = { holder=10169192 }
8051.1.1 = { holder=10569192 }
8054.1.1 = { holder=10869192 }
8128.1.1 = { holder=10969192 }
8142.1.1 = { holder=11169192 }
8158.1.1 = { holder=11369192 }
8176.1.1 = { holder=11769192 }
8207.1.1 = { holder=12069192 }
8228.1.1 = { holder=12469192 }
8235.1.1 = { holder=12769192 }
8292.1.1 = { holder=13769192 }

