600.1.1={
	liege="d_wanhu"
}
7995.1.1 = { holder=10069199 }
8023.1.1 = { holder=10169199 }
8060.1.1 = { holder=10269199 }
8061.1.1 = { holder=10669199 }
8105.1.1 = { holder=11069199 }
8131.1.1 = { holder=11369199 }
8183.1.1 = { holder=11669199 }
8198.1.1 = { holder=12169199 }
8215.1.1 = { holder=12269199 }
8226.1.1 = { holder=12469199 }
8257.1.1 = { holder=12769199 }
8265.1.1 = { holder=13169199 }


