600.1.1={
	liege="k_trader_town"
}
7995.1.1 = { holder=10069168 }
8023.1.1 = { holder=10269168 }
8076.1.1 = { holder=10569168 }
8099.1.1 = { holder=10769168 }
8119.1.1 = { holder=10869168 }
8137.1.1 = { holder=11269168 }
8162.1.1 = { holder=11669168 }
8175.1.1 = { holder=11869168 }
8230.1.1 = { holder=12269168 }
8249.1.1 = { holder=12369168 }
8264.1.1 = { holder=12569168 }
8294.1.1 = { holder=13169168 }



