600.1.1={
	liege="e_yi_ti"
	law = succ_primogeniture
	law = cognatic_succession
	law = slavery_0
	law = privilege_vassal_king
	effect = {
		add_law = privilege_vassal_king
	}
}
7995.1.1 = { holder=10069107 }
8043.1.1 = { holder=10169107 } 
8057.1.1 = { holder=10769107 }
8099.1.1 = { holder=10969107 }
8118.1.1 = { holder=11269107 }
8125.1.1 = { holder=11569107 }
8148.1.1 = { holder=11669107 }
8157.1.1 = { holder=12169107 }
8204.1.1 = { holder=12469107 }
8213.1.1 = { holder=12769107 }
8229.1.1 = { holder=13069107 }
8294.1.1 = { holder=13369107 }
8297.1.1 = { holder=13669107 }



