name = "Stormlands Conquest of Massey's Hook"

casus_belli={
	casus_belli=invasion
	actor=1941544
	recipient=153046
	landed_title=k_masseys_hookTK
	date=6538.1.1
}

6538.1.1 = {
	add_defender = 153046
	add_attacker = 1941544
}

6539.1.1 = {
	rem_defender = 153046
	rem_attacker = 1941544
}                                                                                                                                                                                                                                                                                                                