name = "Theon Stark's Invasion of Andalos"

casus_belli={
	casus_belli=invasion
	actor=820059
	recipient=110174900
	landed_title=k_andalos
	date=6602.1.1
}

6602.1.1 = {
	add_defender = 110174900
	add_attacker = 820059
}

6603.1.1 = {
	rem_defender = 110174900
	rem_attacker = 820059
}                                                                                                                                                                                                                                                                                                                