
#################  Land of the Long Summer  ########################

####  House Bargaryen

10000343 = {
	name="Qoherys"	# a lord
	dynasty=570343

	religion="valyrian_rel"
	culture="eastern_valyrian"

	6438.1.1 = {birth="6438.1.1"}
	6454.1.1 = {add_trait=poor_warrior}
	6456.1.1 = {add_spouse=20000343}
	6500.1.1 = {death="6500.1.1"}
}
20000343 = {
	name="Daenerys"
	female=yes

	religion="valyrian_rel"
	culture="eastern_valyrian"

	6438.1.1 = {birth="6438.1.1"}
	6500.1.1 = {death="6500.1.1"}
}
10010343 = {
	name="Aerys"	# a lord
	dynasty=570343

	religion="valyrian_rel"
	culture="eastern_valyrian"

	father=10000343
	mother=20000343

	6470.1.1 = {birth="6470.1.1"}
	6486.1.1 = {add_trait=trained_warrior}
	6488.1.1 = {add_spouse=20010343}
	6534.1.1 = {death="6534.1.1"}
}
20010343 = {
	name="Daenerys"
	female=yes

	religion="valyrian_rel"
	culture="eastern_valyrian"

	6470.1.1 = {birth="6470.1.1"}
	6534.1.1 = {death="6534.1.1"}
}
10020343 = {
	name="Aelix"	# not a lord
	dynasty=570343

	religion="valyrian_rel"
	culture="eastern_valyrian"

	father=10000343
	mother=20000343

	6473.1.1 = {birth="6473.1.1"}
	6489.1.1 = {add_trait=trained_warrior}
	6516.1.1 = {death="6516.1.1"}
}
10030343 = {
	name="Daeron"	# a lord
	dynasty=570343

	religion="valyrian_rel"
	culture="eastern_valyrian"

	father=10010343
	mother=20010343

	6502.1.1 = {birth="6502.1.1"}
	6518.1.1 = {add_trait=poor_warrior}
	6520.1.1 = {add_spouse=20030343}
	6566.1.1 = {death="6566.1.1"}
}
20030343 = {
	name="Rhaelle"
	female=yes

	religion="valyrian_rel"
	culture="eastern_valyrian"

	6502.1.1 = {birth="6502.1.1"}
	6566.1.1 = {death="6566.1.1"}
}
10040343 = {
	name="Maerys"	# a lord
	dynasty=570343

	religion="valyrian_rel"
	culture="eastern_valyrian"

	father=10030343
	mother=20030343

	6530.1.1 = {birth="6530.1.1"}
	6546.1.1 = {add_trait=trained_warrior}
	6548.1.1 = {add_spouse=20040343}
	6583.1.1 = {death="6583.1.1"}
}
20040343 = {
	name="Daenys"
	female=yes

	religion="valyrian_rel"
	culture="eastern_valyrian"

	6530.1.1 = {birth="6530.1.1"}
	6583.1.1 = {death="6583.1.1"}
}
10050343 = {
	name="Aegon"	# not a lord
	dynasty=570343

	religion="valyrian_rel"
	culture="eastern_valyrian"

	father=10030343
	mother=20030343

	6531.1.1 = {birth="6531.1.1"}
	6547.1.1 = {add_trait=poor_warrior}
	6590.1.1 = {death="6590.1.1"}
}
10060343 = {
	name="Haegon"	# not a lord
	dynasty=570343

	religion="valyrian_rel"
	culture="eastern_valyrian"

	father=10030343
	mother=20030343

	6532.1.1 = {birth="6532.1.1"}
	6548.1.1 = {add_trait=trained_warrior}
	6557.1.1 = {death = {death_reason = death_execution}}
}
10070343 = {
	name="Alearys"	# not a lord
	female=yes
	dynasty=570343

	religion="valyrian_rel"
	culture="eastern_valyrian"

	father=10030343
	mother=20030343

	6534.1.1 = {birth="6534.1.1"}
	6608.1.1 = {death="6608.1.1"}
}
10080343 = {
	name="Aenar"	# not a lord
	dynasty=570343

	religion="valyrian_rel"
	culture="eastern_valyrian"

	father=10030343
	mother=20030343

	6537.1.1 = {birth="6537.1.1"}
	6553.1.1 = {add_trait=trained_warrior}
	6587.1.1 = {death="6587.1.1"}
}
10090343 = {
	name="Aenar"	# a lord
	dynasty=570343

	religion="valyrian_rel"
	culture="eastern_valyrian"

	father=10040343
	mother=20040343

	6557.1.1 = {birth="6557.1.1"}
	6573.1.1 = {add_trait=skilled_warrior}
	6575.1.1 = {add_spouse=20090343}
	6628.1.1 = {death="6628.1.1"}
}
20090343 = {
	name="Cymella"
	female=yes

	religion="valyrian_rel"
	culture="eastern_valyrian"

	6557.1.1 = {birth="6557.1.1"}
	6628.1.1 = {death="6628.1.1"}
}
10100343 = {
	name="Qoherys"	# not a lord
	dynasty=570343

	religion="valyrian_rel"
	culture="eastern_valyrian"

	father=10040343
	mother=20040343

	6558.1.1 = {birth="6558.1.1"}
	6574.1.1 = {add_trait=trained_warrior}
	6614.1.1 = {death="6614.1.1"}
}
10110343 = {
	name="Daemon"	# not a lord
	dynasty=570343

	religion="valyrian_rel"
	culture="eastern_valyrian"

	father=10040343
	mother=20040343

	6561.1.1 = {birth="6561.1.1"}
	6577.1.1 = {add_trait=master_warrior}
	6599.1.1 = {death="6599.1.1"}
}
10120343 = {
	name="Maerys"	# not a lord
	dynasty=570343

	religion="valyrian_rel"
	culture="eastern_valyrian"

	father=10090343
	mother=20090343

	6576.1.1 = {birth="6576.1.1"}
	6592.1.1 = {add_trait=skilled_warrior}
	6627.1.1 = {death="6627.1.1"}
}
10130343 = {
	name="Aelix"	# not a lord
	dynasty=570343

	religion="valyrian_rel"
	culture="eastern_valyrian"

	father=10090343
	mother=20090343

	6577.1.1 = {birth="6577.1.1"}
	6593.1.1 = {add_trait=trained_warrior}
	6606.1.1 = {death="6606.1.1"}
}
10140343 = {
	name="Maegon"	# not a lord
	dynasty=570343

	religion="valyrian_rel"
	culture="eastern_valyrian"

	father=10090343
	mother=20090343

	6580.1.1 = {birth="6580.1.1"}
	6596.1.1 = {add_trait=trained_warrior}
	6615.1.1 = {death="6615.1.1"}
}
10150343 = {
	name="Rhae"	# not a lord
	female=yes
	dynasty=570343

	religion="valyrian_rel"
	culture="eastern_valyrian"

	father=10090343
	mother=20090343

	6582.1.1 = {birth="6582.1.1"}
	6623.1.1 = {death="6623.1.1"}
}
10160343 = {
	name="Aegor"	# a lord
	dynasty=570343

	religion="valyrian_rel"
	culture="eastern_valyrian"

	father=10090343
	mother=20090343

	6584.1.1 = {birth="6584.1.1"}
	6600.1.1 = {add_trait=poor_warrior}
	6602.1.1 = {add_spouse=20160343}
	6645.1.1 = {death="6645.1.1"}
}
20160343 = {
	name="Alearys"
	female=yes

	religion="valyrian_rel"
	culture="eastern_valyrian"

	6584.1.1 = {birth="6584.1.1"}
	6645.1.1 = {death="6645.1.1"}
}
10170343 = {
	name="Matarys"	# a lord
	dynasty=570343

	religion="valyrian_rel"
	culture="eastern_valyrian"

	father=10160343
	mother=20160343

	6618.1.1 = {birth="6618.1.1"}
	6634.1.1 = {add_trait=skilled_warrior}
	6636.1.1 = {add_spouse=20170343}
	6662.1.1 = {death = {death_reason = death_murder}}
}
20170343 = {
	name="Daenerys"
	female=yes

	religion="valyrian_rel"
	culture="eastern_valyrian"

	6618.1.1 = {birth="6618.1.1"}
	6662.1.1 = {death="6662.1.1"}
}
10180343 = {
	name="Saenrys"	# not a lord
	female=yes
	dynasty=570343

	religion="valyrian_rel"
	culture="eastern_valyrian"

	father=10160343
	mother=20160343

	6619.1.1 = {birth="6619.1.1"}
	6692.1.1 = {death="6692.1.1"}
}
10190343 = {
	name="Alysanne"	# not a lord
	female=yes
	dynasty=570343

	religion="valyrian_rel"
	culture="eastern_valyrian"

	father=10160343
	mother=20160343

	6620.1.1 = {birth="6620.1.1"}
	6678.1.1 = {death="6678.1.1"}
}
10200343 = {
	name="Orys"	# a lord
	dynasty=570343

	religion="valyrian_rel"
	culture="eastern_valyrian"

	father=10170343
	mother=20170343

	6642.1.1 = {birth="6642.1.1"}
	6658.1.1 = {add_trait=poor_warrior}
	6660.1.1 = {add_spouse=20200343}
	6700.1.1 = {death="6700.1.1"}
}
20200343 = {
	name="Rhaenys"
	female=yes

	religion="valyrian_rel"
	culture="eastern_valyrian"

	6642.1.1 = {birth="6642.1.1"}
	6700.1.1 = {death="6700.1.1"}
}
10210343 = {
	name="Naerys"	# not a lord
	female=yes
	dynasty=570343

	religion="valyrian_rel"
	culture="eastern_valyrian"

	father=10170343
	mother=20170343

	6644.1.1 = {birth="6644.1.1"}
	6707.1.1 = {death="6707.1.1"}
}
10220343 = {
	name="Daena"	# not a lord
	female=yes
	dynasty=570343

	religion="valyrian_rel"
	culture="eastern_valyrian"

	father=10170343
	mother=20170343

	6646.1.1 = {birth="6646.1.1"}
	6667.1.1 = {death="6667.1.1"}
}
10230343 = {
	name="Alearys"	# not a lord
	female=yes
	dynasty=570343

	religion="valyrian_rel"
	culture="eastern_valyrian"

	father=10170343
	mother=20170343

	6647.1.1 = {birth="6647.1.1"}
	6671.1.1 = {death = {death_reason = death_murder}}
}
10240343 = {
	name="Rhaegel"	# a lord
	dynasty=570343

	religion="valyrian_rel"
	culture="eastern_valyrian"

	father=10200343
	mother=20200343

	6671.1.1 = {birth="6671.1.1"}
	6687.1.1 = {add_trait=trained_warrior}
	6689.1.1 = {add_spouse=20240343}
	6716.1.1 = {death="6716.1.1"}
}
20240343 = {
	name="Elaena"
	female=yes

	religion="valyrian_rel"
	culture="eastern_valyrian"

	6671.1.1 = {birth="6671.1.1"}
	6716.1.1 = {death="6716.1.1"}
}
10250343 = {
	name="Daeron"	# a lord
	dynasty=570343

	religion="valyrian_rel"
	culture="eastern_valyrian"

	father=10240343
	mother=20240343

	6706.1.1 = {birth="6706.1.1"}
	6722.1.1 = {add_trait=poor_warrior}
	6724.1.1 = {add_spouse=20250343}
	6782.1.1 = {death="6782.1.1"}
}
20250343 = {
	name="Visenya"
	female=yes

	religion="valyrian_rel"
	culture="eastern_valyrian"

	6706.1.1 = {birth="6706.1.1"}
	6782.1.1 = {death="6782.1.1"}
}
10260343 = {
	name="Vaekar"	# not a lord
	dynasty=570343

	religion="valyrian_rel"
	culture="eastern_valyrian"

	father=10240343
	mother=20240343

	6708.1.1 = {birth="6708.1.1"}
	6724.1.1 = {add_trait=poor_warrior}
	6752.1.1 = {death="6752.1.1"}
}
10270343 = {
	name="Alearys"	# not a lord
	female=yes
	dynasty=570343

	religion="valyrian_rel"
	culture="eastern_valyrian"

	father=10250343
	mother=20250343

	6732.1.1 = {birth="6732.1.1"}
	6769.1.1 = {death="6769.1.1"}
}
10280343 = {
	name="Allyria"	# not a lord
	female=yes
	dynasty=570343

	religion="valyrian_rel"
	culture="eastern_valyrian"

	father=10250343
	mother=20250343

	6733.1.1 = {birth="6733.1.1"}
	6788.1.1 = {death="6788.1.1"}
}
10290343 = {
	name="Aerion"	# a lord
	dynasty=570343

	religion="valyrian_rel"
	culture="eastern_valyrian"

	father=10250343
	mother=20250343

	6735.1.1 = {birth="6735.1.1"}
	6751.1.1 = {add_trait=trained_warrior}
}
10300343 = {
	name="Cyeana"	# not a lord
	female=yes
	dynasty=570343

	religion="valyrian_rel"
	culture="eastern_valyrian"

	father=10250343
	mother=20250343

	6737.1.1 = {birth="6737.1.1"}
	6769.1.1 = {death="6769.1.1"}
}



#################  House Lynaris

10000340 = {
	name="Maerys"	# a lord
	dynasty=570340

	religion="valyrian_rel"
	culture="eastern_valyrian"

	6454.1.1 = {birth="6454.1.1"}
	6470.1.1 = {add_trait=poor_warrior}
	6472.1.1 = {add_spouse=20000340}
	6518.1.1 = {death="6518.1.1"}
}
20000340 = {
	name="Rhaenys"
	female=yes

	religion="valyrian_rel"
	culture="eastern_valyrian"

	6454.1.1 = {birth="6454.1.1"}
	6518.1.1 = {death="6518.1.1"}
}
10010340 = {
	name="Daenys"	# not a lord
	female=yes
	dynasty=570340

	religion="valyrian_rel"
	culture="eastern_valyrian"

	father=10000340
	mother=20000340

	6483.1.1 = {birth="6483.1.1"}
	6514.1.1 = {death="6514.1.1"}
}
10020340 = {
	name="Maegor"	# a lord
	dynasty=570340

	religion="valyrian_rel"
	culture="eastern_valyrian"

	father=10000340
	mother=20000340

	6486.1.1 = {birth="6486.1.1"}
	6502.1.1 = {add_trait=poor_warrior}
	6504.1.1 = {add_spouse=20020340}
	6545.1.1 = {death="6545.1.1"}
}
20020340 = {
	name="Rhaelle"
	female=yes

	religion="valyrian_rel"
	culture="eastern_valyrian"

	6486.1.1 = {birth="6486.1.1"}
	6545.1.1 = {death="6545.1.1"}
}
10030340 = {
	name="Visenya"	# not a lord
	female=yes
	dynasty=570340

	religion="valyrian_rel"
	culture="eastern_valyrian"

	father=10000340
	mother=20000340

	6489.1.1 = {birth="6489.1.1"}
	6493.1.1 = {death="6493.1.1"}
}
10040340 = {
	name="Rhaelinor"	# not a lord
	female=yes
	dynasty=570340

	religion="valyrian_rel"
	culture="eastern_valyrian"

	father=10020340
	mother=20020340

	6508.1.1 = {birth="6508.1.1"}
	6574.1.1 = {death="6574.1.1"}
}
10050340 = {
	name="Alearys"	# not a lord
	female=yes
	dynasty=570340

	religion="valyrian_rel"
	culture="eastern_valyrian"

	father=10020340
	mother=20020340

	6510.1.1 = {birth="6510.1.1"}
	6574.1.1 = {death="6574.1.1"}
}
10060340 = {
	name="Aemon"	# a lord
	dynasty=570340

	religion="valyrian_rel"
	culture="eastern_valyrian"

	father=10020340
	mother=20020340

	6511.1.1 = {birth="6511.1.1"}
	6527.1.1 = {add_trait=poor_warrior}
	6529.1.1 = {add_spouse=20060340}
	6581.1.1 = {death="6581.1.1"}
}
20060340 = {
	name="Daenerys"
	female=yes

	religion="valyrian_rel"
	culture="eastern_valyrian"

	6511.1.1 = {birth="6511.1.1"}
	6581.1.1 = {death="6581.1.1"}
}
10070340 = {
	name="Aegon"	# a lord
	dynasty=570340

	religion="valyrian_rel"
	culture="eastern_valyrian"

	father=10060340
	mother=20060340

	6545.1.1 = {birth="6545.1.1"}
	6561.1.1 = {add_trait=poor_warrior}
	6563.1.1 = {add_spouse=20070340}
	6590.1.1 = {death="6590.1.1"}
}
20070340 = {
	name="Naerys"
	female=yes

	religion="valyrian_rel"
	culture="eastern_valyrian"

	6545.1.1 = {birth="6545.1.1"}
	6590.1.1 = {death="6590.1.1"}
}
10080340 = {
	name="Daegar"	# a lord
	dynasty=570340

	religion="valyrian_rel"
	culture="eastern_valyrian"

	father=10070340
	mother=20070340

	6569.1.1 = {birth="6569.1.1"}
	6585.1.1 = {add_trait=trained_warrior}
	6587.1.1 = {add_spouse=20080340}
	6611.1.1 = {death="6611.1.1"}
}
20080340 = {
	name="Rhaenys"
	female=yes

	religion="valyrian_rel"
	culture="eastern_valyrian"

	6569.1.1 = {birth="6569.1.1"}
	6611.1.1 = {death="6611.1.1"}
}
10090340 = {
	name="Rhaekar"	# not a lord
	dynasty=570340

	religion="valyrian_rel"
	culture="eastern_valyrian"

	father=10070340
	mother=20070340

	6572.1.1 = {birth="6572.1.1"}
	6588.1.1 = {add_trait=poor_warrior}
	6638.1.1 = {death = {death_reason = death_accident}}
}
10100340 = {
	name="Aemond"	# a lord
	dynasty=570340

	religion="valyrian_rel"
	culture="eastern_valyrian"

	father=10080340
	mother=20080340

	6593.1.1 = {birth="6593.1.1"}
	6609.1.1 = {add_trait=trained_warrior}
	6611.1.1 = {add_spouse=20100340}
	6656.1.1 = {death="6656.1.1"}
}
20100340 = {
	name="Rhaenys"
	female=yes

	religion="valyrian_rel"
	culture="eastern_valyrian"

	6593.1.1 = {birth="6593.1.1"}
	6656.1.1 = {death="6656.1.1"}
}
10110340 = {
	name="Daemon"	# not a lord
	dynasty=570340

	religion="valyrian_rel"
	culture="eastern_valyrian"

	father=10080340
	mother=20080340

	6594.1.1 = {birth="6594.1.1"}
	6610.1.1 = {add_trait=skilled_warrior}
	6639.1.1 = {death="6639.1.1"}
}
10120340 = {
	name="Daella"	# not a lord
	female=yes
	dynasty=570340

	religion="valyrian_rel"
	culture="eastern_valyrian"

	father=10100340
	mother=20100340

	6613.1.1 = {birth="6613.1.1"}
	6668.1.1 = {death="6668.1.1"}
}
10130340 = {
	name="Qoherys"	# a lord
	dynasty=570340

	religion="valyrian_rel"
	culture="eastern_valyrian"

	father=10100340
	mother=20100340

	6614.1.1 = {birth="6614.1.1"}
	6630.1.1 = {add_trait=poor_warrior}
	6632.1.1 = {add_spouse=20130340}
	6665.1.1 = {death="6665.1.1"}
}
20130340 = {
	name="Rhaena"
	female=yes

	religion="valyrian_rel"
	culture="eastern_valyrian"

	6614.1.1 = {birth="6614.1.1"}
	6665.1.1 = {death="6665.1.1"}
}
10140340 = {
	name="Alearys"	# not a lord
	female=yes
	dynasty=570340

	religion="valyrian_rel"
	culture="eastern_valyrian"

	father=10130340
	mother=20130340

	6636.1.1 = {birth="6636.1.1"}
	6685.1.1 = {death="6685.1.1"}
}
10150340 = {
	name="Alearys"	# not a lord
	female=yes
	dynasty=570340

	religion="valyrian_rel"
	culture="eastern_valyrian"

	father=10130340
	mother=20130340

	6639.1.1 = {birth="6639.1.1"}
	6719.1.1 = {death="6719.1.1"}
}
10160340 = {
	name="Naerys"	# not a lord
	female=yes
	dynasty=570340

	religion="valyrian_rel"
	culture="eastern_valyrian"

	father=10130340
	mother=20130340

	6642.1.1 = {birth="6642.1.1"}
	6693.1.1 = {death="6693.1.1"}
}
10170340 = {
	name="Orys"	# a lord
	dynasty=570340

	religion="valyrian_rel"
	culture="eastern_valyrian"

	father=10130340
	mother=20130340

	6643.1.1 = {birth="6643.1.1"}
	6659.1.1 = {add_trait=trained_warrior}
	6661.1.1 = {add_spouse=20170340}
	6722.1.1 = {death="6722.1.1"}
}
20170340 = {
	name="Saenrys"
	female=yes

	religion="valyrian_rel"
	culture="eastern_valyrian"

	6643.1.1 = {birth="6643.1.1"}
	6722.1.1 = {death="6722.1.1"}
}
10180340 = {
	name="Aerion"	# not a lord
	dynasty=570340

	religion="valyrian_rel"
	culture="eastern_valyrian"

	father=10170340
	mother=20170340

	6670.1.1 = {birth="6670.1.1"}
	6686.1.1 = {add_trait=trained_warrior}
	6699.1.1 = {death = {death_reason = death_battle}}
}
10190340 = {
	name="Maelys"	# a lord
	dynasty=570340

	religion="valyrian_rel"
	culture="eastern_valyrian"

	father=10170340
	mother=20170340

	6672.1.1 = {birth="6672.1.1"}
	6688.1.1 = {add_trait=poor_warrior}
	6690.1.1 = {add_spouse=20190340}
	6732.1.1 = {death="6732.1.1"}
}
20190340 = {
	name="Alearys"
	female=yes

	religion="valyrian_rel"
	culture="eastern_valyrian"

	6672.1.1 = {birth="6672.1.1"}
	6732.1.1 = {death="6732.1.1"}
}
10200340 = {
	name="Viserys"	# not a lord
	dynasty=570340

	religion="valyrian_rel"
	culture="eastern_valyrian"

	father=10170340
	mother=20170340

	6674.1.1 = {birth="6674.1.1"}
	6690.1.1 = {add_trait=poor_warrior}
	6712.1.1 = {death="6712.1.1"}
}
10210340 = {
	name="Rhaelinor"	# not a lord
	female=yes
	dynasty=570340

	religion="valyrian_rel"
	culture="eastern_valyrian"

	father=10170340
	mother=20170340

	6676.1.1 = {birth="6676.1.1"}
	6728.1.1 = {death="6728.1.1"}
}
10220340 = {
	name="Valarr"	# a lord
	dynasty=570340

	religion="valyrian_rel"
	culture="eastern_valyrian"

	father=10190340
	mother=20190340

	6694.1.1 = {birth="6694.1.1"}
	6710.1.1 = {add_trait=poor_warrior}
	6712.1.1 = {add_spouse=20220340}
	6764.1.1 = {death="6764.1.1"}
}
20220340 = {
	name="Rhaenyra"
	female=yes

	religion="valyrian_rel"
	culture="eastern_valyrian"

	6694.1.1 = {birth="6694.1.1"}
	6764.1.1 = {death="6764.1.1"}
}
10230340 = {
	name="Alearys"	# not a lord
	female=yes
	dynasty=570340

	religion="valyrian_rel"
	culture="eastern_valyrian"

	father=10220340
	mother=20220340

	6728.1.1 = {birth="6728.1.1"}
	6777.1.1 = {death="6777.1.1"}
}
10240340 = {
	name="Matarys"	# a lord
	dynasty=570340

	religion="valyrian_rel"
	culture="eastern_valyrian"

	father=10220340
	mother=20220340

	6715.1.1 = {birth="6715.1.1"}
	6731.1.1 = {add_trait=poor_warrior}
	6733.1.1 = {add_spouse=20240340}
	6775.1.1 = {death="6775.1.1"}
}
20240340 = {
	name="Daenys"
	female=yes

	religion="valyrian_rel"
	culture="eastern_valyrian"

	6715.1.1 = {birth="6715.1.1"}
	6775.1.1 = {death="6775.1.1"}
}
10250340 = {
	name="Daeron"	# not a lord
	dynasty=570340

	religion="valyrian_rel"
	culture="eastern_valyrian"

	father=10220340
	mother=20220340

	6718.1.1 = {birth="6718.1.1"}
	6734.1.1 = {add_trait=poor_warrior}
	6779.1.1 = {death="6779.1.1"}
}
10260340 = {
	name="Rhaenyra"	# not a lord
	female=yes
	dynasty=570340

	religion="valyrian_rel"
	culture="eastern_valyrian"

	father=10220340
	mother=20220340

	6721.1.1 = {birth="6721.1.1"}
	6775.1.1 = {death="6775.1.1"}
}
10270340 = {
	name="Elaena"	# not a lord
	female=yes
	dynasty=570340

	religion="valyrian_rel"
	culture="eastern_valyrian"

	father=10240340
	mother=20240340

	6744.1.1 = {birth="6744.1.1"}
	6776.1.1 = {death = {death_reason = death_execution}}
}
10280340 = {
	name="Haegon"	# a lord
	dynasty=570340

	religion="valyrian_rel"
	culture="eastern_valyrian"

	father=10240340
	mother=20240340

	6746.1.1 = {birth="6746.1.1"}
	6762.1.1 = {add_trait=poor_warrior}
	6811.1.1 = {death="6811.1.1"}
}
10290340 = {
	name="Rhaeys"	# not a lord
	female=yes
	dynasty=570340

	religion="valyrian_rel"
	culture="eastern_valyrian"

	father=10240340
	mother=20240340

	6747.1.1 = {birth="6747.1.1"}
	6811.1.1 = {death="6811.1.1"}
}
10300340 = {
	name="Aerys"	# not a lord
	dynasty=570340

	religion="valyrian_rel"
	culture="eastern_valyrian"

	father=10240340
	mother=20240340

	6750.1.1 = {birth="6750.1.1"}
	6766.1.1 = {add_trait=skilled_warrior}
	6801.1.1 = {death="6801.1.1"}
}



###################  House Zukrys

10000347 = {
	name="Rhaekar"	# a lord
	dynasty=570347

	religion="valyrian_rel"
	culture="eastern_valyrian"

	6448.1.1 = {birth="6448.1.1"}
	6464.1.1 = {add_trait=poor_warrior}
	6466.1.1 = {add_spouse=20000347}
	6505.1.1 = {death="6505.1.1"}
}
20000347 = {
	name="Daenys"
	female=yes

	religion="valyrian_rel"
	culture="eastern_valyrian"

	6448.1.1 = {birth="6448.1.1"}
	6505.1.1 = {death="6505.1.1"}
}
10010347 = {
	name="Daeoril"	# not a lord
	female=yes
	dynasty=570347

	religion="valyrian_rel"
	culture="eastern_valyrian"

	father=10000347
	mother=20000347

	6473.1.1 = {birth="6473.1.1"}
	6513.1.1 = {death="6513.1.1"}
}
10020347 = {
	name="Aegor"	# a lord
	dynasty=570347

	religion="valyrian_rel"
	culture="eastern_valyrian"

	father=10000347
	mother=20000347

	6475.1.1 = {birth="6475.1.1"}
	6491.1.1 = {add_trait=poor_warrior}
	6493.1.1 = {add_spouse=20020347}
	6526.1.1 = {death="6526.1.1"}
}
20020347 = {
	name="Aelinor"
	female=yes

	religion="valyrian_rel"
	culture="eastern_valyrian"

	6475.1.1 = {birth="6475.1.1"}
	6526.1.1 = {death="6526.1.1"}
}
10030347 = {
	name="Qoherys"	# a lord
	dynasty=570347

	religion="valyrian_rel"
	culture="eastern_valyrian"

	father=10020347
	mother=20020347

	6509.1.1 = {birth="6509.1.1"}
	6525.1.1 = {add_trait=master_warrior}
	6527.1.1 = {add_spouse=20030347}
	6571.1.1 = {death="6571.1.1"}
}
20030347 = {
	name="Saenrys"
	female=yes

	religion="valyrian_rel"
	culture="eastern_valyrian"

	6509.1.1 = {birth="6509.1.1"}
	6571.1.1 = {death="6571.1.1"}
}
10040347 = {
	name="Rhaena"	# not a lord
	female=yes
	dynasty=570347

	religion="valyrian_rel"
	culture="eastern_valyrian"

	father=10020347
	mother=20020347

	6512.1.1 = {birth="6512.1.1"}
	6572.1.1 = {death="6572.1.1"}
}
10050347 = {
	name="Rhaena"	# not a lord
	female=yes
	dynasty=570347

	religion="valyrian_rel"
	culture="eastern_valyrian"

	father=10020347
	mother=20020347

	6515.1.1 = {birth="6515.1.1"}
	6565.1.1 = {death="6565.1.1"}
}
10060347 = {
	name="Daeron"	# a lord
	dynasty=570347

	religion="valyrian_rel"
	culture="eastern_valyrian"

	father=10030347
	mother=20030347

	6540.1.1 = {birth="6540.1.1"}
	6556.1.1 = {add_trait=skilled_warrior}
	6558.1.1 = {add_spouse=20060347}
	6602.1.1 = {death = {death_reason = death_accident}}
}
20060347 = {
	name="Rhae"
	female=yes

	religion="valyrian_rel"
	culture="eastern_valyrian"

	6540.1.1 = {birth="6540.1.1"}
	6602.1.1 = {death="6602.1.1"}
}
10070347 = {
	name="Naerys"	# not a lord
	female=yes
	dynasty=570347

	religion="valyrian_rel"
	culture="eastern_valyrian"

	father=10060347
	mother=20060347

	6560.1.1 = {birth="6560.1.1"}
	6602.1.1 = {death="6602.1.1"}
}
10080347 = {
	name="Otherys"	# a lord
	dynasty=570347

	religion="valyrian_rel"
	culture="eastern_valyrian"

	father=10060347
	mother=20060347

	6561.1.1 = {birth="6561.1.1"}
	6577.1.1 = {add_trait=poor_warrior}
	6579.1.1 = {add_spouse=20080347}
	6616.1.1 = {death="6616.1.1"}
}
20080347 = {
	name="Saenrys"
	female=yes

	religion="valyrian_rel"
	culture="eastern_valyrian"

	6561.1.1 = {birth="6561.1.1"}
	6616.1.1 = {death="6616.1.1"}
}
10090347 = {
	name="Visenya"	# not a lord
	female=yes
	dynasty=570347

	religion="valyrian_rel"
	culture="eastern_valyrian"

	father=10080347
	mother=20080347

	6580.1.1 = {birth="6580.1.1"}
	6615.1.1 = {death = {death_reason = death_murder}}
}
10100347 = {
	name="Daeron"	# a lord
	dynasty=570347

	religion="valyrian_rel"
	culture="eastern_valyrian"

	father=10080347
	mother=20080347

	6582.1.1 = {birth="6582.1.1"}
	6598.1.1 = {add_trait=skilled_warrior}
	6600.1.1 = {add_spouse=20100347}
	6624.1.1 = {death="6624.1.1"}
}
20100347 = {
	name="Rhaenyra"
	female=yes

	religion="valyrian_rel"
	culture="eastern_valyrian"

	6582.1.1 = {birth="6582.1.1"}
	6624.1.1 = {death="6624.1.1"}
}
10110347 = {
	name="Syaella"	# not a lord
	female=yes
	dynasty=570347

	religion="valyrian_rel"
	culture="eastern_valyrian"

	father=10080347
	mother=20080347

	6584.1.1 = {birth="6584.1.1"}
	6636.1.1 = {death="6636.1.1"}
}
10120347 = {
	name="Haerys"	# not a lord
	dynasty=570347

	religion="valyrian_rel"
	culture="eastern_valyrian"

	father=10080347
	mother=20080347

	6585.1.1 = {birth="6585.1.1"}
	6601.1.1 = {add_trait=poor_warrior}
	6663.1.1 = {death="6663.1.1"}
}
10130347 = {
	name="Otherys"	# not a lord
	dynasty=570347

	religion="valyrian_rel"
	culture="eastern_valyrian"

	father=10080347
	mother=20080347

	6586.1.1 = {birth="6586.1.1"}
	6602.1.1 = {add_trait=skilled_warrior}
	6623.1.1 = {death="6623.1.1"}
}
10140347 = {
	name="Daeron"	# a lord
	dynasty=570347

	religion="valyrian_rel"
	culture="eastern_valyrian"

	father=10100347
	mother=20100347

	6602.1.1 = {birth="6602.1.1"}
	6618.1.1 = {add_trait=poor_warrior}
	6620.1.1 = {add_spouse=20140347}
	6668.1.1 = {death="6668.1.1"}
}
20140347 = {
	name="Rhaenys"
	female=yes

	religion="valyrian_rel"
	culture="eastern_valyrian"

	6602.1.1 = {birth="6602.1.1"}
	6668.1.1 = {death="6668.1.1"}
}
10150347 = {
	name="Daeoril"	# not a lord
	female=yes
	dynasty=570347

	religion="valyrian_rel"
	culture="eastern_valyrian"

	father=10100347
	mother=20100347

	6604.1.1 = {birth="6604.1.1"}
	6657.1.1 = {death="6657.1.1"}
}
10160347 = {
	name="Alysanne"	# not a lord
	female=yes
	dynasty=570347

	religion="valyrian_rel"
	culture="eastern_valyrian"

	father=10100347
	mother=20100347

	6607.1.1 = {birth="6607.1.1"}
	6650.1.1 = {death="6650.1.1"}
}
10170347 = {
	name="Leaysa"	# not a lord
	female=yes
	dynasty=570347

	religion="valyrian_rel"
	culture="eastern_valyrian"

	father=10100347
	mother=20100347

	6610.1.1 = {birth="6610.1.1"}
	6670.1.1 = {death="6670.1.1"}
}
10180347 = {
	name="Alearys"	# not a lord
	female=yes
	dynasty=570347

	religion="valyrian_rel"
	culture="eastern_valyrian"

	father=10100347
	mother=20100347

	6611.1.1 = {birth="6611.1.1"}
	6645.1.1 = {death="6645.1.1"}
}
10190347 = {
	name="Baelon"	# a lord
	dynasty=570347

	religion="valyrian_rel"
	culture="eastern_valyrian"

	father=10140347
	mother=20140347

	6635.1.1 = {birth="6635.1.1"}
	6651.1.1 = {add_trait=trained_warrior}
	6653.1.1 = {add_spouse=20190347}
	6689.1.1 = {death="6689.1.1"}
}
20190347 = {
	name="Alysanne"
	female=yes

	religion="valyrian_rel"
	culture="eastern_valyrian"

	6635.1.1 = {birth="6635.1.1"}
	6689.1.1 = {death="6689.1.1"}
}
10200347 = {
	name="Otherys"	# not a lord
	dynasty=570347

	religion="valyrian_rel"
	culture="eastern_valyrian"

	father=10140347
	mother=20140347

	6638.1.1 = {birth="6638.1.1"}
	6654.1.1 = {add_trait=trained_warrior}
	6667.1.1 = {death = {death_reason = death_murder}}
}
10210347 = {
	name="Daenerys"	# not a lord
	female=yes
	dynasty=570347

	religion="valyrian_rel"
	culture="eastern_valyrian"

	father=10140347
	mother=20140347

	6639.1.1 = {birth="6639.1.1"}
	6694.1.1 = {death="6694.1.1"}
}
10220347 = {
	name="Rhaenyra"	# not a lord
	female=yes
	dynasty=570347

	religion="valyrian_rel"
	culture="eastern_valyrian"

	father=10140347
	mother=20140347

	6642.1.1 = {birth="6642.1.1"}
	6686.1.1 = {death="6686.1.1"}
}
10230347 = {
	name="Aenar"	# a lord
	dynasty=570347

	religion="valyrian_rel"
	culture="eastern_valyrian"

	father=10190347
	mother=20190347

	6670.1.1 = {birth="6670.1.1"}
	6686.1.1 = {add_trait=skilled_warrior}
	6688.1.1 = {add_spouse=20230347}
	6744.1.1 = {death="6744.1.1"}
}
20230347 = {
	name="Elaena"
	female=yes

	religion="valyrian_rel"
	culture="eastern_valyrian"

	6670.1.1 = {birth="6670.1.1"}
	6744.1.1 = {death="6744.1.1"}
}
10240347 = {
	name="Rhae"	# not a lord
	female=yes
	dynasty=570347

	religion="valyrian_rel"
	culture="eastern_valyrian"

	father=10190347
	mother=20190347

	6673.1.1 = {birth="6673.1.1"}
	6706.1.1 = {death = {death_reason = death_murder}}
}
10250347 = {
	name="Maegon"	# not a lord
	dynasty=570347

	religion="valyrian_rel"
	culture="eastern_valyrian"

	father=10190347
	mother=20190347

	6674.1.1 = {birth="6674.1.1"}
	6690.1.1 = {add_trait=trained_warrior}
	6728.1.1 = {death = {death_reason = death_accident}}
}
10260347 = {
	name="Aegon"	# a lord
	dynasty=570347

	religion="valyrian_rel"
	culture="eastern_valyrian"

	father=10230347
	mother=20230347

	6696.1.1 = {birth="6696.1.1"}
	6712.1.1 = {add_trait=skilled_warrior}
	6714.1.1 = {add_spouse=20260347}
	6761.1.1 = {death="6761.1.1"}
}
20260347 = {
	name="Rhaeys"
	female=yes

	religion="valyrian_rel"
	culture="eastern_valyrian"

	6696.1.1 = {birth="6696.1.1"}
	6761.1.1 = {death="6761.1.1"}
}
10270347 = {
	name="Daeoril"	# not a lord
	female=yes
	dynasty=570347

	religion="valyrian_rel"
	culture="eastern_valyrian"

	father=10260347
	mother=20260347

	6718.1.1 = {birth="6718.1.1"}
	6751.1.1 = {death="6751.1.1"}
}
10280347 = {
	name="Maegon"	# a lord
	dynasty=570347

	religion="valyrian_rel"
	culture="eastern_valyrian"

	father=10260347
	mother=20260347

	6721.1.1 = {birth="6721.1.1"}
	6737.1.1 = {add_trait=poor_warrior}
	6739.1.1 = {add_spouse=20280347}
	6775.1.1 = {death="6775.1.1"}
}
20280347 = {
	name="Cyeana"
	female=yes

	religion="valyrian_rel"
	culture="eastern_valyrian"

	6721.1.1 = {birth="6721.1.1"}
	6775.1.1 = {death="6775.1.1"}
}
10290347 = {
	name="Rhaegar"	# a lord
	dynasty=570347

	religion="valyrian_rel"
	culture="eastern_valyrian"

	father=10280347
	mother=20280347

	6742.1.1 = {birth="6742.1.1"}
	6758.1.1 = {add_trait=skilled_warrior}
	6760.1.1 = {add_spouse=20290347}
	6787.1.1 = {death="6787.1.1"}
}
20290347 = {
	name="Cyeana"
	female=yes

	religion="valyrian_rel"
	culture="eastern_valyrian"

	6742.1.1 = {birth="6742.1.1"}
	6787.1.1 = {death="6787.1.1"}
}
10300347 = {
	name="Maegor"	# not a lord
	dynasty=570347

	religion="valyrian_rel"
	culture="eastern_valyrian"

	father=10280347
	mother=20280347

	6744.1.1 = {birth="6744.1.1"}
	6760.1.1 = {add_trait=trained_warrior}
	6786.1.1 = {death="6786.1.1"}
}
10310347 = {
	name="Vaermon"	# a lord
	dynasty=570347

	religion="valyrian_rel"
	culture="eastern_valyrian"

	father=10290347
	mother=20290347

	6773.1.1 = {birth="6773.1.1"}
	6789.1.1 = {add_trait=skilled_warrior}
	6837.1.1 = {death="6837.1.1"}
}
10320347 = {
	name="Daemon"	# not a lord
	dynasty=570347

	religion="valyrian_rel"
	culture="eastern_valyrian"

	father=10290347
	mother=20290347

	6775.1.1 = {birth="6775.1.1"}
	6791.1.1 = {add_trait=trained_warrior}
	6822.1.1 = {death="6822.1.1"}
}
10330347 = {
	name="Allyria"	# not a lord
	female=yes
	dynasty=570347

	religion="valyrian_rel"
	culture="eastern_valyrian"

	father=10290347
	mother=20290347

	6777.1.1 = {birth="6777.1.1"}
	6843.1.1 = {death="6843.1.1"}
}
10340347 = {
	name="Daena"	# not a lord
	female=yes
	dynasty=570347

	religion="valyrian_rel"
	culture="eastern_valyrian"

	father=10290347
	mother=20290347

	6778.1.1 = {birth="6778.1.1"}
	6843.1.1 = {death="6843.1.1"}
}


#########################  House Qyrmion

10000351 = {
	name="Maegon"	# a lord
	dynasty=570351

	religion="valyrian_rel"
	culture="eastern_valyrian"

	6452.1.1 = {birth="6452.1.1"}
	6468.1.1 = {add_trait=poor_warrior}
	6470.1.1 = {add_spouse=20000351}
	6513.1.1 = {death="6513.1.1"}
}
20000351 = {
	name="Saenrys"
	female=yes

	religion="valyrian_rel"
	culture="eastern_valyrian"

	6452.1.1 = {birth="6452.1.1"}
	6513.1.1 = {death="6513.1.1"}
}
10010351 = {
	name="Rhaenys"	# not a lord
	female=yes
	dynasty=570351

	religion="valyrian_rel"
	culture="eastern_valyrian"

	father=10000351
	mother=20000351

	6480.1.1 = {birth="6480.1.1"}
	6517.1.1 = {death="6517.1.1"}
}
10020351 = {
	name="Naerys"	# not a lord
	female=yes
	dynasty=570351

	religion="valyrian_rel"
	culture="eastern_valyrian"

	father=10000351
	mother=20000351

	6482.1.1 = {birth="6482.1.1"}
	6536.1.1 = {death="6536.1.1"}
}
10030351 = {
	name="Otherys"	# a lord
	dynasty=570351

	religion="valyrian_rel"
	culture="eastern_valyrian"

	father=10000351
	mother=20000351

	6484.1.1 = {birth="6484.1.1"}
	6500.1.1 = {add_trait=trained_warrior}
	6502.1.1 = {add_spouse=20030351}
	6545.1.1 = {death="6545.1.1"}
}
20030351 = {
	name="Cymella"
	female=yes

	religion="valyrian_rel"
	culture="eastern_valyrian"

	6484.1.1 = {birth="6484.1.1"}
	6545.1.1 = {death="6545.1.1"}
}
10040351 = {
	name="Baelon"	# a lord
	dynasty=570351

	religion="valyrian_rel"
	culture="eastern_valyrian"

	father=10030351
	mother=20030351

	6507.1.1 = {birth="6507.1.1"}
	6523.1.1 = {add_trait=poor_warrior}
	6525.1.1 = {add_spouse=20040351}
	6558.1.1 = {death="6558.1.1"}
}
20040351 = {
	name="Alearys"
	female=yes

	religion="valyrian_rel"
	culture="eastern_valyrian"

	6507.1.1 = {birth="6507.1.1"}
	6558.1.1 = {death="6558.1.1"}
}
10050351 = {
	name="Rhaenyra"	# not a lord
	female=yes
	dynasty=570351

	religion="valyrian_rel"
	culture="eastern_valyrian"

	father=10030351
	mother=20030351

	6510.1.1 = {birth="6510.1.1"}
	6542.1.1 = {death="6542.1.1"}
}
10060351 = {
	name="Aelix"	# a lord
	dynasty=570351

	religion="valyrian_rel"
	culture="eastern_valyrian"

	father=10040351
	mother=20040351

	6533.1.1 = {birth="6533.1.1"}
	6549.1.1 = {add_trait=poor_warrior}
	6551.1.1 = {add_spouse=20060351}
	6576.1.1 = {death="6576.1.1"}
}
20060351 = {
	name="Elaena"
	female=yes

	religion="valyrian_rel"
	culture="eastern_valyrian"

	6533.1.1 = {birth="6533.1.1"}
	6576.1.1 = {death="6576.1.1"}
}
10070351 = {
	name="Maegor"	# a lord
	dynasty=570351

	religion="valyrian_rel"
	culture="eastern_valyrian"

	father=10060351
	mother=20060351

	6559.1.1 = {birth="6559.1.1"}
	6575.1.1 = {add_trait=skilled_warrior}
	6577.1.1 = {add_spouse=20070351}
	6618.1.1 = {death="6618.1.1"}
}
20070351 = {
	name="Alearys"
	female=yes

	religion="valyrian_rel"
	culture="eastern_valyrian"

	6559.1.1 = {birth="6559.1.1"}
	6618.1.1 = {death="6618.1.1"}
}
10080351 = {
	name="Aelinor"	# not a lord
	female=yes
	dynasty=570351

	religion="valyrian_rel"
	culture="eastern_valyrian"

	father=10060351
	mother=20060351

	6560.1.1 = {birth="6560.1.1"}
	6625.1.1 = {death="6625.1.1"}
}
10090351 = {
	name="Daenys"	# not a lord
	female=yes
	dynasty=570351

	religion="valyrian_rel"
	culture="eastern_valyrian"

	father=10060351
	mother=20060351

	6561.1.1 = {birth="6561.1.1"}
	6623.1.1 = {death="6623.1.1"}
}
10100351 = {
	name="Syaella"	# not a lord
	female=yes
	dynasty=570351

	religion="valyrian_rel"
	culture="eastern_valyrian"

	father=10060351
	mother=20060351

	6563.1.1 = {birth="6563.1.1"}
	6611.1.1 = {death="6611.1.1"}
}
10110351 = {
	name="Maerys"	# a lord
	dynasty=570351

	religion="valyrian_rel"
	culture="eastern_valyrian"

	father=10070351
	mother=20070351

	6578.1.1 = {birth="6578.1.1"}
	6594.1.1 = {add_trait=trained_warrior}
	6596.1.1 = {add_spouse=20110351}
	6626.1.1 = {death="6626.1.1"}
}
20110351 = {
	name="Alysanne"
	female=yes

	religion="valyrian_rel"
	culture="eastern_valyrian"

	6578.1.1 = {birth="6578.1.1"}
	6626.1.1 = {death="6626.1.1"}
}
10120351 = {
	name="Orys"	# not a lord
	dynasty=570351

	religion="valyrian_rel"
	culture="eastern_valyrian"

	father=10070351
	mother=20070351

	6579.1.1 = {birth="6579.1.1"}
	6595.1.1 = {add_trait=poor_warrior}
	6637.1.1 = {death="6637.1.1"}
}
10130351 = {
	name="Syaella"	# not a lord
	female=yes
	dynasty=570351

	religion="valyrian_rel"
	culture="eastern_valyrian"

	father=10070351
	mother=20070351

	6581.1.1 = {birth="6581.1.1"}
	6639.1.1 = {death="6639.1.1"}
}
10140351 = {
	name="Jaehaerys"	# a lord
	dynasty=570351

	religion="valyrian_rel"
	culture="eastern_valyrian"

	father=10110351
	mother=20110351

	6607.1.1 = {birth="6607.1.1"}
	6623.1.1 = {add_trait=poor_warrior}
	6625.1.1 = {add_spouse=20140351}
	6650.1.1 = {death="6650.1.1"}
}
20140351 = {
	name="Rhaena"
	female=yes

	religion="valyrian_rel"
	culture="eastern_valyrian"

	6607.1.1 = {birth="6607.1.1"}
	6650.1.1 = {death="6650.1.1"}
}
10150351 = {
	name="Rhae"	# not a lord
	female=yes
	dynasty=570351

	religion="valyrian_rel"
	culture="eastern_valyrian"

	father=10110351
	mother=20110351

	6608.1.1 = {birth="6608.1.1"}
	6644.1.1 = {death="6644.1.1"}
}
10160351 = {
	name="Daeoril"	# not a lord
	female=yes
	dynasty=570351

	religion="valyrian_rel"
	culture="eastern_valyrian"

	father=10110351
	mother=20110351

	6611.1.1 = {birth="6611.1.1"}
	6659.1.1 = {death="6659.1.1"}
}
10170351 = {
	name="Vaekar"	# not a lord
	dynasty=570351

	religion="valyrian_rel"
	culture="eastern_valyrian"

	father=10110351
	mother=20110351

	6613.1.1 = {birth="6613.1.1"}
	6629.1.1 = {add_trait=poor_warrior}
	6641.1.1 = {death="6641.1.1"}
}
10180351 = {
	name="Haegon"	# not a lord
	dynasty=570351

	religion="valyrian_rel"
	culture="eastern_valyrian"

	father=10110351
	mother=20110351

	6616.1.1 = {birth="6616.1.1"}
	6632.1.1 = {add_trait=poor_warrior}
	6669.1.1 = {death="6669.1.1"}
}
10190351 = {
	name="Maelys"	# a lord
	dynasty=570351

	religion="valyrian_rel"
	culture="eastern_valyrian"

	father=10140351
	mother=20140351

	6625.1.1 = {birth="6625.1.1"}
	6641.1.1 = {add_trait=poor_warrior}
	6643.1.1 = {add_spouse=20190351}
	6669.1.1 = {death="6669.1.1"}
}
20190351 = {
	name="Alysanne"
	female=yes

	religion="valyrian_rel"
	culture="eastern_valyrian"

	6625.1.1 = {birth="6625.1.1"}
	6669.1.1 = {death="6669.1.1"}
}
10200351 = {
	name="Daeoril"	# not a lord
	female=yes
	dynasty=570351

	religion="valyrian_rel"
	culture="eastern_valyrian"

	father=10140351
	mother=20140351

	6626.1.1 = {birth="6626.1.1"}
	6665.1.1 = {death="6665.1.1"}
}
10210351 = {
	name="Daenerys"	# not a lord
	female=yes
	dynasty=570351

	religion="valyrian_rel"
	culture="eastern_valyrian"

	father=10140351
	mother=20140351

	6629.1.1 = {birth="6629.1.1"}
	6671.1.1 = {death="6671.1.1"}
}
10220351 = {
	name="Daenerys"	# not a lord
	female=yes
	dynasty=570351

	religion="valyrian_rel"
	culture="eastern_valyrian"

	father=10190351
	mother=20190351

	6653.1.1 = {birth="6653.1.1"}
	6698.1.1 = {death="6698.1.1"}
}
10230351 = {
	name="Leaysa"	# not a lord
	female=yes
	dynasty=570351

	religion="valyrian_rel"
	culture="eastern_valyrian"

	father=10190351
	mother=20190351

	6655.1.1 = {birth="6655.1.1"}
	6707.1.1 = {death="6707.1.1"}
}
10240351 = {
	name="Rhaenyra"	# not a lord
	female=yes
	dynasty=570351

	religion="valyrian_rel"
	culture="eastern_valyrian"

	father=10190351
	mother=20190351

	6658.1.1 = {birth="6658.1.1"}
	6690.1.1 = {death="6690.1.1"}
}
10250351 = {
	name="Maerys"	# a lord
	dynasty=570351

	religion="valyrian_rel"
	culture="eastern_valyrian"

	father=10190351
	mother=20190351

	6660.1.1 = {birth="6660.1.1"}
	6676.1.1 = {add_trait=poor_warrior}
	6678.1.1 = {add_spouse=20250351}
	6714.1.1 = {death="6714.1.1"}
}
20250351 = {
	name="Rhaeys"
	female=yes

	religion="valyrian_rel"
	culture="eastern_valyrian"

	6660.1.1 = {birth="6660.1.1"}
	6714.1.1 = {death="6714.1.1"}
}
10260351 = {
	name="Vaeron"	# a lord
	dynasty=570351

	religion="valyrian_rel"
	culture="eastern_valyrian"

	father=10250351
	mother=20250351

	6687.1.1 = {birth="6687.1.1"}
	6703.1.1 = {add_trait=poor_warrior}
	6705.1.1 = {add_spouse=20260351}
	6744.1.1 = {death="6744.1.1"}
}
20260351 = {
	name="Rhaelinor"
	female=yes

	religion="valyrian_rel"
	culture="eastern_valyrian"

	6687.1.1 = {birth="6687.1.1"}
	6744.1.1 = {death="6744.1.1"}
}
10270351 = {
	name="Maelys"	# a lord
	dynasty=570351

	religion="valyrian_rel"
	culture="eastern_valyrian"

	father=10260351
	mother=20260351

	6712.1.1 = {birth="6712.1.1"}
	6728.1.1 = {add_trait=master_warrior}
	6730.1.1 = {add_spouse=20270351}
	6753.1.1 = {death="6753.1.1"}
}
20270351 = {
	name="Saenrys"
	female=yes

	religion="valyrian_rel"
	culture="eastern_valyrian"

	6712.1.1 = {birth="6712.1.1"}
	6753.1.1 = {death="6753.1.1"}
}
10280351 = {
	name="Rhaegel"	# not a lord
	dynasty=570351

	religion="valyrian_rel"
	culture="eastern_valyrian"

	father=10260351
	mother=20260351

	6713.1.1 = {birth="6713.1.1"}
	6729.1.1 = {add_trait=poor_warrior}
	6782.1.1 = {death="6782.1.1"}
}
10290351 = {
	name="Rhaekar"	# not a lord
	dynasty=570351

	religion="valyrian_rel"
	culture="eastern_valyrian"

	father=10260351
	mother=20260351

	6715.1.1 = {birth="6715.1.1"}
	6731.1.1 = {add_trait=skilled_warrior}
	6752.1.1 = {death="6752.1.1"}
}
10300351 = {
	name="Baelor"	# not a lord
	dynasty=570351

	religion="valyrian_rel"
	culture="eastern_valyrian"

	father=10260351
	mother=20260351

	6717.1.1 = {birth="6717.1.1"}
	6733.1.1 = {add_trait=trained_warrior}
	6761.1.1 = {death="6761.1.1"}
}
10310351 = {
	name="Maelys"	# not a lord
	dynasty=570351

	religion="valyrian_rel"
	culture="eastern_valyrian"

	father=10260351
	mother=20260351

	6718.1.1 = {birth="6718.1.1"}
	6734.1.1 = {add_trait=skilled_warrior}
	6778.1.1 = {death="6778.1.1"}
}
10320351 = {
	name="Rhaelinor"	# not a lord
	female=yes
	dynasty=570351

	religion="valyrian_rel"
	culture="eastern_valyrian"

	father=10270351
	mother=20270351

	6744.1.1 = {birth="6744.1.1"}
	6777.1.1 = {death="6777.1.1"}
}
10330351 = {
	name="Daenerys"	# not a lord
	female=yes
	dynasty=570351

	religion="valyrian_rel"
	culture="eastern_valyrian"

	father=10270351
	mother=20270351

	6745.1.1 = {birth="6745.1.1"}
	6802.1.1 = {death = {death_reason = death_accident}}
}
10340351 = {
	name="Daeron"	# a lord
	dynasty=570351

	religion="valyrian_rel"
	culture="eastern_valyrian"

	father=10270351
	mother=20270351

	6747.1.1 = {birth="6747.1.1"}
	6763.1.1 = {add_trait=poor_warrior}
	6765.1.1 = {add_spouse=20340351}
	6808.1.1 = {death = {death_reason = death_accident}}
}
20340351 = {
	name="Aelinor"
	female=yes

	religion="valyrian_rel"
	culture="eastern_valyrian"

	6747.1.1 = {birth="6747.1.1"}
	6808.1.1 = {death="6808.1.1"}
}
10350351 = {
	name="Otherys"	# not a lord
	dynasty=570351

	religion="valyrian_rel"
	culture="eastern_valyrian"

	father=10270351
	mother=20270351

	6748.1.1 = {birth="6748.1.1"}
	6764.1.1 = {add_trait=skilled_warrior}
	6804.1.1 = {death="6804.1.1"}
}
10360351 = {
	name="Rhae"	# a lord
	female=yes
	dynasty=570351

	religion="valyrian_rel"
	culture="eastern_valyrian"

	father=10340351
	mother=20340351

	6779.1.1 = {birth="6779.1.1"}
	6834.1.1 = {death="6834.1.1"}
}


###################  House Nodarys

10000350 = {
	name="Maegor"	# a lord
	dynasty=570350

	religion="valyrian_rel"
	culture="eastern_valyrian"

	6448.1.1 = {birth="6448.1.1"}
	6464.1.1 = {add_trait=poor_warrior}
	6466.1.1 = {add_spouse=20000350}
	6502.1.1 = {death="6502.1.1"}
}
20000350 = {
	name="Daena"
	female=yes

	religion="valyrian_rel"
	culture="eastern_valyrian"

	6448.1.1 = {birth="6448.1.1"}
	6502.1.1 = {death="6502.1.1"}
}
10010350 = {
	name="Rhaeys"	# not a lord
	female=yes
	dynasty=570350

	religion="valyrian_rel"
	culture="eastern_valyrian"

	father=10000350
	mother=20000350

	6483.1.1 = {birth="6483.1.1"}
	6512.1.1 = {death = {death_reason = death_murder}}
}
10020350 = {
	name="Rhaekar"	# a lord
	dynasty=570350

	religion="valyrian_rel"
	culture="eastern_valyrian"

	father=10000350
	mother=20000350

	6485.1.1 = {birth="6485.1.1"}
	6501.1.1 = {add_trait=trained_warrior}
	6503.1.1 = {add_spouse=20020350}
	6556.1.1 = {death="6556.1.1"}
}
20020350 = {
	name="Aelinor"
	female=yes

	religion="valyrian_rel"
	culture="eastern_valyrian"

	6485.1.1 = {birth="6485.1.1"}
	6556.1.1 = {death="6556.1.1"}
}
10030350 = {
	name="Viserys"	# not a lord
	dynasty=570350

	religion="valyrian_rel"
	culture="eastern_valyrian"

	father=10000350
	mother=20000350

	6488.1.1 = {birth="6488.1.1"}
	6504.1.1 = {add_trait=poor_warrior}
	6540.1.1 = {death="6540.1.1"}
}
10040350 = {
	name="Naerys"	# not a lord
	female=yes
	dynasty=570350

	religion="valyrian_rel"
	culture="eastern_valyrian"

	father=10000350
	mother=20000350

	6491.1.1 = {birth="6491.1.1"}
	6548.1.1 = {death="6548.1.1"}
}
10050350 = {
	name="Leaysa"	# not a lord
	female=yes
	dynasty=570350

	religion="valyrian_rel"
	culture="eastern_valyrian"

	father=10000350
	mother=20000350

	6493.1.1 = {birth="6493.1.1"}
	6547.1.1 = {death="6547.1.1"}
}
10060350 = {
	name="Rhaekar"	# a lord
	dynasty=570350

	religion="valyrian_rel"
	culture="eastern_valyrian"

	father=10020350
	mother=20020350

	6505.1.1 = {birth="6505.1.1"}
	6521.1.1 = {add_trait=skilled_warrior}
	6523.1.1 = {add_spouse=20060350}
	6583.1.1 = {death="6583.1.1"}
}
20060350 = {
	name="Leaysa"
	female=yes

	religion="valyrian_rel"
	culture="eastern_valyrian"

	6505.1.1 = {birth="6505.1.1"}
	6583.1.1 = {death="6583.1.1"}
}
10070350 = {
	name="Vaermon"	# not a lord
	dynasty=570350

	religion="valyrian_rel"
	culture="eastern_valyrian"

	father=10020350
	mother=20020350

	6508.1.1 = {birth="6508.1.1"}
	6524.1.1 = {add_trait=skilled_warrior}
	6550.1.1 = {death="6550.1.1"}
}
10080350 = {
	name="Jaekar"	# not a lord
	dynasty=570350

	religion="valyrian_rel"
	culture="eastern_valyrian"

	father=10020350
	mother=20020350

	6511.1.1 = {birth="6511.1.1"}
	6527.1.1 = {add_trait=skilled_warrior}
	6578.1.1 = {death="6578.1.1"}
}
10090350 = {
	name="Saenrys"	# not a lord
	female=yes
	dynasty=570350

	religion="valyrian_rel"
	culture="eastern_valyrian"

	father=10020350
	mother=20020350

	6512.1.1 = {birth="6512.1.1"}
	6547.1.1 = {death="6547.1.1"}
}
10100350 = {
	name="Rhaenys"	# not a lord
	female=yes
	dynasty=570350

	religion="valyrian_rel"
	culture="eastern_valyrian"

	father=10060350
	mother=20060350

	6538.1.1 = {birth="6538.1.1"}
	6587.1.1 = {death="6587.1.1"}
}
10110350 = {
	name="Alearys"	# not a lord
	female=yes
	dynasty=570350

	religion="valyrian_rel"
	culture="eastern_valyrian"

	father=10060350
	mother=20060350

	6540.1.1 = {birth="6540.1.1"}
	6585.1.1 = {death="6585.1.1"}
}
10120350 = {
	name="Rhaekar"	# a lord
	dynasty=570350

	religion="valyrian_rel"
	culture="eastern_valyrian"

	father=10060350
	mother=20060350

	6541.1.1 = {birth="6541.1.1"}
	6557.1.1 = {add_trait=poor_warrior}
	6559.1.1 = {add_spouse=20120350}
	6585.1.1 = {death="6585.1.1"}
}
20120350 = {
	name="Leaysa"
	female=yes

	religion="valyrian_rel"
	culture="eastern_valyrian"

	6541.1.1 = {birth="6541.1.1"}
	6585.1.1 = {death="6585.1.1"}
}
10130350 = {
	name="Gaemon"	# not a lord
	dynasty=570350

	religion="valyrian_rel"
	culture="eastern_valyrian"

	father=10060350
	mother=20060350

	6543.1.1 = {birth="6543.1.1"}
	6559.1.1 = {add_trait=poor_warrior}
	6587.1.1 = {death="6587.1.1"}
}
10140350 = {
	name="Aelix"	# a lord
	dynasty=570350

	religion="valyrian_rel"
	culture="eastern_valyrian"

	father=10120350
	mother=20120350

	6565.1.1 = {birth="6565.1.1"}
	6581.1.1 = {add_trait=poor_warrior}
	6583.1.1 = {add_spouse=20140350}
	6640.1.1 = {death="6640.1.1"}
}
20140350 = {
	name="Syaella"
	female=yes

	religion="valyrian_rel"
	culture="eastern_valyrian"

	6565.1.1 = {birth="6565.1.1"}
	6640.1.1 = {death="6640.1.1"}
}
10150350 = {
	name="Elaena"	# not a lord
	female=yes
	dynasty=570350

	religion="valyrian_rel"
	culture="eastern_valyrian"

	father=10120350
	mother=20120350

	6568.1.1 = {birth="6568.1.1"}
	6622.1.1 = {death = {death_reason = death_accident}}
}
10160350 = {
	name="Rhaegar"	# not a lord
	dynasty=570350

	religion="valyrian_rel"
	culture="eastern_valyrian"

	father=10140350
	mother=20140350

	6583.1.1 = {birth="6583.1.1"}
	6599.1.1 = {add_trait=trained_warrior}
	6628.1.1 = {death="6628.1.1"}
}
10170350 = {
	name="Maekar"	# a lord
	dynasty=570350

	religion="valyrian_rel"
	culture="eastern_valyrian"

	father=10140350
	mother=20140350

	6585.1.1 = {birth="6585.1.1"}
	6601.1.1 = {add_trait=trained_warrior}
	6603.1.1 = {add_spouse=20170350}
	6642.1.1 = {death="6642.1.1"}
}
20170350 = {
	name="Rhaeys"
	female=yes

	religion="valyrian_rel"
	culture="eastern_valyrian"

	6585.1.1 = {birth="6585.1.1"}
	6642.1.1 = {death="6642.1.1"}
}
10180350 = {
	name="Rhaelle"	# not a lord
	female=yes
	dynasty=570350

	religion="valyrian_rel"
	culture="eastern_valyrian"

	father=10140350
	mother=20140350

	6588.1.1 = {birth="6588.1.1"}
	6642.1.1 = {death="6642.1.1"}
}
10190350 = {
	name="Vaermon"	# not a lord
	dynasty=570350

	religion="valyrian_rel"
	culture="eastern_valyrian"

	father=10140350
	mother=20140350

	6590.1.1 = {birth="6590.1.1"}
	6606.1.1 = {add_trait=trained_warrior}
	6633.1.1 = {death="6633.1.1"}
}
10200350 = {
	name="Valarr"	# a lord
	dynasty=570350

	religion="valyrian_rel"
	culture="eastern_valyrian"

	father=10170350
	mother=20170350

	6607.1.1 = {birth="6607.1.1"}
	6623.1.1 = {add_trait=trained_warrior}
	6625.1.1 = {add_spouse=20200350}
	6654.1.1 = {death="6654.1.1"}
}
20200350 = {
	name="Rhae"
	female=yes

	religion="valyrian_rel"
	culture="eastern_valyrian"

	6607.1.1 = {birth="6607.1.1"}
	6654.1.1 = {death="6654.1.1"}
}
10210350 = {
	name="Visenya"	# not a lord
	female=yes
	dynasty=570350

	religion="valyrian_rel"
	culture="eastern_valyrian"

	father=10170350
	mother=20170350

	6608.1.1 = {birth="6608.1.1"}
	6642.1.1 = {death="6642.1.1"}
}
10220350 = {
	name="Rhaekar"	# not a lord
	dynasty=570350

	religion="valyrian_rel"
	culture="eastern_valyrian"

	father=10170350
	mother=20170350

	6611.1.1 = {birth="6611.1.1"}
	6627.1.1 = {add_trait=skilled_warrior}
	6664.1.1 = {death="6664.1.1"}
}
10230350 = {
	name="Qoherys"	# a lord
	dynasty=570350

	religion="valyrian_rel"
	culture="eastern_valyrian"

	father=10200350
	mother=20200350

	6628.1.1 = {birth="6628.1.1"}
	6644.1.1 = {add_trait=poor_warrior}
	6646.1.1 = {add_spouse=20230350}
	6679.1.1 = {death="6679.1.1"}
}
20230350 = {
	name="Rhae"
	female=yes

	religion="valyrian_rel"
	culture="eastern_valyrian"

	6628.1.1 = {birth="6628.1.1"}
	6679.1.1 = {death="6679.1.1"}
}
10240350 = {
	name="Daenys"	# not a lord
	female=yes
	dynasty=570350

	religion="valyrian_rel"
	culture="eastern_valyrian"

	father=10200350
	mother=20200350

	6631.1.1 = {birth="6631.1.1"}
	6690.1.1 = {death="6690.1.1"}
}
10250350 = {
	name="Syaella"	# not a lord
	female=yes
	dynasty=570350

	religion="valyrian_rel"
	culture="eastern_valyrian"

	father=10200350
	mother=20200350

	6634.1.1 = {birth="6634.1.1"}
	6696.1.1 = {death="6696.1.1"}
}
10260350 = {
	name="Saenrys"	# not a lord
	female=yes
	dynasty=570350

	religion="valyrian_rel"
	culture="eastern_valyrian"

	father=10200350
	mother=20200350

	6635.1.1 = {birth="6635.1.1"}
	6694.1.1 = {death="6694.1.1"}
}
10270350 = {
	name="Aelinor"	# not a lord
	female=yes
	dynasty=570350

	religion="valyrian_rel"
	culture="eastern_valyrian"

	father=10230350
	mother=20230350

	6663.1.1 = {birth="6663.1.1"}
	6706.1.1 = {death="6706.1.1"}
}
10280350 = {
	name="Rhaegar"	# a lord
	dynasty=570350

	religion="valyrian_rel"
	culture="eastern_valyrian"

	father=10230350
	mother=20230350

	6666.1.1 = {birth="6666.1.1"}
	6682.1.1 = {add_trait=poor_warrior}
	6684.1.1 = {add_spouse=20280350}
	6724.1.1 = {death="6724.1.1"}
}
20280350 = {
	name="Rhaenyra"
	female=yes

	religion="valyrian_rel"
	culture="eastern_valyrian"

	6666.1.1 = {birth="6666.1.1"}
	6724.1.1 = {death="6724.1.1"}
}
10290350 = {
	name="Aenar"	# not a lord
	dynasty=570350

	religion="valyrian_rel"
	culture="eastern_valyrian"

	father=10280350
	mother=20280350

	6700.1.1 = {birth="6700.1.1"}
	6716.1.1 = {add_trait=poor_warrior}
	6721.1.1 = {death="6721.1.1"}
}
10300350 = {
	name="Matarys"	# a lord
	dynasty=570350

	religion="valyrian_rel"
	culture="eastern_valyrian"

	father=10280350
	mother=20280350

	6703.1.1 = {birth="6703.1.1"}
	6719.1.1 = {add_trait=master_warrior}
	6721.1.1 = {add_spouse=20300350}
	6747.1.1 = {death="6747.1.1"}
}
20300350 = {
	name="Allyria"
	female=yes

	religion="valyrian_rel"
	culture="eastern_valyrian"

	6703.1.1 = {birth="6703.1.1"}
	6747.1.1 = {death="6747.1.1"}
}
10310350 = {
	name="Daenys"	# not a lord
	female=yes
	dynasty=570350

	religion="valyrian_rel"
	culture="eastern_valyrian"

	father=10280350
	mother=20280350

	6706.1.1 = {birth="6706.1.1"}
	6750.1.1 = {death="6750.1.1"}
}
10320350 = {
	name="Naerys"	# not a lord
	female=yes
	dynasty=570350

	religion="valyrian_rel"
	culture="eastern_valyrian"

	father=10280350
	mother=20280350

	6707.1.1 = {birth="6707.1.1"}
	6773.1.1 = {death="6773.1.1"}
}
10330350 = {
	name="Cymella"	# not a lord
	female=yes
	dynasty=570350

	religion="valyrian_rel"
	culture="eastern_valyrian"

	father=10300350
	mother=20300350

	6734.1.1 = {birth="6734.1.1"}
	6798.1.1 = {death = {death_reason = death_accident}}
}
10340350 = {
	name="Aemond"	# a lord
	dynasty=570350

	religion="valyrian_rel"
	culture="eastern_valyrian"

	father=10300350
	mother=20300350

	6735.1.1 = {birth="6735.1.1"}
	6751.1.1 = {add_trait=trained_warrior}
	6753.1.1 = {add_spouse=20340350}
	6815.1.1 = {death="6815.1.1"}
}
20340350 = {
	name="Alysanne"
	female=yes

	religion="valyrian_rel"
	culture="eastern_valyrian"

	6735.1.1 = {birth="6735.1.1"}
	6815.1.1 = {death="6815.1.1"}
}
10350350 = {
	name="Cymella"	# not a lord
	female=yes
	dynasty=570350

	religion="valyrian_rel"
	culture="eastern_valyrian"

	father=10340350
	mother=20340350

	6762.1.1 = {birth="6762.1.1"}
	6815.1.1 = {death="6815.1.1"}
}
10360350 = {
	name="Rhaenys"	# not a lord
	female=yes
	dynasty=570350

	religion="valyrian_rel"
	culture="eastern_valyrian"

	father=10340350
	mother=20340350

	6763.1.1 = {birth="6763.1.1"}
	6839.1.1 = {death="6839.1.1"}
}
10370350 = {
	name="Aenys"	# a lord
	dynasty=570350

	religion="valyrian_rel"
	culture="eastern_valyrian"

	father=10340350
	mother=20340350

	6766.1.1 = {birth="6766.1.1"}
	6782.1.1 = {add_trait=poor_warrior}
	6820.1.1 = {death="6820.1.1"}
}
10380350 = {
	name="Gaemon"	# not a lord
	dynasty=570350

	religion="valyrian_rel"
	culture="eastern_valyrian"

	father=10340350
	mother=20340350

	6769.1.1 = {birth="6769.1.1"}
	6785.1.1 = {add_trait=master_warrior}
	6819.1.1 = {death="6819.1.1"}
}

