
###############################################   House Fisher  ####################################################################

600174430 = {
	name="Ryman"	# a lord
	dynasty=174430

	religion="old_gods"
	culture="old_first_man"

	3276.1.1 = {birth="3276.1.1"}
	3292.1.1 = {add_trait=skilled_warrior}
	3294.1.1 = {add_spouse=500174430}
	3323.1.1 = {death="3323.1.1"}
}
500174430 = {
	name="Leana"
	female=yes

	religion="old_gods"
	culture="old_first_man"

	3276.1.1 = {birth="3276.1.1"}
	3323.1.1 = {death="3323.1.1"}
}
601174430 = {
	name="Patrek"	# a lord
	dynasty=174430

	religion="old_gods"
	culture="old_first_man"

	father=600174430
	mother=500174430

	3305.1.1 = {birth="3305.1.1"}
	3321.1.1 = {add_trait=brave add_trait=trained_warrior}
	3323.1.1 = {add_spouse=501174430}
	3331.1.1 = {death="3331.1.1"}
}
501174430 = {
	name="Elyana"
	female=yes

	religion="old_gods"
	culture="old_first_man"

	3305.1.1 = {birth="3305.1.1"}
	3361.1.1 = {death="3361.1.1"}
}
602174430 = {
	name="Hosteen"	# not a lord
	dynasty=174430

	religion="old_gods"
	culture="old_first_man"

	father=600174430
	mother=500174430

	3307.1.1 = {birth="3307.1.1"}
	3323.1.1 = {add_trait=brave add_trait=trained_warrior}
	3325.1.1 = {death="3325.1.1"}
}
603174430 = {
	name="Ryton"	# not a lord
	dynasty=174430

	religion="old_gods"
	culture="old_first_man"

	father=600174430
	mother=500174430

	3310.1.1 = {birth="3310.1.1"}
	3326.1.1 = {add_trait=brave add_trait=poor_warrior}
	3388.1.1 = {death="3388.1.1"}
}
605174430 = {
	name="Addan"	# a lord River King who lost his sons to the Ironborn.
	dynasty=174430

	religion="old_gods"
	culture="old_first_man"

	father=601174430
	mother=501174430

	3330.1.1 = {birth="3330.1.1"}
	3352.1.1 = {add_spouse=505174430}
	3386.1.1 = {death="3386.1.1"}
}
505174430 = {
	name="Alyssa"
	female=yes

	religion="old_gods"
	culture="old_first_man"

	3334.1.1 = {birth="3334.1.1"}
	3388.1.1 = {death="3388.1.1"}
}
606174430 = {
	name="Wyman"	# not a lord
	dynasty=174430

	religion="old_gods"
	culture="old_first_man"

	father=605174430
	mother=505174430

	3354.1.1 = {birth="3354.1.1"}
	3370.1.1 = {add_trait=brave add_trait=trained_warrior}
	3378.1.1 = {death = {death_reason = death_murder}} # Murder at the Bloody Keep of Pyke
}
607174430 = {
	name="Meribald"	# not a lord
	dynasty=174430

	religion="old_gods"
	culture="old_first_man"

	father=605174430
	mother=505174430

	3357.1.1 = {birth="3357.1.1"}
	3373.1.1 = {add_trait=brave add_trait=trained_warrior}
	3378.1.1 = {death = {death_reason = death_murder}} # Murder at the Bloody Keep of Pyke
}
608174430 = {
	name="Wyllis"	# not a lord
	dynasty=174430

	religion="old_gods"
	culture="old_first_man"

	father=605174430
	mother=505174430

	3355.1.1 = {birth="3355.1.1"}
	3371.1.1 = {add_trait=brave add_trait=trained_warrior}
	3378.1.1 = {death = {death_reason = death_murder}} # Murder at the Bloody Keep of Pyke
}
609174430 = {
	name="Raymond"	# not a lord
	dynasty=174430

	religion="old_gods"
	culture="old_first_man"

	father=605174430
	mother=505174430

	3365.1.1 = {birth="3365.1.1"}
	3377.1.1 = {death = {death_reason = death_battle}} # Killed in battle by the Ironborn
}
610174430 = {
	name="Symond"	# not a lord
	dynasty=174430

	religion="old_gods"
	culture="old_first_man"

	father=605174430
	mother=505174430

	3370.1.1 = {birth="3370.1.1"}
	3378.1.1 = {death = {death_reason = death_murder}} # Murder at the Bloody Keep of Pyke
}
611174430 = {
	name="Shella"	# not a lord
	female=yes
	dynasty=174430

	religion="old_gods"
	culture="old_first_man"

	father=605174430
	mother=505174430

	3361.1.1 = {birth="3361.1.1"}
	3390.1.1 = {death="3390.1.1"}
}
511174430 = {
	name="Criston"

	religion="old_gods"
	culture="old_first_man"

	3361.1.1 = {birth="3361.1.1"}
	3377.1.1 = {add_trait=poor_warrior}
	3379.1.1 = {add_spouse=611174430}
	3390.1.1 = {death="3390.1.1"}
}
612174430 = {
	name="Tristan"	# a lord
	dynasty=174430

	religion="old_gods"
	culture="old_first_man"

	father=511174430
	mother=611174430

	3379.1.1 = {birth="3379.1.1"}
	3395.1.1 = {add_trait=brave add_trait=skilled_warrior}
	3397.1.1 = {add_spouse=512174430}
	3408.1.1 = {death="3408.1.1"}
}
512174430 = {
	name="Jayne"
	female=yes

	religion="old_gods"
	culture="old_first_man"

	3379.1.1 = {birth="3379.1.1"}
	3408.1.1 = {death="3408.1.1"}
}
613174430 = {
	name="Eyman"	# a lord
	dynasty=174430

	religion="old_gods"
	culture="old_first_man"

	father=612174430
	mother=512174430

	3399.1.1 = {birth="3399.1.1"}
	3415.1.1 = {add_trait=brave add_trait=skilled_warrior}
	3417.1.1 = {add_spouse=513174430}
	3442.1.1 = {death = {death_reason = death_battle}}
}
513174430 = {
	name="Masha"
	female=yes

	religion="old_gods"
	culture="old_first_man"

	3399.1.1 = {birth="3399.1.1"}
	3442.1.1 = {death="3442.1.1"}
}
614174430 = {
	name="Edmure"	# a lord
	dynasty=174430

	religion="old_gods"
	culture="old_first_man"

	father=613174430
	mother=513174430

	3430.1.1 = {birth="3430.1.1"}
	3446.1.1 = {add_trait=brave add_trait=poor_warrior}
	3456.1.1 = {
		add_trait=assign_mission_target #for house customiser linking
		death = {death_reason = death_murder}
	}
}




#######################################   House Mudd  ##############################################################

600174399 = {
	name="Tristan"	# a lord
	dynasty=174399

	religion="old_gods"
	culture="old_first_man"

	5901.1.1 = {birth="5901.1.1"}
	5917.1.1 = {add_trait=master_warrior}
	5981.1.1 = {death="5981.1.1"}
}
601174399 = {
	name="Addam"	# a lord
	dynasty=174399

	religion="old_gods"
	culture="old_first_man"

	father=600174399

	5935.1.1 = {birth="5935.1.1"}
	5951.1.1 = {add_trait=trained_warrior}
	6000.1.1 = {death="6000.1.1"}
}
604174399 = {
	name="Tristifer"	# canon, a lord
	dynasty=174399

	religion="old_gods"
	culture="old_first_man"

	father=601174399

	5962.1.1 = {birth="5962.1.1"}
	5978.1.1 = {add_trait=trained_warrior}
	5980.1.1 = {add_spouse=504174399}
	6034.1.1 = {death = {death_reason = death_murder}}
}
504174399 = {
	name="Perriane"
	female=yes

	religion="old_gods"
	culture="old_first_man"

	5962.1.1 = {birth="5962.1.1"}
	6034.1.1 = {death="6034.1.1"}
}
605174399 = {
	name="Tristan"	# a lord
	dynasty=174399

	religion="old_gods"
	culture="old_first_man"

	father=604174399
	mother=504174399

	5982.1.1 = {birth="5982.1.1"}
	5998.1.1 = {add_trait=skilled_warrior}
	6000.1.1 = {add_spouse=505174399}
	6072.1.1 = {death="6072.1.1"}
}
505174399 = {
	name="Sharna"
	female=yes

	religion="old_gods"
	culture="old_first_man"

	5982.1.1 = {birth="5982.1.1"}
	6072.1.1 = {death="6072.1.1"}
}
606174399 = {
	name="Willam"	# not a lord
	dynasty=174399

	religion="old_gods"
	culture="old_first_man"

	father=604174399
	mother=504174399

	5985.1.1 = {birth="5985.1.1"}
	6001.1.1 = {add_trait=skilled_warrior}
	6003.1.1 = {add_spouse=506174399}
	6024.1.1 = {death="6024.1.1"}
}
506174399 = {
	name="Sarya"
	female=yes

	religion="old_gods"
	culture="old_first_man"

	5985.1.1 = {birth="5985.1.1"}
	6024.1.1 = {death="6024.1.1"}
}
607174399 = {
	name="Jeyne"	# not a lord
	female=yes
	dynasty=174399

	religion="old_gods"
	culture="old_first_man"

	father=605174399
	mother=505174399

	6001.1.1 = {birth="6001.1.1"}
	6028.1.1 = {death = {death_reason = death_accident}}
}
609174399 = {
	name="Edmure"	# a lord
	dynasty=174399

	religion="old_gods"
	culture="old_first_man"

	father=606174399
	mother=506174399

	6007.1.1 = {birth="6007.1.1"}
	6023.1.1 = {add_trait=trained_warrior}
	6070.1.1 = {death="6070.1.1"}
}
610174399 = {
	name="Tristifer"	# canon, a lord
	dynasty=174399

	religion="old_gods"
	culture="old_first_man"

	father=609174399

	6028.1.1 = {birth="6028.1.1"}
	6044.1.1 = {add_trait=trained_warrior}
	6122.1.1 = {death = {death_reason = death_accident}}
}
611174399 = {
	name="Roslin"	# a lord
	female=yes
	dynasty=174399

	religion="old_gods"
	culture="old_first_man"

	father=610174399

	6050.1.1 = {birth="6050.1.1"}
	6141.1.1 = {death="6141.1.1"}
}
612174399 = {
	name="Addam"	# not a lord
	dynasty=174399

	religion="old_gods"
	culture="old_first_man"

	mother=611174399

	6070.1.1 = {birth="6070.1.1"}
	6086.1.1 = {add_trait=trained_warrior}
	6100.1.1 = {death="6100.1.1"}
}
613174399 = {
	name="Tristan"	# a lord
	dynasty=174399

	religion="old_gods"
	culture="old_first_man"

	father=612174399

	6098.1.1 = {birth="6098.1.1"}
	6114.1.1 = {add_trait=poor_warrior}
	6150.1.1 = {death="6150.1.1"}
}
614174399 = {
	name="Jon"	# a lord
	dynasty=174399

	religion="old_gods"
	culture="old_first_man"

	father=613174399

	6119.1.1 = {birth="6119.1.1"}
	6135.1.1 = {add_trait=trained_warrior}
	6165.1.1 = {death = {death_reason = death_accident}}
}
615174399 = {
	name="Tristan"	# not a lord
	dynasty=174399

	religion="old_gods"
	culture="old_first_man"

	father=613174399

	6121.1.1 = {birth="6121.1.1"}
	6137.1.1 = {add_trait=trained_warrior}
	6180.1.1 = {death="6180.1.1"}
}
617174399 = {
	name="Hosteen"	# a lord
	dynasty=174399

	religion="old_gods"
	culture="old_first_man"

	father=614174399

	6150.1.1 = {birth="6150.1.1"}
	6166.1.1 = {add_trait=poor_warrior}
	6226.1.1 = {death="6226.1.1"}
}
618174399 = {
	name="Addan"	# a lord
	dynasty=174399

	religion="old_gods"
	culture="old_first_man"

	father=617174399

	6178.1.1 = {birth="6178.1.1"}
	6194.1.1 = {add_trait=poor_warrior}
	6261.1.1 = {death = {death_reason = death_battle}}
}
619174399 = {
	name="Tristan"	# a lord
	dynasty=174399

	religion="old_gods"
	culture="old_first_man"

	father=618174399

	6212.1.1 = {birth="6212.1.1"}
	6228.1.1 = {add_trait=skilled_warrior}
	6266.1.1 = {death="6266.1.1"}
}
621174399 = {
	name="Addan"	# a lord
	dynasty=174399

	religion="old_gods"
	culture="old_first_man"

	father=619174399

	6235.1.1 = {birth="6235.1.1"}
	6251.1.1 = {add_trait=trained_warrior}
	6291.1.1 = {death="6291.1.1"}
}
622174399 = {
	name="Marq"	# a lord
	dynasty=174399

	religion="old_gods"
	culture="old_first_man"

	father=621174399

	6262.1.1 = {birth="6262.1.1"}
	6278.1.1 = {add_trait=trained_warrior}
	6318.1.1 = {death="6318.1.1"}
}
623174399 = {
	name="Sylla"	# not a lord
	female=yes
	dynasty=174399

	religion="old_gods"
	culture="old_first_man"

	father=622174399

	6288.1.1 = {birth="6288.1.1"}
	6296.1.1 = {death="6296.1.1"}
}
624174399 = {
	name="Tristifer"	# canon, a lord
	dynasty=174399

	religion="old_gods"
	culture="old_first_man"

	father=622174399

	6290.1.1 = {birth="6290.1.1"}
	6306.1.1 = {add_trait=poor_warrior}
	6344.1.1 = {death="6344.1.1"}
}
625174399 = {
	name="Tyston"	# a lord
	dynasty=174399

	religion="old_gods"
	culture="old_first_man"

	father=624174399

	6310.1.1 = {birth="6310.1.1"}
	6326.1.1 = {add_trait=trained_warrior}
	6349.1.1 = {death="6349.1.1"}
}
626174399 = {
	name="Della"	# not a lord
	female=yes
	dynasty=174399

	religion="old_gods"
	culture="old_first_man"

	father=624174399

	6311.1.1 = {birth="6311.1.1"}
	6365.1.1 = {death="6365.1.1"}
}
628174399 = {
	name="Brynden"	# a lord
	dynasty=174399

	religion="old_gods"
	culture="old_first_man"

	father=625174399

	6337.1.1 = {birth="6337.1.1"}
	6353.1.1 = {add_trait=skilled_warrior}
	6390.1.1 = {death="6390.1.1"}
}
629174399 = {
	name="Tristan"	# a lord
	dynasty=174399

	religion="old_gods"
	culture="old_first_man"

	father=628174399

	6362.1.1 = {birth="6362.1.1"}
	6378.1.1 = {add_trait=poor_warrior}
	6402.1.1 = {death="6402.1.1"}
}
630174399 = {
	name="Roslin"	# a lord
	female=yes
	dynasty=174399

	religion="old_gods"
	culture="old_first_man"

	father=629174399

	6393.1.1 = {birth="6393.1.1"}
	6453.1.1 = {death="6453.1.1"}
}
631174399 = {
	name="Brynden"	# a lord
	dynasty=174399

	religion="old_gods"
	culture="old_first_man"

	mother=630174399

	6421.1.1 = {birth="6421.1.1"}
	6437.1.1 = {add_trait=skilled_warrior}
	6475.1.1 = {death="6475.1.1"}
}
633174399 = {
	name="Addan"	# a lord
	dynasty=174399

	religion="old_gods"
	culture="old_first_man"

	father=631174399

	6447.1.1 = {birth="6447.1.1"}
	6463.1.1 = {add_trait=poor_warrior}
	6497.1.1 = {death="6497.1.1"}
}
634174399 = {
	name="Tristan"	# a lord
	dynasty=174399

	religion="old_gods"
	culture="old_first_man"

	father=633174399

	6474.1.1 = {birth="6474.1.1"}
	6490.1.1 = {add_trait=skilled_warrior}
	6535.1.1 = {death="6535.1.1"}
}
635174399 = {
	name="Arson"	# a lord
	dynasty=174399

	religion="old_gods"
	culture="old_first_man"

	father=634174399

	6493.1.1 = {birth="6493.1.1"}
	6509.1.1 = {add_trait=poor_warrior}
	6558.1.1 = {death="6558.1.1"}
}
637174399 = {
	name="Brynden"	# a lord
	dynasty=174399

	religion="old_gods"
	culture="old_first_man"

	father=635174399

	6515.1.1 = {birth="6515.1.1"}
	6531.1.1 = {add_trait=trained_warrior}
	6572.1.1 = {death="6572.1.1"}
}
640174399 = {
	name="Tristan"	# a lord
	dynasty=174399

	religion="old_gods"
	culture="old_first_man"

	father=637174399

	6566.1.1 = {birth="6566.1.1"}
	6582.1.1 = {add_trait=trained_warrior}
	6620.1.1 = {death="6620.1.1"}
}
642174399 = {
	name="Elmar"	# not a lord
	dynasty=174399

	religion="old_gods"
	culture="old_first_man"

	father=640174399

	6580.1.1 = {birth="6580.1.1"}
	6596.1.1 = {add_trait=brave add_trait=trained_warrior}
	6635.1.1 = {death="6635.1.1"}
}

643174399 = {
	name="Tristifer"	# canon, Fourth of his name. The Hammer of Justice
	dynasty=174399

	religion="old_gods"
	culture="old_first_man"
	
	add_trait=strong
	add_trait=quick
	
	diplomacy=2
	martial=18
	stewardship=10
	intrigue=8
	learning=9

	father=642174399

	6607.1.1 = {birth="6607.1.1"}
	6623.1.1 = {add_trait=just add_trait=master_warrior add_trait=brilliant_strategist}
	6626.1.1 = {add_trait=defensive_leader add_trait=brave add_trait=proud add_trait=diligent}
	6633.1.1 = {add_trait=zealous give_nickname=nick_the_Hammer_of_Justice}
	6651.1.1 = {death= {death_reason = death_battle}} # 100th Battle, like a Boss
}
644174399 = {
	name="Tristifer"	# canon, Fifth of his name. Last of his line.
	dynasty=174399

	religion="old_gods"
	culture="old_first_man"
	
	martial=2

	father=643174399
	
	add_trait=weak

	6630.1.1 = {birth="6630.1.1"}
	6646.1.1 = {add_trait=poor_warrior}
	6670.1.1 = {
		death="6670.1.1"
		give_nickname=nick_the_last
	}
}


##################################################################   House Piper  #######################################################

2157 = {
	name="Edwyn"
	dynasty=157
	
	religion="old_gods"
	culture="old_first_man"
	
	father=3157
	
	6702.1.1 = {birth="6702.1.1"}
	6752.1.1 = {death="6752.1.1"}
}
6000157 = {
	name="Allen"
	dynasty=157
	
	religion="old_gods"
	culture="old_first_man"
	
	father=3157
	
	6707.1.1 = {birth="6707.1.1"}
	6752.1.1 = {death="6752.1.1"}
}
6100157 = {
	name="Mandon"
	dynasty=157
	
	religion="old_gods"
	culture="old_first_man"
	
	father=6000157
	
	6736.1.1 = {birth="6736.1.1"}
	6760.1.1 = {death= {death_reason = death_battle}}
}
3157 = {
	name="Roland"
	dynasty=157
	
	religion="old_gods"
	culture="old_first_man"
	
	father=4157
	
	6683.1.1 = {birth="6683.1.1"}
	6744.1.1 = {death="6744.1.1"}
}
4157 = {
	name="Manfred"
	dynasty=157
	
	religion="old_gods"
	culture="old_first_man"
	
	father=5157
	
	6662.1.1 = {birth="6662.1.1"}
	6715.1.1 = {death="6715.1.1"}
}
5157 = {
	name="Alyn"
	dynasty=157
	
	religion="old_gods"
	culture="old_first_man"
	
	father=6157
	
	6639.1.1 = {birth="6639.1.1"}
	6692.1.1 = {death="6692.1.1"}
}
6157 = {
	name="Marq"
	dynasty=157
	
	religion="old_gods"
	culture="old_first_man"
	
	father=7157
	
	6622.1.1 = {birth="6622.1.1"}
	6669.1.1 = {death="6669.1.1"}
}
7157 = {
	name="Willis"
	dynasty=157
	
	religion="old_gods"
	culture="old_first_man"
	
	father=8157
	
	6597.1.1 = {birth="6597.1.1"}
	6656.1.1 = {death="6656.1.1"}
}
8157 = {
	name="Willem" # Killed by Vermithor in at the second battle of Tumbleton
	dynasty=157
	
	religion="old_gods"
	culture="old_first_man"
	
	father=9157
	
	6572.1.1 = {birth="6572.1.1"}
	6608.5.8 = {death="6608.5.8"}
}
9157 = {
	name="Cosgrove"
	dynasty=157
	
	religion="old_gods"
	culture="old_first_man"
	
	father=10099157
	
	6545.1.1 = {birth="6545.1.1"}
	6602.1.1 = {death="6602.1.1"}
}
10099157 = {
	name="Lucan" #Not a Lord Piper
	dynasty=157
	
	religion="old_gods"
	culture="old_first_man"
	
	father=11157
	
	6519.1.1 = {birth="6519.1.1"}
	6557.1.1 = {death="6557.1.1"}
}
11157 = {
	name="Whalen"
	dynasty=157
	
	religion="old_gods"
	culture="old_first_man"
	
	father=12157
	
	6499.1.1 = {birth="6499.1.1"}
	6573.1.1 = {death="6573.1.1"}
}
12157 = {
	name="Jonothor"
	dynasty=157
	
	religion="old_gods"
	culture="old_first_man"
	
	father=13157
	
	6474.1.1 = {birth="6474.1.1"}
	6530.1.1 = {death="6530.1.1"}
}
13157 = {
	name="Theomar"
	dynasty=157
	
	religion="old_gods"
	culture="old_first_man"
	
	father=14157
	mother=17157
	
	6458.1.1 = {birth="6458.1.1"}
	6515.1.1 = {death="6515.1.1"}
}
14157 = {
	name="Alyn"
	dynasty=157
	
	religion="old_gods"
	culture="old_first_man"
	
	6433.1.1 = {birth="6433.1.1"}
	6457.1.1 = {add_spouse=17157}
	6486.1.1 = {death="6486.1.1"}
}
15157 = {
	name="Jammos"
	dynasty=157
	
	religion="old_gods"
	culture="old_first_man"
	
	father=14157
	mother=17157
	
	6461.1.1 = {birth="6461.1.1"}
	6520.1.1 = {death="6520.1.1"}
}
16157 = {
	name="Emberlei"
	female=yes
	dynasty=157
	
	religion="old_gods"
	culture="old_first_man"
	
	father=14157
	mother=17157
	
	6467.1.1 = {birth="6467.1.1"}
	6496.1.1 = {death="6496.1.1"}
}
17157 = {
	name="Leana"
	female=yes

	religion="old_gods"	
	culture="old_first_man"

	6441.1.1 = {birth="6441.1.1"}
	6487.1.1 = {death="6487.1.1"}
}


#####################################################################   House Mooton    #############################################################

#Petty Kings of Maidenpool
501138 = {
	name="Florian"
	dynasty=138
	
	religion="old_gods"
	culture="old_first_man"
		
	6435.1.1 = {birth="6435.1.1"}
	6451.1.1 = {
		add_trait=trained_warrior
	}
	6488.1.1 = {death="6488.1.1"}
}
502138 = {
	name="Florian"
	dynasty=138
	
	religion="old_gods"
	culture="old_first_man"
	
	father=501138
		
	6467.1.1 = {birth="6467.1.1"}
	6483.1.1 = {
		add_trait=trained_warrior
	}
	6505.1.1 = {death="6505.1.1"}
}
503138 = {
	name="Florian"
	dynasty=138
	
	religion="old_gods"
	culture="old_first_man"
	
	father=502138
		
	6489.1.1 = {birth="6489.1.1"}
	6505.1.1 = {
		add_trait=poor_warrior
	}
	6527.1.1 = {death="6527.1.1"}
}
504138 = {
	name="Florian"
	dynasty=138
	
	religion="old_gods"
	culture="old_first_man"
	
	father=503138
		
	6517.1.1 = {birth="6517.1.1"}
	6533.1.1 = {
		add_trait=trained_warrior
	}
	6538.1.1 = {death="6538.1.1"}
}

505138 = {
	name="Florian"
	dynasty=138
	
	religion="old_gods"
	culture="old_first_man"
	
	father=504138
	
	add_trait=brave
	
	6534.1.1 = {birth="6534.1.1"}
	6540.1.1 = {
		death= {
			death_reason =death_battle
		}
	}
}
507138 = { 
	name="Humfrey"
	
	religion="old_gods"
	culture="old_first_man"
	
	add_trait=strong
	add_trait=skilled_tactician
	
	5750.1.1 = {birth="5750.1.1"}
	5766.1.1 = {
		add_trait=skilled_warrior
		add_trait=brave
	}
	5803.1.1 = {death="5803.1.1"}
}
509138 = {
	name="Petyr"
	dynasty=138
	
	religion="old_gods"
	culture="old_first_man"
	
	6405.1.1 = {birth="6405.1.1"}
	6421.1.1 = {
		add_trait=trained_warrior
		add_trait=brave
	}
	6454.1.1 = {death="6454.1.1"}
}
###

11138 = {
	name="Olyvar"
	dynasty=138
	
	religion="old_gods"
	culture="old_first_man"
	
	father=12138
	
	6707.1.1 = {birth="6707.1.1"}
	6753.1.1 = {death="6753.1.1"}
}
12138 = {
	name="Geremy"
	dynasty=138
	
	religion="old_gods"
	culture="old_first_man"
	
	father=14138
	mother=404138
	
	6686.1.1 = {birth="6686.1.1"}
	6741.1.1 = {death="6741.1.1"}
}
13138 = {
	name="Lyman" #Current Lord's Father, never Lord himself
	dynasty=138
	
	religion="old_gods"
	culture="old_first_man"
	
	father=14138
	mother=404138
	
	6691.1.1 = {birth="6691.1.1"}
	6751.1.1 = {death="6751.1.1"}
}

14138 = {
	name="Edmure"
	dynasty=138
	
	religion="old_gods"
	culture="old_first_man"
	
	father=17138
	
	6654.1.1 = {birth="6654.1.1"}
	6670.1.1 = {add_trait=brave}
	6684.1.1 = {add_spouse=404138}
	6718.1.1 = {death="6718.1.1"}
}
404138 = {
	name="Perriane"
	female=yes
	
	religion="old_gods"
	culture="old_first_man"
	
	6658.1.1 = {birth="6658.1.1"}
	6711.1.1 = {death="6711.1.1"}
}
17138 = {
	name="Bryar"
	dynasty=138
	
	religion="old_gods"
	culture="old_first_man"
	
	father=16138 # Eusan Mooton
	
	6621.1.1 = {birth="6621.1.1"}
	6633.1.1 = {add_trait=squire}
	6637.1.1 = {add_trait=brave remove_trait=squire add_trait=trained_warrior}
	6654.1.1 = {death= {death_reason = death_accident}}
}
15138 = {
	name="Cormond"
	dynasty=138
	
	religion="old_gods"
	culture="old_first_man"
	
	father=16138 # Eusan Mooton
	
	6628.1.1 = {birth="6628.1.1"}
	6638.1.1 = {add_trait=squire}
	6644.1.1 = {add_trait=brave remove_trait=squire add_trait=trained_warrior}
	6668.1.1 = {death="6668.1.1"}
}
16138 = {
	name="Euson" 
	dynasty=138
	
	religion="old_gods"
	culture="old_first_man"
	
	father=18138 # Gaston Mooton
	
	6598.1.1 = {birth="6598.1.1"}
	6635.12.1 = {death= {death_reason =death_battle}}
}
10040138 = {
	name="Rormund" 
	dynasty=138
	
	religion="old_gods"
	culture="old_first_man"
	
	father=18138 # Gaston Mooton
	
	6601.1.1 = {birth="6601.1.1"}
	6618.1.1 = {add_trait=brave}
	6643.1.8 = {death = {death_reason = death_trait}}
}

###Mooton line continued###
18138 = {
	name="Gaston" 
	dynasty=138
	
	religion="old_gods"
	culture="old_first_man"
	
	father=19138 # Kirth Mooton
	mother=450138
	
	6578.1.1 = {birth="6578.1.1"}
	6645.1.1 = {death="6645.1.1"}
}
560138 = {
	name="Walys" # Eldest son of Kirth Mooton
	dynasty=138
	
	religion="old_gods"
	culture="old_first_man"
	
	father=19138 # Kirth Mooton
	mother=450138
	
	6575.1.1 = {birth="6575.1.1"}
	6607.5.1 = {death= {death_reason =death_battle}} # Dance of Dragons
}	
570138 = {
	name="Manfyrd" # Second son of Kirth Mooton
	dynasty=138
	
	religion="old_gods"
	culture="old_first_man"
	
	father=19138 # Kirth Mooton
	mother=450138
	
	6577.1.1 = {birth="6577.1.1"}
	6612.5.8 = {death="6612.5.8"} 
}

19138 = {
	name="Kirth" # Not a Lord Mooton
	dynasty=138
	
	religion="old_gods"
	culture="old_first_man"
	
	father=20138
	
	6545.1.1 = {birth="6545.1.1"}
	6567.1.1 = {add_spouse=450138}
	6589.1.1 = {death="6589.1.1"}
}
450138 = {
	name="Dalenna" #
	female=yes
	
	religion="old_gods"
	culture="old_first_man"
	
	6551.1.1 = {birth="6551.1.1"}
	6596.1.1 = {death="6596.1.1"}
}
550138 = {
	name="Austen" 
	dynasty=138
	
	religion="old_gods"
	culture="old_first_man"
	
	father=20138
	
	6547.1.1 = {birth="6547.1.1"}
	6593.7.8 = {death= {death_reason = death_rabble}}
}
20138 = {
	name="Ryger" 
	dynasty=138
	
	religion="old_gods"
	culture="old_first_man"
	
	father=21138
	
	6525.1.1 = {birth="6525.1.1"}
	6592.1.1 = {death="6592.1.1"}
}
21138 = {
	name="Jared"
	dynasty=138
	
	religion="old_gods"
	culture="old_first_man"
	
	father=22138
	
	6494.1.1 = {birth="6494.1.1"}
	6550.1.1 = {death="6550.1.1"}
}
22138 = {
	name="Meribald"
	dynasty=138
	
	religion="old_gods"
	culture="old_first_man"
	
	father=24138
	
	6468.1.1 = {birth="6468.1.1"}
	6517.1.1 = {death="6517.1.1"}
}
23138 = {
	name="Edwyn"
	dynasty=138
	
	add_trait=proud
	
	religion="old_gods"
	culture="old_first_man"
	
	father=250138
		
	6446.1.1 = {birth="6446.1.1"}
	6462.1.1 = {
		add_trait = brave
		add_trait = trained_warrior
	}
	6476.2.1 = {death="6476.2.1"}
}
24138 = {
	name="Jon"
	dynasty=138
	
	martial = 7
	
	add_trait=tough_soldier
	add_trait=ambitious
	
	religion="old_gods"
	culture="old_first_man"
	
	father=250138
		
	6448.1.1 = {birth="6448.1.1"}
	6462.1.1 = {
		add_trait = brave
		add_trait = skilled_warrior
	}
	6493.1.1 = {death="6493.1.1"}
}
250138 = {
	name="Manfred"
	dynasty=138
	
	religion="old_gods"
	culture="old_first_man"
	
	father=509138
		
	6427.1.1 = {birth="6427.1.1"}
	6443.1.1 = {
		add_trait = brave
		add_trait = poor_warrior
	}
	6463.1.1 = {death="6463.1.1"}
}


#######################################################################   House Darry   #########################################################

103137 = {
	name="Edwyn" #Not a Lord Darry
	dynasty=137
	
	religion="old_gods"
	culture="old_first_man"
	
	father=104137 # Merrett Darry
	
	6676.1.1 = {birth="6676.1.1"}
	6741.1.1 = {death="6741.1.1"}
}
104137 = {
	name="Merrett"
	dynasty=137
	
	religion="old_gods"
	culture="old_first_man"
	
	father=105137 # Jorin Darry
	mother=4500137
	
	6649.1.1 = {birth="6649.1.1"}
	6716.1.1 = {death="6716.1.1"}
}
5750137 = {
	name="Kenric"
	dynasty=137
	
	religion="old_gods"
	culture="old_first_man"
	
	father=105137 # Jorin Darry
	mother=4500137
	
	6650.1.1 = {birth="6650.1.1"}
	6674.1.6 = {death= {death_reason = death_battle}}
}
105137 = {
	name="Jorin" # Heir of Darry at the time of Dornish Conquest, after his father Desmond was killed.
	dynasty=137
	
	religion="old_gods"
	culture="old_first_man"
	
	father=106137 # Desmond Darry
	
	6625.1.1 = {birth="6625.1.1"}
	6645.1.1 = {add_spouse=4500137}
	6681.1.1 = {death="6681.1.1"}
}
4500137 = {
	name="Jannia" # 
	female=yes
	
	religion="old_gods"
	culture="old_first_man"
	
	
	6628.1.1 = {birth="6628.1.1"}
	6677.1.1 = {death="6677.1.1"}
}
5540137 = {
	name="Eddyn" # 
	dynasty=137
	
	religion="old_gods"
	culture="old_first_man"
	
	father=106137 # Desmond Darry
	
	6629.1.1 = {birth="6629.1.1"}
	6674.1.5 = {death= {death_reason = death_battle}}
}
5650137 = {
	name="Amyra" #
	dynasty=137
	female=yes
	
	religion="old_gods"
	culture="old_first_man"
	
	father=106137 # Desmond Darry
	
	6632.1.1 = {birth="6632.1.1"}
	6672.1.1 = {death= {death_reason = death_accident}}
}
106137 = {
	name="Desmond"
	dynasty=137
	
	religion="old_gods"
	culture="old_first_man"
	
	father=107137 # Roland Darry
	
	6603.1.1 = {birth="6603.1.1"}
	6618.1.1 = {add_trait=brave add_trait=skilled_warrior}
	6636.8.1 = {death= {death_reason = death_battle}} # Dorne
}
5710137 = {
	name="Olvar" 
	dynasty=137
	
	diplomacy=6
	
	religion="old_gods"
	culture="old_first_man"
	
	father=107137 # Roland Darry
	
	6608.1.1 = {birth="6608.1.1"}
	6624.1.1 = {add_trait=brave add_trait=skilled_warrior}
	6644.10.7 = {death= {death_reason = death_battle}}
}
###Darry line Continued###
5720137 = {
	name="Madden"
	dynasty=137
	
	
	religion="old_gods"
	culture="old_first_man"
	
	father=107137 # Roland Darry
	
	6611.1.1 = {birth="6611.1.1"}
	6627.1.1 = {add_trait=brave add_trait=trained_warrior}
	6651.10.7 = {add_trait=ill death= {death_reason = death_trait}}
}
5680137 = {
	name="Cerena" 
	dynasty=137
	female=yes
	
	religion="old_gods"
	culture="old_first_man"
	
	father=107137 # Roland Darry
	
	6612.1.1 = {birth="6612.1.1"}
	6649.1.1 = {death="6649.1.1"}
}
5700137 = {
	name="Estion" # 
	dynasty=137
	
	diplomacy=9
	learning=5
	
	religion="old_gods"
	culture="old_first_man"
	
	father=107137 # Roland Darry
	
	6618.1.1 = {birth="6618.1.1"}
	6634.1.1 = {add_trait=septon add_trait=kind add_trait=charitable}
	6634.10.7 = {death= {death_reason = death_accident}} # Crushed by a cart
}
107137 = {
	name="Roland"
	dynasty=137
	
	religion="old_gods"
	culture="old_first_man"
	
	father=108137 # Cleos Darry
	mother=4590137
	
	6585.1.1 = {birth="6585.1.1"}
	6646.1.1 = {death="6646.1.1"}
}
5640137 = {
	name="Kelis" #
	dynasty=137
	female=yes
	
	religion="old_gods"
	culture="old_first_man"
	
	father=108137 # Cleos Darry
	mother=4590137
	
	6581.2.1 = {birth="6581.2.1"}
	6603.12.1 = {death= {death_reason=death_dungeon}} # Died in childbirth
}
5500137 = {
	name="Jonothor" 
	dynasty=137
	
	religion="old_gods"
	culture="old_first_man"
	
	father=108137 # Cleos Darry
	mother=4590137
	
	6579.1.1 = {birth="6579.1.1"}
	6607.7.1 = {death= {death_reason = death_battle}}
}
###Jonothor's descendents###
5520137 = {
	name="Alvyn" # Heir to Darry, killed with his father
	dynasty=137
	
	religion="old_gods"
	culture="old_first_man"
	
	father=5500137 # Jonothor Darry
	
	6596.10.8 = {birth="6596.10.8"}
	6607.7.1 = {death= {death_reason = death_battle}}
}
5610137 = {
	name="Rosamund" # Married Carter Vypren
	dynasty=137
	female=yes
	
	religion="old_gods"
	culture="old_first_man"
	
	father=5500137 # Jonothor Darry
	
	6598.1.8 = {birth="6598.1.8"}
	6655.1.4 = {death="6655.1.4"}
}
5620137 = {
	name="Belarra" # Became a Septa
	dynasty=137
	female=yes
	
	learning=10
	
	religion="old_gods"
	culture="old_first_man"
	
	father=5500137 # Jonothor Darry
	
	6604.8.8 = {birth="6604.8.8"}
	6621.4.1 = {add_trait=septa add_trait=celibate add_trait=just}
	6668.1.2 = {death="6668.1.2"}
}
###Darry line continued###
5510137 = {
	name="Derrick" # Younger brother of Jonothor, became Lord after him,
	dynasty=137
	
	religion="old_gods"
	culture="old_first_man"
	
	father=108137 # Cleos Darry
	mother=4590137
	
	6583.1.1 = {birth="6583.1.1"}
	6609.1.5 = {death= {death_reason = death_battle}}
}
5530137 = {
	name="Garth" 
	dynasty=137
	
	religion="old_gods"
	culture="old_first_man"
	
	father=108137 # Cleos Darry
	mother=4590137
	
	6590.1.1 = {birth="6590.1.1"}
	6649.1.5 = {death= {death_reason = death_murder}}
}
###Darry line continued###
108137 = {
	name="Cleos" # a Lord
	dynasty=137
	
	religion="old_gods"
	culture="old_first_man"
	
	father=109137 # Lucias Darry
	mother=4600137
	
	6556.1.1 = {birth="6556.1.1"}
	6577.1.1 = {add_spouse=4590137}
	6578.1.1 = {add_trait=brave add_trait=trained_warrior}
	6595.7.1 = {death= {death_reason = death_accident}}
}
4590137 = {
	name="Arane"
	female=yes

	religion="old_gods"
	culture="old_first_man"

	6558.1.1 = {birth="6558.1.1"}
	6597.1.1 = {death="6597.1.1"}
}
5580137 = {
	name="Oren"	# not a lord, father of Leonylla
	dynasty=137

	religion="old_gods"
	culture="old_first_man"
	
	father=109137 # Lucias Darry
	mother=4600137

	6558.1.1 = {birth="6558.1.1"}
	6576.1.1 = {add_trait=poor_warrior add_trait=brave}
	6578.1.1 = {add_spouse=4580137}
	6608.1.1 = {death= {death_reason =death_battle}}
}
4580137 = {
	name="Roslin"
	female=yes

	religion="old_gods"
	culture="old_first_man"

	6558.1.1 = {birth="6558.1.1"}
	6608.1.1 = {death="6608.1.1"}
}
109137 = {
	name="Lucias" #
	dynasty=137
	
	religion="old_gods"
	culture="old_first_man"
	
	father=110137
	
	6542.1.1 = {birth="6542.1.1"}
	6559.1.1 = {add_spouse=4600137}
	6597.1.1 = {death="6597.1.1"}
}
4600137 = {
	name="Kelisa"
	female=yes

	religion="old_gods"
	culture="old_first_man"

	6538.1.1 = {birth="6538.1.1"}
	6592.1.1 = {death="6592.1.1"}
}
110137 = {
	name="Meribald"
	dynasty=137
	
	religion="old_gods"
	culture="old_first_man"
	
	father=111137
	
	6525.1.1 = {birth="6525.1.1"}
	6578.1.1 = {death="6578.1.1"}
}
111137 = {
	name="Garse"
	dynasty=137
	
	religion="old_gods"
	culture="old_first_man"
	
	father=112137
	
	6505.1.1 = {birth="6505.1.1"}
	6563.1.1 = {death="6563.1.1"}
}
112137 = {
	name="Denys"
	dynasty=137
	
	religion="old_gods"
	culture="old_first_man"
	
	father=113137
	
	6489.1.1 = {birth="6489.1.1"}
	6550.1.1 = {death="6550.1.1"}
}
113137 = {
	name="Androw"
	dynasty=137
	
	religion="old_gods"
	culture="old_first_man"
	
	father=114137
	mother=200137
	
	6473.1.1 = {birth="6473.1.1"}
	6530.1.1 = {death="6530.1.1"}
}
114137 = {
	name="Deremond"
	dynasty=137
	
	religion="old_gods"
	culture="old_first_man"
	
	6446.1.1 = {birth="6446.1.1"}
	6462.1.1 = {add_trait=brave add_trait=master_warrior add_trait=tough_soldier}
	6472.1.1 = {add_spouse=200137}
	6518.1.1 = {death="6518.1.1"}
}
200137 = {
	name="Cyrenna"
	female=yes

	religion="old_gods"	
	culture="old_first_man"

	6456.1.1 = {birth="6456.1.1"}
	6512.1.1 = {death="6512.1.1"}
}


#######################################################################   House Bracken  ####################################################################

7149 = {
	name="Edmyn"
	dynasty=149
	
	religion="old_gods"
	culture="old_first_man"

	add_trait="proud"
	
	
	father=8149
	
	6710.1.1 = {birth="6710.1.1"}
	6749.1.1 = {death="6749.1.1"}
}
8149 = {
	name="Karyl"
	dynasty=149
	
	religion="old_gods"
	culture="old_first_man"

	add_trait="proud"
	
	
	father=9149
	
	6683.1.1 = {
		birth="6683.1.1"
	}
	6756.1.1 = {death="6756.1.1"}
}
175149 = {
	name="Janos"
	dynasty=149
	
	religion="old_gods"
	culture="old_first_man"

	father=10149
	
	6662.1.1 = {
		birth="6662.1.1"
	}
	6678.1.1 = {
		add_trait="brave"
		add_trait="trained_warrior"
	}
	6687.6.1={death="6687.6.1"}
}
9149 = {
	name="Otho"
	dynasty=149
	
	religion="old_gods"
	culture="old_first_man"

	add_trait="proud"
	add_trait="ruthless"
	
	father=10149
	
	6664.1.1 = {
		birth="6664.1.1"
	}
	6680.1.1 = {
		add_trait="brave"
		add_trait="trained_warrior"
	}
	6721.1.1 = {death="6721.1.1"}
}
10149 = {
	name="Whalen"
	dynasty=149
	
	religion="old_gods"
	culture="old_first_man"

	add_trait="proud"
	
	
	father=11149
	
	6644.1.1 = {
		birth="6644.1.1"
	}
	6692.1.1 = {death="6692.1.1"}
}
11149 = {
	name="Harys"
	dynasty=149
	
	religion="old_gods"
	culture="old_first_man"

	add_trait="proud"
	
	
	father=15149
	mother=14149
	
	6616.1.1 = {birth="6616.1.1"}
	6677.1.1 = {death="6677.1.1"}
}
12149 = {
	name="Emmon"
	dynasty=149
	
	religion="old_gods"
	culture="old_first_man"

	add_trait="proud"
	
	
	father=15149
	mother=14149
	
	6610.1.1 = {birth="6610.1.1"}
	6648.1.1 = {death="6648.1.1"}
}

14149 = {
	name="Elyanna"
	female=yes
	
	religion="old_gods"
	culture="old_first_man"
	
	6593.1.1 = {birth="6593.1.1"}
	6657.1.1 = {death="6657.1.1"}
}

15149 = {
	name="Enger" #Lord Bracken
	dynasty=149
	
	religion="old_gods"
	culture="old_first_man"

	add_trait="proud"
	add_trait="ambitious"
	add_trait="familyperson"
	
	father=16149
	
	6590.1.1 = {birth="6590.1.1"}
	6609.1.1 = {add_spouse=14149}
	6656.6.1={death="6656.6.1"}
}
16149 = {
	name="Edmyn"
	dynasty=149
	
	religion="old_gods"
	culture="old_first_man"

	add_trait="proud"
	
	
	father=17149
	
	6572.1.1 = {
		birth="6572.1.1" 
	}
	6641.1.1 = {death="6641.1.1"}
}
17149 = {
	name="Walder"
	dynasty=149
	
	religion="old_gods"
	culture="old_first_man"

	add_trait="proud"
	
	
	father=18149
	
	6551.1.1 = {birth="6551.1.1" }
	6595.1.1 = {death="6595.1.1"}
}
18149 = {
	name="Theomar"
	dynasty=149
	
	religion="old_gods"
	culture="old_first_man"

	add_trait="proud"
	
	father=19149 # Jerion II Bracken
	
	6526.1.1 = {birth="6526.1.1"}
	6580.1.1 = {death="6580.1.1"}
}
60800149 = {
	name="Serelle"
	dynasty=149
	female=yes
	
	religion="old_gods"
	culture="old_first_man"

	add_trait=proud
	
	father=19149 # Jerion II Bracken
	
	6529.1.1 = {birth="6529.1.1"}
	6586.1.1 = {death="6586.1.1"}
}
19149 = {
	name="Jerion" # Lord Bracken 
	dynasty=149
	
	religion="old_gods"
	culture="old_first_man"

	add_trait="proud"
	
	
	father=20149
	mother=40300149
	
	6506.1.1 = {birth="6506.1.1"}
	6551.1.1 = {death="6551.1.1"}
}
60900149 = {
	name="Jeyne" #
	dynasty=149
	female=yes
	
	religion="old_gods"
	culture="old_first_man"

	add_trait="proud"
	
	
	father=20149
	mother=40300149
	
	6508.1.1 = {birth="6508.1.1"}
	6575.1.1 = {death="6575.1.1"}
}
20149 = {
	name="Lucas"
	dynasty=149
	
	religion="old_gods"
	culture="old_first_man"
	
	
	father=21149
	mother=40400149
	
	6486.1.1 = {birth="6486.1.1"}
	6498.1.1 = {add_trait=brave add_trait=trained_warrior add_trait=proud
	add_spouse=40300149}
	6531.1.1 = {death="6531.1.1"}
}
40300149 = {
	name="Jeyne" #
	female=yes
	
	religion="old_gods"
	culture="old_first_man"
	
	
	6485.1.1 = {birth="6485.1.1"}
	6526.1.1 = {death="6526.1.1"}
}
21149 = {
	name="Harys"
	dynasty=149
	
	religion="old_gods"
	culture="old_first_man"

	add_trait="proud"
	
	
	father=22149
	
	6464.1.1 = {birth="6464.1.1"}
	6480.1.1 = {add_spouse=40400149}
	6527.1.1 = {death="6527.1.1"}
}
40400149 = {
	name="Lysanne" #
	female=yes
	
	religion="old_gods"
	culture="old_first_man"
	
	
	6464.1.1 = {birth="6464.1.1"}
	6526.1.1 = {death="6526.1.1"}
}
24149 = {
	name="Androw"
	dynasty=149
	
	religion="old_gods"
	culture="old_first_man"

	add_trait="proud"
	
	
	father=22149
	
	6467.1.1 = {birth="6467.1.1"}
	6512.1.1 = {death="6512.1.1"}
}
25149 = {
	name="Ryella"
	female=yes
	dynasty=149
	
	religion="old_gods"
	culture="old_first_man"

	add_trait="proud"
	
	
	father=22149
	
	6473.1.1 = {birth="6473.1.1"}
	6530.1.1 = {death="6530.1.1"}
}
22149 = {
	name="Addam" 
	dynasty=149
	
	religion="old_gods"
	culture="old_first_man"
	
	father=60000149
	mother=40200149

	
		
	6441.1.1 = {birth="6441.1.1"}
	6491.1.1 = {death="6491.1.1"}
}
60700149 = {
	name="Alyn" # 
	dynasty=149
	
	religion="old_gods"
	culture="old_first_man"
	
	father=60000149
	mother=40200149

	
		
	6445.1.1 = {birth="6445.1.1"}
	6461.1.1 = {add_trait=proud add_trait=brave add_trait=trained_warrior}
	6496.1.1 = {death="6496.1.1"}
}

60000149 = {
	name="Jonos"
	dynasty=149
	
	religion="old_gods"
	culture="old_first_man"
	
	
	father=60200149 # Otho Bracken

	
	6418.1.1 = {birth="6418.1.1"}
	6434.1.1 = {add_trait=proud add_trait=brave add_trait=trained_warrior}
	6438.1.1 = {add_spouse=40200149}
	6464.1.1 = {death="6464.1.1"}
}
40200149 = {
	name="Tania" #
	female=yes
	
	religion="old_gods"
	culture="old_first_man"
	
	
	6420.1.1 = {birth="6420.1.1"}
	6500.1.1 = {death="6500.1.1"}
}
60100149 = {
	name="Hendry" # Not a Lord, without issue
	dynasty=149
	
	religion="old_gods"
	culture="old_first_man"

	
	father=60200149 # Otho Bracken
	
	
	6420.1.1 = {birth="6420.1.1"}
	6446.1.1 = {add_trait=proud add_trait=brave add_trait=trained_warrior}
	6481.1.1 = {death="6481.1.1"}
}
60200149 = {
	name="Otho" 
	dynasty=149
	
	religion="old_gods"
	culture="old_first_man"
	
	father=60300149
	mother=40100149

	
	6397.1.1 = {birth="6397.1.1"}
	6413.1.1 = {add_trait=proud add_trait=brave add_trait=trained_warrior}
	6430.1.1 = {death="6430.1.1"}
}
60300149 = {
	name="Lothar" # A Lord, with issue
	dynasty=149
	
	martial=5
	
	religion="old_gods"
	culture="old_first_man"
	
	father=60400149 # Gerold Bracken
	mother=40000149
	
	add_trait=brave 
	add_trait=ambitious
	add_trait=deceitful
	add_trait=proud 
	add_trait=tough_soldier

	6379.1.1 = {birth="6379.1.1"}
	6395.1.1 = {		
		add_trait=brave 
		add_trait=skilled_warrior 	
	}
	6398.1.1 = {add_spouse=40100149}
	6411.6.1 = {death="6411.6.1"}
}
40100149 = {
	name="Melona" #
	female=yes
	
	religion="old_gods"
	culture="old_first_man"
	
	
	6380.1.1 = {birth="6380.1.1"}
	6440.1.1 = {death="6440.1.1"}
}
60400149 = {
	name="Gerold" # A Lord, with issue
	dynasty=149
	
	religion="old_gods"
	culture="old_first_man"

	6355.1.1 = {birth="6355.1.1"}
	6371.1.1 = {add_trait=proud add_trait=brave add_trait=trained_warrior}
	6374.1.1 = {add_spouse=40000149}
	6394.8.1 = {death="6394.8.1"}
}
40000149 = {
	name="Barba" #
	female=yes
	
	religion="old_gods"
	culture="old_first_man"
	
	
	6358.1.1 = {birth="6358.1.1"}
	6460.1.1 = {death="6460.1.1"}
}


#########################################################################   House Blackwood  #############################################################

20150 = {
	name="Desmond" #Not a Lord Blackwood
	dynasty=150
	
	religion="old_gods"
	culture="old_first_man"

	add_trait="proud"
	add_trait="just"
	
	father=21150
	
	6695.1.1 = {birth="6695.1.1"}
	6711.1.1 = {add_trait="brave"}
	6722.1.1 = {death="6722.1.1"}
}
21150 = {
	name="Bennifer"
	dynasty=150
	
	religion="old_gods"
	culture="old_first_man"
	
	add_trait="proud"
	
	father=22150
	mother=42150
	
	6663.1.1 = {birth="6663.1.1" }
	6679.1.1 = { add_trait="brave" add_trait=trained_warrior }
	6736.1.1 = {death="6736.1.1"}
}
60150150 = {
	name="Roland"
	dynasty=150
	
	religion="old_gods"
	culture="old_first_man"
	
	mother=42150	
	father=22150
	
	6666.1.1 = {birth="6666.1.1" }
	6682.1.1 = { add_trait="brave" add_trait=poor_warrior }
	6711.1.1 = {death="6711.1.1"}
}
22150 = {
	name="Cregon"
	dynasty=150
	
	religion="old_gods"
	culture="old_first_man"
	
	add_trait="proud"
		
	father=26150 # Seth Blackwood
	
	6640.1.1 = {birth="6640.1.1"}
	6656.1.1 = {add_trait="brave" add_trait="skilled_warrior"}
	6663.1.1 = { add_spouse = 42150 }
	6708.1.1 = {death="6708.1.1"}
}
42150 = {
	name="Sylwa"
	female=yes
	
	religion="old_gods"
	culture="old_first_man"
	
	6640.1.1 = {birth="6640.1.1"}
	6708.1.1 = {death="6708.1.1"}
}
23150 = {
	name="Robert" #Brother to Cregon
	dynasty=150
	
	religion="old_gods"
	culture="old_first_man"
	
	add_trait="proud"
	
	father=26150 # Seth Blackwood
	
	6643.1.1 = {birth="6643.1.1"}
	6659.1.1 = {add_trait="brave" add_trait="poor_warrior"}
	6715.1.1 = {death="6715.1.1"}
}
24150 = {
	name="Roger" #Brother to Cregon
	dynasty=150
	
	religion="old_gods"
	culture="old_first_man"
	
	add_trait="proud"
	
	father=26150 # Seth Blackwood
	
	6648.1.1 = {birth="6648.1.1"}
	6664.1.1 = {add_trait="brave" add_trait="trained_warrior"}
	6723.1.1 = {death="6723.1.1"}
}
26150 = {
	name="Seth" # 
	dynasty=150
	
	religion="old_gods"
	culture="old_first_man"
	
	add_trait="proud"
	
	
	father=28150 # Benjicot Blackwood
	
	6616.1.1 = {birth="6616.1.1"}
	6632.1.1 = {add_trait="brave"}
	6683.1.1 = {death="6683.1.1"}
}
300150 = {
	name="Lorence" # Brother of Seth
	dynasty=150
	
	religion="old_gods"
	culture="old_first_man"
	
	add_trait="proud"
	
	
	father=28150 # Benjicot Blackwood
	
	6624.1.1 = {birth="6624.1.1"}
	6640.1.1 = {add_trait="brave" add_trait="trained_warrior"}
	6696.1.1 = {death="6696.1.1"}
}
28150 = {
	name="Benjen" # 
	dynasty=150
	
	religion="old_gods"
	culture="old_first_man"
	
	martial=8
	diplomacy=5
	stewardship=8
	
	father=29150 # Samwell Blackwood
	
	6595.1.1 = {birth="6595.1.1"}
	6668.1.1 = {death="6668.1.1"}
}

###Blackwood line continued###

30150 = {
	name="Edwyn" # Father of Samwell Blackwood.
	dynasty=150
	
	religion="old_gods"
	culture="old_first_man"
	
	add_trait="proud"
	
	
	father=31150 # Roger Blackwood
	
	6557.1.1 = {birth="6557.1.1"}
	6599.1.1 = {death="6599.1.1"}
}
31150 = {
	name="Roger"
	dynasty=150
	
	religion="old_gods"
	culture="old_first_man"
	
	add_trait="proud"
	
	
	father=32150 # Roger Blackwood
	
	6537.1.1 = {birth="6537.1.1"}
	6587.1.1 = {death="6587.1.1"}
}
60800150 = {
	name="Edmund"
	dynasty=150
	
	religion="old_gods"
	culture="old_first_man"
	
	add_trait=proud
	
	
	father=32150 # Roger Blackwood
	
	6539.1.1 = {birth="6539.1.1"}
	6555.1.1 = {add_trait=brave add_trait=skilled_warrior add_trait=proud}
	6587.1.1 = {death="6587.1.1"}
}
60900150 = {
	name="Jeyne"
	dynasty=150
	female=yes
	
	religion="old_gods"
	culture="old_first_man"
	
	add_trait=proud
	
	
	father=32150 # Roger Blackwood
	
	6546.1.1 = {birth="6546.1.1"}
	6561.1.1 = {add_trait=brave add_trait=proud}
	6587.1.1 = {death="6587.1.1"}
}
32150 = {
	name="Andrey"
	dynasty=150
	
	religion="old_gods"
	culture="old_first_man"
	
	add_trait="proud"
	
	
	father=33150
	mother=40500150
	
	6512.1.1 = {birth="6512.1.1"}
	6528.1.1 = {add_trait=skilled_warrior}
	6556.1.1 = {death="6556.1.1"}
}
60700150 = {
	name="Theon" # 
	dynasty=150
	
	religion="old_gods"
	culture="old_first_man"
	
	
	
	father=33150
	mother=40500150
	
	6515.1.1 = {birth="6515.1.1"}
	6531.1.1 = {add_trait=trained_warrior}
	6576.1.1 = {death="6576.1.1"}
}
60800151 = {
	name="Serelle" # 
	dynasty=150
	female=yes
	
	religion="old_gods"
	culture="old_first_man"
	
	father=33150
	mother=40500150
	
	6506.1.1 = {birth="6506.1.1"}
	6581.1.1 = {death="6581.1.1"}
}
33150 = {
	name="Alyn"
	dynasty=150
	
	religion="old_gods"
	culture="old_first_man"
	
	add_trait="proud"
	
	
	father=34150
	
	6483.1.1 = {birth="6483.1.1" }
	6499.1.1 = {add_spouse=40500150}
	6532.1.1 = {death="6532.1.1"}
}
40500150 = {
	name="Thalia"
	female=yes

	religion="old_gods"	
	culture="old_first_man"

	6482.1.1 = {birth="6482.1.1"}
	6538.1.1 = {death="6538.1.1"}
}
34150 = {
	name="Gillam"
	dynasty=150
	
	religion="old_gods"
	culture="old_first_man"
	
	add_trait="proud"
	
	father=35150
	mother=36150
	
	6458.1.1 = {birth="6458.1.1"}
	6518.1.1 = {death="6518.1.1"}
}
35150 = {
	name="Theomar"
	dynasty=150
	
	religion="old_gods"
	culture="old_first_man"
	
	father=60000150 # Rodrik Blackwood
	mother=40000150
	
	add_trait="proud"

	6444.1.1 = {birth="6444.1.1" }
	6464.1.1 = {add_spouse=36150
	            add_trait=skilled_warrior}
	6484.1.1 = {death="6484.1.1"}
}
36150 = {
	name="Della"
	female=yes

	religion="old_gods"	
	culture="old_first_man"

	6443.1.1 = {birth="6443.1.1"}
	6490.1.1 = {death="6490.1.1"}
}
37150 = {
	name="Bethany"
	female=yes
	dynasty=150
	
	religion="old_gods"
	culture="old_first_man"
	
	add_trait="proud"
	
	
	father=35150
	mother=36150
	
	6464.10.1 = {birth="6464.10.1"}
	6529.1.1 = {death="6529.1.1"}
}
38150 = {
	name="Lucas"
	dynasty=150
	
	religion="old_gods"
	culture="old_first_man"
	

	
	
	father=35150
	mother=36150
	
	add_trait=quick
	
	6469.1.1 = {birth="6469.1.1" }
	6523.1.1 = {death="6523.1.1"}
}

60500150 = {
	name="Jonos"
	dynasty=150
	
	religion="old_gods"
	culture="old_first_man"
	
	father=60200150 # Brynden Blackwood
	

	6423.1.1 = {birth="6423.1.1"}
	6439.1.1 = {add_trait=trained_warrior add_trait=proud}
	6468.1.1 = {death="6468.1.1"}
}
60000150 = {
	name="Rodrik"
	dynasty=150
	
	religion="old_gods"
	culture="old_first_man"
	
	father=60200150 # Brynden Blackwood
	

	6418.1.1 = {birth="6418.1.1"}
	6434.1.1 = {add_trait=skilled_warrior add_trait=proud}
	6435.1.1 = {add_spouse=40000150}
	6473.1.1 = {death="6473.1.1"}
}
40000150 = {
	name="Melissa"
	female=yes

	religion="old_gods"	
	culture="old_first_man"

	6419.1.1 = {birth="6419.1.1"}
	6490.1.1 = {death="6490.1.1"}
}

65000150 = {
	name="Olyvar" #stangled to death
	dynasty=150
	
	religion="old_gods"
	culture="old_first_man"
	
	mother=60300150 #Agnes Blackwood
	father=40200150
	
	6398.1.1 = {birth="6398.1.1"}
	6411.1.1 = {death="6411.1.1"}
}
60200150 = {
	name="Brynden" 
	dynasty=150
	
	religion="old_gods"
	culture="old_first_man"
	
	mother=60300150 #Agnes Blackwood
	father=40200150
	
	6399.1.1 = {birth="6399.1.1"}
	6435.1.1 = {add_trait=skilled_warrior add_trait=proud}
	6458.1.1 = {death="6458.1.1"}
}
65200150 = {
	name="Waltyr"
	dynasty=150
	
	religion="old_gods"
	culture="old_first_man"
	
	mother=60300150 #Agnes Blackwood
	father=40200150
	
	6403.1.1 = {birth="6403.1.1"}
	6419.1.1 = {add_trait=trained_warrior }
	6458.1.1 = {death="6458.1.1"}
}
60300150 = {
	name="Agnes"
	female=yes
	dynasty=150
	
	religion="old_gods"
	culture="old_first_man"
	
	father=60400150 # Torrhen Blackwood
	mother=40100150
	
	add_trait=tough_soldier
	add_trait=proud
	add_trait=brave
	add_trait=authoritative

	6379.1.1 = {birth="6379.1.1"}
	6395.1.1 = {add_trait=skilled_warrior }
	6397.1.1 = {add_spouse=40200150}
	6411.1.1 = {death="6411.1.1"}
}
40200150 = {
	name="Lucas"

	religion="old_gods"	
	culture="northman"

	6377.1.1 = {birth="6377.1.1"}
	6445.1.1 = {death="6445.1.1"}
}
60400150 = {
	name="Torrhen"
	dynasty=150
	
	martial=7
	
	religion="old_gods"
	culture="old_first_man"
	
	father=156150

	6357.1.1 = {birth="6357.1.1"}
	6377.1.1 = {add_trait=master_warrior add_trait=proud add_trait=brave add_trait=cruel}
	6378.1.1 = {add_spouse=40100150}
	6395.11.7 = {death="6395.11.7"}
}
40100150 = {
	name="Rhea"
	female=yes

	religion="old_gods"	
	culture="northman"

	6358.1.1 = {birth="6358.1.1"}
	6416.1.1 = {death="6416.1.1"}
}



########################################################################   House Tully  ##############################################################################

560159 = {
	name="Edmure"	# First Named Tully
	dynasty=159

	religion="old_gods"
	culture="old_first_man"
	
	add_trait=brave
	add_trait=quick
	add_trait=honorable
	add_trait=cynical #converted

	6613.1.1 = {birth="6613.1.1"}
	6630.1.1 = {
		add_trait=skilled_warrior
		add_trait=tough_soldier
	}
	6660.1.1 = {
		death="6660.1.1"
	}
}
561159 = { # Canon,
	name="Axel"	# First lord of Riverrun
	dynasty=159

	religion="old_gods"
	culture="old_first_man"
	
	add_trait=patient
	add_trait=diligent
	add_trait=honorable
	add_trait=cynical #converted
	
	father = 560159

	6632.1.1 = {birth="6632.1.1"}
	6648.1.1 = {
		add_trait=skilled_warrior
		add_trait=tough_soldier
	}
	6693.1.1 = {
		death="6693.1.1"
	}
}
2280159 = {
	name="Edmund"	# 
	dynasty=159
	
	martial=5
	stewardship=6
	learning=6
	
	religion="the_seven"
	culture="old_first_man"

	father=561159 # Axel Tully

	6649.1.1 = {birth="6649.1.1"}
	6664.1.1 = {add_spouse=4500159}
	6673.12.10 = {death={death_reason =death_battle}}
}
4500159 = {
	name="Alynna"	#
	female=yes

	religion="the_seven"
	culture="old_first_man"


	6635.1.1 = {birth="6635.1.1"}
	6681.1.1 = {death="6681.1.1"}
}
1159 = {
	name="Medgar"	#  a lord
	dynasty=159

	religion="the_seven"
	culture="old_first_man"
	
	diplomacy=9
	stewardship=7
	
	father=2280159 # Edmund Tully
	mother=4500159

	6664.1.1 = {birth="6664.1.1"  }
	6679.1.1 = {add_spouse=400159}
	6688.1.1={death="6688.1.1"}
}
400159 = {
	name="Sarya"
	female=yes

	religion="the_seven"
	culture="old_first_man"

	6658.1.1 = {birth="6658.1.1"}
	6688.8.7 = {death="6688.8.7"}
}

5700159 = {
	name="Edmure"	# not a lord
	dynasty=159

	religion="the_seven"
	culture="old_first_man"

	father=2280159 # Edmund Tully
	mother=4500159

	6665.2.2 = {birth="6665.2.2"}
	6673.1.1 = {add_trait=squire add_trait=content add_trait=kind}
	6690.10.1 = {death="6690.10.1"}
}
31159 = {
	name="Pia"	#Not a Lord
	female=yes
	dynasty=159

	religion="the_seven"
	culture="old_first_man"

	father=1159
	mother=400159

	6679.1.1 = {birth="6679.1.1"}
	6725.1.1 = {death="6725.1.1"}
}
10159 = {
	name="Oscar" #
	dynasty=159
	
	martial = 10

	religion="the_seven"
	culture="old_first_man"
	
	father=1159
	mother=400159
	
	6680.1.1 = {birth="6680.1.1"  }
	6703.1.1 = {add_spouse=11159}
	6736.1.1 = {death="6736.1.1"} 
}
11159 = {
	name="Leslyn" 
    female=yes

	religion="the_seven"
	culture="old_first_man"
	
	6685.1.1 = {birth="6685.1.1"}
	6703.1.1 = {add_spouse=10159}
	6739.1.1 = {death="6739.1.1"}
}



#########################################################################   House Vypren   ########################################################################


3131 = {
	name="Androw" #Not a Lord Vypren
	dynasty=131
	
	religion="the_seven"
	culture="old_andal"
	
	father=4131
	
	6691.1.1 = {birth="6691.1.1"}
	6741.1.1 = {death="6741.1.1"} 
}
4131 = {
	name="Jared"
	dynasty=131
	
	religion="the_seven"
	culture="old_andal"
	
	father=5131
	
	6672.1.1 = {birth="6672.1.1"}
	6749.1.1 = {death="6749.1.1"} 
}
5131 = {
	name="Thoren"
	dynasty=131
	
	religion="the_seven"
	culture="old_andal"
	
	father=6131
	
	6639.1.1 = {birth="6639.1.1"}
	6700.1.1 = {death="6700.1.1"} 
}
6131 = {
	name="Olyvar"
	dynasty=131
	
	religion="the_seven"
	culture="old_andal"
	
	father=7131
	
	6619.1.1 = {birth="6619.1.1"}
	6659.1.1 = {death="6659.1.1"} 
}
7131 = {
	name="Martyn"
	dynasty=131
	
	religion="the_seven"
	culture="old_andal"
	

	6587.1.1 = {birth="6587.1.1"}
	6644.1.1 = {death="6644.1.1"} 
}


#########################################################################   House Vance   ###################################################################

650153 = { #Andal warlord
	name="Armistead" 
	dynasty=153
	
	religion="the_seven"
	culture="old_andal"
	
	add_trait=ambitious
	add_trait=just
	add_trait=brilliant_strategist
	add_trait=brave
	
	6628.1.1 = {birth="6628.1.1"}
	6646.1.1 = {
		add_trait=master_warrior
		add_trait=knight
	}
	6675.1.1 = {death="6675.1.1"}
}

###House Vance of Wayfarer's Rest###
40000154 = {
	name="Dalyne"
	female=yes

	
	religion="the_seven"
	culture="old_andal"
	
	6708.1.1 = {birth="6708.1.1"}
	6773.1.1 = {death="6773.1.1"}
}
22154 = {
	name="Anguy"
	dynasty=153

	
	religion="the_seven"
	culture="old_andal"
	
	father=11154
	
	6704.1.1 = {birth="6704.1.1"}
	6728.1.1 = {add_spouse=40000154}
	6755.1.1 = {death="6755.1.1"}
}
11154 = {
	name="Lothar"
	dynasty=153

	
	religion="the_seven"
	culture="old_andal"
	
	father=12154
	
	6678.1.1 = {birth="6678.1.1"}
	6744.1.1 = {death="6744.1.1"}
}
12154 = {
	name="Oswell"
	dynasty=153

	
	religion="the_seven"
	culture="old_andal"
	
	father=650153
	
	6658.1.1 = {birth="6658.1.1"}
	6692.1.1 = {death="6692.1.1"}
}
#################
###House Ryger###
#################
13152 = {
	name="Jonothor"
	dynasty=152
	
	religion="old_gods"
	culture="old_first_man"
	
	father=14152
	
	6709.1.1 = {birth="6709.1.1"}
	6756.1.1 = {death="6756.1.1"}
}
14152 = {
	name="Martyn"
	dynasty=152
	
	religion="old_gods"
	culture="old_first_man"
	
	father=15152
	
	6686.1.1 = {birth="6686.1.1"}
	6723.1.1 = {death="6723.1.1"}
}
29152 = {
	name="Ellya" # Sister of Anguy Ryger
	dynasty=152
	female=yes
	
	religion="old_gods"
	culture="old_first_man"
	
	father=16152 # Willard Ryger
	
	6651.1.1 = {birth="6651.1.1"}
	6700.1.1 = {death="6700.1.1"}
}
15152 = {
	name="Anguy" #Not a Lord, son of Willard Ryger
	dynasty=152
	
	religion="old_gods"
	culture="old_first_man"
	
	father=16152 # Willard Ryger
	
	6648.1.1 = {birth="6648.1.1"}
	6692.1.1 = {death="6692.1.1"}
}
16152 = {
	name="Willard" # Son and heir of Terin Ryger, married Andyra Tully
	dynasty=152
	
	religion="old_gods"
	culture="old_first_man"
	
	father=17152 # Terin Ryger
	
	6623.1.1 = {birth="6623.1.1"}
	6633.1.1 = {add_trait=squire}
	6639.1.1 = {remove_trait=squire add_trait=knight add_trait=trained_warrior}
	6698.1.1 = {death="6698.1.1"}
}
30152 = {
	name="Idera" # Married Ser Walder Frey
	dynasty=152
	female=yes
	
	religion="old_gods"
	culture="old_first_man"
	
	father=17152 # Terin Ryger
	
	6620.1.1 = {birth="6620.1.1"}
	6680.1.1 = {death="6680.1.1"}
}
17152 = {
	name="Terin" # Master of Law, Lord of Willow Wood at the time of the Dornish Conquest, married Philena Lydden
	dynasty=152
	
	religion="old_gods"
	culture="old_first_man"
	
	diplomacy=8
	stewardship=7
	
	father=5500152 # Roger Ryger
	
	6599.1.1 = {birth="6599.1.1"}
	6615.1.1 = {add_trait=knight add_trait=trained_warrior add_trait=charismatic_negotiator}
	6668.1.1 = {death="6668.1.1"}
}
26152 = {
	name="Elyria" # Terin Ryger's sister. Married Tristifier Keath.
	dynasty=152
	female=yes
	
	religion="old_gods"
	culture="old_first_man"
	
	diplomacy=8
	
	father=5500152 # Roger Ryger
	
	6602.1.1 = {birth="6602.1.1"}
	6618.1.1 = {add_trait=charismatic_negotiator}
	6671.1.1 = {death="6671.1.1"}
}
27152 = {
	name="Tilly" # Terin Ryger's sister. Married her first husband Jeffroy Serry, her second being Cavan Ryswell.
	dynasty=152
	female=yes
	
	religion="old_gods"
	culture="old_first_man"
	
	father=5500152 # Roger Ryger
	
	6601.1.1 = {birth="6601.1.1"}
	6678.1.1 = {death="6678.1.1"}
}
28152 = {
	name="Alarra" # Terin Ryger's sister. Married Ser Nicol Beesbury
	dynasty=152
	female=yes
	
	religion="old_gods"
	culture="old_first_man"
	
	father=5500152 # Roger Ryger
	
	6609.1.1 = {birth="6609.1.1"}
	6678.1.1 = {death="6678.1.1"}
}
18152 = {
	name="Ryan" #his uncle, Ser Ryan Ryger, married Rolenna Pryor.
	dynasty=152
	
	religion="old_gods"
	culture="old_first_man"
	
	father=20152
	
	6586.1.1 = {birth="6586.1.1"}
	6611.9.8 = {death= {death_reason = death_battle}} # Dance of Dragons
}
19152 = {
	name="Jeromy" # Terin's other uncle, Married Dian Mallister
	dynasty=152
	
	religion="old_gods"
	culture="old_first_man"
	
	father=20152
	
	6589.1.1 = {birth="6589.1.1"}
	6639.8.1 = {death= {death_reason = death_battle}} # Died in the Dornish Conquest.
}
5500152 = {
	name="Roger" # Father of Terin Ryger
	dynasty=152
	
	religion="old_gods"
	culture="old_first_man"
	
	father=20152
	
	6583.1.1 = {birth="6583.1.1"}
	6613.2.7 = {death= {death_reason = death_accident}} # Died in the Dance of Dragon
}
20152 = {
	name="Androw"
	dynasty=152
	
	religion="old_gods"
	culture="old_first_man"
	
	father=21152
	
	6552.1.1 = {birth="6552.1.1"}
	6603.1.1 = {death="6603.1.1"}
}
21152 = {
	name="Whalen"
	dynasty=152
	
	religion="old_gods"
	culture="old_first_man"
	
	father=22152
	
	6529.1.1 = {birth="6529.1.1"}
	6576.1.1 = {death="6576.1.1"}
}
22152 = {
	name="Ambrose" #Not a Lord Ryger
	dynasty=152
	
	religion="old_gods"
	culture="old_first_man"
	
	father=23152
	
	6503.1.1 = {birth="6503.1.1"}
	6538.1.1 = {death="6538.1.1"}
}
23152 = {
	name="Halmon"
	dynasty=152
	
	religion="old_gods"
	culture="old_first_man"
	
	father=24152
	
	6480.1.1 = {birth="6480.1.1"}
	6542.1.1 = {death="6542.1.1"}
}
24152 = {
	name="Mohor"
	dynasty=152
	
	religion="old_gods"
	culture="old_first_man"
	
	father=25152
	
	6463.1.1 = {birth="6463.1.1"}
	6511.1.1 = {death="6511.1.1"}
}
25152 = {
	name="Denys"
	dynasty=152
	
	religion="old_gods"
	culture="old_first_man"
	
	6439.1.1 = {birth="6439.1.1"}
	6485.1.1 = {death="6485.1.1"}
}
#House Blanetree#
12155 = {
	name="Raymond"
	dynasty=155
	
	religion="old_gods"
	culture="old_first_man"
	
	father=13155
	
	6688.1.1 = {birth="6688.1.1"}
	6748.1.1 = {death="6748.1.1"}
}
13155 = {
	name="Franklyn"
	dynasty=155
	
	religion="old_gods"
	culture="old_first_man"
	
	father=14155
	
	6662.1.1 = {birth="6662.1.1"}
	6704.1.1 = {death="6704.1.1"}
}
14155 = {
	name="Perwyn"
	dynasty=155
	
	religion="old_gods"
	culture="old_first_man"
	
	father=16155
	
	6635.1.1 = {birth="6635.1.1"}
	6692.1.1 = {death="6692.1.1"}
}
15155 = {
	name="Willamen"
	dynasty=155
	
	religion="old_gods"
	culture="old_first_man"
	
	father=16155
	
	6633.1.1 = {birth="6633.1.1"}
	6685.1.1 = {death="6685.1.1"}
}
16155 = {
	name="Tion"
	dynasty=155
	
	religion="old_gods"
	culture="old_first_man"
	
	father=17155
	
	6606.1.1 = {birth="6606.1.1"}
	6679.1.1 = {death="6679.1.1"}
}
17155 = {
	name="Bennifer"
	dynasty=155
	
	religion="old_gods"
	culture="old_first_man"
	
	father=18155
	
	6590.1.1 = {birth="6590.1.1"}
	6633.1.1 = {death="6633.1.1"}
}
18155 = {
	name="Walder"
	dynasty=155
	
	religion="old_gods"
	culture="old_first_man"
	
	father=19155
	
	6557.1.1 = {birth="6557.1.1"}
	6619.1.1 = {death="6619.1.1"}
}
19155 = {
	name="Olyvar"
	dynasty=155
	
	religion="old_gods"
	culture="old_first_man"
	
	father=25155
	
	6541.1.1 = {birth="6541.1.1"}
	6599.1.1 = {death="6599.1.1"}
}
25155 = {
	name="Hibald"
	dynasty=155
	
	religion="old_gods"
	culture="old_first_man"
	
	father=21155
	
	6515.1.1 = {birth="6515.1.1"}
	6593.1.1 = {death="6593.1.1"}
}
21155 = {
	name="Alesander"
	dynasty=155
	
	religion="old_gods"
	culture="old_first_man"
	
	father=22155
	
	6488.1.1 = {birth="6488.1.1"}
	6557.1.1 = {death="6557.1.1"}
}
22155 = {
	name="Willum"
	dynasty=155
	
	religion="old_gods"
	culture="old_first_man"
	
	father=24155
	
	6469.1.1 = {birth="6469.1.1"}
	6509.1.1 = {death="6509.1.1"}
}
23155 = {
	name="Arlan"
	dynasty=155
	
	religion="old_gods"
	culture="old_first_man"
	
	father=24155
	
	6466.1.1 = {birth="6466.1.1"}
	6491.1.1 = {death="6491.1.1"}
}
24155 = {
	name="Waltyr"
	dynasty=155
	
	religion="old_gods"
	culture="old_first_man"
	
	6445.1.1 = {birth="6445.1.1"}
	6486.1.1 = {death="6486.1.1"}
}
###
###House Chambers
###
100178453 = {
	name="Arwyn"	# a lord
	dynasty=178453

	religion="old_gods"
	culture="old_first_man"

	6443.1.1 = {birth="6443.1.1"}
	6459.1.1 = {add_trait=knight add_trait=trained_warrior}
	6461.1.1 = {add_spouse=400178453}
	6484.1.1 = {death="6484.1.1"}
}
400178453 = {
	name="Jyzene"
	female=yes

	religion="old_gods"
	culture="old_first_man"

	6443.1.1 = {birth="6443.1.1"}
	6459.1.1 = {add_trait=poor_warrior}
	6484.1.1 = {death="6484.1.1"}
}
101178453 = {
	name="Patrek"	# a lord
	dynasty=178453

	religion="old_gods"
	culture="old_first_man"

	father=100178453
	mother=400178453

	6467.1.1 = {birth="6467.1.1"}
	6483.1.1 = {add_trait=knight add_trait=trained_warrior}
	6485.1.1 = {add_spouse=401178453}
	6508.1.1 = {death="6508.1.1"}
}
401178453 = {
	name="Joyeuse"
	female=yes

	religion="old_gods"
	culture="old_first_man"

	6467.1.1 = {birth="6467.1.1"}
	6483.1.1 = {add_trait=poor_warrior}
	6508.1.1 = {death="6508.1.1"}
}
102178453 = {
	name="Ambrose"	# not a lord
	dynasty=178453

	religion="old_gods"
	culture="old_first_man"

	father=100178453
	mother=400178453

	6468.1.1 = {birth="6468.1.1"}
	6484.1.1 = {add_trait=knight add_trait=skilled_warrior}
	6525.1.1 = {death="6525.1.1"}
}
103178453 = {
	name="Joyeuse"	# not a lord
	female=yes
	dynasty=178453

	religion="old_gods"
	culture="old_first_man"

	father=100178453
	mother=400178453

	6469.1.1 = {birth="6469.1.1"}
	6485.1.1 = {add_trait=skilled_warrior}
	6539.1.1 = {death="6539.1.1"}
}
104178453 = {
	name="Ellery"	# not a lord
	dynasty=178453

	religion="old_gods"
	culture="old_first_man"

	father=100178453
	mother=400178453

	6471.1.1 = {birth="6471.1.1"}
	6487.1.1 = {add_trait=knight add_trait=skilled_warrior}
	6524.1.1 = {death="6524.1.1"}
}
105178453 = {
	name="Damon"	# a lord
	dynasty=178453

	religion="old_gods"
	culture="old_first_man"

	father=101178453
	mother=401178453

	6486.1.1 = {birth="6486.1.1"}
	6502.1.1 = {add_trait=knight add_trait=trained_warrior}
	6504.1.1 = {add_spouse=405178453}
	6538.1.1 = {death="6538.1.1"}
}
405178453 = {
	name="Emphyria"
	female=yes

	religion="old_gods"
	culture="old_first_man"

	6486.1.1 = {birth="6486.1.1"}
	6502.1.1 = {add_trait=poor_warrior}
	6538.1.1 = {death="6538.1.1"}
}
106178453 = {
	name="Zia"	# not a lord
	female=yes
	dynasty=178453

	religion="old_gods"
	culture="old_first_man"

	father=105178453
	mother=405178453

	6519.1.1 = {birth="6519.1.1"}
	6535.1.1 = {add_trait=trained_warrior}
	6550.1.1 = {death="6550.1.1"}
}
107178453 = {
	name="Dennett"	# a lord
	dynasty=178453

	religion="old_gods"
	culture="old_first_man"

	father=105178453
	mother=405178453

	6520.1.1 = {birth="6520.1.1"}
	6536.1.1 = {add_trait=knight add_trait=poor_warrior}
	6538.1.1 = {add_spouse=407178453}
	6579.1.1 = {death="6579.1.1"}
}
407178453 = {
	name="Ellery"
	female=yes

	religion="old_gods"
	culture="old_first_man"

	6520.1.1 = {birth="6520.1.1"}
	6536.1.1 = {add_trait=poor_warrior}
	6579.1.1 = {death="6579.1.1"}
}
108178453 = {
	name="Leslyn"	# not a lord
	female=yes
	dynasty=178453

	religion="old_gods"
	culture="old_first_man"

	father=105178453
	mother=405178453

	6522.1.1 = {birth="6522.1.1"}
	6538.1.1 = {add_trait=trained_warrior}
	6573.1.1 = {death="6573.1.1"}
}
109178453 = {
	name="Quincy"	# not a lord
	dynasty=178453

	religion="old_gods"
	culture="old_first_man"

	father=105178453
	mother=405178453

	6524.1.1 = {birth="6524.1.1"}
	6540.1.1 = {add_trait=knight add_trait=skilled_warrior}
	6599.1.1 = {death="6599.1.1"}
}
110178453 = {
	name="Utherydes"	# not a lord
	dynasty=178453

	religion="old_gods"
	culture="old_first_man"

	father=107178453
	mother=407178453

	6545.1.1 = {birth="6545.1.1"}
	6561.1.1 = {add_trait=knight add_trait=skilled_warrior}
	6565.1.1 = {death="6565.1.1"}
}
111178453 = {
	name="Bennet"	# a lord
	dynasty=178453

	religion="old_gods"
	culture="old_first_man"

	father=107178453
	mother=407178453

	6547.1.1 = {birth="6547.1.1"}
	6563.1.1 = {add_trait=knight add_trait=skilled_warrior}
	6565.1.1 = {add_spouse=411178453}
	6601.1.1 = {death="6601.1.1"}
}
411178453 = {
	name="Walda"
	female=yes

	religion="old_gods"
	culture="old_first_man"

	6547.1.1 = {birth="6547.1.1"}
	6563.1.1 = {add_trait=poor_warrior}
	6601.1.1 = {death="6601.1.1"}
}
112178453 = {
	name="Rawney"	# a lord
	dynasty=178453

	religion="old_gods"
	culture="old_first_man"

	father=111178453
	mother=411178453

	6575.1.1 = {birth="6575.1.1"}
	6591.1.1 = {add_trait=knight add_trait=poor_warrior}
	6593.1.1 = {add_spouse=412178453}
	6617.1.1 = {death="6617.1.1"}
}
412178453 = {
	name="Marissa"
	female=yes

	religion="old_gods"
	culture="old_first_man"

	6575.1.1 = {birth="6575.1.1"}
	6591.1.1 = {add_trait=poor_warrior}
	6617.1.1 = {death="6617.1.1"}
}
113178453 = {
	name="Melwys"	# a lord
	dynasty=178453

	religion="old_gods"
	culture="old_first_man"

	father=112178453
	mother=412178453

	6598.1.1 = {birth="6598.1.1"}
	6614.1.1 = {add_trait=knight add_trait=poor_warrior}
	6616.1.1 = {add_spouse=413178453}
	6657.1.1 = {death="6657.1.1"}
}
413178453 = {
	name="Mariya"
	female=yes

	religion="old_gods"
	culture="old_first_man"

	6598.1.1 = {birth="6598.1.1"}
	6614.1.1 = {add_trait=poor_warrior}
	6657.1.1 = {death="6657.1.1"}
}
114178453 = {
	name="Arwyn"	# not a lord
	dynasty=178453

	religion="old_gods"
	culture="old_first_man"

	father=112178453
	mother=412178453

	6601.1.1 = {birth="6601.1.1"}
	6617.1.1 = {add_trait=knight add_trait=skilled_warrior}
	6619.1.1 = {add_spouse=414178453}
	6637.1.1 = {death = {death_reason = death_accident}}
}
414178453 = {
	name="Danelle"
	female=yes

	religion="old_gods"
	culture="old_first_man"

	6601.1.1 = {birth="6601.1.1"}
	6617.1.1 = {add_trait=poor_warrior}
	6642.1.1 = {death="6642.1.1"}
}
115178453 = {
	name="Jammos"	# not a lord
	dynasty=178453

	religion="old_gods"
	culture="old_first_man"

	father=112178453
	mother=412178453

	6603.1.1 = {birth="6603.1.1"}
	6619.1.1 = {add_trait=knight add_trait=trained_warrior}
	6621.1.1 = {add_spouse=415178453}
	6649.1.1 = {death="6649.1.1"}
}
415178453 = {
	name="Catelyn"
	female=yes

	religion="old_gods"
	culture="old_first_man"

	6603.1.1 = {birth="6603.1.1"}
	6619.1.1 = {add_trait=poor_warrior}
	6649.1.1 = {death="6649.1.1"}
}
116178453 = {
	name="Marissa"	# not a lord
	female=yes
	dynasty=178453

	religion="old_gods"
	culture="old_first_man"

	father=112178453
	mother=412178453

	6605.1.1 = {birth="6605.1.1"}
	6621.1.1 = {add_trait=skilled_warrior}
	6652.1.1 = {death="6652.1.1"}
}
117178453 = {
	name="Norbert"	# not a lord
	dynasty=178453

	religion="old_gods"
	culture="old_first_man"

	father=112178453
	mother=412178453

	6608.1.1 = {birth="6608.1.1"}
	6624.1.1 = {add_trait=knight add_trait=poor_warrior}
	6654.1.1 = {death="6654.1.1"}
}
118178453 = {
	name="Jeyne"	# not a lord
	female=yes
	dynasty=178453

	religion="old_gods"
	culture="old_first_man"

	father=113178453
	mother=413178453

	6622.1.1 = {birth="6622.1.1"}
	6638.1.1 = {add_trait=trained_warrior}
	6660.1.1 = {death="6660.1.1"}
}
119178453 = {
	name="Carellen"	# not a lord
	female=yes
	dynasty=178453

	religion="old_gods"
	culture="old_first_man"

	father=114178453
	mother=414178453

	6636.1.1 = {birth="6636.1.1"}
	6652.1.1 = {add_trait=trained_warrior}
	6705.1.1 = {death="6705.1.1"}
}
120178453 = {
	name="Jaime"	# a lord
	dynasty=178453

	religion="old_gods"
	culture="old_first_man"

	father=115178453
	mother=415178453

	6621.1.1 = {birth="6621.1.1"}
	6637.1.1 = {add_trait=knight add_trait=poor_warrior}
	6639.1.1 = {add_spouse=420178453}
	6691.1.1 = {death="6691.1.1"}
}
420178453 = {
	name="Harra"
	female=yes

	religion="old_gods"
	culture="old_first_man"

	6621.1.1 = {birth="6621.1.1"}
	6637.1.1 = {add_trait=poor_warrior}
	6691.1.1 = {death="6691.1.1"}
}
121178453 = {
	name="Shirei"	# not a lord
	female=yes
	dynasty=178453

	religion="old_gods"
	culture="old_first_man"

	father=115178453
	mother=415178453

	6622.1.1 = {birth="6622.1.1"}
	6638.1.1 = {add_trait=skilled_warrior}
	6680.1.1 = {death="6680.1.1"}
}
122178453 = {
	name="Leslyn"	# not a lord
	female=yes
	dynasty=178453

	religion="old_gods"
	culture="old_first_man"

	father=120178453
	mother=420178453

	6649.1.1 = {birth="6649.1.1"}
	6665.1.1 = {add_trait=trained_warrior}
	6689.1.1 = {death="6689.1.1"}
}
123178453 = {
	name="Pate"	# not a lord
	dynasty=178453

	religion="old_gods"
	culture="old_first_man"

	father=120178453
	mother=420178453

	6651.1.1 = {birth="6651.1.1"}
	6667.1.1 = {add_trait=knight add_trait=trained_warrior}
	6669.1.1 = {add_spouse=423178453}
	6688.1.1 = {death="6688.1.1"}
}
423178453 = {
	name="Marianne"
	female=yes

	religion="old_gods"
	culture="old_first_man"

	6651.1.1 = {birth="6651.1.1"}
	6667.1.1 = {add_trait=poor_warrior}
	6688.1.1 = {death="6688.1.1"}
}
124178453 = {
	name="Tysane"	# not a lord
	female=yes
	dynasty=178453

	religion="old_gods"
	culture="old_first_man"

	father=120178453
	mother=420178453

	6654.1.1 = {birth="6654.1.1"}
	6670.1.1 = {add_trait=poor_warrior}
	6677.1.1 = {death="6677.1.1"}
}
125178453 = {
	name="Merianne"	# not a lord
	female=yes
	dynasty=178453

	religion="old_gods"
	culture="old_first_man"

	father=123178453
	mother=423178453

	6672.1.1 = {birth="6672.1.1"}
	6688.1.1 = {add_trait=trained_warrior}
	6721.1.1 = {death="6721.1.1"}
}
126178453 = {
	name="Arwood"	# a lord
	dynasty=178453

	religion="old_gods"
	culture="old_first_man"

	father=123178453
	mother=423178453

	6673.1.1 = {birth="6673.1.1"}
	6689.1.1 = {add_trait=knight add_trait=poor_warrior}
	6691.1.1 = {add_spouse=426178453}
	6722.1.1 = {death="6722.1.1"}
}
426178453 = {
	name="Morya"
	female=yes

	religion="old_gods"
	culture="old_first_man"

	6673.1.1 = {birth="6673.1.1"}
	6689.1.1 = {add_trait=poor_warrior}
	6722.1.1 = {death="6722.1.1"}
}
127178453 = {
	name="Dickon"	# a lord
	dynasty=178453

	religion="old_gods"
	culture="old_first_man"

	father=126178453
	mother=426178453

	6702.1.1 = {birth="6702.1.1"}
	6718.1.1 = {add_trait=poor_warrior}
	6720.1.1 = {add_spouse=427178453}
	6754.1.1 = {death="6754.1.1"}
}
427178453 = {
	name="Carellen"
	female=yes

	religion="old_gods"
	culture="old_first_man"

	6702.1.1 = {birth="6702.1.1"}
	6718.1.1 = {add_trait=poor_warrior}
	6754.1.1 = {death="6754.1.1"}
}
128178453 = {
	name="Cleos"	# not a lord
	dynasty=178453

	religion="old_gods"
	culture="old_first_man"

	father=126178453
	mother=426178453

	6704.1.1 = {birth="6704.1.1"}
	6720.1.1 = {add_trait=knight add_trait=poor_warrior}
	6774.1.1 = {death="6774.1.1"}
}
129178453 = {
	name="Sylwa"	# not a lord
	female=yes
	dynasty=178453

	religion="old_gods"
	culture="old_first_man"

	father=126178453
	mother=426178453

	6706.1.1 = {birth="6706.1.1"}
	6722.1.1 = {add_trait=trained_warrior}
	6748.1.1 = {death="6748.1.1"}
}
130178453 = {
	name="Duncan"	# not a lord
	dynasty=178453

	religion="old_gods"
	culture="old_first_man"

	father=126178453
	mother=426178453

	6707.1.1 = {birth="6707.1.1"}
	6723.1.1 = {add_trait=knight add_trait=trained_warrior}
	6737.1.1 = {death="6737.1.1"}
}
131178453 = {
	name="Catelyn"	# not a lord
	female=yes
	dynasty=178453

	religion="old_gods"
	culture="old_first_man"

	father=126178453
	mother=426178453

	6710.1.1 = {birth="6710.1.1"}
	6726.1.1 = {add_trait=poor_warrior}
	6732.1.1 = {death="6732.1.1"}
}
132178453 = {
	name="Desmond"	# a lord
	dynasty=178453

	religion="old_gods"
	culture="old_first_man"

	father=127178453
	mother=427178453

	6731.1.1 = {birth="6731.1.1"}
	6747.1.1 = {add_trait=knight add_trait=trained_warrior}
	6749.1.1 = {add_spouse=432178453}
	6766.1.1 = {death="6766.1.1"}
}
432178453 = {
	name="Zia"
	female=yes

	religion="old_gods"
	culture="old_first_man"

	6731.1.1 = {birth="6731.1.1"}
	6747.1.1 = {add_trait=poor_warrior}
	6766.1.1 = {death="6766.1.1"}
}
133178453 = {
	name="Rhialta"	# not a lord
	female=yes
	dynasty=178453

	religion="old_gods"
	culture="old_first_man"

	father=127178453
	mother=427178453

	6732.1.1 = {birth="6732.1.1"}
	6748.1.1 = {add_trait=trained_warrior}
	6800.1.1 = {death="6800.1.1"}
}
134178453 = {
	name="Cynthea"	# not a lord
	female=yes
	dynasty=178453

	religion="old_gods"
	culture="old_first_man"

	father=127178453
	mother=427178453

	6735.1.1 = {birth="6735.1.1"}
	6751.1.1 = {add_trait=trained_warrior}
	6770.1.1 = {death="6770.1.1"}
}
135178453 = {
	name="Luceon"	# a lord
	dynasty=178453

	religion="old_gods"
	culture="old_first_man"

	father=127178453
	mother=427178453

	6736.1.1 = {birth="6736.1.1"}
	6752.1.1 = {add_trait=knight add_trait=poor_warrior}
	6754.1.1 = {add_spouse=435178453}
	6778.1.1 = {death="6778.1.1"}
}
435178453 = {
	name="Nolla"
	female=yes

	religion="old_gods"
	culture="old_first_man"

	6736.1.1 = {birth="6736.1.1"}
	6752.1.1 = {add_trait=poor_warrior}
	6778.1.1 = {death="6778.1.1"}
}
136178453 = {
	name="Willum"	# a lord
	dynasty=178453

	religion="old_gods"
	culture="old_first_man"

	father=135178453
	mother=435178453

	6761.1.1 = {birth="6761.1.1"}
	6777.1.1 = {add_trait=knight add_trait=poor_warrior}
}
137178453 = {
	name="Tristifer"	# not a lord
	dynasty=178453

	religion="old_gods"
	culture="old_first_man"

	father=135178453
	mother=435178453

	6762.1.1 = {birth="6762.1.1"}
	6778.1.1 = {add_trait=knight add_trait=poor_warrior}
}
138178453 = {
	name="Ellery"	# not a lord
	dynasty=178453

	religion="old_gods"
	culture="old_first_man"

	father=135178453
	mother=435178453

	6763.1.1 = {birth="6763.1.1"}
	6779.1.1 = {add_trait=knight add_trait=poor_warrior}
}
#House Thorne#
6000030 = {
	name="Arneld"	# a lord
	dynasty=30

	religion="old_gods"
	culture="old_first_man"

	6440.1.1 = {birth="6440.1.1"}
	6456.1.1 = {add_trait=knight add_trait=skilled_warrior}
	6458.1.1 = {add_spouse=5000030}
	6510.1.1 = {death="6510.1.1"}
}
5000030 = {
	name="Moelle"
	female=yes

	religion="old_gods"
	culture="old_first_man"

	6440.1.1 = {birth="6440.1.1"}
	6510.1.1 = {death="6510.1.1"}
}
6000130 = {
	name="Justin"	# a lord
	dynasty=30

	religion="old_gods"
	culture="old_first_man"

	father=6000030
	mother=5000030

	6473.1.1 = {birth="6473.1.1"}
	6489.1.1 = {add_trait=knight add_trait=poor_warrior}
	6491.1.1 = {add_spouse=5000130}
	6525.1.1 = {death="6525.1.1"}
}
5000130 = {
	name="Alyce"
	female=yes

	religion="old_gods"
	culture="old_first_man"

	6473.1.1 = {birth="6473.1.1"}
	6525.1.1 = {death="6525.1.1"}
}
6000230 = {
	name="Alyn"	# not a lord
	dynasty=30

	religion="old_gods"
	culture="old_first_man"

	father=6000030
	mother=5000030

	6474.1.1 = {birth="6474.1.1"}
	6490.1.1 = {add_trait=knight add_trait=trained_warrior}
	6528.1.1 = {death="6528.1.1"}
}
6000330 = {
	name="Jeyne"	# not a lord
	female=yes
	dynasty=30

	religion="old_gods"
	culture="old_first_man"

	father=6000030
	mother=5000030

	6476.1.1 = {birth="6476.1.1"}
	6540.1.1 = {death="6540.1.1"}
}
6000430 = {
	name="Jacelyn"	# a lord
	dynasty=30

	religion="old_gods"
	culture="old_first_man"

	father=6000130
	mother=5000130

	6496.1.1 = {birth="6496.1.1"}
	6512.1.1 = {add_trait=poor_warrior}
	6514.1.1 = {add_spouse=5000430}
	6541.1.1 = {death="6541.1.1"}
}
5000430 = {
	name="Senelle"
	female=yes

	religion="old_gods"
	culture="old_first_man"

	6496.1.1 = {birth="6496.1.1"}
	6541.1.1 = {death="6541.1.1"}
}
6000530 = {
	name="Alliser"	# a lord
	dynasty=30

	religion="old_gods"
	culture="old_first_man"

	father=6000430
	mother=5000430

	6522.1.1 = {birth="6522.1.1"}
	6538.1.1 = {add_trait=poor_warrior}
	6540.1.1 = {add_spouse=5000530}
	6562.1.1 = {death="6562.1.1"}
}
5000530 = {
	name="Scolera"
	female=yes

	religion="old_gods"
	culture="old_first_man"

	6522.1.1 = {birth="6522.1.1"}
	6562.1.1 = {death="6562.1.1"}
}
6000630 = {
	name="Aglantine"	# not a lord
	female=yes
	dynasty=30

	religion="old_gods"
	culture="old_first_man"

	father=6000430
	mother=5000430

	6524.1.1 = {birth="6524.1.1"}
	6577.1.1 = {death="6577.1.1"}
}
6000730 = {
	name="Mary"	# not a lord
	female=yes
	dynasty=30

	religion="old_gods"
	culture="old_first_man"

	father=6000430
	mother=5000430

	6525.1.1 = {birth="6525.1.1"}
	6534.1.1 = {death = {death_reason = death_accident}}
}
6000830 = {
	name="Leonette"	# not a lord
	female=yes
	dynasty=30

	religion="old_gods"
	culture="old_first_man"

	father=6000530
	mother=5000530

	6541.1.1 = {birth="6541.1.1"}
	6574.1.1 = {death="6574.1.1"}
}
6000930 = {
	name="Mortimer"	# a lord
	dynasty=30

	religion="old_gods"
	culture="old_first_man"

	father=6000530
	mother=5000530

	6544.1.1 = {birth="6544.1.1"}
	6560.1.1 = {add_trait=knight add_trait=poor_warrior}
	6562.1.1 = {add_spouse=5000930}
	6590.1.1 = {death="6590.1.1"}
}
5000930 = {
	name="Ermesande"
	female=yes

	religion="old_gods"
	culture="old_first_man"

	6544.1.1 = {birth="6544.1.1"}
	6590.1.1 = {death="6590.1.1"}
}
6001030 = {
	name="Brella"	# not a lord
	female=yes
	dynasty=30

	religion="old_gods"
	culture="old_first_man"

	father=6000530
	mother=5000530

	6547.1.1 = {birth="6547.1.1"}
	6555.1.1 = {death = {death_reason = death_accident}}
}
6001130 = {
	name="Renfred"	# not a lord
	dynasty=30

	religion="old_gods"
	culture="old_first_man"

	father=6000530
	mother=5000530

	6549.1.1 = {birth="6549.1.1"}
	6565.1.1 = {add_trait=knight add_trait=master_warrior}
	6618.1.1 = {death="6618.1.1"}
}
6001230 = {
	name="Simon"	# a lord
	dynasty=30

	religion="old_gods"
	culture="old_first_man"

	father=6000930
	mother=5000930

	6579.1.1 = {birth="6579.1.1"}
	6591.1.1 = {death="6591.1.1"}
}
6001330 = {
	name="Dontos"	# a lord
	dynasty=30

	religion="old_gods"
	culture="old_first_man"

	father=6000930
	mother=5000930

	6582.1.1 = {birth="6582.1.1"}
	6598.1.1 = {add_trait=poor_warrior}
	6600.1.1 = {add_spouse=5001330}
	6639.1.1 = {death="6639.1.1"}
}
5001330 = {
	name="Cassana"
	female=yes

	religion="old_gods"
	culture="old_first_man"

	6582.1.1 = {birth="6582.1.1"}
	6639.1.1 = {death="6639.1.1"}
}
6001430 = {
	name="Rorge"	# not a lord
	dynasty=30

	religion="old_gods"
	culture="old_first_man"

	father=6000930
	mother=5000930

	6584.1.1 = {birth="6584.1.1"}
	6642.1.1 = {death="6642.1.1"}
}
6001530 = {
	name="Eglantine"	# not a lord
	female=yes
	dynasty=30

	religion="old_gods"
	culture="old_first_man"

	father=6000930
	mother=5000930

	6586.1.1 = {birth="6586.1.1"}
	6646.1.1 = {death="6646.1.1"}
}
6001630 = {
	name="Aglantine"	# not a lord
	female=yes
	dynasty=30

	religion="old_gods"
	culture="old_first_man"

	father=6001330
	mother=5001330

	6600.1.1 = {birth="6600.1.1"}
	6660.1.1 = {death="6660.1.1"}
}
6001730 = {
	name="Marei"	# not a lord
	female=yes
	dynasty=30

	religion="old_gods"
	culture="old_first_man"

	father=6001330
	mother=5001330

	6603.1.1 = {birth="6603.1.1"}
	6634.1.1 = {death="6634.1.1"}
}
6001830 = {
	name="Hubard"	# a lord
	dynasty=30

	religion="old_gods"
	culture="old_first_man"

	father=6001330
	mother=5001330

	6604.1.1 = {birth="6604.1.1"}
	6620.1.1 = {add_trait=trained_warrior}
	6622.1.1 = {add_spouse=5001830}
	6648.1.1 = {death="6648.1.1"}
}
5001830 = {
	name="Cassana"
	female=yes

	religion="old_gods"
	culture="old_first_man"

	6604.1.1 = {birth="6604.1.1"}
	6648.1.1 = {death="6648.1.1"}
}
6001930 = {
	name="Perkin"	# not a lord
	dynasty=30

	religion="old_gods"
	culture="old_first_man"

	father=6001330
	mother=5001330

	6605.1.1 = {birth="6605.1.1"}
	6621.1.1 = {add_trait=knight add_trait=trained_warrior}
	6662.1.1 = {death="6662.1.1"}
}
6002030 = {
	name="Alynne"	# not a lord
	female=yes
	dynasty=30

	religion="old_gods"
	culture="old_first_man"

	father=6001330
	mother=5001330

	6607.1.1 = {birth="6607.1.1"}
	6649.1.1 = {death="6649.1.1"}
}
6002130 = {
	name="Wallace"	# a lord
	dynasty=30

	religion="old_gods"
	culture="old_first_man"

	father=6001830
	mother=5001830

	6629.1.1 = {birth="6629.1.1"}
	6645.1.1 = {add_trait=poor_warrior}
	6647.1.1 = {add_spouse=5002130}
	6682.1.1 = {death="6682.1.1"}
}
5002130 = {
	name="Unella"
	female=yes

	religion="old_gods"
	culture="old_first_man"

	6629.1.1 = {birth="6629.1.1"}
	6682.1.1 = {death="6682.1.1"}
}
6002230 = {
	name="Eglantine"	# not a lord
	female=yes
	dynasty=30

	religion="old_gods"
	culture="old_first_man"

	father=6001830
	mother=5001830

	6630.1.1 = {birth="6630.1.1"}
	6680.1.1 = {death="6680.1.1"}
}
6002330 = {
	name="Marei"	# not a lord
	female=yes
	dynasty=30

	religion="old_gods"
	culture="old_first_man"

	father=6001830
	mother=5001830

	6631.1.1 = {birth="6631.1.1"}
	6685.1.1 = {death="6685.1.1"}
}
6002430 = {
	name="Devan"	# a lord
	dynasty=30

	religion="old_gods"
	culture="old_first_man"

	father=6002130
	mother=5002130

	6658.1.1 = {birth="6658.1.1"}
	6674.1.1 = {add_trait=knight add_trait=poor_warrior}
	6676.1.1 = {add_spouse=5002430}
	6734.1.1 = {death="6734.1.1"}
}
5002430 = {
	name="Cassana"
	female=yes

	religion="old_gods"
	culture="old_first_man"

	6658.1.1 = {birth="6658.1.1"}
	6734.1.1 = {death="6734.1.1"}
}
6002530 = {
	name="Denyse"	# not a lord
	female=yes
	dynasty=30

	religion="old_gods"
	culture="old_first_man"

	father=6002130
	mother=5002130

	6659.1.1 = {birth="6659.1.1"}
	6719.1.1 = {death="6719.1.1"}
}
6002630 = {
	name="Malora"	# not a lord
	female=yes
	dynasty=30

	religion="old_gods"
	culture="old_first_man"

	father=6002430
	mother=5002430

	6676.1.1 = {birth="6676.1.1"}
	6709.1.1 = {death = {death_reason = death_accident}}
}
6002730 = {
	name="Rorge"	# not a lord
	dynasty=30

	religion="old_gods"
	culture="old_first_man"

	father=6002430
	mother=5002430

	6678.1.1 = {birth="6678.1.1"}
	6684.1.1 = {death="6684.1.1"}
}
6002830 = {
	name="Allard"	# not a lord
	dynasty=30

	religion="old_gods"
	culture="old_first_man"

	father=6002430
	mother=5002430

	6680.1.1 = {birth="6680.1.1"}
	6684.1.1 = {death="6684.1.1"}
}
6002930 = {
	name="Belis"	# not a lord
	dynasty=30

	religion="old_gods"
	culture="old_first_man"

	father=6002430
	mother=5002430

	6682.1.1 = {birth="6682.1.1"}
	6698.1.1 = {add_trait=knight add_trait=poor_warrior}
	6700.1.1 = {add_spouse=5002930}
	6734.1.1 = {death="6734.1.1"}
}
5002930 = {
	name="Bethany"
	female=yes

	religion="old_gods"
	culture="old_first_man"

	6682.1.1 = {birth="6682.1.1"}
	6734.1.1 = {death="6734.1.1"}
}
6003030 = {
	name="Alys"	# not a lord
	female=yes
	dynasty=30

	religion="old_gods"
	culture="old_first_man"

	father=6002430
	mother=5002430

	6683.1.1 = {birth="6683.1.1"}
	6704.1.1 = {death="6704.1.1"}
}
6003130 = {
	name="Shireen"	# not a lord
	female=yes
	dynasty=30

	religion="old_gods"
	culture="old_first_man"

	father=6002930
	mother=5002930

	6700.1.1 = {birth="6700.1.1"}
	6753.1.1 = {death = {death_reason = death_murder}}
}
6003230 = {
	name="Alerie"	# not a lord
	female=yes
	dynasty=30

	religion="old_gods"
	culture="old_first_man"

	father=6002930
	mother=5002930

	6701.1.1 = {birth="6701.1.1"}
	6767.1.1 = {death="6767.1.1"}
}
6003330 = {
	name="Cyrenna"	# not a lord
	female=yes
	dynasty=30

	religion="old_gods"
	culture="old_first_man"

	father=6002930
	mother=5002930

	6704.1.1 = {birth="6704.1.1"}
	6752.1.1 = {death="6752.1.1"}
}
6003430 = {
	name="Moelle"	# not a lord
	female=yes
	dynasty=30

	religion="old_gods"
	culture="old_first_man"

	father=6002930
	mother=5002930

	6705.1.1 = {birth="6705.1.1"}
	6747.1.1 = {death="6747.1.1"}
}

#House Butterwell#
1143 = {
	name="Geremy"
	dynasty=143
	
	religion="old_gods"
	culture="old_first_man"
	
	father=2143
	
	6696.1.1 = {birth="6696.1.1"}
	6755.1.1 = {death="6755.1.1"}
}
2143 = {
	name="Lister" #Not a Lord Butterwell, Ambrose's Nephew
	dynasty=143
	
	religion="old_gods"
	culture="old_first_man"
	
	father=12143
	
	6671.1.1 = {birth="6671.1.1"}
	6714.1.1 = {death="6714.1.1"}
}
3143 = {
	name="Aubrey" 
	dynasty=143
	
	religion="old_gods"
	culture="old_first_man"
	
	father=13143
	mother=14143
	
	6640.1.1 = {birth="6640.1.1"}
	6656.1.1 = {add_spouse=4143}
	6692.12.2 = {add_spouse=13127}
	6718.1.1 = {death="6718.1.1"}
}

#Ambrose's First Wife#
4143 = {
	name="Liane"
	female=yes
	
	religion="old_gods"
	culture="old_first_man"
	
	6640.1.1 = {birth="6640.1.1"}
	6692.1.1 = {death="6692.1.1"}
}
#Ambrose's Children#
5143 = {
	name="Roland"
	dynasty=143
	
	religion="old_gods"
	culture="old_first_man"
	
	father=3143
	mother=4143
	
	6656.1.1 = {birth="6656.1.1"}
	6677.1.1 = {death= {
		death_reason=death_battle
		}
	}
}
6143 = {
	name="Derek"
	dynasty=143
	
	religion="old_gods"
	culture="old_first_man"
	
	father=3143
	mother=4143
	
	6657.1.1 = {birth="6657.1.1"}
	6678.1.1 = {death= {
		death_reason=death_battle
		}
	}
}
7143 = {
	name="Osfryd"
	dynasty=143
	
	religion="old_gods"
	culture="old_first_man"
	
	father=3143
	mother=4143
	
	6662.1.1 = {birth="6662.1.1"}
	6691.1.1={
		death = yes
	}
}
8143 = {
	name="Ryella" #Wife of Tom Heddle
	dynasty=143
	female=yes
	
	religion="old_gods"
	culture="old_first_man"
	
	father=3143
	mother=4143
	
	6663.1.1 = {birth="6663.1.1"}
	6716.1.1 = {death="6716.1.1"}
}
10143 = {
	name="Cass" #Married Eden Risley
	dynasty=143
	female=yes
	
	religion="old_gods"
	culture="old_first_man"
	
	father=3143
	mother=4143
	
	6665.1.1 = {birth="6665.1.1"}
	6734.1.1 = {death="6734.1.1"}
}
11143 = {
	name="Sharna" #Married Lord Costayne
	dynasty=143
	female=yes
	
	religion="old_gods"
	culture="old_first_man"
	
	father=3143
	mother=4143
	
	6669.1.1 = {birth="6669.1.1"}
	6741.1.1 = {death="6741.1.1"}
}

12143 = {
	name="Clarence" #Ambrose's Brother, Not canon, just to explain Continuation of Line
	dynasty=143
	
	religion="old_gods"
	culture="old_first_man"
	
	father=13143
	mother=14143
	
	6646.1.1 = {birth="6646.1.1"}
	6703.1.1 = {death="6703.1.1"}
}
13143 = {
	name="Petyr"
	dynasty=143
	
	religion="old_gods"
	culture="old_first_man"
	
	father=17143
	mother=18143
	
	6621.1.1 = {birth="6621.1.1"}
	6637.1.1 = {add_spouse=14143}
	6662.1.1 = {death="6662.1.1"}
}
14143 = {
	name="Leana"
	female=yes
	
	religion="old_gods"
	culture="old_first_man"
	
	6621.1.1 = {birth="6621.1.1"}
	6689.1.1 = {death="6689.1.1"}
}
15143 = {
	name="Tyta"
	dynasty=143
	female=yes
	
	religion="old_gods"
	culture="old_first_man"
	
	father=17143
	mother=18143
	
	6628.1.1 = {birth="6628.1.1"}
	6695.1.1 = {death="6695.1.1"}
}
16143 = {
	name="Emberlei"
	dynasty=143
	female=yes
	
	religion="old_gods"
	culture="old_first_man"
	
	father=17143
	mother=18143
	
	6632.1.1 = {birth="6632.1.1"}
	6700.1.1 = {death="6700.1.1"}
}
26143 = {
	name="Catelyn"
	dynasty=143
	female=yes
	
	religion="old_gods"
	culture="old_first_man"
	
	father=17143
	mother=18143
	
	6622.1.1 = {birth="6622.1.1"}
	6699.1.1 = {death="6699.1.1"}
}
17143 = {
	name="Harold"
	dynasty=143
	
	religion="old_gods"
	culture="old_first_man"
	
	father=19143
	
	6603.1.1 = {birth="6603.1.1"}
	6620.1.1 = {add_spouse=18143}
	6655.1.1 = {death="6655.1.1"}
}
18143 = {
	name="Jyanna"
	female=yes
	
	religion="old_gods"
	culture="old_first_man"
	
	6604.1.1 = {birth="6604.1.1"}
	6663.1.1 = {death="6663.1.1"}
}
19143 = {
	name="Lucias"
	dynasty=143
	
	religion="old_gods"
	culture="old_first_man"
	
	father=20143
	
	6582.1.1 = {birth="6582.1.1"}
	6636.1.1 = {death="6636.1.1"}
}
20143 = {
	name="Lyonel"
	dynasty=143
	
	religion="old_gods"
	culture="old_first_man"
	
	father=21143
	
	6562.1.1 = {birth="6562.1.1"}
	6614.1.1 = {death="6614.1.1"}
}
21143 = {
	name="Luke"
	dynasty=143
	
	religion="old_gods"
	culture="old_first_man"
	
	father=22143
	
	6531.1.1 = {birth="6531.1.1"}
	6589.1.1 = {death="6589.1.1"}
}
22143 = {
	name="Harys"
	dynasty=143
	
	religion="old_gods"
	culture="old_first_man"
	
	father=23143
	
	6515.1.1 = {birth="6515.1.1"}
	6580.1.1 = {death="6580.1.1"}
}
23143 = {
	name="Allard"  
	dynasty=143
	
	religion="old_gods"
	culture="old_first_man"

	father=24143
	
	6497.1.1 = {birth="6497.1.1"}
	6564.1.1 = {death="6564.1.1"}
}
88000255 = {
	name="Emma" 
	female=yes
	dynasty=143
	
	religion="old_gods"
	culture="old_first_man"
	
	father=24143
	
	6498.1.1 = {
		birth="6498.1.1"
	}
	6548.1.1 = {death="6548.1.1"}
}
24143 = {
	name="Hosteen"
	dynasty=143
	
	religion="old_gods"
	culture="old_first_man"
	
	father=25143
	
	6473.1.1 = {birth="6473.1.1"}
	6522.1.1 = {death="6522.1.1"}
}

25143 = {
	name="Lymond"
	dynasty=143
	
	religion="old_gods"
	culture="old_first_man"
	
	6444.1.1 = {birth="6444.1.1"}
	6490.1.1 = {death="6490.1.1"}
}


#############################################################################   House Mallister   ###################################################################3

18128 = {
	name="Emmon"
	dynasty=128
	
	religion="old_gods"
	culture="old_first_man"
	
	father=7128
	
	6673.1.1 = {birth="6673.1.1"}
	6717.1.1 = {death="6717.1.1"}
}
175128 = {
	name="Desmond" #Friends with Loron Greyjoy
	dynasty=128
	
	religion="old_gods"
	culture="old_first_man"
	
	father=7128
	
	6674.1.1 = {birth="6674.1.1"}
	6690.1.1={
		add_trait="knight"
		add_trait="trained_warrior"
	}
	6722.1.1 = {death="6722.1.1"}
}
6128 = {
	name="Joseth" # a Lord # Canon
	dynasty=128
	
	religion="old_gods"
	culture="old_first_man"
	
	father=8128 # Luceon Mallister
	
	6658.1.1 = {birth="6658.1.1"}
	6674.1.1 = {add_trait="knight" add_trait="trained_warrior"}
	6725.1.1 = {death="6725.1.1"}
}
7128 = {
	name="Denys" # Not a Lord Mallister
	dynasty=128
	
	religion="old_gods"
	culture="old_first_man"
	
	father=8128 # Luceon Mallister
	
	6653.1.1 = {birth="6653.1.1"}
	6669.1.1 = {add_trait="knight" add_trait="trained_warrior"}
	6673.11.2 = {death= {death_reason = death_battle}}
}
5000128 = {
	name="Edmure" # Not a Lord Mallister
	dynasty=128
	
	religion="old_gods"
	culture="old_first_man"
	
	father=8128 # Luceon Mallister
	
	6654.1.1 = {birth="6654.1.1"}
	6671.1.1 = {add_trait="knight" add_trait="trained_warrior" add_trait="content"}
	6673.11.2 = {death= {death_reason = death_battle}}
}
5100128 = {
	name="Syrelle" # Not a Lord Mallister
	dynasty=128
	female=yes
	
	religion="old_gods"
	culture="old_first_man"
	
	father=8128 # Luceon Mallister
	
	6657.1.1 = {birth="6657.1.1"}
	6688.1.1 = {death="6688.1.1"}
}
8128 = {
	name="Luceon" # Lord at the time of the Dance of Dragons
	dynasty=128
	
	religion="old_gods"
	culture="old_first_man"
	
	father=9128
	
	6634.1.1 = {birth="6634.1.1"}
	6695.1.1 = {death="6695.1.1"}
}
9128 = {
	name="Androw"
	dynasty=128
	
	religion="old_gods"
	culture="old_first_man"
	
	father=10128
	
	6608.1.1 = {birth="6608.1.1"}
	6658.1.1 = {death="6658.1.1"}
}
10128 = {
	name="Lewys"
	dynasty=128
	
	religion="old_gods"
	culture="old_first_man"
	
	father=11128
	
	6585.1.1 = {birth="6585.1.1"}
	6643.1.1 = {death="6643.1.1"}
}
11128 = {
	name="Alyn" # Not a Lord
	dynasty=128
	
	religion="old_gods"
	culture="old_first_man"
	
	father=13128
	
	6560.1.1 = {birth="6560.1.1"}
	6618.1.1 = {death="6618.1.1"}
}
12128 = {
	name="Lymond" # Lord, canon, held tourney
	dynasty=128
	
	religion="old_gods"
	culture="old_first_man"
	
	father=13128
	
	6558.1.1 = {birth="6558.1.1"}
	6574.1.1 = { add_trait = knight add_trait = skilled_warrior }
	6586.1.1 = {death="6586.1.1"}
}
13128 = {
	name="Raymun"
	dynasty=128
	
	religion="old_gods"
	culture="old_first_man"
	
	father=14128
	
	6532.1.1 = {birth="6532.1.1"}
	6576.1.1 = {death="6576.1.1"}
}
14128 = {
	name="Osmynd"
	dynasty=128
	
	religion="old_gods"
	culture="old_first_man"
	
	father=15128
	
	6505.1.1 = {birth="6505.1.1"}
	6558.1.1 = {death="6558.1.1"}
}
15128 = {
	name="Walder"
	dynasty=128
	
	religion="old_gods"
	culture="old_first_man"
	
	father=16128
	
	6476.1.1 = {birth="6476.1.1"}
	6526.1.1 = {death="6526.1.1"}
}
16128 = {
	name="Garse" #Not a Lord Mallister
	dynasty=128
	
	religion="old_gods"
	culture="old_first_man"
	
	father=17128
	mother=200128
	
	6460.1.1 = {birth="6460.1.1"}
	6498.1.1 = {death="6498.1.1"}
}
17128 = {
	name="Illifer"
	dynasty=128
	
	diplomacy = 10
	martial = 5
	stewardship = 7
	intrigue = 3
	learning = 6
	
	religion="old_gods"
	culture="old_first_man"
	
	father=555128
	mother=455128
	
	add_trait = skilled_tactician
	add_trait = ambitious
	add_trait = trusting
	add_trait = brave
	add_trait = cruel
	
	6440.1.1 = {birth="6440.1.1"}
	6456.1.1 = {
		add_trait = knight
		add_trait = skilled_warrior
	}
	6459.1.1 = {add_spouse=200128}
	6474.1.1 = { effect = { prestige = 400 } }
	6500.1.1 = {death="6500.1.1"}
}
200128 = {
	name="Alyna"
	female=yes

	religion="old_gods"	
	culture="old_first_man"

	6444.1.1 = {birth="6444.1.1"}
	6486.1.1 = {death="6486.1.1"}
}
19128 = {
	name="Jeyne"
	female=yes
	dynasty=128

	religion="old_gods"	
	culture="old_first_man"

	father=17128
	mother=200128
	
	6462.1.1 = {birth="6462.1.1"}
	6509.1.1 = {death="6509.1.1"}
}

#Ancient Mallisters
550128 = {
	name="Petyr" #Pretender River King
	dynasty=128
	
	religion="old_gods"
	culture="old_first_man"
	
	add_trait=ambitious
	add_trait=just
	add_trait=envious
	
	6280.1.1 = {birth="6280.1.1"}
	6296.1.1 = {add_trait=knight add_trait=trained_warrior}
	6298.1.1 = {add_spouse=450128}
	6321.1.1 = {
		death = {
			death_reason = death_battle
		}
	}
}
450128 = {
	name="Alys"
	female=yes

	religion="old_gods"
	culture="old_first_man"

	6280.1.1 = {birth="6280.1.1"}
	6321.1.1 = {death="6321.1.1"}
}
551128 = {
	name="Zachery"	# a lord
	dynasty=128

	religion="old_gods"
	culture="old_first_man"

	father=550128
	mother=450128

	6306.1.1 = {birth="6306.1.1"}
	6322.1.1 = {add_trait=knight add_trait=skilled_warrior}
	6324.1.1 = {add_spouse=451128}
	6362.1.1 = {death="6362.1.1"}
}
451128 = {
	name="Ellery"
	female=yes

	religion="old_gods"
	culture="old_first_man"

	6306.1.1 = {birth="6306.1.1"}
	6362.1.1 = {death="6362.1.1"}
}
552128 = {
	name="Jonthor"	# a lord
	dynasty=128

	religion="old_gods"
	culture="old_first_man"

	father=551128
	mother=451128

	6330.1.1 = {birth="6330.1.1"}
	6346.1.1 = {add_trait=knight add_trait=poor_warrior}
	6348.1.1 = {add_spouse=452128}
	6395.1.1 = {death="6395.1.1"}
}
452128 = {
	name="Shella"
	female=yes

	religion="old_gods"
	culture="old_first_man"

	6330.1.1 = {birth="6330.1.1"}
	6395.1.1 = {death="6395.1.1"}
}
553128 = {
	name="Bennifer"	# a lord
	dynasty=128

	religion="old_gods"
	culture="old_first_man"

	father=552128
	mother=452128

	6364.1.1 = {birth="6364.1.1"}
	6380.1.1 = {add_trait=knight add_trait=trained_warrior}
	6382.1.1 = {add_spouse=453128}
	6424.1.1 = {death="6424.1.1"}
}
453128 = {
	name="Sarya"
	female=yes

	religion="old_gods"
	culture="old_first_man"

	6364.1.1 = {birth="6364.1.1"}
	6424.1.1 = {death="6424.1.1"}
}
554128 = {
	name="Petyr"	# a lord
	dynasty=128

	religion="old_gods"
	culture="old_first_man"

	father=553128
	mother=453128

	6387.1.1 = {birth="6387.1.1"}
	6403.1.1 = {add_trait=knight add_trait=trained_warrior}
	6405.1.1 = {add_spouse=454128}
	6446.1.1 = {death="6446.1.1"}
}
454128 = {
	name="Emphyria"
	female=yes

	religion="old_gods"
	culture="old_first_man"

	6387.1.1 = {birth="6387.1.1"}
	6446.1.1 = {death="6446.1.1"}
}
555128 = {
	name="Walder"	# a lord
	dynasty=128

	religion="old_gods"
	culture="old_first_man"

	father=554128
	mother=454128

	6413.1.1 = {birth="6413.1.1"}
	6429.1.1 = {add_trait=knight add_trait=poor_warrior}
	6431.1.1 = {add_spouse=455128}
	6464.1.1 = {death="6464.1.1"}
}
455128 = {
	name="Tyta"
	female=yes

	religion="old_gods"
	culture="old_first_man"

	6413.1.1 = {birth="6413.1.1"}
	6464.1.1 = {death="6464.1.1"}
}
557128 = {
	name="Tytos"	# not a lord
	dynasty=128

	religion="old_gods"
	culture="old_first_man"

	father=555128
	mother=455128

	6442.1.1 = {birth="6442.1.1"}
	6458.1.1 = {add_trait=knight add_trait=skilled_warrior}
	6480.1.1 = {death="6480.1.1"}
}
