###############
### Pirates ###
###############
#Pirates of Sunstone  
### House Cithien
345982367 = {
	name="Drako"	# a lord
	dynasty=982367

	religion="pirate"
	culture="lysene"
	
	7831.1.1 = {birth="7831.1.1"}
	7880.1.1 = {death="7880.1.1"}
}
344982367 = {
	name="Tigaro"	# a lord
	dynasty=982367

	religion="pirate"
	culture="lysene"

	father=345982367
	
	7855.1.1 = {birth="7855.1.1"}
	7898.1.1 = {death="7898.1.1"}
}
343982367 = {
	name="Bysan"	# a lord
	dynasty=982367

	religion="pirate"
	culture="lysene"

	father=344982367
	
	7878.1.1 = {birth="7878.1.1"}
	7925.1.1 = {death="7925.1.1"}
}
342982367 = {
	name="Luco"	# a lord
	dynasty=982367

	religion="pirate"
	culture="lysene"

	father=343982367
	
	7905.1.1 = {birth="7905.1.1"}
	7951.1.1 = {death="7951.1.1"}
}
341982367 = {
	name="Moredo"	# a lord
	dynasty=982367

	religion="pirate"
	culture="lysene"

	father=342982367
	
	7927.1.1 = {birth="7927.1.1"}
	7973.1.1 = {death="7973.1.1"}
}
340982367 = {
	name="Sargoso"	# a lord
	dynasty=982367

	religion="pirate"
	culture="lysene"

	father=341982367
	
	7948.1.1 = {birth="7948.1.1"}
	7990.1.1 = {death="7990.1.1"}
}
100982367 = {
	name="Mero"	# a lord
	dynasty=982367

	religion="pirate"
	culture="lysene"
	
	father=340982367

	7975.1.1 = {birth="7975.1.1"}
	7991.1.1 = {add_trait=trained_warrior}
	8024.1.1 = {death="8024.1.1"}
}
101982367 = {
	name="Denyo"	# a lord
	dynasty=982367

	religion="pirate"
	culture="lysene"

	father=100982367

	8007.1.1 = {birth="8007.1.1"}
	8023.1.1 = {add_trait=trained_warrior}
	8046.1.1 = {death="8046.1.1"}
}
104982367 = {
	name="Yorko"	# a lord
	dynasty=982367

	religion="pirate"
	culture="lysene"

	father=101982367

	8030.1.1 = {birth="8030.1.1"}
	8046.1.1 = {add_trait=skilled_warrior}
	8089.1.1 = {death="8089.1.1"}
}
105982367 = {
	name="Ternesio"	# a lord
	dynasty=982367

	religion="pirate"
	culture="lysene"

	father=104982367

	8057.1.1 = {birth="8057.1.1"}
	8073.1.1 = {add_trait=poor_warrior}
	8137.1.1 = {death="8137.1.1"}
}
109982367 = {
	name="Allaquo"	# a lord
	dynasty=982367

	religion="pirate"
	culture="lysene"

	father=105982367

	8077.1.1 = {birth="8077.1.1"}
	8093.1.1 = {add_trait=trained_warrior}
	8144.1.1 = {death="8144.1.1"}
}
112982367 = {
	name="Tycho"	# a lord
	dynasty=982367

	religion="pirate"
	culture="lysene"

	father=109982367

	8115.1.1 = {birth="8115.1.1"}
	8131.1.1 = {add_trait=skilled_warrior}
	8160.1.1 = {death="8160.1.1"}
}
113982367 = {
	name="Ordello"	# a lord
	dynasty=982367

	religion="pirate"
	culture="lysene"

	father=112982367

	8137.1.1 = {birth="8137.1.1"}
	8153.1.1 = {add_trait=poor_warrior}
	8175.1.1 = {death = {death_reason = death_murder}}
}
114982367 = {
	name="Sallodhor"	# a lord
	dynasty=982367

	religion="pirate"
	culture="lysene"

	father=113982367

	8156.1.1 = {birth="8156.1.1"}
	8172.1.1 = {add_trait=skilled_warrior}
	8202.1.1 = {death = {death_reason = death_murder}}
}
115982367 = {
	name="Meralyn"	# a lord
	dynasty=982367

	religion="pirate"
	culture="lysene"

	father=114982367

	8180.1.1 = {birth="8180.1.1"}
	8196.1.1 = {add_trait=poor_warrior}
	8234.1.1 = {death="8234.1.1"}
}
116982367 = {
	name="Daario"	# a lord
	dynasty=982367

	religion="pirate"
	culture="lysene"

	father=115982367

	8208.1.1 = {birth="8208.1.1"}
	8224.1.1 = {add_trait=master_warrior}
	8254.1.1 = {death="8254.1.1"}
}
117982367 = {
	name="Tormo"	# a lord
	dynasty=982367

	religion="pirate"
	culture="lysene"

	father=116982367

	8234.1.1 = {birth="8234.1.1"}
	8250.1.1 = {add_trait=poor_warrior}
}
118982367 = {
	name="Ferrego"	# not a lord
	dynasty=982367

	religion="pirate"
	culture="lysene"

	father=117982367

	8264.1.1 = {birth="8264.1.1"}
	8280.1.1 = {add_trait=trained_warrior}
}

### House Saan
345982370 = {
	name="Dynerro"	# a lord
	dynasty=982370

	religion="pirate"
	culture="lysene"
	
	7841.1.1 = {
		birth="7841.1.1"
		create_bloodline = {
			type = saan
			has_dlc = "Holy Fury"
		}
	}
	7886.1.1 = {death="7886.1.1"}
}
344982370 = {
	name="Draqane"	# a lord
	dynasty=982370

	religion="pirate"
	culture="lysene"

	father=345982370
	
	7862.1.1 = {birth="7862.1.1"}
	7905.1.1 = {death="7905.1.1"}
}
343982370 = {
	name="Lysandro"	# a lord
	dynasty=982370

	religion="pirate"
	culture="lysene"

	father=344982370
	
	7886.1.1 = {birth="7886.1.1"}
	7931.1.1 = {death="7931.1.1"}
}
342982370 = {
	name="Silvario"	# a lord
	dynasty=982370

	religion="pirate"
	culture="lysene"

	father=343982370
	
	7909.1.1 = {birth="7909.1.1"}
	7955.1.1 = {death="7955.1.1"}
}
341982370 = {
	name="Syrodos"	# a lord
	dynasty=982370

	religion="pirate"
	culture="lysene"

	father=342982370
	
	7930.1.1 = {birth="7930.1.1"}
	7977.1.1 = {death="7977.1.1"}
}
340982370 = {
	name="Alassor"	# a lord
	dynasty=982370

	religion="pirate"
	culture="lysene"

	father=341982370
	
	7952.1.1 = {birth="7952.1.1"}
	7993.1.1 = {death="7993.1.1"}
}
100982370 = {
	name="Sargoso"	# Canon, a lord
	dynasty=982370

	religion="pirate"
	culture="lysene"
	
	father=340982370
	
	add_trait = ruthless
	add_trait = tough_soldier

	7975.1.1 = {birth="7975.1.1"}
	7991.1.1 = {add_trait=trained_warrior}
	8034.1.1 = {death="8034.1.1"}
}
101982370 = {
	name="Salassor"	# a lord
	dynasty=982370

	religion="pirate"
	culture="lysene"

	father=100982370
	
	add_trait = ruthless
	add_trait = tough_soldier

	8007.1.1 = {birth="8007.1.1"}
	8023.1.1 = {add_trait=trained_warrior}
	8057.1.1 = {death="8057.1.1"}
}
105982370 = {
	name="Collio"	# a lord
	dynasty=982370

	religion="pirate"
	culture="lysene"

	father=101982370

	8047.1.1 = {birth="8047.1.1"}
	8063.1.1 = {add_trait=poor_warrior}
	8115.1.1 = {death="8115.1.1"}
}
106982370 = {
	name="Tregar"	# a lord
	dynasty=982370

	religion="pirate"
	culture="lysene"

	father=105982370

	8075.1.1 = {birth="8075.1.1"}
	8091.1.1 = {add_trait=skilled_warrior}
	8138.1.1 = {death="8138.1.1"}
}
110982370 = {
	name="Sullehman"	# a lord, semi canon from the MUSH
	dynasty=982370

	religion="pirate"
	culture="lysene"

	father=106982370

	8101.1.1 = {birth="8101.1.1"}
	8117.1.1 = {add_trait=skilled_warrior}
	8167.1.1 = {death="8167.1.1"}
}
150982370 = {
	name="Saathos"	# Canon, Corsair King
	dynasty=982370
	
	martial=5
	stewardship=3
	diplomacy=5
	intrigue=4
	learning=2

	religion="pirate"
	culture="lysene"

	father=106982370
	
	add_trait=ambitious
	add_trait=deceitful
	add_trait=brave
	add_trait=skilled_tactician
	
	8102.1.1 = {birth="8102.1.1"}
	8118.1.1 = {add_trait=trained_warrior}
	8120.1.1 = {
		employer=113300544
		effect = { 
			if = {
				limit = { NOT = { year = 8125 } }
				religion="rhllor" 
			}	
		}
	}
	8125.1.1 = { #Becomes Corsair King
		effect = { religion="corsair" }
		add_trait=pirate
		employer=0
	}
	8155.1.1 = {
		death="8155.1.1"
		religion="corsair"
	}
}
111982370 = {
	name="Gyleno"	# a lord
	dynasty=982370

	religion="pirate"
	culture="lysene"

	father=110982370

	8128.1.1 = {birth="8128.1.1"}
	8144.1.1 = {add_trait=trained_warrior}
	8180.1.1 = {death = {death_reason = death_battle}}
}
112982370 = {
	name="Lysono"	# a lord
	dynasty=982370

	religion="pirate"
	culture="lysene"

	father=111982370

	8157.1.1 = {birth="8157.1.1"}
	8173.1.1 = {add_trait=poor_warrior}
	8219.1.1 = {death="8219.1.1"}
}
114982370 = {
	name="Noho"	# a lord
	dynasty=982370

	religion="pirate"
	culture="lysene"

	father=112982370

	8190.1.1 = {birth="8190.1.1"}
	8206.1.1 = {add_trait=skilled_warrior}
	8250.1.1 = {death="8250.1.1"}
}
115982370 = {
	name="Ordello"	# a lord
	dynasty=982370

	religion="pirate"
	culture="lysene"

	father=112982370

	8191.1.1 = {birth="8191.1.1"}
	8207.1.1 = {add_trait=trained_warrior}
	8253.1.1 = {death="8253.1.1"}
}
118982370 = {
	name="Samarro"	# Canon, Ninepenny King
	dynasty=982370

	religion="pirate"
	culture="lysene"
	
	martial=12
	diplomacy=10
	intrigue=8
	stewardship=5
	add_trait="pirate"
	add_trait=greedy
	add_trait=ruthless
	add_trait=proud

	father=115982370

	8227.1.1 = {birth="8227.1.1"}
	8243.1.1 = {add_trait=skilled_warrior}
	8259.1.1 = {
		give_nickname = nick_the_last_valyrian
		effect = { 
			set_character_flag = band_of_nine
			liege = {
				reverse_opinion = {
					who = ROOT
					modifier = opinion_band_of_nine
					years = 20
				}
			}	
		} 
	}
	8280.1.1 = {death="8280.1.1"}
}
### Salladhor ! A mighty pirate ! ###
119982370 = { 
	name="Salladhor"	# Canon
	dynasty=982370
	dna="afjfk0hbaa0"
	properties="an00ba000000000000"
	
	martial = 7
	diplomacy = 7
	stewardship = 6
	intrigue = 5
	learning = 3

	religion="pirate"
	culture="lysene"

	father=118982370

	add_trait="proud"
	add_trait="groomed"
	add_trait="charismatic_negotiator"
	add_trait="gregarious"
	add_trait="lustful"
	add_trait="greedy"
	
	8259.1.1 = {birth="8259.1.1"}
	8275.1.1 = {add_trait=trained_warrior}
	8284.1.1 = {
		effect = {
			prestige = 450
			wealth = 300
			add_artifact = regular_flagship
			new_artifact = { set_name = Valyrian }
		}
	}
	8299.2.11 = {
		effect = {
			if = {
				limit = { NOT = { year = 8300 } }
				d_dragonstone = {
					holder_scope = {
						ROOT = { join_attacker_wars = PREV }
					}
				}
			}
		}
	}
}
#concubines
419982370 = {
	name="Serala"
	female=yes

	religion="pirate"
	culture="lysene"

	8272.1.1 = {birth="8272.1.1"}
	8287.1.1 = {
		employer = 119982370
		effect = {
			liege = { add_consort = ROOT }
		}
	}
}
429982370 = {
	name="Narba"
	female=yes

	religion="pirate"
	culture="lysene"

	8277.1.1 = {birth="8277.1.1"}
	8292.1.1 = {
		employer = 119982370
		effect = {
			liege = { add_consort = ROOT }
		}
	}
}
439982370 = {
	name="Yorka"
	female=yes

	religion="pirate"
	culture="lysene"

	8278.1.1 = {birth="8278.1.1"}
	8294.1.1 = {
		employer = 119982370
		effect = {
			liege = { add_consort = ROOT }
		}
	}
}
120982370 = {
	name="Lysono"	# not a lord
	dynasty=982370

	religion="pirate"
	culture="lysene"

	father=119982370
	mother=419982370
	
	add_trait = child_of_consort

	8287.1.1 = {birth="8287.1.1"}
	8303.1.1 = {add_trait=poor_warrior}
}
121982370 = {
	name="Mellario"	# not a lord
	female=yes
	dynasty=982370

	religion="pirate"
	culture="lysene"

	father=119982370
	mother=419982370
	
	add_trait = child_of_consort

	8290.1.1 = {birth="8290.1.1"}
}
122982370 = {
	name="Byan"	# not a lord
	dynasty=982370

	religion="pirate"
	culture="lysene"

	father=119982370
	mother=429982370
	
	add_trait = child_of_consort

	8293.1.1 = {birth="8293.1.1"}
	8309.1.1 = {add_trait=skilled_warrior}
}
123982370 = {
	name="Ferrego"	# not a lord
	dynasty=982370

	religion="pirate"
	culture="lysene"

	father=119982370
	mother=439982370
	
	add_trait = child_of_consort

	8295.1.1 = {birth="8295.1.1"}
	8311.1.1 = {add_trait=trained_warrior}
}

### House Sathmantes
345300546 = {
	name="Marohr"	# a lord
	dynasty=300546

	religion="pirate"
	culture="lysene"
	
	7815.1.1 = {birth="7815.1.1"}
	7878.1.1 = {death="7878.1.1"}
}
344300546 = {
	name="Joss"	# a lord
	dynasty=300546

	religion="pirate"
	culture="lysene"

	father=345300546
	
	7839.1.1 = {birth="7839.1.1"}
	7892.1.1 = {death="7892.1.1"}
}
343300546 = {
	name="Joraquo"	# a lord
	dynasty=300546

	religion="pirate"
	culture="lysene"

	father=344300546
	
	7864.1.1 = {birth="7864.1.1"}
	7908.1.1 = {death="7908.1.1"}
}
342300546 = {
	name="Conos"	# a lord
	dynasty=300546

	religion="pirate"
	culture="lysene"

	father=343300546
	
	7888.1.1 = {birth="7888.1.1"}
	7935.1.1 = {death="7935.1.1"}
}
341300546 = {
	name="Syrno"	# a lord
	dynasty=300546

	religion="pirate"
	culture="lysene"

	father=342300546
	
	7911.1.1 = {birth="7911.1.1"}
	7963.1.1 = {death="7963.1.1"}
}
340300546 = {
	name="Rallono"	# a lord
	dynasty=300546

	religion="pirate"
	culture="lysene"

	father=341300546
	
	7933.1.1 = {birth="7933.1.1"}
	7980.1.1 = {death="7980.1.1"}
}
150300546 = {
	name="Vaelar"	# a lord
	dynasty=300546

	religion="pirate"
	culture="lysene"
	
	father=340300546

	7961.1.1 = {birth="7961.1.1"}
	8036.1.1 = {death="8036.1.1"}
}
100300546 = {
	name="Roro"	# a lord
	dynasty=300546

	religion="pirate"
	culture="lysene"

	father=150300546

	7985.1.1 = {birth="7985.1.1"}
	8026.1.1 = {add_trait=poor_warrior}
	8079.1.1 = {death="8079.1.1"}
}
105300546 = {
	name="Sallodhor"	# a lord
	dynasty=300546

	religion="pirate"
	culture="lysene"

	father=100300546

	8040.1.1 = {birth="8040.1.1"}
	8056.1.1 = {add_trait=trained_warrior}
	8106.1.1 = {death="8106.1.1"}
}
106300546 = {
	name="Tagganaro"	# a lord
	dynasty=300546

	religion="pirate"
	culture="lysene"

	father=105300546

	8064.1.1 = {birth="8064.1.1"}
	8129.1.1 = {death="8129.1.1"}
}
109300546 = {
	name="Syrio"	# a lord
	dynasty=300546

	religion="pirate"
	culture="lysene"

	father=106300546

	8093.1.1 = {birth="8093.1.1"}
	8109.1.1 = {add_trait=poor_warrior}
	8168.1.1 = {death="8168.1.1"}
}
112300546 = {
	name="Ordello"	# a lord
	dynasty=300546

	religion="pirate"
	culture="lysene"

	father=109300546

	8116.1.1 = {birth="8116.1.1"}
	8132.1.1 = {add_trait=poor_warrior}
	8196.1.1 = {death="8196.1.1"}
}
115300546 = {
	name="Illyrio"	# a lord
	dynasty=300546

	religion="pirate"
	culture="lysene"

	father=112300546

	8143.1.1 = {birth="8143.1.1"}
	8159.1.1 = {add_trait=trained_warrior}
	8205.1.1 = {death="8205.1.1"}
}
117300546 = {
	name="Ordello"	# a lord
	dynasty=300546

	religion="pirate"
	culture="lysene"

	father=115300546

	8167.1.1 = {birth="8167.1.1"}
	8183.1.1 = {add_trait=trained_warrior}
	8227.1.1 = {death="8227.1.1"}
}
118300546 = {
	name="Izembaro"	# a lord
	dynasty=300546

	religion="pirate"
	culture="lysene"

	father=117300546

	8192.1.1 = {birth="8192.1.1"}
	8208.1.1 = {add_trait=poor_warrior}
	8210.1.1 = {add_spouse=218300546}
	8249.1.1 = {death="8249.1.1"}
}
218300546 = {
	name="Cossoma"
	female=yes

	religion="pirate"
	culture="lysene"

	8192.1.1 = {birth="8192.1.1"}
	8249.1.1 = {death="8249.1.1"}
}
121300546 = {
	name="Yna"	# not a lord
	female=yes
	dynasty=300546

	religion="pirate"
	culture="lysene"

	father=118300546
	mother=218300546

	8218.1.1 = {birth="8218.1.1"}
	8274.1.1 = {death="8274.1.1"}
}
122300546 = {
	name="Tycho"	# a lord
	dynasty=300546

	religion="pirate"
	culture="lysene"

	father=118300546
	mother=218300546

	8220.1.1 = {birth="8220.1.1"}
	8236.1.1 = {add_trait=poor_warrior}
	8274.1.1 = {death="8274.1.1"}
}
123300546 = {
	name="Ezzere"	# not a lord
	female=yes
	dynasty=300546

	religion="pirate"
	culture="lysene"

	father=118300546
	mother=218300546

	8222.1.1 = {birth="8222.1.1"}
	8258.1.1 = {death="8258.1.1"}
}
124300546 = {
	name="Lanna"	# not a lord
	female=yes
	dynasty=300546

	religion="pirate"
	culture="lysene"

	father=118300546
	mother=218300546

	8225.1.1 = {birth="8225.1.1"}
	8294.1.1 = {death="8294.1.1"}
}
125300546 = {
	name="Khorane"	# canon
	dynasty=300546

	religion="pirate"
	culture="lysene"

	father=122300546

	8251.1.1 = {birth="8251.1.1"}
	8267.1.1 = {add_trait=poor_warrior}
	8270.1.1 = {add_spouse=225300546}
}
225300546 = {
	name="Nyssa"
	female=yes

	religion="pirate"
	culture="lysene"

	8251.1.1 = {birth="8251.1.1"}
}
126300546 = {
	name="Yorko"	# not a lord
	dynasty=300546

	religion="pirate"
	culture="lysene"

	father=122300546

	8253.1.1 = {birth="8253.1.1"}
	8269.1.1 = {add_trait=poor_warrior}
}
151300546 = {
	name="Gyleno"	# not a lord
	dynasty=300546

	religion="pirate"
	culture="lysene"

	father=125300546
	mother=225300546

	8276.1.1 = {birth="8276.1.1"}
}
132300546 = {
	name="Tycho"	# not a lord
	dynasty=300546

	religion="pirate"
	culture="lysene"

	father=125300546
	mother=225300546

	8280.1.1 = {birth="8280.1.1"}
}

### Bloodstone rulers to stop fix targaryen title history
### House Vunatis
345982375 = {
	name="Dorellan"	# a lord
	dynasty=982375

	religion="pirate"
	culture="lysene"
	
	add_trait=poison
	
	7825.1.1 = {birth="7825.1.1"}
	7882.1.1 = {death="7882.1.1"}
}
344982375 = {
	name="Lysono"	# a lord
	dynasty=982375

	religion="pirate"
	culture="lysene"

	father=345982375
	
	7851.1.1 = {birth="7851.1.1"}
	7882.1.1 = {add_trait=poison}
	7902.1.1 = {death="7902.1.1"}
}
343982375 = {
	name="Hegar"	# a lord
	dynasty=982375

	religion="pirate"
	culture="lysene"

	father=344982375
	
	7872.1.1 = {birth="7872.1.1"}
	7902.1.1 = {add_trait=poison}
	7920.1.1 = {death="7920.1.1"}
}
342982375 = {
	name="Vareo"	# a lord
	dynasty=982375

	religion="pirate"
	culture="lysene"

	father=343982375
	
	7897.1.1 = {birth="7897.1.1"}
	7920.1.1 = {add_trait=poison}
	7945.1.1 = {death="7945.1.1"}
}
341982375 = {
	name="Lothorio"	# a lord
	dynasty=982375

	religion="pirate"
	culture="lysene"

	father=342982375
	
	7919.1.1 = {birth="7919.1.1"}
	7945.1.1 = {add_trait=poison}
	7965.1.1 = {death="7965.1.1"}
}
340982375 = {
	name="Valladhor"	# a lord
	dynasty=982375

	religion="pirate"
	culture="lysene"

	father=341982375
	
	7942.1.1 = {birth="7942.1.1"}
	7965.1.1 = {add_trait=poison}
	7985.1.1 = {death="7985.1.1"}
}
1001639 = {
	name="Syrio"	# a lord
	dynasty=982375

	religion="pirate"
	culture="lysene"
	
	father=340982375

	7965.1.1 = {birth="7965.1.1"}
	7981.1.1 = {add_trait=skilled_warrior}
	7985.1.1 = {add_trait=poison}
	8023.1.1 = {death="8023.1.1"}
}
1011639 = {
	name="Mero"	# a lord
	dynasty=982375

	religion="pirate"
	culture="lysene"

	father=1001639

	7994.1.1 = {birth="7994.1.1"}
	8010.1.1 = {add_trait=skilled_warrior}
	8023.1.1 = {add_trait = poison}
	8032.1.1 = {death="8032.1.1"}
}
1071639 = {
	name="Moredo"	# a lord
	dynasty=982375

	religion="pirate"
	culture="lysene"

	father=1011639

	8025.1.1 = {birth="8025.1.1"}
	8032.1.1 = {add_trait = poison}
	8041.1.1 = {add_trait=trained_warrior}
	8081.1.1 = {death="8081.1.1"}
}
1081639 = {
	name="Yorko"	# a lord
	dynasty=982375

	religion="pirate"
	culture="lysene"

	father=1071639

	8054.1.1 = {birth="8054.1.1"}
	8070.1.1 = {add_trait=trained_warrior}
	8081.1.1 = {add_trait = poison}
	8129.1.1 = {death="8129.1.1"}
}
1101639 = {
	name="Meralyn"	# a lord
	dynasty=982375

	religion="pirate"
	culture="lysene"

	father=1081639

	8086.1.1 = {birth="8086.1.1"}
	8102.1.1 = {add_trait=skilled_warrior}
	8129.1.1 = {add_trait = poison}
	8131.1.1 = {death="8131.1.1"}
}
1111639 = {
	name="Areo"	# a lord
	dynasty=982375

	religion="pirate"
	culture="lysene"

	father=1101639

	8115.1.1 = {birth="8115.1.1"}
	8131.1.1 = {
		add_trait=skilled_warrior
		add_trait=poison
	}
	8153.1.1 = {death = {death_reason = death_execution}}
}
1141639 = {
	name="Beqqo"	# a lord
	dynasty=982375

	religion="pirate"
	culture="lysene"

	father=1111639

	8141.1.1 = {birth="8141.1.1"}
	8153.1.1 = {add_trait = poison}
	8157.1.1 = {add_trait=trained_warrior}
	8185.1.1 = {death = {death_reason = death_battle}}
}
1151639 = {
	name="Moreo"	# a lord
	dynasty=982375

	religion="pirate"
	culture="lysene"

	father=1141639

	8159.1.1 = {birth="8159.1.1"}
	8175.1.1 = {add_trait=trained_warrior}
	8185.1.1 = {add_trait = poison}
	8217.1.1 = {death="8217.1.1"}
}
1171639 = {
	name="Denyo"	# a lord
	dynasty=982375

	religion="pirate"
	culture="lysene"

	father=1141639

	8164.1.1 = {birth="8164.1.1"}
	8180.1.1 = {add_trait=trained_warrior}
	8217.1.1 = {add_trait = poison}
	8222.1.1 = {death="8222.1.1"}
}
1191639 = {
	name="Illyrio"	# a lord
	dynasty=982375

	religion="pirate"
	culture="lysene"

	father=1171639

	8195.1.1 = {birth="8195.1.1"}
	8211.1.1 = {add_trait=poor_warrior}
	8213.1.1 = {add_spouse=4191639}
	8222.1.1 = {add_trait = poison}
	8251.1.1 = {death = {death_reason = death_accident}}
}
4191639 = {
	name="Ferrega"
	female=yes

	religion="pirate"
	culture="lysene"

	8195.1.1 = {birth="8195.1.1"}
	8260.1.1 = {death="8260.1.1"}
}
10001639 = {
	name="Roro"	# a lord
	dynasty=982375

	religion="pirate"
	culture="lysene"

	father=1191639
	mother=4191639

	8228.1.1 = {birth="8228.1.1"}
	8244.1.1 = {add_trait=skilled_warrior}
	8246.1.1 = {add_spouse=40001639}
	8260.11.11 = {add_trait = poison}
	8281.1.1 = {death = {death_reason = death_battle}}
}
40001639 = {
	name="Narba"
	female=yes

	religion="pirate"
	culture="lysene"

	8228.1.1 = {birth="8228.1.1"}
	8281.1.1 = {death="8281.1.1"}
}
1201639 = {
	name="Sallodhor"	# not a lord
	dynasty=982375

	religion="pirate"
	culture="lysene"

	father=1191639
	mother=4191639

	8230.1.1 = {birth="8230.1.1"}
	8246.1.1 = {add_trait=poor_warrior}
	8283.1.1 = {death="8283.1.1"}
}
1211639 = {
	name="Pynta"	# not a lord
	female=yes
	dynasty=982375

	religion="pirate"
	culture="lysene"

	father=1191639
	mother=4191639

	8231.1.1 = {birth="8231.1.1"}
	8280.1.1 = {death="8280.1.1"}
}
10011639 = {
	name="Lothea"	# not a lord
	female=yes
	dynasty=982375

	religion="pirate"
	culture="lysene"

	father=10001639
	mother=40001639

	8251.1.1 = {birth="8251.1.1"}
	8327.1.1 = {death="8327.1.1"}
}
10021639 = {
	name = "Gyleno"	# a lord
	dynasty = 982375
	dna = blfdepiddfu
	properties = mn0eck000000

	religion = pirate
	culture = lysene

	father = 10001639
	mother = 40001639
	
	diplomacy = 6
	martial = 6
	stewardship = 5
	intrigue = 5
	learning = 3
	
	add_trait = fair_1
	add_trait = ruthless
	add_trait = brave
	add_trait = deceitful
	add_trait = gregarious
	add_trait = lustful

	8262.1.1 = { birth= "8262.1.1" }
	8278.1.1 = {
		add_trait = tough_soldier
		add_trait = trained_warrior
		add_trait = duelist
		add_trait = trickster
	}
	8280.1.1 = { add_spouse=40021639 }
	8281.1.1 = {add_trait = poison}
}
40021639 = {
	name="Betharios"
	female=yes

	religion="pirate"
	culture="lysene"

	8252.1.1 = {birth="8252.1.1"}
	8318.1.1 = {death="8318.1.1"}
}
# 10031639 = {
	# name="Moredo"	# not a lord
	# dynasty=982375

	# religion="pirate"
	# culture="lysene"

	# father=10001639
	# mother=40001639

	# 8254.1.1 = {birth="8254.1.1"}
	# 8270.1.1 = {add_trait=skilled_warrior}
	# 8298.1.1 = {death="8298.1.1"}
# }
# 10041639 = {
	# name="Jaqen"	# not a lord
	# dynasty=982375

	# religion="pirate"
	# culture="lysene"

	# father=10001639
	# mother=40001639

	# 8255.1.1 = {birth="8255.1.1"}
	# 8271.1.1 = {add_trait=trained_warrior}
	# 8289.1.1 = {death="8289.1.1"}
# }
10051639 = {
	name="Gylora"	# not a lord
	female=yes
	dynasty=982375

	religion="pirate"
	culture="lysene"

	father=10001639
	mother=40001639

	8257.1.1 = {birth="8257.1.1"}
	8297.1.1 = {death = {death_reason = death_dungeon}}
}
10061639 = {
	name="Tormo"	# not a lord
	dynasty=982375

	religion="pirate"
	culture="lysene"

	father=10021639
	mother=40021639

	8289.1.1 = {birth="8289.1.1"}
}
10071639 = {
	name="Daario"	# not a lord
	dynasty=982375

	religion="pirate"
	culture="lysene"

	father=10021639
	mother=40021639

	8292.1.1 = {birth="8292.1.1"}
}
10081639 = {
	name="Ternesia"	# not a lord
	female=yes
	dynasty=982375

	religion="pirate"
	culture="lysene"

	father=10021639
	mother=40021639

	8296.1.1 = {birth="8296.1.1"}
}
10091639 = {
	name="Alia"	# not a lord
	female=yes
	dynasty=982375

	religion="pirate"
	culture="lysene"

	mother=10051639

	8297.1.1 = {birth="8297.1.1"}
}

### House Quanis
34556821 = {
	name="Alassor"	# a lord
	dynasty=56821

	religion="pirate"
	culture="lysene"
	
	7828.1.1 = {birth="7828.1.1"}
	7874.1.1 = {death="7874.1.1"}
}
34456821 = {
	name="Saathos"	# a lord
	dynasty=56821

	religion="pirate"
	culture="lysene"

	father=34556821
	
	7856.1.1 = {birth="7856.1.1"}
	7910.1.1 = {death="7910.1.1"}
}
34356821 = {
	name="Tigaro"	# a lord
	dynasty=56821

	religion="pirate"
	culture="lysene"

	father=34456821
	
	7877.1.1 = {birth="7877.1.1"}
	7923.1.1 = {death="7923.1.1"}
}
34256821 = {
	name="Pereno"	# a lord
	dynasty=56821

	religion="pirate"
	culture="lysene"

	father=34356821
	
	7899.1.1 = {birth="7899.1.1"}
	7950.1.1 = {death="7950.1.1"}
}
34156821 = {
	name="Essanos"	# a lord
	dynasty=56821

	religion="pirate"
	culture="lysene"

	father=34256821
	
	7925.1.1 = {birth="7925.1.1"}
	7972.1.1 = {death="7972.1.1"}
}
34056821 = {
	name="Qorello"	# a lord
	dynasty=56821

	religion="pirate"
	culture="lysene"

	father=34156821
	
	7949.1.1 = {birth="7949.1.1"}
	7995.1.1 = {death="7995.1.1"}
}
10056821 = {
	name="Ordello"	# a lord
	dynasty=56821

	religion="pirate"
	culture="lysene"
	
	father=34056821

	7968.1.1 = {birth="7968.1.1"}
	7984.1.1 = {add_trait=poor_warrior}
	8024.1.1 = {death="8024.1.1"}
}
10156821 = {
	name="Moreo"	# a lord
	dynasty=56821

	religion="pirate"
	culture="lysene"

	father=10056821

	7995.1.1 = {birth="7995.1.1"}
	8011.1.1 = {add_trait=skilled_warrior}
	8057.1.1 = {death="8057.1.1"}
}
10456821 = {
	name="Moredo"	# a lord
	dynasty=56821

	religion="pirate"
	culture="lysene"

	father=10156821

	8014.1.1 = {birth="8014.1.1"}
	8030.1.1 = {add_trait=poor_warrior}
	8066.1.1 = {death="8066.1.1"}
}
10856821 = {
	name="Jaqen"	# a lord
	dynasty=56821

	religion="pirate"
	culture="lysene"

	father=10456821

	8046.1.1 = {birth="8046.1.1"}
	8062.1.1 = {add_trait=poor_warrior}
	8102.1.1 = {death="8102.1.1"}
}
10956821 = {
	name="Terro"	# a lord
	dynasty=56821

	religion="pirate"
	culture="lysene"

	father=10856821

	8071.1.1 = {birth="8071.1.1"}
	8087.1.1 = {add_trait=poor_warrior}
	8106.1.1 = {death="8106.1.1"}
}
11156821 = {
	name="Narbo"	# a lord
	dynasty=56821

	religion="pirate"
	culture="lysene"

	father=10956821

	8093.1.1 = {birth="8093.1.1"}
	8109.1.1 = {add_trait=poor_warrior}
	8149.1.1 = {death="8149.1.1"}
}
600000062 = {
	name="Vaario"	# canon, MUSH
	dynasty=56821

	religion="pirate"
	culture="lysene"

	father=11156821

	martial=6
	diplomacy=2
	intrigue=5
	stewardship=2
	add_trait="charismatic_negotiator"

	8114.1.1 = {birth="8114.1.1"}
	8130.1.1 = {add_trait=trained_warrior}
	8159.1.1 = {death="8159.1.1"}
}
11656821 = {
	name="Noho"	# a lord
	dynasty=56821

	religion="pirate"
	culture="lysene"

	father=600000062

	8137.1.1 = {birth="8137.1.1"}
	8153.1.1 = {add_trait=trained_warrior}
	8178.1.1 = {death="8178.1.1"}
}
11856821 = {
	name="Ferrego"	# a lord
	dynasty=56821

	religion="pirate"
	culture="lysene"

	father=11656821

	8165.1.1 = {birth="8165.1.1"}
	8181.1.1 = {add_trait=trained_warrior}
	8218.1.1 = {death="8218.1.1"}
}
12256821 = {
	name="Meralyn"	# a lord
	dynasty=56821

	religion="pirate"
	culture="lysene"

	father=11856821

	8186.1.1 = {birth="8186.1.1"}
	8202.1.1 = {add_trait=skilled_warrior}
	8204.1.1 = {add_spouse=42256821}
	8231.1.1 = {death="8231.1.1"}
}
42256821 = {
	name="Orios"
	female=yes

	religion="pirate"
	culture="lysene"

	8186.1.1 = {birth="8186.1.1"}
	8231.1.1 = {death="8231.1.1"}
}
12456821 = {
	name="Bellegere"	# not a lord
	female=yes
	dynasty=56821

	religion="pirate"
	culture="lysene"

	father=12256821
	mother=42256821

	8209.1.1 = {birth="8209.1.1"}
	8264.1.1 = {death="8264.1.1"}
}
12556821 = {
	name="Roro"	# a lord
	dynasty=56821

	religion="pirate"
	culture="lysene"

	father=12256821
	mother=42256821

	8212.1.1 = {birth="8212.1.1"}
	8228.1.1 = {add_trait=poor_warrior}
	8230.1.1 = {add_spouse=42556821}
	8265.1.1 = {death="8265.1.1"}
}
42556821 = {
	name="Taena"
	female=yes

	religion="pirate"
	culture="lysene"

	8212.1.1 = {birth="8212.1.1"}
	8265.1.1 = {death="8265.1.1"}
}
12756821 = {
	name="Khorane"	# a lord
	dynasty=56821

	religion="pirate"
	culture="lysene"

	father=12556821
	mother=42556821

	8246.1.1 = {birth="8246.1.1"}
	8262.1.1 = {add_trait=poor_warrior}
	8264.1.1 = {add_spouse=42756821}
}
42756821 = {
	name="Cossoma"
	female=yes

	religion="pirate"
	culture="lysene"

	8246.1.1 = {birth="8246.1.1"}
}
12856821 = {
	name="Moredea"	# not a lord
	female=yes
	dynasty=56821

	religion="pirate"
	culture="lysene"

	father=12556821
	mother=42556821

	8249.1.1 = {birth="8249.1.1"}
	8276.1.1 = {death = {death_reason = death_murder}}
}
12956821 = {
	name="Myrmello"	# not a lord
	dynasty=56821

	religion="pirate"
	culture="lysene"

	father=12556821
	mother=42556821

	8250.1.1 = {birth="8250.1.1"}
	8266.1.1 = {add_trait=poor_warrior}
	8288.1.1 = {death = {death_reason = death_execution}}
}
13056821 = {
	name="Alia"	# not a lord
	female=yes
	dynasty=56821

	religion="pirate"
	culture="lysene"

	father=12756821
	mother=42756821

	8275.1.1 = {birth="8275.1.1"}
}
13156821 = {
	name="Areo"	# not a lord
	dynasty=56821

	religion="pirate"
	culture="lysene"

	father=12756821
	mother=42756821

	8278.1.1 = {birth="8278.1.1"}
	8294.1.1 = {add_trait=trained_warrior}
	8296.1.1 = {add_spouse=43156821}
}
43156821 = {
	name="Umma"
	female=yes

	religion="pirate"
	culture="lysene"

	8278.1.1 = {birth="8278.1.1"}
}
13256821 = {
	name="Bellegere"	# not a lord
	female=yes
	dynasty=56821

	religion="pirate"
	culture="lysene"

	father=13156821
	mother=43156821

	8298.1.1 = {birth="8298.1.1"}
}
13356821 = {
	name="Orbela"	# not a lord
	female=yes
	dynasty=56821

	religion="pirate"
	culture="lysene"

	father=13156821
	mother=43156821

	8299.1.1 = {birth="8299.1.1"}
}

#Pirates of Torturers Deep
### House Vynenohr
345300206 = {
	name="Conio"	# a lord
	dynasty=300206

	religion="pirate"
	culture="tyroshi"
	
	7836.1.1 = {birth="7836.1.1"}
	7883.1.1 = {death="7883.1.1"}
}
344300206 = {
	name="Nakaario"	# a lord
	dynasty=300206

	religion="pirate"
	culture="tyroshi"

	father=345300206
	
	7863.1.1 = {birth="7863.1.1"}
	7915.1.1 = {death="7915.1.1"}
}
343300206 = {
	name="Ryllo"	# a lord
	dynasty=300206

	religion="pirate"
	culture="tyroshi"

	father=344300206
	
	7885.1.1 = {birth="7885.1.1"}
	7944.1.1 = {death="7944.1.1"}
}
342300206 = {
	name="Haario"	# a lord
	dynasty=300206

	religion="pirate"
	culture="tyroshi"

	father=343300206
	
	7907.1.1 = {birth="7907.1.1"}
	7961.1.1 = {death="7961.1.1"}
}
341300206 = {
	name="Ballio"	# a lord
	dynasty=300206

	religion="pirate"
	culture="tyroshi"

	father=342300206
	
	7928.1.1 = {birth="7928.1.1"}
	7981.1.1 = {death="7981.1.1"}
}
340300206 = {
	name="Daario"	# a lord
	dynasty=300206

	religion="pirate"
	culture="tyroshi"

	father=341300206
	
	7950.1.1 = {birth="7950.1.1"}
	7989.1.1 = {death="7989.1.1"}
}
100300206 = {
	name="Ordello"	# a lord
	dynasty=300206

	religion="pirate"
	culture="tyroshi"
	
	father=340300206

	7969.1.1 = {birth="7969.1.1"}
	7985.1.1 = {add_trait=trained_warrior}
	8015.1.1 = {death="8015.1.1"}
}
101300206 = {
	name="Pynto"	# a lord
	dynasty=300206

	religion="pirate"
	culture="tyroshi"

	father=100300206

	7994.1.1 = {birth="7994.1.1"}
	8010.1.1 = {add_trait=poor_warrior}
	8040.1.1 = {death="8040.1.1"}
}
102300206 = {
	name="Lotho"	# a lord
	dynasty=300206

	religion="pirate"
	culture="tyroshi"

	father=101300206

	8014.1.1 = {birth="8014.1.1"}
	8030.1.1 = {add_trait=poor_warrior}
	8072.1.1 = {death="8072.1.1"}
}
105300206 = {
	name="Moredo"	# a lord
	dynasty=300206

	religion="pirate"
	culture="tyroshi"

	father=102300206

	8040.1.1 = {birth="8040.1.1"}
	8056.1.1 = {add_trait=skilled_warrior}
	8110.1.1 = {death="8110.1.1"}
}
109300206 = {
	name="Areo"	# a lord
	dynasty=300206

	religion="pirate"
	culture="tyroshi"

	father=105300206

	8072.1.1 = {birth="8072.1.1"}
	8088.1.1 = {add_trait=trained_warrior}
	8143.1.1 = {death="8143.1.1"}
}
112300206 = {
	name="Lotho"	# a lord
	dynasty=300206

	religion="pirate"
	culture="tyroshi"

	father=109300206

	8096.1.1 = {birth="8096.1.1"}
	8112.1.1 = {add_trait=trained_warrior}
	8146.1.1 = {death="8146.1.1"}
}
113300206 = {
	name="Tregar"	# a lord
	dynasty=300206

	religion="pirate"
	culture="tyroshi"

	father=112300206

	8115.1.1 = {birth="8115.1.1"}
	8131.1.1 = {add_trait=skilled_warrior}
	8175.1.1 = {death="8175.1.1"}
}
115300206 = {
	name="Izembaro"	# a lord
	dynasty=300206

	religion="pirate"
	culture="tyroshi"

	father=113300206

	8139.1.1 = {birth="8139.1.1"}
	8155.1.1 = {add_trait=skilled_warrior}
	8182.1.1 = {death="8182.1.1"}
}
118300206 = {
	name="Syrio"	# a lord
	dynasty=300206

	religion="pirate"
	culture="tyroshi"

	father=115300206

	8165.1.1 = {birth="8165.1.1"}
	8181.1.1 = {add_trait=trained_warrior}
	8200.1.1 = {death="8200.1.1"}
}
120300206 = {
	name="Cossomo"	# a lord
	dynasty=300206

	religion="pirate"
	culture="tyroshi"

	father=118300206

	8192.1.1 = {birth="8192.1.1"}
	8208.1.1 = {add_trait=skilled_warrior}
	8210.1.1 = {add_spouse=420300206}
	8254.1.1 = {death="8254.1.1"}
}
420300206 = {
	name="Serala"
	female=yes

	religion="pirate"
	culture="tyroshi"

	8192.1.1 = {birth="8192.1.1"}
	8254.1.1 = {death="8254.1.1"}
}
122300206 = {
	name="Joss"	# a lord
	dynasty=300206

	religion="pirate"
	culture="tyroshi"

	father=120300206
	mother=420300206

	8219.1.1 = {birth="8219.1.1"}
	8235.1.1 = {add_trait=trained_warrior}
	8237.1.1 = {add_spouse=422300206}
	8291.1.1 = {death="8291.1.1"}
}
422300206 = {
	name="Taena"
	female=yes

	religion="pirate"
	culture="tyroshi"

	8219.1.1 = {birth="8219.1.1"}
	8291.1.1 = {death="8291.1.1"}
}
123300206 = {
	name="Allaquo"	# not a lord
	dynasty=300206

	religion="pirate"
	culture="tyroshi"

	father=120300206
	mother=420300206

	8221.1.1 = {birth="8221.1.1"}
	8237.1.1 = {add_trait=skilled_warrior}
	8263.1.1 = {death="8263.1.1"}
}
124300206 = {
	name="Yna"	# not a lord
	female=yes
	dynasty=300206

	religion="pirate"
	culture="tyroshi"

	father=120300206
	mother=420300206

	8222.1.1 = {birth="8222.1.1"}
	8269.1.1 = {death="8269.1.1"}
}
125300206 = {
	name="Daario"	# a lord
	dynasty=300206

	religion="pirate"
	culture="tyroshi"

	father=122300206
	mother=422300206

	8253.1.1 = {birth="8253.1.1"}
	8269.1.1 = {add_trait=poor_warrior}
	8271.1.1 = {add_spouse=425300206}
}
425300206 = {
	name="Gylora"
	female=yes

	religion="pirate"
	culture="tyroshi"

	8253.1.1 = {birth="8253.1.1"}
}
126300206 = {
	name="Izembaro"	# not a lord
	dynasty=300206

	religion="pirate"
	culture="tyroshi"

	father=122300206
	mother=422300206

	8256.1.1 = {birth="8256.1.1"}
	8272.1.1 = {add_trait=skilled_warrior}
}
127300206 = {
	name="Gyloro"	# not a lord
	dynasty=300206

	religion="pirate"
	culture="tyroshi"

	father=125300206
	mother=425300206

	8281.1.1 = {birth="8281.1.1"}
	8297.1.1 = {add_trait=skilled_warrior}
}
128300206 = {
	name="Brea"	# not a lord
	female=yes
	dynasty=300206

	religion="pirate"
	culture="tyroshi"

	father=125300206
	mother=425300206

	8283.1.1 = {birth="8283.1.1"}
}

####################
### Band of Nine ###
####################
600000064 = {
	name="Old Mother"	# Canon, Ninepenny King, "Old Mother" pirate queen
	female=yes
	dynasty=11300907

	religion="pirate"
	culture="lysene"
	
	martial=6
	diplomacy=10
	intrigue=8
	stewardship=5
	add_trait="pirate"
	add_trait=greedy
	add_trait=ruthless
	add_trait=proud

	8214.1.1 = {birth="8214.1.1"}
	8243.1.1 = {add_trait=skilled_warrior}
	8259.1.1 = {
		effect = { 
			set_character_flag = band_of_nine
			liege = {
				reverse_opinion = {
					who = ROOT
					modifier = opinion_band_of_nine
					years = 20
				}
			}	
		} 
	}
	8270.1.1 = {death="8270.1.1"}
}
600000065 = {
	name="Tom"	# Canon, Ninepenny King, Spotted Tom the Butcher, captain of one of the free companies
	dynasty=11300906

	religion="the_seven"
	culture="stormlander"
	
	martial=9
	intrigue=4

	add_trait=greedy
	add_trait=ruthless
	add_trait=proud
	add_trait=cruel
	add_trait=deceitful

	8227.1.1 = {birth="8227.1.1"}
	8243.1.1 = {
		add_trait=skilled_warrior
		give_nickname = nick_spotted_butcher
	}
	8259.1.1 = {
		effect = { 
			set_character_flag = band_of_nine
			liege = {
				reverse_opinion = {
					who = ROOT
					modifier = opinion_band_of_nine
					years = 20
				}
			}	
		} 
	}
	8270.1.1 = {death="8270.1.1"}
}
600000066 = {
	name="Mero" # Canon, Ninepenny King, Nine Eyes, captain of Jolly Fellows
	dynasty=11300905

	religion="rhllor"
	culture="pentosi"
	
	martial=10
	intrigue=4

	add_trait=greedy
	add_trait=ruthless
	add_trait=proud
	add_trait=cruel

	8224.1.1 = {birth="8224.1.1"}
	8243.1.1 = {
		add_trait=skilled_warrior
		give_nickname = nick_nine_eyes
	}
	8259.1.1 = {
		effect = { 
			set_character_flag = band_of_nine
			liege = {
				reverse_opinion = {
					who = ROOT
					modifier = opinion_band_of_nine
					years = 20
				}
			}	
		} 
	}
	8266.1.1 = {death="8266.1.1"}
}
600000067 = {
	name="Liomond" # Canon, Ninepenny King, Liamond Lashare the Lord of Battles, captain of one of the free companies
	dynasty=11300713

	religion="rhllor"
	culture="myrman"
	
	martial=12
	diplomacy=5
	intrigue=8
	stewardship=5

	add_trait=greedy
	add_trait=ruthless
	add_trait=proud
	add_trait=cruel

	8226.1.1 = {birth="8226.1.1"}
	8243.1.1 = {
		add_trait=skilled_warrior
	}
	8250.1.1 = {
		give_nickname = nick_lord_battles
	}
	8259.1.1 = {
		effect = { 
			set_character_flag = band_of_nine
			liege = {
				reverse_opinion = {
					who = ROOT
					modifier = opinion_band_of_nine
					years = 20
				}
			}	
		} 
	}
	8266.1.1 = {death="8266.1.1"}
}