### House Izven of Lhazosh
34555916 = {
	name="Kazar"	# a lord
	dynasty=55916
	
	religion="great_shepherd"
	culture="lhazareen"
	
	7817.1.1 = {birth="7817.1.1"}
	7881.1.1 = {death="7881.1.1"}
}
34455916 = {
	name="Temir"	# a lord
	dynasty=55916
	
	religion="great_shepherd"
	culture="lhazareen"
	
	father=34555916
	
	7840.1.1 = {birth="7840.1.1"}
	7895.1.1 = {death="7895.1.1"}
}
34355916 = {
	name="Khatir"	# a lord
	dynasty=55916
	
	religion="great_shepherd"
	culture="lhazareen"
	
	father=34455916
	
	7863.1.1 = {birth="7863.1.1"}
	7918.1.1 = {death="7918.1.1"}
}
34255916 = {
	name="Yencepi"	# a lord
	dynasty=55916
	
	religion="great_shepherd"
	culture="lhazareen"
	
	father=34355916
	
	7887.1.1 = {birth="7887.1.1"}
	7939.1.1 = {death="7939.1.1"}
}
34155916 = {
	name="Zebulun"	# a lord
	dynasty=55916
	
	religion="great_shepherd"
	culture="lhazareen"
	
	father=34255916
	
	7915.1.1 = {birth="7915.1.1"}
	7968.1.1 = {death="7968.1.1"}
}
34055916 = {
	name="Nisi"	# a lord
	dynasty=55916
	
	religion="great_shepherd"
	culture="lhazareen"
	
	father=34155916
	
	7939.1.1 = {birth="7939.1.1"}
	7985.1.1 = {death="7985.1.1"}
}
10055916 = {
	name="Jommo"	# a lord
	dynasty=55916

	religion="great_shepherd"
	culture="lhazareen"
	
	father=34055916

	7965.1.1 = {birth="7965.1.1"}
	7981.1.1 = {add_trait=poor_warrior}
	8018.1.1 = {death="8018.1.1"}
}
10355916 = {
	name="Fogo"	# a lord
	dynasty=55916

	religion="great_shepherd"
	culture="lhazareen"

	father=10055916

	7987.1.1 = {birth="7987.1.1"}
	8003.1.1 = {add_trait=poor_warrior}
	8035.1.1 = {death="8035.1.1"}
}
10655916 = {
	name="Zollo"	# a lord
	dynasty=55916

	religion="great_shepherd"
	culture="lhazareen"

	father=10355916

	8016.1.1 = {birth="8016.1.1"}
	8032.1.1 = {add_trait=trained_warrior}
	8087.1.1 = {death="8087.1.1"}
}
10855916 = {
	name="Aggo"	# a lord
	dynasty=55916

	religion="great_shepherd"
	culture="lhazareen"

	father=10655916

	8037.1.1 = {birth="8037.1.1"}
	8053.1.1 = {add_trait=poor_warrior}
	8094.1.1 = {death="8094.1.1"}
}
11155916 = {
	name="Iggo"	# a lord
	dynasty=55916

	religion="great_shepherd"
	culture="lhazareen"

	father=10855916

	8062.1.1 = {birth="8062.1.1"}
	8078.1.1 = {add_trait=trained_warrior}
	8138.1.1 = {death="8138.1.1"}
}
11255916 = {
	name="Arakh"	# not a lord
	dynasty=55916

	religion="great_shepherd"
	culture="lhazareen"

	father=10855916

	8064.1.1 = {birth="8064.1.1"}
	8080.1.1 = {add_trait=poor_warrior}
	8125.1.1 = {death="8125.1.1"}
}
11455916 = {
	name="Mago"	# not a lord
	dynasty=55916

	religion="great_shepherd"
	culture="lhazareen"

	father=11255916

	8089.1.1 = {birth="8089.1.1"}
	8105.1.1 = {add_trait=trained_warrior}
	8131.1.1 = {death="8131.1.1"}
}
11755916 = {
	name="Ogo"	# a lord
	dynasty=55916

	religion="great_shepherd"
	culture="lhazareen"

	father=11455916

	8108.1.1 = {birth="8108.1.1"}
	8124.1.1 = {add_trait=poor_warrior}
	8176.1.1 = {death="8176.1.1"}
}
12155916 = {
	name="Zollo"	# a lord
	dynasty=55916

	religion="great_shepherd"
	culture="lhazareen"

	father=11755916

	8127.1.1 = {birth="8127.1.1"}
	8143.1.1 = {add_trait=trained_warrior}
	8185.1.1 = {death="8185.1.1"}
}
12655916 = {
	name="Bharbo"	# a lord
	dynasty=55916

	religion="great_shepherd"
	culture="lhazareen"

	father=12155916

	8153.1.1 = {birth="8153.1.1"}
	8169.1.1 = {add_trait=poor_warrior}
	8198.1.1 = {death="8198.1.1"}
}
12955916 = {
	name="Haggo"	# a lord
	dynasty=55916

	religion="great_shepherd"
	culture="lhazareen"

	father=12655916

	8174.1.1 = {birth="8174.1.1"}
	8190.1.1 = {add_trait=trained_warrior}
	8239.1.1 = {death="8239.1.1"}
}
13055916 = {
	name="Rakharo"	# not a lord
	dynasty=55916

	religion="great_shepherd"
	culture="lhazareen"

	father=12655916

	8175.1.1 = {birth="8175.1.1"}
	8191.1.1 = {add_trait=trained_warrior}
	8225.1.1 = {death="8225.1.1"}
}
13455916 = {
	name="Cohollo"	# a lord
	dynasty=55916

	religion="great_shepherd"
	culture="lhazareen"

	father=13055916

	8201.1.1 = {birth="8201.1.1"}
	8217.1.1 = {add_trait=poor_warrior}
	8266.1.1 = {death="8266.1.1"}
}
13655916 = {
	name="Pono"	# a lord
	dynasty=55916

	religion="great_shepherd"
	culture="lhazareen"

	father=13455916

	8234.1.1 = {birth="8234.1.1"}
	8250.1.1 = {add_trait=trained_warrior}
	8287.1.1 = {death="8287.1.1"}
}
13755916 = {
	name="Rhogoro"	# not a lord
	dynasty=55916

	religion="great_shepherd"
	culture="lhazareen"

	father=13455916

	8237.1.1 = {birth="8237.1.1"}
	8253.1.1 = {add_trait=trained_warrior}
	8255.1.1 = {add_spouse=43755916}
	8269.1.1 = {death = {death_reason = death_murder}}
}
43755916 = {
	name="Kovarri"
	female=yes

	religion="great_shepherd"
	culture="lhazareen"

	8237.1.1 = {birth="8237.1.1"}
	8269.1.1 = {death="8269.1.1"}
}
14055916 = {
	name="Rakharo"	# a lord
	dynasty=55916

	religion="great_shepherd"
	culture="lhazareen"

	father=13755916
	mother=43755916

	8257.1.1 = {birth="8257.1.1"}
	8273.1.1 = {add_trait=poor_warrior}
	8286.1.1 = {add_spouse=44055916}
}
44055916 = {
	name="Jhigi"
	female=yes

	religion="great_shepherd"
	culture="lhazareen"

	8268.1.1 = {birth="8268.1.1"}
}
14155916 = {
	name="Coholli"	# not a lord
	female=yes
	dynasty=55916

	religion="great_shepherd"
	culture="lhazareen"

	father=13755916
	mother=43755916

	8260.1.1 = {birth="8260.1.1"}
}
14255916 = {
	name="Mirri"	# not a lord
	female=yes
	dynasty=55916

	religion="great_shepherd"
	culture="lhazareen"

	father=14055916
	mother=44055916

	8294.1.1 = {birth="8294.1.1"}
}
14355916 = {
	name="Motho"	# not a lord
	dynasty=55916

	religion="great_shepherd"
	culture="lhazareen"

	father=14055916
	mother=44055916

	8297.1.1 = {birth="8297.1.1"}
	8313.1.1 = {add_trait=poor_warrior}
}
14455916 = {
	name="Quiri"	# not a lord
	female=yes
	dynasty=55916

	religion="great_shepherd"
	culture="lhazareen"

	father=14055916
	mother=44055916

	8298.1.1 = {birth="8298.1.1"}
}
14555916 = {
	name="Ogo"	# not a lord
	dynasty=55916

	religion="great_shepherd"
	culture="lhazareen"

	father=14055916
	mother=44055916

	8299.1.1 = {birth="8299.1.1"}
	8315.1.1 = {add_trait=poor_warrior}
}

### House Sheqethi of Hesh
34455923 = {
	name="Otemis"	# a lord
	dynasty=55923
	
	religion="great_shepherd"
	culture="lhazareen"
	
	7837.1.1 = {birth="7837.1.1"}
	7886.1.1 = {death="7886.1.1"}
}
34355923 = {
	name="Metigay"	# a lord
	dynasty=55923
	
	religion="great_shepherd"
	culture="lhazareen"
	
	father=34455923
	
	7859.1.1 = {birth="7859.1.1"}
	7905.1.1 = {death="7905.1.1"}
}
34255923 = {
	name="Bagha"	# a lord
	dynasty=55923
	
	religion="great_shepherd"
	culture="lhazareen"
	
	father=34355923
	
	7882.1.1 = {birth="7882.1.1"}
	7929.1.1 = {death="7929.1.1"}
}
34155923 = {
	name="Kundac"	# a lord
	dynasty=55923
	
	religion="great_shepherd"
	culture="lhazareen"
	
	father=34255923
	
	7901.1.1 = {birth="7901.1.1"}
	7955.1.1 = {death="7955.1.1"}
}
34055923 = {
	name="Balgici"	# a lord
	dynasty=55923
	
	religion="great_shepherd"
	culture="lhazareen"
	
	father=34155923
	
	7928.1.1 = {birth="7928.1.1"}
	7973.1.1 = {death="7973.1.1"}
}
10055923 = {
	name="Pono"	# a lord
	dynasty=55923

	religion="great_shepherd"
	culture="lhazareen"
	
	father=34055923

	7953.1.1 = {birth="7953.1.1"}
	7969.1.1 = {add_trait=poor_warrior}
	8010.1.1 = {death="8010.1.1"}
}
10355923 = {
	name="Motho"	# a lord
	dynasty=55923

	religion="great_shepherd"
	culture="lhazareen"

	father=10055923

	7985.1.1 = {birth="7985.1.1"}
	8001.1.1 = {add_trait=trained_warrior}
	8057.1.1 = {death="8057.1.1"}
}
10555923 = {
	name="Jhogo"	# a lord
	dynasty=55923

	religion="great_shepherd"
	culture="lhazareen"

	father=10355923

	8004.1.1 = {birth="8004.1.1"}
	8020.1.1 = {add_trait=trained_warrior}
	8064.1.1 = {death = {death_reason = death_accident}}
}
10755923 = {
	name="Pono"	# a lord
	dynasty=55923

	religion="great_shepherd"
	culture="lhazareen"

	father=10555923

	8026.1.1 = {birth="8026.1.1"}
	8042.1.1 = {add_trait=poor_warrior}
	8082.1.1 = {death="8082.1.1"}
}
10955923 = {
	name="Malakho"	# a lord
	dynasty=55923

	religion="great_shepherd"
	culture="lhazareen"

	father=10555923

	8029.1.1 = {birth="8029.1.1"}
	8045.1.1 = {add_trait=poor_warrior}
	8076.1.1 = {death="8076.1.1"}
}
11555923 = {
	name="Jommo"	# a lord
	dynasty=55923

	religion="great_shepherd"
	culture="lhazareen"

	father=10755923

	8049.1.1 = {birth="8049.1.1"}
	8065.1.1 = {add_trait=poor_warrior}
	8124.1.1 = {death = {death_reason = death_accident}}
}
11855923 = {
	name="Rakharo"	# not a lord
	dynasty=55923

	religion="great_shepherd"
	culture="lhazareen"

	father=11555923

	8075.1.1 = {birth="8075.1.1"}
	8091.1.1 = {add_trait=poor_warrior}
	8124.1.1 = {death="8124.1.1"}
}
12355923 = {
	name="Drogo"	# a lord
	dynasty=55923

	religion="great_shepherd"
	culture="lhazareen"

	father=11855923

	8104.1.1 = {birth="8104.1.1"}
	8120.1.1 = {add_trait=trained_warrior}
	8160.1.1 = {death="8160.1.1"}
}
12555923 = {
	name="Moro"	# a lord
	dynasty=55923

	religion="great_shepherd"
	culture="lhazareen"

	father=12355923

	8140.1.1 = {birth="8140.1.1"}
	8156.1.1 = {add_trait=trained_warrior}
	8173.1.1 = {death="8173.1.1"}
}
12855923 = {
	name="Zekko"	# a lord
	dynasty=55923

	religion="great_shepherd"
	culture="lhazareen"

	father=12555923

	8166.1.1 = {birth="8166.1.1"}
	8182.1.1 = {add_trait=poor_warrior}
	8220.1.1 = {death="8220.1.1"}
}
12955923 = {
	name="Jommo"	# a lord
	dynasty=55923

	religion="great_shepherd"
	culture="lhazareen"

	father=12855923

	8191.1.1 = {birth="8191.1.1"}
	8207.1.1 = {add_trait=trained_warrior}
	8232.1.1 = {death="8232.1.1"}
}
13255923 = {
	name="Qotho"	# a lord
	dynasty=55923

	religion="great_shepherd"
	culture="lhazareen"

	father=12955923

	8218.1.1 = {birth="8218.1.1"}
	8234.1.1 = {add_trait=trained_warrior}
	8236.1.1 = {add_spouse=43255923}
	8270.1.1 = {death="8270.1.1"}
}
43255923 = {
	name="Mothi"
	female=yes

	religion="great_shepherd"
	culture="lhazareen"

	8218.1.1 = {birth="8218.1.1"}
	8270.1.1 = {death="8270.1.1"}
}
13355923 = {
	name="Rakharo"	# not a lord
	dynasty=55923

	religion="great_shepherd"
	culture="lhazareen"

	father=13255923
	mother=43255923

	8242.1.1 = {birth="8242.1.1"}
	8258.1.1 = {add_trait=poor_warrior}
}
13455923 = {
	name="Iggo"	# not a lord
	dynasty=55923

	religion="great_shepherd"
	culture="lhazareen"

	father=13255923
	mother=43255923

	8245.1.1 = {birth="8245.1.1"}
	8261.1.1 = {add_trait=poor_warrior}
}
13555923 = {
	name="Mago"	# a lord
	dynasty=55923

	religion="great_shepherd"
	culture="lhazareen"

	father=13255923
	mother=43255923

	8246.1.1 = {birth="8246.1.1"}
	8262.1.1 = {add_trait=trained_warrior}
	8264.1.1 = {add_spouse=43555923}
}
43555923 = {
	name="Mothi"
	female=yes

	religion="great_shepherd"
	culture="lhazareen"

	8246.1.1 = {birth="8246.1.1"}
}
13655923 = {
	name="Malakho"	# not a lord
	dynasty=55923

	religion="great_shepherd"
	culture="lhazareen"

	father=13555923
	mother=43555923

	8279.1.1 = {birth="8279.1.1"}
	8295.1.1 = {add_trait=poor_warrior}
}
13755923 = {
	name="Jhaquo"	# not a lord
	dynasty=55923

	religion="great_shepherd"
	culture="lhazareen"

	father=13555923
	mother=43555923

	8281.1.1 = {birth="8281.1.1"}
	8297.1.1 = {add_trait=poor_warrior}
}
13855923 = {
	name="Rimmi"	# not a lord
	female=yes
	dynasty=55923

	religion="great_shepherd"
	culture="lhazareen"

	father=13555923
	mother=43555923

	8283.1.1 = {birth="8283.1.1"}
}

### House Drogikh of Kosrak
34455901 = {
	name="Manas"	# a lord
	dynasty=55901
	
	religion="great_shepherd"
	culture="lhazareen"
	
	7818.1.1 = {birth="7818.1.1"}
	7877.1.1 = {death="7877.1.1"}
}
34355901 = {
	name="Manasseh"	# a lord
	dynasty=55901
	
	religion="great_shepherd"
	culture="lhazareen"
	
	father=34455901
	
	7842.1.1 = {birth="7842.1.1"}
	7894.1.1 = {death="7894.1.1"}
}
34255901 = {
	name="Samsam"	# a lord
	dynasty=55901
	
	religion="great_shepherd"
	culture="lhazareen"
	
	father=34355901
	
	7865.1.1 = {birth="7865.1.1"}
	7909.1.1 = {death="7909.1.1"}
}
34155901 = {
	name="Bastu"	# a lord
	dynasty=55901
	
	religion="great_shepherd"
	culture="lhazareen"
	
	father=34255901
	
	7889.1.1 = {birth="7889.1.1"}
	7930.1.1 = {death="7930.1.1"}
}
34055901 = {
	name="Arslan"	# a lord
	dynasty=55901
	
	religion="great_shepherd"
	culture="lhazareen"
	
	father=34155901
	
	7911.1.1 = {birth="7911.1.1"}
	7952.1.1 = {death="7952.1.1"}
}
10055901 = {
	name="Moro"	# a lord
	dynasty=55901

	religion="great_shepherd"
	culture="lhazareen"
	
	father=34055901

	7932.1.1 = {birth="7932.1.1"}
	7948.1.1 = {add_trait=trained_warrior}
	8004.1.1 = {death="8004.1.1"}
}
10455901 = {
	name="Mago"	# a lord
	dynasty=55901

	religion="great_shepherd"
	culture="lhazareen"

	father=10055901

	7967.1.1 = {birth="7967.1.1"}
	7983.1.1 = {add_trait=poor_warrior}
	8046.1.1 = {death="8046.1.1"}
}
10855901 = {
	name="Ogo"	# a lord
	dynasty=55901

	religion="great_shepherd"
	culture="lhazareen"

	father=10455901

	7996.1.1 = {birth="7996.1.1"}
	8012.1.1 = {add_trait=poor_warrior}
	8047.1.1 = {death="8047.1.1"}
}
11155901 = {
	name="Cohollo"	# a lord
	dynasty=55901

	religion="great_shepherd"
	culture="lhazareen"

	father=10855901

	8031.1.1 = {birth="8031.1.1"}
	8047.1.1 = {add_trait=trained_warrior}
	8098.1.1 = {death="8098.1.1"}
}
11255901 = {
	name="Jhaquo"	# not a lord
	dynasty=55901

	religion="great_shepherd"
	culture="lhazareen"

	father=11155901

	8051.1.1 = {birth="8051.1.1"}
	8067.1.1 = {add_trait=poor_warrior}
	8083.1.1 = {death = {death_reason = death_battle}}
}
11455901 = {
	name="Cohollo"	# a lord
	dynasty=55901

	religion="great_shepherd"
	culture="lhazareen"

	father=11255901

	8074.1.1 = {birth="8074.1.1"}
	8090.1.1 = {add_trait=poor_warrior}
	8128.1.1 = {death="8128.1.1"}
}
11655901 = {
	name="Jommo"	# a lord
	dynasty=55901

	religion="great_shepherd"
	culture="lhazareen"

	father=11255901

	8079.1.1 = {birth="8079.1.1"}
	8095.1.1 = {add_trait=poor_warrior}
	8110.1.1 = {death="8110.1.1"}
}
12255901 = {
	name="Rakharo"	# a lord
	dynasty=55901

	religion="great_shepherd"
	culture="lhazareen"

	father=11455901

	8103.1.1 = {birth="8103.1.1"}
	8119.1.1 = {add_trait=poor_warrior}
	8144.1.1 = {death="8144.1.1"}
}
12555901 = {
	name="Jhaquo"	# a lord
	dynasty=55901

	religion="great_shepherd"
	culture="lhazareen"

	father=12255901

	8129.1.1 = {birth="8129.1.1"}
	8145.1.1 = {add_trait=poor_warrior}
	8183.1.1 = {death="8183.1.1"}
}
12755901 = {
	name="Zollo"	# a lord
	dynasty=55901

	religion="great_shepherd"
	culture="lhazareen"

	father=12555901

	8158.1.1 = {birth="8158.1.1"}
	8174.1.1 = {add_trait=poor_warrior}
	8217.1.1 = {death="8217.1.1"}
}
13155901 = {
	name="Pono"	# a lord
	dynasty=55901

	religion="great_shepherd"
	culture="lhazareen"

	father=12755901

	8195.1.1 = {birth="8195.1.1"}
	8211.1.1 = {add_trait=trained_warrior}
	8250.1.1 = {death="8250.1.1"}
}
13555901 = {
	name="Jhaquo"	# a lord
	dynasty=55901

	religion="great_shepherd"
	culture="lhazareen"

	father=13155901

	8231.1.1 = {birth="8231.1.1"}
	8247.1.1 = {add_trait=trained_warrior}
	8249.1.1 = {add_spouse=43555901}
	8279.1.1 = {death="8279.1.1"}
}
43555901 = {
	name="Jhiqui"
	female=yes

	religion="great_shepherd"
	culture="lhazareen"

	8231.1.1 = {birth="8231.1.1"}
	8279.1.1 = {death="8279.1.1"}
}
13655901 = {
	name="Rhogiri"	# not a lord
	female=yes
	dynasty=55901

	religion="great_shepherd"
	culture="lhazareen"

	father=13155901

	8234.1.1 = {birth="8234.1.1"}
	8308.1.1 = {death="8308.1.1"}
}
13755901 = {
	name="Rakhiri"	# not a lord
	female=yes
	dynasty=55901

	religion="great_shepherd"
	culture="lhazareen"

	father=13555901
	mother=43555901

	8259.1.1 = {birth="8259.1.1"}
}
13855901 = {
	name="Moro"	# not a lord
	dynasty=55901

	religion="great_shepherd"
	culture="lhazareen"

	father=13555901
	mother=43555901

	8262.1.1 = {birth="8262.1.1"}
	8278.1.1 = {add_trait=poor_warrior}
	8280.1.1 = {add_spouse=43855901}
}
43855901 = {
	name="Zolli"
	female=yes

	religion="great_shepherd"
	culture="lhazareen"

	8262.1.1 = {birth="8262.1.1"}
}
13955901 = {
	name="Drogo"	# a lord
	dynasty=55901

	religion="great_shepherd"
	culture="lhazareen"

	father=13555901
	mother=43555901

	8264.1.1 = {birth="8264.1.1"}
	8280.1.1 = {add_trait=poor_warrior}
	8282.1.1 = {add_spouse=43955901}
}
43955901 = {
	name="Jhigi"
	female=yes

	religion="great_shepherd"
	culture="lhazareen"

	8264.1.1 = {birth="8264.1.1"}
}
14055901 = {
	name="Iggi"	# not a lord
	female=yes
	dynasty=55901

	religion="great_shepherd"
	culture="lhazareen"

	father=13855901
	mother=43855901

	8281.1.1 = {birth="8281.1.1"}
}
14155901 = {
	name="Fogo"	# not a lord
	dynasty=55901

	religion="great_shepherd"
	culture="lhazareen"

	father=13955901
	mother=43955901

	8292.1.1 = {birth="8292.1.1"}
	8308.1.1 = {add_trait=poor_warrior}
}
14255901 = {
	name="Haggo"	# not a lord
	dynasty=55901

	religion="great_shepherd"
	culture="lhazareen"

	father=13955901
	mother=43955901

	8295.1.1 = {birth="8295.1.1"}
	8311.1.1 = {add_trait=trained_warrior}
}
14355901 = {
	name="Mirri"	# not a lord
	female=yes
	dynasty=55901

	religion="great_shepherd"
	culture="lhazareen"

	father=13955901
	mother=43955901

	8296.1.1 = {birth="8296.1.1"}
}
14455901 = {
	name="Temmo"	# not a lord
	dynasty=55901

	religion="great_shepherd"
	culture="lhazareen"

	father=13955901
	mother=43955901

	8299.1.1 = {birth="8299.1.1"}
	8315.1.1 = {add_trait=poor_warrior}
}

###############
### Lowborn ###
###############
12300100 = {
	name = "Mirri Maz Duur"	#Canon
	female = yes
	
	religion = "great_shepherd"
	culture = "lhazareen"

	add_trait="mystic"
	add_trait="deceitful"
	
	8241.1.1 = {
		birth = "8241.1.1" 
		effect = {  
			dynasty = none
			set_immune_to_pruning = yes
		}
	}
	8261.1.1 = { 
		effect = { give_minor_title = title_volva }
	}
	8298.9.10 = { employer = 300100 }
	8298.10.10={
		#Burned by Daenerys
		death = {
			death_reason = death_execution
			killer = 77041
		}
	}
}