#############################
### Major Merchant Houses ###
#############################
### House Naylan
344300528 = {
	name="Ordello"	# a lord
	dynasty=300528

	religion="gods_lorath"
	culture="lorathi"

	7806.1.1 = {birth="7806.1.1"}
	7870.1.1 = {death="7870.1.1"}
}
343300528 = {
	name="Moreo"	# a lord
	dynasty=300528

	religion="gods_lorath"
	culture="lorathi"
	
	father=344300528

	7828.1.1 = {birth="7828.1.1"}
	7899.1.1 = {death="7899.1.1"}
}
342300528 = {
	name="Tregar"	# a lord
	dynasty=300528

	religion="gods_lorath"
	culture="lorathi"
	
	father=343300528

	7853.1.1 = {birth="7853.1.1"}
	7911.1.1 = {death="7911.1.1"}
}
341300528 = {
	name="Narbo"	# a lord
	dynasty=300528

	religion="gods_lorath"
	culture="lorathi"
	
	father=342300528

	7879.1.1 = {birth="7879.1.1"}
	7944.1.1 = {death="7944.1.1"}
}
340300528 = {
	name="Qarro"	# a lord
	dynasty=300528

	religion="gods_lorath"
	culture="lorathi"
	
	father=341300528

	7901.1.1 = {birth="7901.1.1"}
	7954.1.1 = {death="7954.1.1"}
}
150300528 = {
	name="Illyrio"	# a lord
	dynasty=300528

	religion="gods_lorath"
	culture="lorathi"
	
	father=340300528

	7928.1.1 = {birth="7928.1.1"}
	7975.1.1 = {death="7975.1.1"}
}
100300528 = {
	name="Denyo"	# a lord
	dynasty=300528

	religion="gods_lorath"
	culture="lorathi"

	father=150300528

	7955.1.1 = {birth="7955.1.1"}
	7971.1.1 = {add_trait=poor_warrior}
	8024.1.1 = {death="8024.1.1"}
}
200300528 = {
	name="Navaho"	# Prince of Lorath
	dynasty=300528

	religion="gods_lorath"
	culture="lorathi"

	father=150300528

	7955.1.1 = {birth="7955.1.1"}
	7971.1.1 = {add_trait=poor_warrior}
	8024.1.1 = {death="8024.1.1"}
}
102300528 = {
	name="Jaqen"	# a lord
	dynasty=300528

	religion="gods_lorath"
	culture="lorathi"

	father=100300528

	7987.1.1 = {birth="7987.1.1"}
	8003.1.1 = {add_trait=poor_warrior}
	8040.1.1 = {death="8040.1.1"}
}
104300528 = {
	name="Mero"	# a lord
	dynasty=300528

	religion="gods_lorath"
	culture="lorathi"

	father=102300528

	8013.1.1 = {birth="8013.1.1"}
	8029.1.1 = {add_trait=skilled_warrior}
	8064.1.1 = {death="8064.1.1"}
}
105300528 = {
	name="Collio"	# a lord
	dynasty=300528

	religion="gods_lorath"
	culture="lorathi"

	father=102300528

	8014.1.1 = {birth="8014.1.1"}
	8030.1.1 = {add_trait=master_warrior}
	8073.1.1 = {death="8073.1.1"}
}
111300528 = {
	name="Gyleno"	# a lord
	dynasty=300528

	religion="gods_lorath"
	culture="lorathi"

	father=105300528

	8054.1.1 = {birth="8054.1.1"}
	8070.1.1 = {add_trait=poor_warrior}
	8096.1.1 = {death="8096.1.1"}
}
112300528 = {
	name="Tagganaro"	# a lord
	dynasty=300528

	religion="gods_lorath"
	culture="lorathi"

	father=105300528

	8055.1.1 = {birth="8055.1.1"}
	8071.1.1 = {add_trait=poor_warrior}
	8111.1.1 = {death="8111.1.1"}
}
115300528 = {
	name="Ezzelyno"	# a lord
	dynasty=300528

	religion="gods_lorath"
	culture="lorathi"

	father=111300528

	8076.1.1 = {birth="8076.1.1"}
	8092.1.1 = {add_trait=skilled_warrior}
	8140.1.1 = {death="8140.1.1"}
}
119300528 = {
	name="Ordello"	# a lord
	dynasty=300528

	religion="gods_lorath"
	culture="lorathi"

	father=115300528

	8096.1.1 = {birth="8096.1.1"}
	8112.1.1 = {add_trait=poor_warrior}
	8144.1.1 = {death="8144.1.1"}
}
120300528 = {
	name="Illyrio"	# a lord
	dynasty=300528

	religion="gods_lorath"
	culture="lorathi"

	father=119300528

	8131.1.1 = {birth="8131.1.1"}
	8147.1.1 = {add_trait=trained_warrior}
	8189.1.1 = {death="8189.1.1"}
}
123300528 = {
	name="Ezzelyno"	# a lord
	dynasty=300528

	religion="gods_lorath"
	culture="lorathi"

	father=120300528

	8153.1.1 = {birth="8153.1.1"}
	8169.1.1 = {add_trait=poor_warrior}
	8196.1.1 = {death="8196.1.1"}
}
124300528 = {
	name="Lotho"	# a lord
	dynasty=300528

	religion="gods_lorath"
	culture="lorathi"

	father=120300528

	8154.1.1 = {birth="8154.1.1"}
	8170.1.1 = {add_trait=poor_warrior}
	8222.1.1 = {death="8222.1.1"}
}
127300528 = {
	name="Pynto"	# a lord
	dynasty=300528

	religion="gods_lorath"
	culture="lorathi"

	father=124300528

	8183.1.1 = {birth="8183.1.1"}
	8199.1.1 = {add_trait=trained_warrior}
	8233.1.1 = {death="8233.1.1"}
}
130300528 = {
	name="Mellario"	# a lord
	dynasty=300528

	religion="gods_lorath"
	culture="lorathi"

	father=127300528

	8212.1.1 = {birth="8212.1.1"}
	8228.1.1 = {add_trait=skilled_warrior}
	8230.1.1 = {add_spouse=430300528}
	8242.1.1 = {death="8242.1.1"}
}
430300528 = {
	name="Narba"
	female=yes

	religion="gods_lorath"
	culture="lorathi"

	8212.1.1 = {birth="8212.1.1"}
	8242.1.1 = {death="8242.1.1"}
}
131300528 = {
	name="Gyleno"	# a lord
	dynasty=300528

	religion="gods_lorath"
	culture="lorathi"

	father=130300528
	mother=430300528

	8236.1.1 = {birth="8236.1.1"}
	8252.1.1 = {add_trait=poor_warrior}
	8254.1.1 = {add_spouse=431300528}
}
431300528 = {
	name="Moredea"
	female=yes

	religion="gods_lorath"
	culture="lorathi"

	8236.1.1 = {birth="8236.1.1"}
}
132300528 = {
	name="Ferrega"	# not a lord
	female=yes
	dynasty=300528

	religion="gods_lorath"
	culture="lorathi"

	father=130300528
	mother=430300528

	8237.1.1 = {birth="8237.1.1"}
	8285.1.1 = {death="8285.1.1"}
}
133300528 = {
	name="Ollo"	# Prince of Lorath
	dynasty=300528

	religion="gods_lorath"
	culture="lorathi"

	father=130300528
	mother=430300528

	8233.1.1 = {birth="8233.1.1"}
	8249.1.1 = {add_trait=poor_warrior}
	8251.1.1 = {add_spouse=433300528}
	8270.1.1 = {death="8270.1.1"}
}
433300528 = {
	name="Nohia"
	female=yes

	religion="gods_lorath"
	culture="lorathi"

	8233.1.1 = {birth="8233.1.1"}
	8270.1.1 = {death="8270.1.1"}
}
134300528 = {
	name="Denyo"	# not a lord
	dynasty=300528

	religion="gods_lorath"
	culture="lorathi"

	father=131300528
	mother=431300528

	8262.1.1 = {birth="8262.1.1"}
	8278.1.1 = {add_trait=trained_warrior}
	8280.1.1 = {add_spouse=434300528}
}
434300528 = {
	name="Umma"
	female=yes

	religion="gods_lorath"
	culture="lorathi"

	8262.1.1 = {birth="8262.1.1"}
}
135300528 = {
	name="Roggo"	# not a lord
	dynasty=300528

	religion="gods_lorath"
	culture="lorathi"

	father=134300528
	mother=434300528

	8295.1.1 = {birth="8295.1.1"}
}
136300528 = {
	name="Ferrega"	# not a lord
	female=yes
	dynasty=300528

	religion="gods_lorath"
	culture="lorathi"

	father=134300528
	mother=434300528

	8296.1.1 = {birth="8296.1.1"}
}
137300528 = {
	name="Groleo"	# not a lord
	dynasty=300528

	religion="gods_lorath"
	culture="lorathi"

	father=134300528
	mother=434300528

	8297.1.1 = {birth="8297.1.1"}
}
138300528 = {
	name="Brea"	# not a lord
	female=yes
	dynasty=300528

	religion="gods_lorath"
	culture="lorathi"

	father=134300528
	mother=434300528

	8300.1.1 = {birth="8300.1.1"}
}
139300528 = {
	name="Alia"	# not a lord
	female=yes
	dynasty=300528

	religion="gods_lorath"
	culture="lorathi"

	father=133300528
	mother=433300528

	8256.1.1 = {birth="8256.1.1"}
}
140300528 = {
	name="Narbo"	# not a lord
	dynasty=300528

	religion="gods_lorath"
	culture="lorathi"

	father=133300528
	mother=433300528

	8258.1.1 = {birth="8258.1.1"}
	8274.1.1 = {add_trait=trained_warrior}
	8276.1.1 = {add_spouse=440300528}
}
440300528 = {
	name="Izembara"
	female=yes

	religion="gods_lorath"
	culture="lorathi"

	8258.1.1 = {birth="8258.1.1"}
}
141300528 = {
	name="Yorka"	# not a lord
	female=yes
	dynasty=300528

	religion="gods_lorath"
	culture="lorathi"

	father=140300528
	mother=440300528

	8285.1.1 = {birth="8285.1.1"}
}

### House Reltis
345300537 = {
	name="Belodos"	# a lord
	dynasty=300537

	religion="gods_lorath"
	culture="lorathi"

	7795.1.1 = {birth="7795.1.1"}
	7849.1.1 = {death="7849.1.1"}
}
344300537 = {
	name="Daarelos"	# a lord
	dynasty=300537

	religion="gods_lorath"
	culture="lorathi"

	father=345300537

	7820.1.1 = {birth="7820.1.1"}
	7887.1.1 = {death="7887.1.1"}
}
346300537 = {
	name="Jaqen"	# Prince of Lorath
	dynasty=300537

	religion="gods_lorath"
	culture="lorathi"

	father=345300537

	7829.1.1 = {birth="7829.1.1"}
	7890.1.1 = {death="7890.1.1"}
}
343300537 = {
	name="Thoronar"	# a lord
	dynasty=300537

	religion="gods_lorath"
	culture="lorathi"

	father=344300537

	7844.1.1 = {birth="7844.1.1"}
	7909.1.1 = {death="7909.1.1"}
}
342300537 = {
	name="Relyrio"	# a lord
	dynasty=300537

	religion="gods_lorath"
	culture="lorathi"

	father=343300537

	7871.1.1 = {birth="7871.1.1"}
	7930.1.1 = {death="7930.1.1"}
}
341300537 = {
	name="Beqqo"	# a lord
	dynasty=300537

	religion="gods_lorath"
	culture="lorathi"

	father=342300537

	7897.1.1 = {birth="7897.1.1"}
	7945.1.1 = {death="7945.1.1"}
}
340300537 = {
	name="Luco"	# a lord
	dynasty=300537

	religion="gods_lorath"
	culture="lorathi"

	father=341300537

	7922.1.1 = {birth="7922.1.1"}
	7970.1.1 = {death="7970.1.1"}
}
100300537 = {
	name="Brusco"	# a lord
	dynasty=300537

	religion="gods_lorath"
	culture="lorathi"

	father=340300537
	
	7950.1.1 = {birth="7950.1.1"}
	7966.1.1 = {add_trait=poor_warrior}
	8011.1.1 = {death="8011.1.1"}
}
102300537 = {
	name="Myrmello"	# a lord
	dynasty=300537

	religion="gods_lorath"
	culture="lorathi"

	father=100300537

	7973.1.1 = {birth="7973.1.1"}
	7989.1.1 = {add_trait=poor_warrior}
	8027.1.1 = {death="8027.1.1"}
}
104300537 = {
	name="Allaquo"	# a lord
	dynasty=300537

	religion="gods_lorath"
	culture="lorathi"

	father=102300537

	7996.1.1 = {birth="7996.1.1"}
	8012.1.1 = {add_trait=trained_warrior}
	8052.1.1 = {death="8052.1.1"}
}
105300537 = {
	name="Ferrego"	# a lord
	dynasty=300537

	religion="gods_lorath"
	culture="lorathi"

	father=102300537

	7999.1.1 = {birth="7999.1.1"}
	8015.1.1 = {add_trait=poor_warrior}
	8082.1.1 = {death="8082.1.1"}
}
106300537 = {
	name="Gyloro"	# not a lord
	dynasty=300537

	religion="gods_lorath"
	culture="lorathi"

	father=104300537

	8023.1.1 = {birth="8023.1.1"}
	8039.1.1 = {add_trait=trained_warrior}
	8069.1.1 = {death="8069.1.1"}
}
109300537 = {
	name="Collio"	# a lord
	dynasty=300537

	religion="gods_lorath"
	culture="lorathi"

	father=104300537

	8029.1.1 = {birth="8029.1.1"}
	8045.1.1 = {add_trait=trained_warrior}
	8094.1.1 = {death="8094.1.1"}
}
113300537 = {
	name="Narbo"	# not a lord
	dynasty=300537

	religion="gods_lorath"
	culture="lorathi"

	father=105300537

	8029.1.1 = {birth="8029.1.1"}
	8045.1.1 = {add_trait=trained_warrior}
	8074.1.1 = {death="8074.1.1"}
}
114300537 = {
	name="Ternesio"	# a lord
	dynasty=300537

	religion="gods_lorath"
	culture="lorathi"

	father=113300537

	8051.1.1 = {birth="8051.1.1"}
	8067.1.1 = {add_trait=poor_warrior}
	8110.1.1 = {death="8110.1.1"}
}
116300537 = {
	name="Gyloro"	# a lord
	dynasty=300537

	religion="gods_lorath"
	culture="lorathi"

	father=106300537

	8057.1.1 = {birth="8057.1.1"}
	8073.1.1 = {add_trait=trained_warrior}
	8108.1.1 = {death="8108.1.1"}
}
120300537 = {
	name="Lotho"	# a lord
	dynasty=300537

	religion="gods_lorath"
	culture="lorathi"

	father=114300537

	8076.1.1 = {birth="8076.1.1"}
	8092.1.1 = {add_trait=poor_warrior}
	8134.1.1 = {death="8134.1.1"}
}
124300537 = {
	name="Tycho"	# a lord
	dynasty=300537

	religion="gods_lorath"
	culture="lorathi"

	father=120300537

	8115.1.1 = {birth="8115.1.1"}
	8131.1.1 = {add_trait=trained_warrior}
	8175.1.1 = {death="8175.1.1"}
}
125300537 = {
	name="Pynto"	# a lord
	dynasty=300537

	religion="gods_lorath"
	culture="lorathi"

	father=124300537

	8136.1.1 = {birth="8136.1.1"}
	8152.1.1 = {add_trait=poor_warrior}
	8183.1.1 = {death="8183.1.1"}
}
126300537 = {
	name="Ordello"	# not a lord
	dynasty=300537

	religion="gods_lorath"
	culture="lorathi"

	father=124300537

	8139.1.1 = {birth="8139.1.1"}
	8155.1.1 = {add_trait=trained_warrior}
	8179.1.1 = {death="8179.1.1"}
}
129300537 = {
	name="Salladhor"	# Prince of Lorath
	dynasty=300537

	religion="gods_lorath"
	culture="lorathi"

	father=126300537

	8174.1.1 = {birth="8174.1.1"}
	8244.1.1 = {death="8244.1.1"}
}
130300537 = {
	name="Yorko"	# a lord
	dynasty=300537

	religion="gods_lorath"
	culture="lorathi"

	father=126300537

	8177.1.1 = {birth="8177.1.1"}
	8193.1.1 = {add_trait=poor_warrior}
	8220.1.1 = {death="8220.1.1"}
}
131300537 = {
	name="Tormo"	# a lord
	dynasty=300537

	religion="gods_lorath"
	culture="lorathi"

	father=126300537

	8179.1.1 = {birth="8179.1.1"}
	8195.1.1 = {add_trait=skilled_warrior}
	8238.1.1 = {death="8238.1.1"}
}
132300537 = {
	name="Terrios"	# not a lord
	female=yes
	dynasty=300537

	religion="gods_lorath"
	culture="lorathi"

	father=130300537

	8209.1.1 = {birth="8209.1.1"}
	8267.1.1 = {death="8267.1.1"}
}
133300537 = {
	name="Alia"	# not a lord
	female=yes
	dynasty=300537

	religion="gods_lorath"
	culture="lorathi"

	father=130300537

	8212.1.1 = {birth="8212.1.1"}
	8267.1.1 = {death="8267.1.1"}
}
135300537 = {
	name="Izembaro"	# a lord
	dynasty=300537

	religion="gods_lorath"
	culture="lorathi"

	father=131300537

	8201.1.1 = {birth="8201.1.1"}
	8217.1.1 = {add_trait=trained_warrior}
	8219.1.1 = {add_spouse=435300537}
	8266.1.1 = {death="8266.1.1"}
}
435300537 = {
	name="Mera"
	female=yes

	religion="gods_lorath"
	culture="lorathi"

	8201.1.1 = {birth="8201.1.1"}
	8266.1.1 = {death="8266.1.1"}
}
138300537 = {
	name="Allaquo"	# a lord
	dynasty=300537

	religion="gods_lorath"
	culture="lorathi"

	father=135300537
	mother=435300537

	8221.1.1 = {birth="8221.1.1"}
	8237.1.1 = {add_trait=poor_warrior}
	8239.1.1 = {add_spouse=438300537}
	8272.1.1 = {death="8272.1.1"}
}
438300537 = {
	name="Syrea"
	female=yes

	religion="gods_lorath"
	culture="lorathi"

	8221.1.1 = {birth="8221.1.1"}
	8272.1.1 = {death="8272.1.1"}
}
139300537 = {
	name="Meralyn"	# not a lord
	dynasty=300537

	religion="gods_lorath"
	culture="lorathi"

	father=135300537
	mother=435300537

	8223.1.1 = {birth="8223.1.1"}
	8239.1.1 = {add_trait=trained_warrior}
	8277.1.1 = {death="8277.1.1"}
}
140300537 = {
	name="Meralyn"	# a lord
	dynasty=300537

	religion="gods_lorath"
	culture="lorathi"

	father=138300537
	mother=438300537

	8250.1.1 = {birth="8250.1.1"}
	8266.1.1 = {add_trait=trained_warrior}
	8268.1.1 = {add_spouse=440300537}
	8296.1.1 = {death="8296.1.1"}
}
440300537 = {
	name="Meralyia"
	female=yes

	religion="gods_lorath"
	culture="lorathi"

	8250.1.1 = {birth="8250.1.1"}
	8296.1.1 = {death="8296.1.1"}
}
141300537 = {
	name="Collio"	# a lord
	dynasty=300537

	religion="gods_lorath"
	culture="lorathi"

	father=138300537
	mother=438300537

	8251.1.1 = {birth="8251.1.1"}
	8267.1.1 = {add_trait=poor_warrior}
	8269.1.1 = {add_spouse=441300537}
}
441300537 = {
	name="Bellonara"
	female=yes

	religion="gods_lorath"
	culture="lorathi"

	8251.1.1 = {birth="8251.1.1"}
}
142300537 = {
	name="Tagganaro"	# not a lord
	dynasty=300537

	religion="gods_lorath"
	culture="lorathi"

	father=138300537
	mother=438300537

	8252.1.1 = {birth="8252.1.1"}
	8268.1.1 = {add_trait=poor_warrior}
}
143300537 = {
	name="Tycho"	# not a lord
	dynasty=300537

	religion="gods_lorath"
	culture="lorathi"

	father=140300537
	mother=440300537

	8268.1.1 = {birth="8268.1.1"}
	8284.1.1 = {add_trait=skilled_warrior}
}
144300537 = {
	name="Jaqea"	# not a lord
	female=yes
	dynasty=300537

	religion="gods_lorath"
	culture="lorathi"

	father=140300537
	mother=440300537

	8271.1.1 = {birth="8271.1.1"}
}
145300537 = {
	name="Collio"	# not a lord
	dynasty=300537

	religion="gods_lorath"
	culture="lorathi"

	father=140300537
	mother=440300537

	8272.1.1 = {birth="8272.1.1"}
	8288.1.1 = {add_trait=trained_warrior}
}
146300537 = {
	name="Orbela"	# not a lord
	female=yes
	dynasty=300537

	religion="gods_lorath"
	culture="lorathi"

	father=141300537
	mother=441300537

	8277.1.1 = {birth="8277.1.1"}
}
147300537 = {
	name="Tagganaria"	# not a lord
	female=yes
	dynasty=300537

	religion="gods_lorath"
	culture="lorathi"

	father=141300537
	mother=441300537

	8280.1.1 = {birth="8280.1.1"}
}

### House Oloryon
344300548 = {
	name="Vogo"	# a lord
	dynasty=300548

	religion="gods_lorath"
	culture="lorathi"

	7815.1.1 = {birth="7815.1.1"}
	7867.1.1 = {death="7867.1.1"}
}
343300548 = {
	name="Tybero"	# a lord
	dynasty=300548

	religion="gods_lorath"
	culture="lorathi"
	
	father=344300548

	7839.1.1 = {birth="7839.1.1"}
	7899.1.1 = {death="7899.1.1"}
}
342300548 = {
	name="Belys"	# a lord
	dynasty=300548

	religion="gods_lorath"
	culture="lorathi"
	
	father=343300548

	7866.1.1 = {birth="7866.1.1"}
	7919.1.1 = {death="7919.1.1"}
}
345300548 = {
	name="Gorys"	# Prince of Lorath
	dynasty=300548

	religion="gods_lorath"
	culture="lorathi"
	
	father=343300548

	7868.1.1 = {birth="7868.1.1"}
	7933.1.1 = {death="7933.1.1"}
}
341300548 = {
	name="Marohr"	# a lord
	dynasty=300548

	religion="gods_lorath"
	culture="lorathi"
	
	father=342300548

	7893.1.1 = {birth="7893.1.1"}
	7942.1.1 = {death="7942.1.1"}
}
346300548 = {
	name="Tormo"	# Prince of Lorath
	dynasty=300548

	religion="gods_lorath"
	culture="lorathi"
	
	father=342300548

	7897.1.1 = {birth="7897.1.1"}
	7941.1.1 = {death="7941.1.1"}
}
340300548 = {
	name="Maren"	# a lord
	dynasty=300548

	religion="gods_lorath"
	culture="lorathi"
	
	father=341300548

	7921.1.1 = {birth="7921.1.1"}
	7977.1.1 = {death="7977.1.1"}
}
100300548 = {
	name="Groleo"	# a lord
	dynasty=300548

	religion="gods_lorath"
	culture="lorathi"
	
	father=340300548

	7957.1.1 = {birth="7957.1.1"}
	7973.1.1 = {add_trait=poor_warrior}
	8023.1.1 = {death="8023.1.1"}
}
102300548 = {
	name="Brusco"	# a lord
	dynasty=300548

	religion="gods_lorath"
	culture="lorathi"

	father=100300548

	7982.1.1 = {birth="7982.1.1"}
	7998.1.1 = {add_trait=skilled_warrior}
	8045.1.1 = {death="8045.1.1"}
}
104300548 = {
	name="Izembaro"	# a lord
	dynasty=300548

	religion="gods_lorath"
	culture="lorathi"

	father=100300548

	7984.1.1 = {birth="7984.1.1"}
	8000.1.1 = {add_trait=poor_warrior}
	8047.1.1 = {death="8047.1.1"}
}
106300548 = {
	name="Lotho"	# a lord
	dynasty=300548

	religion="gods_lorath"
	culture="lorathi"

	father=104300548

	8015.1.1 = {birth="8015.1.1"}
	8031.1.1 = {add_trait=trained_warrior}
	8083.1.1 = {death="8083.1.1"}
}
108300548 = {
	name="Ternesio"	# a lord
	dynasty=300548

	religion="gods_lorath"
	culture="lorathi"

	father=106300548

	8049.1.1 = {birth="8049.1.1"}
	8065.1.1 = {add_trait=skilled_warrior}
	8090.1.1 = {death="8090.1.1"}
}
110300548 = {
	name="Roro"	# a lord
	dynasty=300548

	religion="gods_lorath"
	culture="lorathi"

	father=108300548

	8068.1.1 = {birth="8068.1.1"}
	8084.1.1 = {add_trait=trained_warrior}
	8114.1.1 = {death="8114.1.1"}
}
112300548 = {
	name="Tagganaro"	# a lord
	dynasty=300548

	religion="gods_lorath"
	culture="lorathi"

	father=108300548

	8073.1.1 = {birth="8073.1.1"}
	8089.1.1 = {add_trait=poor_warrior}
	8135.1.1 = {death = {death_reason = death_accident}}
}
114300548 = {
	name="Groleo"	# a lord
	dynasty=300548

	religion="gods_lorath"
	culture="lorathi"

	father=110300548

	8088.1.1 = {birth="8088.1.1"}
	8104.1.1 = {add_trait=poor_warrior}
	8140.1.1 = {death="8140.1.1"}
}
115300548 = {
	name="Meralyn"	# Prince of Lorath
	dynasty=300548

	religion="gods_lorath"
	culture="lorathi"

	father=112300548

	8096.1.1 = {birth="8096.1.1"}
	8112.1.1 = {add_trait=knight add_trait=trained_warrior}
	8160.1.1 = {death="8160.1.1"}
}
120300548 = {
	name="Yorko"	# a lord
	dynasty=300548

	religion="gods_lorath"
	culture="lorathi"

	father=114300548

	8119.1.1 = {birth="8119.1.1"}
	8135.1.1 = {add_trait=poor_warrior}
	8176.1.1 = {death="8176.1.1"}
}
123300548 = {
	name="Meralyn"	# a lord
	dynasty=300548

	religion="gods_lorath"
	culture="lorathi"

	father=120300548

	8145.1.1 = {birth="8145.1.1"}
	8161.1.1 = {add_trait=poor_warrior}
	8193.1.1 = {death="8193.1.1"}
}
125300548 = {
	name="Brusco"	# a lord
	dynasty=300548

	religion="gods_lorath"
	culture="lorathi"

	father=115300548

	8116.1.1 = {birth="8116.1.1"}
	8132.1.1 = {add_trait=poor_warrior}
	8195.1.1 = {death="8195.1.1"}
}
126300548 = {
	name="Groleo"	# not a lord
	dynasty=300548

	religion="gods_lorath"
	culture="lorathi"

	father=115300548

	8118.1.1 = {birth="8118.1.1"}
	8134.1.1 = {add_trait=poor_warrior}
	8172.1.1 = {death="8172.1.1"}
}
128300548 = {
	name="Pynto"	# a lord
	dynasty=300548

	religion="gods_lorath"
	culture="lorathi"

	father=126300548

	8147.1.1 = {birth="8147.1.1"}
	8163.1.1 = {add_trait=poor_warrior}
	8203.1.1 = {death="8203.1.1"}
}
133300548 = {
	name="Qarro"	# a lord
	dynasty=300548

	religion="gods_lorath"
	culture="lorathi"

	father=128300548

	8170.1.1 = {birth="8170.1.1"}
	8186.1.1 = {add_trait=poor_warrior}
	8238.1.1 = {death="8238.1.1"}
}
136300548 = {
	name="Orbelo"	# a lord
	dynasty=300548

	religion="gods_lorath"
	culture="lorathi"

	father=133300548

	8199.1.1 = {birth="8199.1.1"}
	8215.1.1 = {add_trait=master_warrior}
	8217.1.1 = {add_spouse=436300548}
	8251.1.1 = {death = {death_reason = death_accident}}
}
436300548 = {
	name="Narba"
	female=yes

	religion="gods_lorath"
	culture="lorathi"

	8199.1.1 = {birth="8199.1.1"}
	8251.1.1 = {death="8251.1.1"}
}
138300548 = {
	name="Ezzelyno"	# not a lord
	dynasty=300548

	religion="gods_lorath"
	culture="lorathi"

	father=136300548
	mother=436300548

	8228.1.1 = {birth="8228.1.1"}
	8244.1.1 = {add_trait=trained_warrior}
	8246.1.1 = {add_spouse=438300548}
	8250.1.1 = {death = {death_reason = death_battle}}
}
438300548 = {
	name="Ferrega"
	female=yes

	religion="gods_lorath"
	culture="lorathi"

	8228.1.1 = {birth="8228.1.1"}
	8250.1.1 = {death="8250.1.1"}
}
139300548 = {
	name="Moredea"	# not a lord
	female=yes
	dynasty=300548

	religion="gods_lorath"
	culture="lorathi"

	father=136300548
	mother=436300548

	8231.1.1 = {birth="8231.1.1"}
	8282.1.1 = {death="8282.1.1"}
}
140300548 = {
	name="Pynto"	# a lord
	dynasty=300548

	religion="gods_lorath"
	culture="lorathi"

	father=136300548
	mother=436300548

	8234.1.1 = {birth="8234.1.1"}
	8250.1.1 = {add_trait=poor_warrior}
	8252.1.1 = {add_spouse=440300548}
	8294.1.1 = {death="8294.1.1"}
}
440300548 = {
	name="Cossoma"
	female=yes

	religion="gods_lorath"
	culture="lorathi"

	8234.1.1 = {birth="8234.1.1"}
	8294.1.1 = {death="8294.1.1"}
}
141300548 = {
	name="Nohia"	# not a lord
	female=yes
	dynasty=300548

	religion="gods_lorath"
	culture="lorathi"

	father=136300548
	mother=436300548

	8235.1.1 = {birth="8235.1.1"}
	8287.1.1 = {death="8287.1.1"}
}
142300548 = {
	name="Denyo"	# a lord
	dynasty=300548

	religion="gods_lorath"
	culture="lorathi"

	father=138300548
	mother=438300548

	8249.1.1 = {birth="8249.1.1"}
	8265.1.1 = {add_trait=trained_warrior}
	8267.1.1 = {add_spouse=442300548}
}
442300548 = {
	name="Tycha"
	female=yes

	religion="gods_lorath"
	culture="lorathi"

	8249.1.1 = {birth="8249.1.1"}
}
143300548 = {
	name="Yna"	# not a lord
	female=yes
	dynasty=300548

	religion="gods_lorath"
	culture="lorathi"

	father=140300548
	mother=440300548

	8257.1.1 = {birth="8257.1.1"}
}
144300548 = {
	name="Noho"	# not a lord
	dynasty=300548

	religion="gods_lorath"
	culture="lorathi"

	father=140300548
	mother=440300548

	8259.1.1 = {birth="8259.1.1"}
	8275.1.1 = {add_trait=trained_warrior}
	8277.1.1 = {add_spouse=444300548}
}
444300548 = {
	name="Ternesia"
	female=yes

	religion="gods_lorath"
	culture="lorathi"

	8259.1.1 = {birth="8259.1.1"}
}
145300548 = {
	name="Ternesia"	# not a lord
	female=yes
	dynasty=300548

	religion="gods_lorath"
	culture="lorathi"

	father=140300548
	mother=440300548

	8262.1.1 = {birth="8262.1.1"}
}
146300548 = {
	name="Groleo"	# not a lord
	dynasty=300548

	religion="gods_lorath"
	culture="lorathi"

	father=140300548
	mother=440300548

	8265.1.1 = {birth="8265.1.1"}
	8281.1.1 = {add_trait=poor_warrior}
}
147300548 = {
	name="Illyrio"	# not a lord
	dynasty=300548

	religion="gods_lorath"
	culture="lorathi"

	father=142300548
	mother=442300548

	8270.1.1 = {birth="8270.1.1"}
	8286.1.1 = {add_trait=poor_warrior}
}
148300548 = {
	name="Gyleno"	# not a lord
	dynasty=300548

	religion="gods_lorath"
	culture="lorathi"

	father=142300548
	mother=442300548

	8272.1.1 = {birth="8272.1.1"}
	8288.1.1 = {add_trait=trained_warrior}
}
149300548 = {
	name="Umma"	# not a lord
	female=yes
	dynasty=300548

	religion="gods_lorath"
	culture="lorathi"

	father=142300548
	mother=442300548

	8273.1.1 = {birth="8273.1.1"}
}
150300548 = {
	name="Daario"	# not a lord
	dynasty=300548

	religion="gods_lorath"
	culture="lorathi"

	father=144300548
	mother=444300548

	8293.1.1 = {birth="8293.1.1"}
}

### House Lathtis
344300549 = {
	name="Rano"	# a lord
	dynasty=300549

	religion="gods_lorath"
	culture="lorathi"

	7829.1.1 = {birth="7829.1.1"}
	7898.1.1 = {death="7898.1.1"} #dov
}
343300549 = {
	name="Haros"	# a lord
	dynasty=300549

	religion="gods_lorath"
	culture="lorathi"
	
	father=344300549

	7854.1.1 = {birth="7854.1.1"}
	7908.1.1 = {death="7908.1.1"}
}
342300549 = {
	name="Arar"	# a lord
	dynasty=300549

	religion="gods_lorath"
	culture="lorathi"
	
	father=343300549

	7880.1.1 = {birth="7880.1.1"}
	7935.1.1 = {death="7935.1.1"}
}
341300549 = {
	name="Jorys"	# a lord
	dynasty=300549

	religion="gods_lorath"
	culture="lorathi"
	
	father=342300549

	7915.1.1 = {birth="7915.1.1"}
	7967.1.1 = {death="7967.1.1"}
}
340300549 = {
	name="Thorenhor"	# a lord
	dynasty=300549

	religion="gods_lorath"
	culture="lorathi"
	
	father=341300549

	7939.1.1 = {birth="7939.1.1"}
	7985.1.1 = {death="7985.1.1"}
}
100300549 = {
	name="Ollo"	# a lord
	dynasty=300549

	religion="gods_lorath"
	culture="lorathi"
	
	father=340300549

	7965.1.1 = {birth="7965.1.1"}
	7981.1.1 = {add_trait=trained_warrior}
	8036.1.1 = {death="8036.1.1"}
}
101300549 = {
	name="Ezzelyno"	# a lord
	dynasty=300549

	religion="gods_lorath"
	culture="lorathi"

	father=100300549

	7989.1.1 = {birth="7989.1.1"}
	8005.1.1 = {add_trait=master_warrior}
	8069.1.1 = {death="8069.1.1"}
}
102300549 = {
	name="Gyleno"	# Prince of Lorath
	dynasty=300549

	religion="gods_lorath"
	culture="lorathi"

	father=100300549

	7990.1.1 = {birth="7990.1.1"}
	8006.1.1 = {add_trait=poor_warrior}
	8053.1.1 = {death="8053.1.1"}
}
105300549 = {
	name="Moreo"	# not a lord
	dynasty=300549

	religion="gods_lorath"
	culture="lorathi"

	father=101300549

	8016.1.1 = {birth="8016.1.1"}
	8032.1.1 = {add_trait=poor_warrior}
	8055.1.1 = {death="8055.1.1"}
}
106300549 = {
	name="Ezzelyno"	# a lord
	dynasty=300549

	religion="gods_lorath"
	culture="lorathi"

	father=101300549

	8018.1.1 = {birth="8018.1.1"}
	8034.1.1 = {add_trait=poor_warrior}
	8076.1.1 = {death="8076.1.1"}
}
111300549 = {
	name="Denyo"	# Prince of Lorath
	dynasty=300549

	religion="gods_lorath"
	culture="lorathi"

	father=106300549

	8045.1.1 = {birth="8045.1.1"}
	8114.1.1 = {death="8114.1.1"}
}
110300549 = {
	name="Myrmello"	# a lord
	dynasty=300549

	religion="gods_lorath"
	culture="lorathi"

	father=105300549

	8035.1.1 = {birth="8035.1.1"}
	8051.1.1 = {add_trait=poor_warrior}
	8097.1.1 = {death="8097.1.1"}
}
112300549 = {
	name="Mellario"	# a lord
	dynasty=300549

	religion="gods_lorath"
	culture="lorathi"

	father=106300549

	8047.1.1 = {birth="8047.1.1"}
	8063.1.1 = {add_trait=poor_warrior}
	8108.1.1 = {death="8108.1.1"}
}
116300549 = {
	name="Qarro"	# a lord
	dynasty=300549

	religion="gods_lorath"
	culture="lorathi"

	father=112300549

	8073.1.1 = {birth="8073.1.1"}
	8089.1.1 = {add_trait=poor_warrior}
	8129.1.1 = {death="8129.1.1"}
}
118300549 = {
	name="Mero"	# a lord
	dynasty=300549

	religion="gods_lorath"
	culture="lorathi"

	father=116300549

	8091.1.1 = {birth="8091.1.1"}
	8107.1.1 = {add_trait=poor_warrior}
	8166.1.1 = {death="8166.1.1"}
}
121300549 = {
	name="Oro"	# a lord
	dynasty=300549

	religion="gods_lorath"
	culture="lorathi"

	father=118300549

	8117.1.1 = {birth="8117.1.1"}
	8133.1.1 = {add_trait=trained_warrior}
	8169.1.1 = {death="8169.1.1"}
}
124300549 = {
	name="Lotho"	# a lord
	dynasty=300549

	religion="gods_lorath"
	culture="lorathi"

	father=118300549

	8125.1.1 = {birth="8125.1.1"}
	8141.1.1 = {add_trait=master_warrior}
	8202.1.1 = {death="8202.1.1"}
}
127300549 = {
	name="Pynto"	# Prince of Lorath
	dynasty=300549

	religion="gods_lorath"
	culture="lorathi"

	father=121300549

	8141.1.1 = {birth="8141.1.1"}
	8157.1.1 = {add_trait=trained_warrior}
	8185.1.1 = {death="8185.1.1"}
}
128300549 = {
	name="Tagganaro"	# a lord
	dynasty=300549

	religion="gods_lorath"
	culture="lorathi"

	father=121300549

	8142.1.1 = {birth="8142.1.1"}
	8158.1.1 = {add_trait=trained_warrior}
	8211.1.1 = {death="8211.1.1"}
}
133300549 = {
	name="Noho"	# a lord
	dynasty=300549

	religion="gods_lorath"
	culture="lorathi"

	father=128300549

	8172.1.1 = {birth="8172.1.1"}
	8188.1.1 = {add_trait=trained_warrior}
	8234.1.1 = {death="8234.1.1"}
}
135300549 = {
	name="Moreo"	# a lord
	dynasty=300549

	religion="gods_lorath"
	culture="lorathi"

	father=133300549

	8200.1.1 = {birth="8200.1.1"}
	8216.1.1 = {add_trait=skilled_warrior}
	8218.1.1 = {add_spouse=435300549}
	8256.1.1 = {death="8256.1.1"}
}
435300549 = {
	name="Ternesia"
	female=yes

	religion="gods_lorath"
	culture="lorathi"

	8200.1.1 = {birth="8200.1.1"}
	8256.1.1 = {death="8256.1.1"}
}
136300549 = {
	name="Orbelo"	# a lord
	dynasty=300549

	religion="gods_lorath"
	culture="lorathi"

	father=135300549
	mother=435300549

	8223.1.1 = {birth="8223.1.1"}
	8239.1.1 = {add_trait=poor_warrior}
	8241.1.1 = {add_spouse=436300549}
	8299.1.1 = {death="8299.1.1"}
}
436300549 = {
	name="Talea"
	female=yes

	religion="gods_lorath"
	culture="lorathi"

	8223.1.1 = {birth="8223.1.1"}
	8299.1.1 = {death="8299.1.1"}
}
137300549 = {
	name="Gylora"	# not a lord
	female=yes
	dynasty=300549

	religion="gods_lorath"
	culture="lorathi"

	father=135300549
	mother=435300549

	8224.1.1 = {birth="8224.1.1"}
	8277.1.1 = {death="8277.1.1"}
}
138300549 = {
	name="Beqqo"	# not a lord
	dynasty=300549

	religion="gods_lorath"
	culture="lorathi"

	father=135300549
	mother=435300549

	8227.1.1 = {birth="8227.1.1"}
	8243.1.1 = {add_trait=poor_warrior}
	8245.1.1 = {add_spouse=438300549}
	8292.1.1 = {death="8292.1.1"}
}
438300549 = {
	name="Rogga"
	female=yes

	religion="gods_lorath"
	culture="lorathi"

	8227.1.1 = {birth="8227.1.1"}
	8292.1.1 = {death="8292.1.1"}
}
139300549 = {
	name="Lanna"	# not a lord
	female=yes
	dynasty=300549

	religion="gods_lorath"
	culture="lorathi"

	father=135300549
	mother=435300549

	8230.1.1 = {birth="8230.1.1"}
	8289.1.1 = {death="8289.1.1"}
}
140300549 = {
	name="Gyloro"	# not a lord
	dynasty=300549

	religion="gods_lorath"
	culture="lorathi"

	father=135300549
	mother=435300549

	8233.1.1 = {birth="8233.1.1"}
	8249.1.1 = {add_trait=poor_warrior}
	8261.1.1 = {death="8261.1.1"}
}
141300549 = {
	name="Umma"	# not a lord
	female=yes
	dynasty=300549

	religion="gods_lorath"
	culture="lorathi"

	father=136300549
	mother=436300549

	8244.1.1 = {birth="8244.1.1"}
	8292.1.1 = {death="8292.1.1"}
}
142300549 = {
	name="Alia"	# not a lord
	female=yes
	dynasty=300549

	religion="gods_lorath"
	culture="lorathi"

	father=136300549
	mother=436300549

	8245.1.1 = {birth="8245.1.1"}
	8293.1.1 = {death="8293.1.1"}
}
143300549 = {
	name="Groleo"	# a lord
	dynasty=300549

	religion="gods_lorath"
	culture="lorathi"

	father=138300549
	mother=438300549

	8261.1.1 = {birth="8261.1.1"}
	8277.1.1 = {add_trait=poor_warrior}
	8279.1.1 = {add_spouse=443300549}
}
443300549 = {
	name="Torma"
	female=yes

	religion="gods_lorath"
	culture="lorathi"

	8261.1.1 = {birth="8261.1.1"}
}
144300549 = {
	name="Byan"	# not a lord
	dynasty=300549

	religion="gods_lorath"
	culture="lorathi"

	father=138300549
	mother=438300549

	8263.1.1 = {birth="8263.1.1"}
	8279.1.1 = {add_trait=poor_warrior}
	8281.1.1 = {add_spouse=444300549}
}
444300549 = {
	name="Lucerre"
	female=yes

	religion="gods_lorath"
	culture="lorathi"

	8263.1.1 = {birth="8263.1.1"}
}
145300549 = {
	name="Gyloro"	# not a lord
	dynasty=300549

	religion="gods_lorath"
	culture="lorathi"

	father=143300549
	mother=443300549

	8292.1.1 = {birth="8292.1.1"}
}
146300549 = {
	name="Lothea"	# not a lord
	female=yes
	dynasty=300549

	religion="gods_lorath"
	culture="lorathi"

	father=143300549
	mother=443300549

	8295.1.1 = {birth="8295.1.1"}
}
147300549 = {
	name="Brusco"	# not a lord
	dynasty=300549

	religion="gods_lorath"
	culture="lorathi"

	father=144300549
	mother=444300549

	8292.1.1 = {birth="8292.1.1"}
}
148300549 = {
	name="Qarria"	# not a lord
	female=yes
	dynasty=300549

	religion="gods_lorath"
	culture="lorathi"

	father=144300549
	mother=444300549

	8294.1.1 = {birth="8294.1.1"}
}
149300549 = {
	name="Lanna"	# not a lord
	female=yes
	dynasty=300549

	religion="gods_lorath"
	culture="lorathi"

	father=144300549
	mother=444300549

	8295.1.1 = {birth="8295.1.1"}
}
150300549 = {
	name="Terro"	# not a lord
	dynasty=300549

	religion="gods_lorath"
	culture="lorathi"

	father=144300549
	mother=444300549

	8298.1.1 = {birth="8298.1.1"}
}

### House Vazollen
344300560 = {
	name="Garryros"	# a lord
	dynasty=300560

	religion="gods_lorath"
	culture="lorathi"
	
	7820.1.1 = {birth="7820.1.1"}
	7898.1.1 = {death="7898.1.1"} #dov
}
343300560 = {
	name="Ballen"	# a lord
	dynasty=300560

	religion="gods_lorath"
	culture="lorathi"

	father=344300560
	
	7839.1.1 = {birth="7839.1.1"}
	7919.1.1 = {death="7919.1.1"}
}
342300560 = {
	name="Lysan"	# a lord
	dynasty=300560

	religion="gods_lorath"
	culture="lorathi"

	father=343300560
	
	7861.1.1 = {birth="7861.1.1"}
	7916.1.1 = {death="7916.1.1"}
}
341300560 = {
	name="Qycho"	# a lord
	dynasty=300560

	religion="gods_lorath"
	culture="lorathi"

	father=342300560
	
	7884.1.1 = {birth="7884.1.1"}
	7937.1.1 = {death="7937.1.1"}
}
340300560 = {
	name="Garryros"	# a lord
	dynasty=300560

	religion="gods_lorath"
	culture="lorathi"

	father=341300560
	
	7910.1.1 = {birth="7910.1.1"}
	7955.1.1 = {death="7955.1.1"}
}
345300560 = {
	name="Aran"	# a lord
	dynasty=300560

	religion="gods_lorath"
	culture="lorathi"

	father=341300560
	
	7915.1.1 = {birth="7915.1.1"}
	7977.1.1 = {death="7977.1.1"}
}
100300560 = {
	name="Tormo"	# a lord
	dynasty=300560

	religion="gods_lorath"
	culture="lorathi"
	
	father=340300560

	7935.1.1 = {birth="7935.1.1"}
	7951.1.1 = {add_trait=trained_warrior}
	8003.1.1 = {death="8003.1.1"}
}
101300560 = {
	name="Ternesio"	# a lord
	dynasty=300560

	religion="gods_lorath"
	culture="lorathi"

	father=100300560

	7954.1.1 = {birth="7954.1.1"}
	7970.1.1 = {add_trait=skilled_warrior}
	8021.1.1 = {death="8021.1.1"}
}
105300560 = {
	name="Ternesio"	# not a lord
	dynasty=300560

	religion="gods_lorath"
	culture="lorathi"

	father=100300560

	7963.1.1 = {birth="7963.1.1"}
	7979.1.1 = {add_trait=skilled_warrior}
	8015.1.1 = {death = {death_reason = death_battle}}
}
107300560 = {
	name="Byan"	# a lord
	dynasty=300560

	religion="gods_lorath"
	culture="lorathi"

	father=101300560

	7978.1.1 = {birth="7978.1.1"}
	7994.1.1 = {add_trait=poor_warrior}
	8037.1.1 = {death="8037.1.1"}
}
108300560 = {
	name="Mellario"	# a lord
	dynasty=300560

	religion="gods_lorath"
	culture="lorathi"

	father=105300560

	7990.1.1 = {birth="7990.1.1"}
	8006.1.1 = {add_trait=poor_warrior}
	8042.1.1 = {death="8042.1.1"}
}
111300560 = {
	name="Oro"	# not a lord
	dynasty=300560

	religion="gods_lorath"
	culture="lorathi"

	father=107300560

	8002.1.1 = {birth="8002.1.1"}
	8018.1.1 = {add_trait=poor_warrior}
	8031.1.1 = {death="8031.1.1"}
}
113300560 = {
	name="Meralyn"	# a lord
	dynasty=300560

	religion="gods_lorath"
	culture="lorathi"

	father=111300560

	8021.1.1 = {birth="8021.1.1"}
	8037.1.1 = {add_trait=poor_warrior}
	8085.1.1 = {death="8085.1.1"}
}
114300560 = {
	name="Ordello"	# Prince of Lorath
	dynasty=300560

	religion="gods_lorath"
	culture="lorathi"

	father=111300560

	8024.1.1 = {birth="8024.1.1"}
	8040.1.1 = {add_trait=poor_warrior}
	8070.1.1 = {death="8070.1.1"}
}
117300560 = {
	name="Joss"	# a lord
	dynasty=300560

	religion="gods_lorath"
	culture="lorathi"

	father=114300560

	8050.1.1 = {birth="8050.1.1"}
	8066.1.1 = {add_trait=poor_warrior}
	8112.1.1 = {death = {death_reason = death_accident}}
}
120300560 = {
	name="Beqqo"	# a lord
	dynasty=300560

	religion="gods_lorath"
	culture="lorathi"

	father=117300560

	8077.1.1 = {birth="8077.1.1"}
	8093.1.1 = {add_trait=poor_warrior}
	8134.1.1 = {death="8134.1.1"}
}
122300560 = {
	name="Pynto"	# Prince of Lorath
	dynasty=300560

	religion="gods_lorath"
	culture="lorathi"

	father=120300560

	8097.1.1 = {birth="8097.1.1"}
	8113.1.1 = {add_trait=poor_warrior}
	8125.1.1 = {death="8125.1.1"}
}
123300560 = {
	name="Tormo"	# a lord
	dynasty=300560

	religion="gods_lorath"
	culture="lorathi"

	father=120300560

	8099.1.1 = {birth="8099.1.1"}
	8115.1.1 = {add_trait=poor_warrior}
	8142.1.1 = {death="8142.1.1"}
}
124300560 = {
	name="Illyrio"	# a lord
	dynasty=300560

	religion="gods_lorath"
	culture="lorathi"

	father=122300560

	8123.1.1 = {birth="8123.1.1"}
	8139.1.1 = {add_trait=skilled_warrior}
	8183.1.1 = {death="8183.1.1"}
}
126300560 = {
	name="Beqqo"	# a lord
	dynasty=300560

	religion="gods_lorath"
	culture="lorathi"

	father=123300560

	8117.1.1 = {birth="8117.1.1"}
	8133.1.1 = {add_trait=poor_warrior}
	8167.1.1 = {death = {death_reason = death_accident}}
}
128300560 = {
	name="Allaquo"	# a lord
	dynasty=300560

	religion="gods_lorath"
	culture="lorathi"

	father=126300560

	8136.1.1 = {birth="8136.1.1"}
	8152.1.1 = {add_trait=trained_warrior}
	8199.1.1 = {death="8199.1.1"}
}
133300560 = {
	name="Byan"	# a lord
	dynasty=300560

	religion="gods_lorath"
	culture="lorathi"

	father=128300560

	8163.1.1 = {birth="8163.1.1"}
	8179.1.1 = {add_trait=trained_warrior}
	8212.1.1 = {death="8212.1.1"}
}
134300560 = {
	name="Qarro"	# a lord
	dynasty=300560

	religion="gods_lorath"
	culture="lorathi"

	father=133300560

	8181.1.1 = {birth="8181.1.1"}
	8197.1.1 = {add_trait=trained_warrior}
	8199.1.1 = {add_spouse=434300560}
	8233.1.1 = {death="8233.1.1"}
}
434300560 = {
	name="Moredea"
	female=yes

	religion="gods_lorath"
	culture="lorathi"

	8181.1.1 = {birth="8181.1.1"}
	8233.1.1 = {death="8233.1.1"}
}
135300560 = {
	name="Moreo"	# a lord
	dynasty=300560

	religion="gods_lorath"
	culture="lorathi"

	father=134300560
	mother=434300560

	8203.1.1 = {birth="8203.1.1"}
	8219.1.1 = {add_trait=trained_warrior}
	8221.1.1 = {add_spouse=435300560}
	8267.1.1 = {death="8267.1.1"}
}
435300560 = {
	name="Lothea"
	female=yes

	religion="gods_lorath"
	culture="lorathi"

	8203.1.1 = {birth="8203.1.1"}
	8277.1.1 = {death="8277.1.1"}
}
136300560 = {
	name="Noho"	# a lord
	dynasty=300560

	religion="gods_lorath"
	culture="lorathi"

	father=134300560
	mother=434300560

	8204.1.1 = {birth="8204.1.1"}
	8220.1.1 = {add_trait=trained_warrior}
	8222.1.1 = {add_spouse=436300560}
	8270.1.1 = {death="8270.1.1"}
}
436300560 = {
	name="Moredea"
	female=yes

	religion="gods_lorath"
	culture="lorathi"

	8204.1.1 = {birth="8204.1.1"}
	8270.1.1 = {death="8270.1.1"}
}
139300560 = {
	name="Tycho"	# not a lord
	dynasty=300560

	religion="gods_lorath"
	culture="lorathi"

	father=136300560
	mother=436300560

	8226.1.1 = {birth="8226.1.1"}
	8242.1.1 = {add_trait=poor_warrior}
	8244.1.1 = {add_spouse=439300560}
	8264.1.1 = {death="8264.1.1"}
}
439300560 = {
	name="Moredea"
	female=yes

	religion="gods_lorath"
	culture="lorathi"

	8226.1.1 = {birth="8226.1.1"}
	8264.1.1 = {death="8264.1.1"}
}
140300560 = {
	name="Joss"	# a lord
	dynasty=300560

	religion="gods_lorath"
	culture="lorathi"

	father=136300560
	mother=436300560

	8227.1.1 = {birth="8227.1.1"}
	8243.1.1 = {add_trait=poor_warrior}
	8245.1.1 = {add_spouse=440300560}
	8279.1.1 = {death="8279.1.1"}
}
440300560 = {
	name="Torma"
	female=yes

	religion="gods_lorath"
	culture="lorathi"

	8227.1.1 = {birth="8227.1.1"}
	8279.1.1 = {death="8279.1.1"}
}
141300560 = {
	name="Collio"	# not a lord
	dynasty=300560

	religion="gods_lorath"
	culture="lorathi"

	father=139300560
	mother=439300560

	8257.1.1 = {birth="8257.1.1"}
	8273.1.1 = {add_trait=trained_warrior}
	8275.1.1 = {add_spouse=441300560}
}
441300560 = {
	name="Lothea"
	female=yes

	religion="gods_lorath"
	culture="lorathi"

	8257.1.1 = {birth="8257.1.1"}
}
142300560 = {
	name="Salladhor"	# Prince of Lorath
	dynasty=300560

	religion="gods_lorath"
	culture="lorathi"

	father=139300560
	mother=439300560

	8258.1.1 = {birth="8258.1.1"}
}
143300560 = {
	name="Nohia"	# not a lord
	female=yes
	dynasty=300560

	religion="gods_lorath"
	culture="lorathi"

	father=140300560
	mother=440300560

	8248.1.1 = {birth="8248.1.1"}
}
144300560 = {
	name="Denyo"	# a lord
	dynasty=300560

	religion="gods_lorath"
	culture="lorathi"

	father=140300560
	mother=440300560

	8250.1.1 = {birth="8250.1.1"}
	8266.1.1 = {add_trait=trained_warrior}
	8268.1.1 = {add_spouse=444300560}
}
444300560 = {
	name="Izembara"
	female=yes

	religion="gods_lorath"
	culture="lorathi"

	8250.1.1 = {birth="8250.1.1"}
}
145300560 = {
	name="Gylora"	# not a lord
	female=yes
	dynasty=300560

	religion="gods_lorath"
	culture="lorathi"

	father=140300560
	mother=440300560

	8253.1.1 = {birth="8253.1.1"}
}
146300560 = {
	name="Mero"	# not a lord
	dynasty=300560

	religion="gods_lorath"
	culture="lorathi"

	father=141300560
	mother=441300560

	8286.1.1 = {birth="8286.1.1"}
}
147300560 = {
	name="Orios"	# not a lord
	female=yes
	dynasty=300560

	religion="gods_lorath"
	culture="lorathi"

	father=144300560
	mother=444300560

	8276.1.1 = {birth="8276.1.1"}
}

###########################
### Noble Feudal Houses ###
########################### 
### House H'Ghai
34469135 = {
	name="Caezar"	# a lord
	dynasty=69135

	religion="gods_lorath"
	culture="lorathi"

	7835.1.1 = {birth="7835.1.1"}
	7879.1.1 = {death="7879.1.1"}
}
34369135 = {
	name="Moro"	# a lord
	dynasty=69135

	religion="gods_lorath"
	culture="lorathi"
	
	father=34469135

	7861.1.1 = {birth="7861.1.1"}
	7922.1.1 = {death="7922.1.1"}
}
34269135 = {
	name="Vogys"	# a lord
	dynasty=69135

	religion="gods_lorath"
	culture="lorathi"
	
	father=34369135

	7885.1.1 = {birth="7885.1.1"}
	7940.1.1 = {death="7940.1.1"}
}
34169135 = {
	name="Joraquo"	# a lord
	dynasty=69135

	religion="gods_lorath"
	culture="lorathi"
	
	father=34269135

	7908.1.1 = {birth="7908.1.1"}
	7960.1.1 = {death="7960.1.1"}
}
34069135 = {
	name="Gyloro"	# a lord
	dynasty=69135

	religion="gods_lorath"
	culture="lorathi"
	
	father=34169135

	7931.1.1 = {birth="7931.1.1"}
	7995.1.1 = {death="7995.1.1"}
}
34569135 = {
	name="Hasaro"	# Prince of Lorath
	dynasty=69135

	religion="gods_lorath"
	culture="lorathi"
	
	father=34169135

	7939.1.1 = {birth="7939.1.1"}
	7990.1.1 = {death="7990.1.1"}
}
100069135 = {
	name="Pynto"	# a lord
	dynasty=69135

	religion="gods_lorath"
	culture="lorathi"
	
	father=34069135

	7957.1.1 = {birth="7957.1.1"}
	7973.1.1 = {add_trait=poor_warrior}
	8035.1.1 = {death="8035.1.1"}
}
100369135 = {
	name="Yorko"	# a lord
	dynasty=69135

	religion="gods_lorath"
	culture="lorathi"

	father=100069135

	7985.1.1 = {birth="7985.1.1"}
	8001.1.1 = {add_trait=poor_warrior}
	8053.1.1 = {death="8053.1.1"}
}
100769135 = {
	name="Narbo"	# a lord
	dynasty=69135

	religion="gods_lorath"
	culture="lorathi"

	father=100369135

	8013.1.1 = {birth="8013.1.1"}
	8029.1.1 = {add_trait=trained_warrior}
	8062.1.1 = {death="8062.1.1"}
}
101069135 = {
	name="Illyrio"	# a lord
	dynasty=69135

	religion="gods_lorath"
	culture="lorathi"

	father=100769135

	8044.1.1 = {birth="8044.1.1"}
	8060.1.1 = {add_trait=poor_warrior}
	8101.1.1 = {death="8101.1.1"}
}
101169135 = {
	name="Luco"	# a lord
	dynasty=69135

	religion="gods_lorath"
	culture="lorathi"

	father=101069135

	8072.1.1 = {birth="8072.1.1"}
	8088.1.1 = {add_trait=poor_warrior}
	8123.1.1 = {death="8123.1.1"}
}
101469135 = {
	name="Qarro"	# a lord
	dynasty=69135

	religion="gods_lorath"
	culture="lorathi"

	father=101169135

	8095.1.1 = {birth="8095.1.1"}
	8111.1.1 = {add_trait=skilled_warrior}
	8135.1.1 = {death="8135.1.1"}
}
102169135 = {
	name="Pynto"	# a lord
	dynasty=69135

	religion="gods_lorath"
	culture="lorathi"

	father=101469135

	8125.1.1 = {birth="8125.1.1"}
	8141.1.1 = {add_trait=skilled_warrior}
	8156.1.1 = {death="8156.1.1"}
}
102369135 = {
	name="Roro"	# a lord
	dynasty=69135

	religion="gods_lorath"
	culture="lorathi"

	father=102169135

	8147.1.1 = {birth="8147.1.1"}
	8163.1.1 = {add_trait=poor_warrior}
	8169.1.1 = {death="8169.1.1"}
}
102469135 = {
	name="Daario"	# a lord
	dynasty=69135

	religion="gods_lorath"
	culture="lorathi"

	father=102369135

	8166.1.1 = {birth="8166.1.1"}
	8182.1.1 = {add_trait=skilled_warrior}
	8223.1.1 = {death="8223.1.1"}
}
102769135 = {
	name="Ordello"	# a lord
	dynasty=69135

	religion="gods_lorath"
	culture="lorathi"

	father=102469135

	8188.1.1 = {birth="8188.1.1"}
	8204.1.1 = {add_trait=trained_warrior}
	8244.1.1 = {death="8244.1.1"}
}
102969135 = {
	name="Terro"	# a lord
	dynasty=69135

	religion="gods_lorath"
	culture="lorathi"

	father=102769135

	8223.1.1 = {birth="8223.1.1"}
	8239.1.1 = {add_trait=trained_warrior}
	8241.1.1 = {add_spouse=402969135}
	8278.1.1 = {death="8278.1.1"}
}
402969135 = {
	name="Orios"
	female=yes

	religion="gods_lorath"
	culture="lorathi"

	8223.1.1 = {birth="8223.1.1"}
	8278.1.1 = {death="8278.1.1"}
}
103069135 = {
	name="Lothea"	# not a lord
	female=yes
	dynasty=69135

	religion="gods_lorath"
	culture="lorathi"

	father=102969135
	mother=402969135

	8252.1.1 = {birth="8252.1.1"}
}
103169135 = {
	name="Illyrio"	# a lord
	dynasty=69135

	religion="gods_lorath"
	culture="lorathi"

	father=102969135
	mother=402969135

	8253.1.1 = {birth="8253.1.1"}
	8269.1.1 = {add_trait=trained_warrior}
	8271.1.1 = {add_spouse=403169135}
}
403169135 = {
	name="Talea"
	female=yes

	religion="gods_lorath"
	culture="lorathi"

	8253.1.1 = {birth="8253.1.1"}
}
103269135 = {
	name="Izembara"	# not a lord
	female=yes
	dynasty=69135

	religion="gods_lorath"
	culture="lorathi"

	father=103169135
	mother=403169135

	8275.1.1 = {birth="8275.1.1"}
}
103369135 = {
	name="Qarria"	# not a lord
	female=yes
	dynasty=69135

	religion="gods_lorath"
	culture="lorathi"

	father=103169135
	mother=403169135

	8276.1.1 = {birth="8276.1.1"}
}
103469135 = {
	name="Betharios"	# not a lord
	female=yes
	dynasty=69135

	religion="gods_lorath"
	culture="lorathi"

	father=103169135
	mother=403169135

	8278.1.1 = {birth="8278.1.1"}
}
103569135 = {
	name="Izembaro"	# a lord
	dynasty=69135

	religion="gods_lorath"
	culture="lorathi"

	father=103169135
	mother=403169135

	8281.1.1 = {birth="8281.1.1"}
	8297.1.1 = {add_trait=master_warrior}
}

### House Kaldorys
34569136 = {
	name="Moredo"	# a lord
	dynasty=69136

	religion="gods_lorath"
	culture="lorathi"

	7817.1.1 = {birth="7817.1.1"}
	7886.1.1 = {death="7886.1.1"}
}
34469136 = {
	name="Demetio"	# a lord
	dynasty=69136

	religion="gods_lorath"
	culture="lorathi"
	
	father=34569136

	7840.1.1 = {birth="7840.1.1"}
	7898.1.1 = {death="7898.1.1"}
}
34369136 = {
	name="Tregonos"	# a lord
	dynasty=69136

	religion="gods_lorath"
	culture="lorathi"
	
	father=34469136

	7866.1.1 = {birth="7866.1.1"}
	7930.1.1 = {death="7930.1.1"}
}
34269136 = {
	name="Caryos"	# a lord
	dynasty=69136

	religion="gods_lorath"
	culture="lorathi"
	
	father=34369136

	7890.1.1 = {birth="7890.1.1"}
	7952.1.1 = {death="7952.1.1"}
}
34169136 = {
	name="Daaro"	# a lord
	dynasty=69136

	religion="gods_lorath"
	culture="lorathi"
	
	father=34269136

	7911.1.1 = {birth="7911.1.1"}
	7960.1.1 = {death="7960.1.1"}
}
34069136 = {
	name="Nakano"	# a lord
	dynasty=69136

	religion="gods_lorath"
	culture="lorathi"
	
	father=34169136

	7934.1.1 = {birth="7934.1.1"}
	7991.1.1 = {death="7991.1.1"}
}
100069136 = {
	name="Moredo"	# a lord
	dynasty=69136

	religion="gods_lorath"
	culture="lorathi"
	
	father=34069136

	7960.1.1 = {birth="7960.1.1"}
	7976.1.1 = {add_trait=poor_warrior}
	8042.1.1 = {death="8042.1.1"}
}
100269136 = {
	name="Tregar"	# a lord
	dynasty=69136

	religion="gods_lorath"
	culture="lorathi"

	father=100069136

	7981.1.1 = {birth="7981.1.1"}
	7996.1.1 = {add_trait=trained_warrior}
	8061.1.1 = {death="8061.1.1"}
}
100669136 = {
	name="Izembaro"	# a lord
	dynasty=69136

	religion="gods_lorath"
	culture="lorathi"

	father=100269136

	8005.1.1 = {birth="8005.1.1"}
	8021.1.1 = {add_trait=poor_warrior}
	8075.1.1 = {death="8075.1.1"}
}
100869136 = {
	name="Orbelo"	# a lord
	dynasty=69136

	religion="gods_lorath"
	culture="lorathi"

	father=100669136

	8033.1.1 = {birth="8033.1.1"}
	8049.1.1 = {add_trait=poor_warrior}
	8089.1.1 = {death="8089.1.1"}
}
101269136 = {
	name="Mero"	# a lord
	dynasty=69136

	religion="gods_lorath"
	culture="lorathi"

	father=100869136

	8062.1.1 = {birth="8062.1.1"}
	8078.1.1 = {add_trait=poor_warrior}
	8122.1.1 = {death="8122.1.1"}
}
101569136 = {
	name="Meralyn"	# a lord
	dynasty=69136

	religion="gods_lorath"
	culture="lorathi"

	father=101269136

	8090.1.1 = {birth="8090.1.1"}
	8106.1.1 = {add_trait=trained_warrior}
	8146.1.1 = {death="8146.1.1"}
}
101769136 = {
	name="Tagganaro"	# a lord
	dynasty=69136

	religion="gods_lorath"
	culture="lorathi"

	father=101569136

	8117.1.1 = {birth="8117.1.1"}
	8133.1.1 = {add_trait=poor_warrior}
	8160.1.1 = {death="8160.1.1"}
}
101969136 = {
	name="Ordello"	# a lord
	dynasty=69136

	religion="gods_lorath"
	culture="lorathi"

	father=101769136

	8138.1.1 = {birth="8138.1.1"}
	8154.1.1 = {add_trait=poor_warrior}
	8212.1.1 = {death="8212.1.1"}
}
102169136 = {
	name="Brusco"	# a lord
	dynasty=69136

	religion="gods_lorath"
	culture="lorathi"

	father=101969136

	8166.1.1 = {birth="8166.1.1"}
	8182.1.1 = {add_trait=skilled_warrior}
	8230.1.1 = {death="8230.1.1"}
}
102369136 = {
	name="Gyloro"	# a lord
	dynasty=69136

	religion="gods_lorath"
	culture="lorathi"

	father=102169136

	8196.1.1 = {birth="8196.1.1"}
	8212.1.1 = {add_trait=poor_warrior}
	8214.1.1 = {add_spouse=402369136}
	8257.1.1 = {death="8257.1.1"}
}
402369136 = {
	name="Lanna"
	female=yes

	religion="gods_lorath"
	culture="lorathi"

	8196.1.1 = {birth="8196.1.1"}
	8257.1.1 = {death="8257.1.1"}
}
102569136 = {
	name="Moredo"	# a lord
	dynasty=69136

	religion="gods_lorath"
	culture="lorathi"

	father=102369136
	mother=402369136

	8220.1.1 = {birth="8220.1.1"}
	8236.1.1 = {add_trait=master_warrior}
	8238.1.1 = {add_spouse=402569136}
	8271.1.1 = {death="8271.1.1"}
}
402569136 = {
	name="Ternesia"
	female=yes

	religion="gods_lorath"
	culture="lorathi"

	8220.1.1 = {birth="8220.1.1"}
	8271.1.1 = {death="8271.1.1"}
}
102669136 = {
	name="Jaqea"	# not a lord
	female=yes
	dynasty=69136

	religion="gods_lorath"
	culture="lorathi"

	father=102369136
	mother=402369136

	8222.1.1 = {birth="8222.1.1"}
	8274.1.1 = {death="8274.1.1"}
}
102769136 = {
	name="Cossoma"	# not a lord
	female=yes
	dynasty=69136

	religion="gods_lorath"
	culture="lorathi"

	father=102569136
	mother=402569136

	8238.1.1 = {birth="8238.1.1"}
}
102869136 = {
	name="Terro"	# a lord
	dynasty=69136

	religion="gods_lorath"
	culture="lorathi"

	father=102569136
	mother=402569136

	8241.1.1 = {birth="8241.1.1"}
	8257.1.1 = {add_trait=poor_warrior}
	8259.1.1 = {add_spouse=402869136}
}
402869136 = {
	name="Torma"
	female=yes

	religion="gods_lorath"
	culture="lorathi"

	8241.1.1 = {birth="8241.1.1"}
}
102969136 = {
	name="Terro"	# not a lord
	dynasty=69136

	religion="gods_lorath"
	culture="lorathi"

	father=102569136
	mother=402569136

	8242.1.1 = {birth="8242.1.1"}
	8258.1.1 = {add_trait=trained_warrior}
	8292.1.1 = {death="8292.1.1"}
}
103069136 = {
	name="Orbela"	# not a lord
	female=yes
	dynasty=69136

	religion="gods_lorath"
	culture="lorathi"

	father=102569136
	mother=402569136

	8243.1.1 = {birth="8243.1.1"}
}
103169136 = {
	name="Byan"	# not a lord
	dynasty=69136

	religion="gods_lorath"
	culture="lorathi"

	father=102869136
	mother=402869136

	8261.1.1 = {birth="8261.1.1"}
	8277.1.1 = {add_trait=skilled_warrior}
	8291.1.1 = {death="8291.1.1"}
}
103269136 = {
	name="Gylenios"	# not a lord
	female=yes
	dynasty=69136

	religion="gods_lorath"
	culture="lorathi"

	father=102869136
	mother=402869136

	8275.1.1 = {birth="8275.1.1"}
}
103369136 = {
	name="Izembaro"	# not a lord
	dynasty=69136

	religion="gods_lorath"
	culture="lorathi"

	father=102869136
	mother=402869136

	8277.1.1 = {birth="8277.1.1"}
	8293.1.1 = {add_trait=trained_warrior}
}
103469136 = {
	name="Syrea"	# not a lord
	female=yes
	dynasty=69136

	religion="gods_lorath"
	culture="lorathi"

	father=102869136
	mother=402869136

	8278.1.1 = {birth="8278.1.1"}
}

### House Dalthor
34469139 = {
	name="Thorio"	# a lord
	dynasty=69139

	religion="gods_lorath"
	culture="lorathi"

	7838.1.1 = {birth="7838.1.1"}
	7880.1.1 = {death="7880.1.1"}
}
34369139 = {
	name="Nereo"	# a lord
	dynasty=69139

	religion="gods_lorath"
	culture="lorathi"
	
	father=34469139

	7859.1.1 = {birth="7859.1.1"}
	7912.1.1 = {death="7912.1.1"}
}
34269139 = {
	name="Roggo"	# a lord
	dynasty=69139

	religion="gods_lorath"
	culture="lorathi"
	
	father=34369139

	7880.1.1 = {birth="7880.1.1"}
	7935.1.1 = {death="7935.1.1"}
}
34169139 = {
	name="Yonos"	# a lord
	dynasty=69139

	religion="gods_lorath"
	culture="lorathi"
	
	father=34269139

	7907.1.1 = {birth="7907.1.1"}
	7969.1.1 = {death="7969.1.1"}
}
34069139 = {
	name="Syrio"	# a lord
	dynasty=69139

	religion="gods_lorath"
	culture="lorathi"
	
	father=34169139

	7932.1.1 = {birth="7932.1.1"}
	7996.1.1 = {death="7996.1.1"}
}
100069139 = {
	name="Noho"	# a lord
	dynasty=69139

	religion="gods_lorath"
	culture="lorathi"
	
	father=34069139

	7955.1.1 = {birth="7955.1.1"}
	7971.1.1 = {add_trait=poor_warrior}
	8029.1.1 = {death="8029.1.1"}
}
100169139 = {
	name="Noho"	# not a lord
	dynasty=69139

	religion="gods_lorath"
	culture="lorathi"

	father=100069139

	7974.1.1 = {birth="7974.1.1"}
	7990.1.1 = {add_trait=poor_warrior}
	8028.1.1 = {death="8028.1.1"}
}
100469139 = {
	name="Narbo"	# a lord
	dynasty=69139

	religion="gods_lorath"
	culture="lorathi"

	father=100169139

	8010.1.1 = {birth="8010.1.1"}
	8026.1.1 = {add_trait=trained_warrior}
	8050.1.1 = {death="8050.1.1"}
}
100569139 = {
	name="Beqqo"	# a lord
	dynasty=69139

	religion="gods_lorath"
	culture="lorathi"

	father=100469139

	8042.1.1 = {birth="8042.1.1"}
	8058.1.1 = {add_trait=poor_warrior}
	8078.1.1 = {death="8078.1.1"}
}
100769139 = {
	name="Roggo"	# a lord
	dynasty=69139

	religion="gods_lorath"
	culture="lorathi"

	father=100569139

	8070.1.1 = {birth="8070.1.1"}
	8086.1.1 = {add_trait=skilled_warrior}
	8130.1.1 = {death="8130.1.1"}
}
101069139 = {
	name="Moredo"	# a lord
	dynasty=69139

	religion="gods_lorath"
	culture="lorathi"

	father=100769139

	8095.1.1 = {birth="8095.1.1"}
	8111.1.1 = {add_trait=poor_warrior}
	8153.1.1 = {death="8153.1.1"}
}
101269139 = {
	name="Tormo"	# a lord
	dynasty=69139

	religion="gods_lorath"
	culture="lorathi"

	father=101069139

	8119.1.1 = {birth="8119.1.1"}
	8135.1.1 = {add_trait=poor_warrior}
	8169.1.1 = {death="8169.1.1"}
}
101469139 = {
	name="Moredo"	# a lord
	dynasty=69139

	religion="gods_lorath"
	culture="lorathi"

	father=101269139

	8148.1.1 = {birth="8148.1.1"}
	8164.1.1 = {add_trait=trained_warrior}
	8196.1.1 = {death = {death_reason = death_murder}}
}
101869139 = {
	name="Ollo"	# a lord
	dynasty=69139

	religion="gods_lorath"
	culture="lorathi"

	father=101469139

	8168.1.1 = {birth="8168.1.1"}
	8184.1.1 = {add_trait=poor_warrior}
	8221.1.1 = {death="8221.1.1"}
}
102069139 = {
	name="Roggo"	# a lord
	dynasty=69139

	religion="gods_lorath"
	culture="lorathi"

	father=101869139

	8195.1.1 = {birth="8195.1.1"}
	8211.1.1 = {add_trait=poor_warrior}
	8213.1.1 = {add_spouse=402069139}
	8242.1.1 = {death = {death_reason = death_accident}}
}
402069139 = {
	name="Rogga"
	female=yes

	religion="gods_lorath"
	culture="lorathi"

	8195.1.1 = {birth="8195.1.1"}
	8242.1.1 = {death="8242.1.1"}
}
102169139 = {
	name="Denyo"	# a lord
	dynasty=69139

	religion="gods_lorath"
	culture="lorathi"

	father=102069139
	mother=402069139

	8228.1.1 = {birth="8228.1.1"}
	8244.1.1 = {add_trait=poor_warrior}
	8246.1.1 = {add_spouse=402169139}
	8278.1.1 = {death="8278.1.1"}
}
402169139 = {
	name="Pynta"
	female=yes

	religion="gods_lorath"
	culture="lorathi"

	8228.1.1 = {birth="8228.1.1"}
	8278.1.1 = {death="8278.1.1"}
}
102269139 = {
	name="Bellegere"	# not a lord
	female=yes
	dynasty=69139

	religion="gods_lorath"
	culture="lorathi"

	father=102069139
	mother=402069139

	8229.1.1 = {birth="8229.1.1"}
	8288.1.1 = {death="8288.1.1"}
}
102369139 = {
	name="Alia"	# not a lord
	female=yes
	dynasty=69139

	religion="gods_lorath"
	culture="lorathi"

	father=102069139
	mother=402069139

	8230.1.1 = {birth="8230.1.1"}
	8287.1.1 = {death="8287.1.1"}
}
102469139 = {
	name="Ollo"	# not a lord
	dynasty=69139

	religion="gods_lorath"
	culture="lorathi"

	father=102169139
	mother=402169139

	8261.1.1 = {birth="8261.1.1"}
	8262.1.1 = {death="8262.1.1"}
}
102569139 = {
	name="Moredo"	# a lord
	dynasty=69139

	religion="gods_lorath"
	culture="lorathi"

	father=102169139
	mother=402169139

	8262.1.1 = {birth="8262.1.1"}
	8278.1.1 = {add_trait=poor_warrior}
	8280.1.1 = {add_spouse=402569139}
}
402569139 = {
	name="Torma"
	female=yes

	religion="gods_lorath"
	culture="lorathi"

	8262.1.1 = {birth="8262.1.1"}
}
102669139 = {
	name="Izembaro"	# not a lord
	dynasty=69139

	religion="gods_lorath"
	culture="lorathi"

	father=102569139
	mother=402569139

	8289.1.1 = {birth="8289.1.1"}
}
102769139 = {
	name="Tagganaria"	# not a lord
	female=yes
	dynasty=69139

	religion="gods_lorath"
	culture="lorathi"

	father=102569139
	mother=402569139

	8292.1.1 = {birth="8292.1.1"}
}
102869139 = {
	name="Ordello"	# not a lord
	dynasty=69139

	religion="gods_lorath"
	culture="lorathi"

	father=102569139
	mother=402569139

	8295.1.1 = {birth="8295.1.1"}
}
102969139 = {
	name="Pynto"	# not a lord
	dynasty=69139

	religion="gods_lorath"
	culture="lorathi"

	father=102569139
	mother=402569139

	8297.1.1 = {birth="8297.1.1"}
}
