#############
### Faros ###
#############
### House Faruud
344559326 = {
	name="Rayan"	# a lord
	dynasty=559326

	religion="stone_cow"
	culture="farosi"
	
	7829.1.1 = {birth="7829.1.1"}
	7885.1.1 = {death="7885.1.1"}
}
343559326 = {
	name="Nawfat"	# a lord
	dynasty=559326

	religion="stone_cow"
	culture="farosi"

	father=344559326
	
	7853.1.1 = {birth="7853.1.1"}
	7919.1.1 = {death="7919.1.1"}
}
342559326 = {
	name="Hichem"	# a lord
	dynasty=559326

	religion="stone_cow"
	culture="farosi"

	father=343559326
	
	7878.1.1 = {birth="7878.1.1"}
	7941.1.1 = {death="7941.1.1"}
}
341559326 = {
	name="Bagher"	# a lord
	dynasty=559326

	religion="stone_cow"
	culture="farosi"

	father=342559326
	
	7905.1.1 = {birth="7905.1.1"}
	7962.1.1 = {death="7962.1.1"}
}
340559326 = {
	name="Farhat"	# a lord
	dynasty=559326

	religion="stone_cow"
	culture="farosi"

	father=341559326
	
	7933.1.1 = {birth="7933.1.1"}
	7994.1.1 = {death="7994.1.1"}
}
10559326 = {
	name="Qadir"	# a lord
	dynasty=559326

	religion="stone_cow"
	culture="farosi"

	father=340559326

	7958.1.1 = {birth="7958.1.1"}
	7974.1.1 = {add_trait=poor_warrior}
	8017.1.1 = {death="8017.1.1"}
}
12559326 = {
	name="Shujah"	# a lord
	dynasty=559326

	religion="stone_cow"
	culture="farosi"

	father=10559326

	7993.1.1 = {birth="7993.1.1"}
	8009.1.1 = {add_trait=poor_warrior}
	8050.1.1 = {death="8050.1.1"}
}
15559326 = {
	name="Jaleel"	# a lord
	dynasty=559326

	religion="stone_cow"
	culture="farosi"

	father=12559326

	8025.1.1 = {birth="8025.1.1"}
	8041.1.1 = {add_trait=poor_warrior}
	8061.1.1 = {death = {death_reason = death_accident}}
}
18559326 = {
	name="Muzaffaraddin"	# a lord
	dynasty=559326

	religion="stone_cow"
	culture="farosi"

	father=15559326

	8057.1.1 = {birth="8057.1.1"}
	8073.1.1 = {add_trait=skilled_warrior}
	8094.1.1 = {death="8094.1.1"}
}
20559326 = {
	name="Abdullah"	# a lord
	dynasty=559326

	religion="stone_cow"
	culture="farosi"

	father=18559326

	8075.1.1 = {birth="8075.1.1"}
	8091.1.1 = {add_trait=trained_warrior}
	8130.1.1 = {death="8130.1.1"}
}
24559326 = {
	name="Sadiq"	# a lord
	dynasty=559326

	religion="stone_cow"
	culture="farosi"

	father=20559326

	8102.1.1 = {birth="8102.1.1"}
	8118.1.1 = {add_trait=poor_warrior}
	8155.1.1 = {death="8155.1.1"}
}
29559326 = {
	name="Bakr"	# a lord
	dynasty=559326

	religion="stone_cow"
	culture="farosi"

	father=24559326

	8131.1.1 = {birth="8131.1.1"}
	8147.1.1 = {add_trait=poor_warrior}
	8162.1.1 = {death="8162.1.1"}
}
31559326 = {
	name="Ali"	# a lord
	dynasty=559326

	religion="stone_cow"
	culture="farosi"

	father=29559326

	8160.1.1 = {birth="8160.1.1"}
	8176.1.1 = {add_trait=poor_warrior}
	8201.1.1 = {death="8201.1.1"}
}
32559326 = {
	name="Alim"	# a lord
	dynasty=559326

	religion="stone_cow"
	culture="farosi"

	father=31559326

	8186.1.1 = {birth="8186.1.1"}
	8202.1.1 = {add_trait=trained_warrior}
	8251.1.1 = {death="8251.1.1"}
}
36559326 = {
	name="Khalil"	# a lord
	dynasty=559326

	religion="stone_cow"
	culture="farosi"

	father=32559326

	8211.1.1 = {birth="8211.1.1"}
	8227.1.1 = {add_trait=poor_warrior}
	8253.1.1 = {death = {death_reason = death_murder}}
}
37559326 = {
	name="Wahab"	# a lord
	dynasty=559326

	religion="stone_cow"
	culture="farosi"

	father=36559326

	8235.1.1 = {birth="8235.1.1"}
	8251.1.1 = {add_trait=skilled_warrior}
	8287.1.1 = {death="8287.1.1"}
}
40559326 = {
	name="Halil"	# a lord
	dynasty=559326

	religion="stone_cow"
	culture="farosi"

	father=37559326

	8253.1.1 = {birth="8253.1.1"}
	8269.1.1 = {add_trait=poor_warrior}
}

### House Jabbour
344559336 = {
	name="Raza"	# a lord
	dynasty=559336

	religion="stone_cow"
	culture="farosi"

	7827.1.1 = {birth="7827.1.1"}
	7875.1.1 = {death="7875.1.1"}
}
343559336 = {
	name="Takir"	# a lord
	dynasty=559336

	religion="stone_cow"
	culture="farosi"

	father=344559336
	
	7854.1.1 = {birth="7854.1.1"}
	7911.1.1 = {death="7911.1.1"}
}
342559336 = {
	name="Zaraq"	# a lord
	dynasty=559336

	religion="stone_cow"
	culture="farosi"

	father=343559336
	
	7880.1.1 = {birth="7880.1.1"}
	7932.1.1 = {death="7932.1.1"}
}
341559336 = {
	name="Hakif"	# a lord
	dynasty=559336

	religion="stone_cow"
	culture="farosi"

	father=342559336
	
	7904.1.1 = {birth="7904.1.1"}
	7966.1.1 = {death="7966.1.1"}
}
340559336 = {
	name="Naseeb"	# a lord
	dynasty=559336

	religion="stone_cow"
	culture="farosi"

	father=341559336
	
	7925.1.1 = {birth="7925.1.1"}
	7990.1.1 = {death="7990.1.1"}
}
100559336 = {
	name="Idris"	# a lord
	dynasty=559336

	religion="stone_cow"
	culture="farosi"

	father=340559336
	
	7966.1.1 = {birth="7966.1.1"}
	7982.1.1 = {add_trait=poor_warrior}
	8036.1.1 = {death="8036.1.1"}
}
101559336 = {
	name="Mirza"	# a lord
	dynasty=559336

	religion="stone_cow"
	culture="farosi"

	father=100559336

	7999.1.1 = {birth="7999.1.1"}
	8015.1.1 = {add_trait=trained_warrior}
	8044.1.1 = {death="8044.1.1"}
}
105559336 = {
	name="Ali"	# a lord
	dynasty=559336

	religion="stone_cow"
	culture="farosi"

	father=101559336

	8026.1.1 = {birth="8026.1.1"}
	8042.1.1 = {add_trait=poor_warrior}
	8097.1.1 = {death="8097.1.1"}
}
108559336 = {
	name="Isa"	# a lord
	dynasty=559336

	religion="stone_cow"
	culture="farosi"

	father=105559336

	8046.1.1 = {birth="8046.1.1"}
	8062.1.1 = {add_trait=trained_warrior}
	8110.1.1 = {death="8110.1.1"}
}
111559336 = {
	name="Aghlab"	# a lord
	dynasty=559336

	religion="stone_cow"
	culture="farosi"

	father=108559336

	8072.1.1 = {birth="8072.1.1"}
	8088.1.1 = {add_trait=poor_warrior}
	8128.1.1 = {death="8128.1.1"}
}
113559336 = {
	name="Shujah"	# a lord
	dynasty=559336

	religion="stone_cow"
	culture="farosi"

	father=111559336

	8104.1.1 = {birth="8104.1.1"}
	8120.1.1 = {add_trait=poor_warrior}
	8162.1.1 = {death="8162.1.1"}
}
117559336 = {
	name="Akin"	# a lord
	dynasty=559336

	religion="stone_cow"
	culture="farosi"

	father=113559336

	8133.1.1 = {birth="8133.1.1"}
	8149.1.1 = {add_trait=poor_warrior}
	8189.1.1 = {death="8189.1.1"}
}
120559336 = {
	name="Husam"	# a lord
	dynasty=559336

	religion="stone_cow"
	culture="farosi"

	father=117559336

	8157.1.1 = {birth="8157.1.1"}
	8173.1.1 = {add_trait=poor_warrior}
	8209.1.1 = {death="8209.1.1"}
}
122559336 = {
	name="Ghalib"	# a lord
	dynasty=559336

	religion="stone_cow"
	culture="farosi"

	father=120559336

	8181.1.1 = {birth="8181.1.1"}
	8197.1.1 = {add_trait=poor_warrior}
	8233.1.1 = {death="8233.1.1"}
}
123559336 = {
	name="Mirza"	# a lord
	dynasty=559336

	religion="stone_cow"
	culture="farosi"

	father=122559336

	8204.1.1 = {birth="8204.1.1"}
	8220.1.1 = {add_trait=poor_warrior}
	8284.1.1 = {death="8284.1.1"}
}
125559336 = {
	name="Sadiq"	# a lord
	dynasty=559336

	religion="stone_cow"
	culture="farosi"

	father=123559336

	8224.1.1 = {birth="8224.1.1"}
	8240.1.1 = {add_trait=skilled_warrior}
	8294.1.1 = {death="8294.1.1"}
}
126559336 = {
	name="Faruk"	# a lord
	dynasty=559336

	religion="stone_cow"
	culture="farosi"

	father=125559336

	8253.1.1 = {birth="8253.1.1"}
	8269.1.1 = {add_trait=poor_warrior}
}
128559336 = {
	name="Burhanaddin"	# not a lord
	dynasty=559336

	religion="stone_cow"
	culture="farosi"

	father=126559336

	8274.1.1 = {birth="8274.1.1"}
	8290.1.1 = {add_trait=skilled_warrior}
}

### House Aladda
34555932 = {
	name="Nasuh"	# a lord
	dynasty=55932

	religion="stone_cow"
	culture="farosi"
	
	7821.1.1 = {birth="7821.1.1"}
	7883.1.1 = {death="7883.1.1"}
}
34455932 = {
	name="Furkan"	# a lord
	dynasty=55932

	religion="stone_cow"
	culture="farosi"

	father=34555932
	
	7847.1.1 = {birth="7847.1.1"}
	7902.1.1 = {death="7902.1.1"}
}
34355932 = {
	name="Wazar"	# a lord
	dynasty=55932

	religion="stone_cow"
	culture="farosi"

	father=34455932
	
	7870.1.1 = {birth="7870.1.1"}
	7942.1.1 = {death="7942.1.1"}
}
34255932 = {
	name="Zahed"	# a lord
	dynasty=55932

	religion="stone_cow"
	culture="farosi"

	father=34355932
	
	7891.1.1 = {birth="7891.1.1"}
	7950.1.1 = {death="7950.1.1"}
}
34155932 = {
	name="Bakir"	# a lord
	dynasty=55932

	religion="stone_cow"
	culture="farosi"

	father=34255932
	
	7915.1.1 = {birth="7915.1.1"}
	7974.1.1 = {death="7974.1.1"}
}
34055932 = {
	name="Qamar"	# a lord
	dynasty=55932

	religion="stone_cow"
	culture="farosi"

	father=34155932
	
	7939.1.1 = {birth="7939.1.1"}
	7995.1.1 = {death="7995.1.1"}
}
100055932 = {
	name="Samir"	# a lord
	dynasty=55932

	religion="stone_cow"
	culture="farosi"
	
	father=34055932

	7966.1.1 = {birth="7966.1.1"}
	7982.1.1 = {add_trait=poor_warrior}
	8040.1.1 = {death="8040.1.1"}
}
100455932 = {
	name="Aarif"	# a lord
	dynasty=55932

	religion="stone_cow"
	culture="farosi"

	father=100055932

	7994.1.1 = {birth="7994.1.1"}
	8010.1.1 = {add_trait=poor_warrior}
	8055.1.1 = {death="8055.1.1"}
}
100555932 = {
	name="Alim"	# a lord
	dynasty=55932

	religion="stone_cow"
	culture="farosi"

	father=100455932

	8015.1.1 = {birth="8015.1.1"}
	8031.1.1 = {add_trait=poor_warrior}
	8077.1.1 = {death="8077.1.1"}
}
101055932 = {
	name="Ali"	# a lord
	dynasty=55932

	religion="stone_cow"
	culture="farosi"

	father=100555932

	8041.1.1 = {birth="8041.1.1"}
	8057.1.1 = {add_trait=trained_warrior}
	8100.1.1 = {death="8100.1.1"}
}
101255932 = {
	name="Husam"	# a lord
	dynasty=55932

	religion="stone_cow"
	culture="farosi"

	father=101055932

	8064.1.1 = {birth="8064.1.1"}
	8080.1.1 = {add_trait=trained_warrior}
	8110.1.1 = {death="8110.1.1"}
}
101455932 = {
	name="Aram"	# a lord
	dynasty=55932

	religion="stone_cow"
	culture="farosi"

	father=101255932

	8083.1.1 = {birth="8083.1.1"}
	8099.1.1 = {add_trait=poor_warrior}
	8139.1.1 = {death="8139.1.1"}
}
101655932 = {
	name="Jaleel"	# a lord
	dynasty=55932

	religion="stone_cow"
	culture="farosi"

	father=101455932

	8105.1.1 = {birth="8105.1.1"}
	8121.1.1 = {add_trait=poor_warrior}
	8143.1.1 = {death="8143.1.1"}
}
101855932 = {
	name="Zeyd"	# a lord
	dynasty=55932

	religion="stone_cow"
	culture="farosi"

	father=101655932

	8125.1.1 = {birth="8125.1.1"}
	8141.1.1 = {add_trait=poor_warrior}
	8189.1.1 = {death="8189.1.1"}
}
102255932 = {
	name="Hasan_Hasan"	# a lord
	dynasty=55932

	religion="stone_cow"
	culture="farosi"

	father=101855932

	8152.1.1 = {birth="8152.1.1"}
	8168.1.1 = {add_trait=skilled_warrior}
	8216.1.1 = {death="8216.1.1"}
}
102455932 = {
	name="Khalil"	# a lord
	dynasty=55932

	religion="stone_cow"
	culture="farosi"

	father=102255932

	8174.1.1 = {birth="8174.1.1"}
	8190.1.1 = {add_trait=poor_warrior}
	8234.1.1 = {death="8234.1.1"}
}
102555932 = {
	name="Mirza"	# a lord
	dynasty=55932

	religion="stone_cow"
	culture="farosi"

	father=102455932

	8192.1.1 = {birth="8192.1.1"}
	8208.1.1 = {add_trait=poor_warrior}
	8249.1.1 = {death="8249.1.1"}
}
102855932 = {
	name="Sadiq"	# a lord
	dynasty=55932

	religion="stone_cow"
	culture="farosi"

	father=102555932

	8216.1.1 = {birth="8216.1.1"}
	8232.1.1 = {add_trait=poor_warrior}
	8285.1.1 = {death="8285.1.1"}
}
103055932 = {
	name="Wahab"	# a lord
	dynasty=55932

	religion="stone_cow"
	culture="farosi"

	father=102855932

	8246.1.1 = {birth="8246.1.1"}
	8262.1.1 = {add_trait=poor_warrior}
}
103255932 = {
	name="Aram"	# not a lord
	dynasty=55932

	religion="stone_cow"
	culture="farosi"

	father=103055932

	8265.1.1 = {birth="8265.1.1"}
	8281.1.1 = {add_trait=trained_warrior}
	8283.1.1 = {add_spouse=403255932}
}
403255932 = {
	name="Tanaz"
	female=yes

	religion="stone_cow"
	culture="farosi"

	8265.1.1 = {birth="8265.1.1"}
}
103755932 = {
	name="Sadiq"	# not a lord
	dynasty=55932

	religion="stone_cow"
	culture="farosi"

	father=103255932
	mother=403255932

	8287.1.1 = {birth="8287.1.1"}
}

### House Malhallador
34569164 = {
	name="Qajjad"	# a lord
	dynasty=69164

	religion="stone_cow"
	culture="farosi"
	
	7819.1.1 = {birth="7819.1.1"}
	7875.1.1 = {death="7875.1.1"}
}
34469164 = {
	name="Zaffar"	# a lord
	dynasty=69164

	religion="stone_cow"
	culture="farosi"

	father=34569164
	
	7845.1.1 = {birth="7845.1.1"}
	7899.1.1 = {death="7899.1.1"}
}
34369164 = {
	name="Dhayd"	# a lord
	dynasty=69164

	religion="stone_cow"
	culture="farosi"

	father=34469164
	
	7868.1.1 = {birth="7868.1.1"}
	7922.1.1 = {death="7922.1.1"}
}
34269164 = {
	name="Mansar"	# a lord
	dynasty=69164

	religion="stone_cow"
	culture="farosi"

	father=34369164
	
	7892.1.1 = {birth="7892.1.1"}
	7941.1.1 = {death="7941.1.1"}
}
34169164 = {
	name="Nagub"	# a lord
	dynasty=69164

	religion="stone_cow"
	culture="farosi"

	father=34269164
	
	7917.1.1 = {birth="7917.1.1"}
	7976.1.1 = {death="7976.1.1"}
}
34069164 = {
	name="Gakir"	# a lord
	dynasty=69164

	religion="stone_cow"
	culture="farosi"

	father=34169164
	
	7941.1.1 = {birth="7941.1.1"}
	7988.1.1 = {death="7988.1.1"}
}
100069164 = {
	name="Isa"	# a lord
	dynasty=69164

	religion="stone_cow"
	culture="farosi"
	
	father=34069164

	7964.1.1 = {birth="7964.1.1"}
	7980.1.1 = {add_trait=poor_warrior}
	8032.1.1 = {death="8032.1.1"}
}
100169164 = {
	name="Uways"	# a lord
	dynasty=69164

	religion="stone_cow"
	culture="farosi"

	father=100069164

	7982.1.1 = {birth="7982.1.1"}
	7998.1.1 = {add_trait=poor_warrior}
	8035.1.1 = {death="8035.1.1"}
}
100669164 = {
	name="Mirza"	# a lord
	dynasty=69164

	religion="stone_cow"
	culture="farosi"

	father=100169164

	8003.1.1 = {birth="8003.1.1"}
	8019.1.1 = {add_trait=poor_warrior}
	8058.1.1 = {death="8058.1.1"}
}
101069164 = {
	name="Fadl"	# a lord
	dynasty=69164

	religion="stone_cow"
	culture="farosi"

	father=100669164

	8035.1.1 = {birth="8035.1.1"}
	8051.1.1 = {add_trait=skilled_warrior}
	8099.1.1 = {death="8099.1.1"}
}
101169164 = {
	name="Jibril"	# a lord
	dynasty=69164

	religion="stone_cow"
	culture="farosi"

	father=101069164

	8057.1.1 = {birth="8057.1.1"}
	8073.1.1 = {add_trait=trained_warrior}
	8106.1.1 = {death="8106.1.1"}
}
101469164 = {
	name="Jalil"	# a lord
	dynasty=69164

	religion="stone_cow"
	culture="farosi"

	father=101169164

	8080.1.1 = {birth="8080.1.1"}
	8096.1.1 = {add_trait=poor_warrior}
	8121.1.1 = {death="8121.1.1"}
}
102169164 = {
	name="Akin"	# a lord
	dynasty=69164

	religion="stone_cow"
	culture="farosi"

	father=101469164

	8104.1.1 = {birth="8104.1.1"}
	8120.1.1 = {add_trait=poor_warrior}
	8170.1.1 = {death="8170.1.1"}
}
102369164 = {
	name="Qadir"	# a lord
	dynasty=69164

	religion="stone_cow"
	culture="farosi"

	father=102169164

	8132.1.1 = {birth="8132.1.1"}
	8148.1.1 = {add_trait=poor_warrior}
	8179.1.1 = {death="8179.1.1"}
}
102469164 = {
	name="Husam"	# a lord
	dynasty=69164

	religion="stone_cow"
	culture="farosi"

	father=102369164

	8167.1.1 = {birth="8167.1.1"}
	8183.1.1 = {add_trait=skilled_warrior}
	8222.1.1 = {death="8222.1.1"}
}
102869164 = {
	name="Najib"	# a lord
	dynasty=69164

	religion="stone_cow"
	culture="farosi"

	father=102469164

	8195.1.1 = {birth="8195.1.1"}
	8211.1.1 = {add_trait=skilled_warrior}
	8231.1.1 = {death="8231.1.1"}
}
103269164 = {
	name="Aghlab"	# a lord
	dynasty=69164

	religion="stone_cow"
	culture="farosi"

	father=102869164

	8227.1.1 = {birth="8227.1.1"}
	8243.1.1 = {add_trait=trained_warrior}
	8278.1.1 = {death="8278.1.1"}
}
103769164 = {
	name="Fadl"	# a lord
	dynasty=69164

	religion="stone_cow"
	culture="farosi"

	father=103269164

	8263.1.1 = {birth="8263.1.1"}
	8279.1.1 = {add_trait=trained_warrior}
}
103969164 = {
	name="Mahdi"	# not a lord
	dynasty=69164

	religion="stone_cow"
	culture="farosi"

	father=103769164

	8288.1.1 = {birth="8288.1.1"}
}

##################
### Port Moraq ###
##################
### House Jaffaralla
34555933 = {
	name="Ekram"	# a lord
	dynasty=55933

	religion="stone_cow"
	culture="moraqi"
	
	7822.1.1 = {birth="7822.1.1"}
	7886.1.1 = {death="7886.1.1"}
}
34455933 = {
	name="Chasat"	# a lord
	dynasty=55933

	religion="stone_cow"
	culture="moraqi"

	father=34555933
	
	7849.1.1 = {birth="7849.1.1"}
	7895.1.1 = {death="7895.1.1"}
}
34355933 = {
	name="Darfeen"	# a lord
	dynasty=55933

	religion="stone_cow"
	culture="moraqi"

	father=34455933
	
	7872.1.1 = {birth="7872.1.1"}
	7923.1.1 = {death="7923.1.1"}
}
34255933 = {
	name="Qamar"	# a lord
	dynasty=55933

	religion="stone_cow"
	culture="moraqi"

	father=34355933
	
	7897.1.1 = {birth="7897.1.1"}
	7946.1.1 = {death="7946.1.1"}
}
34155933 = {
	name="Shakur"	# a lord
	dynasty=55933

	religion="stone_cow"
	culture="moraqi"

	father=34255933
	
	7920.1.1 = {birth="7920.1.1"}
	7983.1.1 = {death="7983.1.1"}
}
34055933 = {
	name="Ussam"	# a lord
	dynasty=55933

	religion="stone_cow"
	culture="moraqi"

	father=34155933
	
	7939.1.1 = {birth="7939.1.1"}
	7996.1.1 = {death="7996.1.1"}
}
1055933 = {
	name="Aram"	# a lord
	dynasty=55933

	religion="stone_cow"
	culture="moraqi"
	
	father=34055933

	7962.1.1 = {birth="7962.1.1"}
	7978.1.1 = {add_trait=poor_warrior}
	8022.1.1 = {death="8022.1.1"}
}
1155933 = {
	name="Azam"	# a lord
	dynasty=55933

	religion="stone_cow"
	culture="moraqi"

	father=1055933

	7981.1.1 = {birth="7981.1.1"}
	7996.1.1 = {add_trait=poor_warrior}
	8048.1.1 = {death="8048.1.1"}
}
1455933 = {
	name="Fadil"	# a lord
	dynasty=55933

	religion="stone_cow"
	culture="moraqi"

	father=1155933

	8014.1.1 = {birth="8014.1.1"}
	8030.1.1 = {add_trait=skilled_warrior}
	8076.1.1 = {death="8076.1.1"}
}
1655933 = {
	name="Is'mail"	# a lord
	dynasty=55933

	religion="stone_cow"
	culture="moraqi"

	father=1455933

	8042.1.1 = {birth="8042.1.1"}
	8058.1.1 = {add_trait=trained_warrior}
	8098.1.1 = {death="8098.1.1"}
}
1955933 = {
	name="Husam"	# a lord
	dynasty=55933

	religion="stone_cow"
	culture="moraqi"

	father=1655933

	8065.1.1 = {birth="8065.1.1"}
	8081.1.1 = {add_trait=trained_warrior}
	8101.1.1 = {death="8101.1.1"}
}
2355933 = {
	name="Aarif"	# a lord
	dynasty=55933

	religion="stone_cow"
	culture="moraqi"

	father=1955933

	8088.1.1 = {birth="8088.1.1"}
	8104.1.1 = {add_trait=trained_warrior}
	8148.1.1 = {death="8148.1.1"}
}
2455933 = {
	name="Mahdi"	# a lord
	dynasty=55933

	religion="stone_cow"
	culture="moraqi"

	father=2355933

	8111.1.1 = {birth="8111.1.1"}
	8127.1.1 = {add_trait=poor_warrior}
	8160.1.1 = {death="8160.1.1"}
}
2855933 = {
	name="Mubarak"	# a lord
	dynasty=55933

	religion="stone_cow"
	culture="moraqi"

	father=2455933

	8143.1.1 = {birth="8143.1.1"}
	8159.1.1 = {add_trait=poor_warrior}
	8194.1.1 = {death="8194.1.1"}
}
3255933 = {
	name="Qadir"	# a lord
	dynasty=55933

	religion="stone_cow"
	culture="moraqi"

	father=2855933

	8176.1.1 = {birth="8176.1.1"}
	8192.1.1 = {add_trait=trained_warrior}
	8229.1.1 = {death = {death_reason = death_accident}}
}
3355933 = {
	name="Isa"	# a lord
	dynasty=55933

	religion="stone_cow"
	culture="moraqi"

	father=3255933

	8205.1.1 = {birth="8205.1.1"}
	8221.1.1 = {add_trait=poor_warrior}
	8275.1.1 = {death = {death_reason = death_murder}}
}
3655933 = {
	name="Mukhtar"	# a lord
	dynasty=55933

	religion="stone_cow"
	culture="moraqi"

	father=3355933

	8231.1.1 = {birth="8231.1.1"}
	8247.1.1 = {add_trait=skilled_warrior}
	8299.1.1 = {death="8299.1.1"}
}
4055933 = {
	name="Sadiq"	# a lord
	dynasty=55933

	religion="stone_cow"
	culture="moraqi"

	father=3655933

	8260.1.1 = {birth="8260.1.1"}
	8276.1.1 = {add_trait=poor_warrior}
}
5055933 = {
	name="Khalil"
	dynasty=55933

	religion="stone_cow"
	culture="moraqi"

	father=4055933

	8278.1.1 = {birth="8278.1.1"}
	8294.1.1 = {add_trait=trained_warrior}
}

### House Masih
34555934 = {
	name="Hazhar"	# a lord
	dynasty=55934

	religion="stone_cow"
	culture="moraqi"
	
	7815.1.1 = {birth="7815.1.1"}
	7878.1.1 = {death="7878.1.1"}
}
34455934 = {
	name="Zahab"	# a lord
	dynasty=55934

	religion="stone_cow"
	culture="moraqi"

	father=34555934
	
	7839.1.1 = {birth="7839.1.1"}
	7891.1.1 = {death="7891.1.1"}
}
34355934 = {
	name="Yasaf"	# a lord
	dynasty=55934

	religion="stone_cow"
	culture="moraqi"

	father=34455934
	
	7862.1.1 = {birth="7862.1.1"}
	7920.1.1 = {death="7920.1.1"}
}
34255934 = {
	name="Turhan"	# a lord
	dynasty=55934

	religion="stone_cow"
	culture="moraqi"

	father=34355934
	
	7888.1.1 = {birth="7888.1.1"}
	7946.1.1 = {death="7946.1.1"}
}
34155934 = {
	name="Tazi"	# a lord
	dynasty=55934

	religion="stone_cow"
	culture="moraqi"

	father=34255934
	
	7913.1.1 = {birth="7913.1.1"}
	7962.1.1 = {death="7962.1.1"}
}
34055934 = {
	name="Wossam"	# a lord
	dynasty=55934

	religion="stone_cow"
	culture="moraqi"

	father=34155934
	
	7941.1.1 = {birth="7941.1.1"}
	7989.1.1 = {death="7989.1.1"}
}
100055934 = {
	name="Nizam"	# a lord
	dynasty=55934

	religion="stone_cow"
	culture="moraqi"
	
	father=34055934

	7965.1.1 = {birth="7965.1.1"}
	7981.1.1 = {add_trait=poor_warrior}
	8038.1.1 = {death="8038.1.1"}
}
100355934 = {
	name="Isa"	# a lord
	dynasty=55934

	religion="stone_cow"
	culture="moraqi"

	father=100055934

	7992.1.1 = {birth="7992.1.1"}
	8008.1.1 = {add_trait=trained_warrior}
	8046.1.1 = {death="8046.1.1"}
}
100555934 = {
	name="Yusuf"	# a lord
	dynasty=55934

	religion="stone_cow"
	culture="moraqi"

	father=100355934

	8014.1.1 = {birth="8014.1.1"}
	8030.1.1 = {add_trait=poor_warrior}
	8060.1.1 = {death="8060.1.1"}
}
100655934 = {
	name="Burhanaddin"	# a lord
	dynasty=55934

	religion="stone_cow"
	culture="moraqi"

	father=100555934

	8038.1.1 = {birth="8038.1.1"}
	8054.1.1 = {add_trait=poor_warrior}
	8079.1.1 = {death="8079.1.1"}
}
101055934 = {
	name="Shamir"	# a lord
	dynasty=55934

	religion="stone_cow"
	culture="moraqi"

	father=100655934

	8066.1.1 = {birth="8066.1.1"}
	8082.1.1 = {add_trait=trained_warrior}
	8111.1.1 = {death="8111.1.1"}
}
101255934 = {
	name="Nizam"	# a lord
	dynasty=55934

	religion="stone_cow"
	culture="moraqi"

	father=101055934

	8089.1.1 = {birth="8089.1.1"}
	8105.1.1 = {add_trait=poor_warrior}
	8137.1.1 = {death="8137.1.1"}
}
101555934 = {
	name="Is'mail"	# a lord
	dynasty=55934

	religion="stone_cow"
	culture="moraqi"

	father=101255934

	8114.1.1 = {birth="8114.1.1"}
	8130.1.1 = {add_trait=poor_warrior}
	8174.1.1 = {death="8174.1.1"}
}
101655934 = {
	name="Qadir"	# a lord
	dynasty=55934

	religion="stone_cow"
	culture="moraqi"

	father=101555934

	8134.1.1 = {birth="8134.1.1"}
	8150.1.1 = {add_trait=skilled_warrior}
	8186.1.1 = {death="8186.1.1"}
}
101955934 = {
	name="Hafiz"	# a lord
	dynasty=55934

	religion="stone_cow"
	culture="moraqi"

	father=101655934

	8160.1.1 = {birth="8160.1.1"}
	8176.1.1 = {add_trait=poor_warrior}
	8190.1.1 = {death="8190.1.1"}
}
102355934 = {
	name="Ubayd"	# a lord
	dynasty=55934

	religion="stone_cow"
	culture="moraqi"

	father=101955934

	8183.1.1 = {birth="8183.1.1"}
	8199.1.1 = {add_trait=skilled_warrior}
	8234.1.1 = {death="8234.1.1"}
}
102455934 = {
	name="Aghlab"	# a lord
	dynasty=55934

	religion="stone_cow"
	culture="moraqi"

	father=102355934

	8211.1.1 = {birth="8211.1.1"}
	8227.1.1 = {add_trait=trained_warrior}
	8260.1.1 = {death="8260.1.1"}
}
102655934 = {
	name="Husam"	# a lord
	dynasty=55934

	religion="stone_cow"
	culture="moraqi"

	father=102455934

	8245.1.1 = {birth="8245.1.1"}
	8261.1.1 = {add_trait=poor_warrior}
}
103155934 = {
	name="Sadiq"	# not a lord
	dynasty=55934

	religion="stone_cow"
	culture="moraqi"

	father=102655934

	8274.1.1 = {birth="8274.1.1"}
	8290.1.1 = {add_trait=trained_warrior}
	8292.1.1 = {add_spouse=403155934}
}
403155934 = {
	name="Faghira"
	female=yes

	religion="stone_cow"
	culture="moraqi"

	8274.1.1 = {birth="8274.1.1"}
}

### House Kazemi
34555935 = {
	name="Karim"	# a lord
	dynasty=55935

	religion="stone_cow"
	culture="moraqi"
	
	7829.1.1 = {birth="7829.1.1"}
	7884.1.1 = {death="7884.1.1"}
}
34455935 = {
	name="Dhaffar"	# a lord
	dynasty=55935

	religion="stone_cow"
	culture="moraqi"

	father=34555935
	
	7854.1.1 = {birth="7854.1.1"}
	7905.1.1 = {death="7905.1.1"}
}
34355935 = {
	name="Muzaffar"	# a lord
	dynasty=55935

	religion="stone_cow"
	culture="moraqi"

	father=34455935
	
	7881.1.1 = {birth="7881.1.1"}
	7930.1.1 = {death="7930.1.1"}
}
34255935 = {
	name="Motaseem"	# a lord
	dynasty=55935

	religion="stone_cow"
	culture="moraqi"

	father=34355935
	
	7903.1.1 = {birth="7903.1.1"}
	7955.1.1 = {death="7955.1.1"}
}
34155935 = {
	name="Zafer"	# a lord
	dynasty=55935

	religion="stone_cow"
	culture="moraqi"

	father=34255935
	
	7925.1.1 = {birth="7925.1.1"}
	7983.1.1 = {death="7983.1.1"}
}
34055935 = {
	name="Tossam"	# a lord
	dynasty=55935

	religion="stone_cow"
	culture="moraqi"

	father=34155935
	
	7949.1.1 = {birth="7949.1.1"}
	7995.1.1 = {death="7995.1.1"}
}
100055935 = {
	name="Faruk"	# a lord
	dynasty=55935

	religion="stone_cow"
	culture="moraqi"
	
	father=34055935

	7970.1.1 = {birth="7970.1.1"}
	7986.1.1 = {add_trait=poor_warrior}
	8041.1.1 = {death="8041.1.1"}
}
100255935 = {
	name="Mubarak"	# a lord
	dynasty=55935

	religion="stone_cow"
	culture="moraqi"

	father=100055935

	7996.1.1 = {birth="7996.1.1"}
	8013.1.1 = {add_trait=skilled_warrior}
	8056.1.1 = {death="8056.1.1"}
}
100455935 = {
	name="Murad"	# a lord
	dynasty=55935

	religion="stone_cow"
	culture="moraqi"

	father=100255935

	8032.1.1 = {birth="8032.1.1"}
	8048.1.1 = {add_trait=trained_warrior}
	8092.1.1 = {death="8092.1.1"}
}
100755935 = {
	name="Hasan_Hasan"	# a lord
	dynasty=55935

	religion="stone_cow"
	culture="moraqi"

	father=100455935

	8058.1.1 = {birth="8058.1.1"}
	8074.1.1 = {add_trait=poor_warrior}
	8117.1.1 = {death="8117.1.1"}
}
100955935 = {
	name="Aarif"	# a lord
	dynasty=55935

	religion="stone_cow"
	culture="moraqi"

	father=100755935

	8087.1.1 = {birth="8087.1.1"}
	8103.1.1 = {add_trait=trained_warrior}
	8136.1.1 = {death="8136.1.1"}
}
101555935 = {
	name="Bahir"	# a lord
	dynasty=55935

	religion="stone_cow"
	culture="moraqi"

	father=100955935

	8111.1.1 = {birth="8111.1.1"}
	8127.1.1 = {add_trait=trained_warrior}
	8170.1.1 = {death="8170.1.1"}
}
101955935 = {
	name="Hafiz"	# a lord
	dynasty=55935

	religion="stone_cow"
	culture="moraqi"

	father=101555935

	8143.1.1 = {birth="8143.1.1"}
	8159.1.1 = {add_trait=trained_warrior}
	8209.1.1 = {death="8209.1.1"}
}
102155935 = {
	name="Nizam"	# a lord
	dynasty=55935

	religion="stone_cow"
	culture="moraqi"

	father=101955935

	8165.1.1 = {birth="8165.1.1"}
	8181.1.1 = {add_trait=skilled_warrior}
	8221.1.1 = {death="8221.1.1"}
}
102555935 = {
	name="Halil"	# a lord
	dynasty=55935

	religion="stone_cow"
	culture="moraqi"

	father=102155935

	8189.1.1 = {birth="8189.1.1"}
	8205.1.1 = {add_trait=trained_warrior}
	8239.1.1 = {death="8239.1.1"}
}
102855935 = {
	name="Shamir"	# a lord
	dynasty=55935

	religion="stone_cow"
	culture="moraqi"

	father=102555935

	8208.1.1 = {birth="8208.1.1"}
	8224.1.1 = {add_trait=poor_warrior}
	8245.1.1 = {death = {death_reason = death_battle}}
}
103055935 = {
	name="Talib"	# a lord
	dynasty=55935

	religion="stone_cow"
	culture="moraqi"

	father=102855935

	8229.1.1 = {birth="8229.1.1"}
	8245.1.1 = {add_trait=skilled_warrior}
	8284.1.1 = {death="8284.1.1"}
}
103455935 = {
	name="Mansur"	# a lord
	dynasty=55935

	religion="stone_cow"
	culture="moraqi"

	father=103055935

	8252.1.1 = {birth="8252.1.1"}
	8268.1.1 = {add_trait=poor_warrior}
	8297.1.1 = {death="8297.1.1"}
}
103655935 = {
	name="Muzaffaraddin"	# a lord
	dynasty=55935

	religion="stone_cow"
	culture="moraqi"

	father=103455935

	8274.1.1 = {birth="8274.1.1"}
	8290.1.1 = {add_trait=skilled_warrior}
}

#############
### Vahar ###
#############
### House Hallafa
34555939 = {
	name="Hossam"	# a lord
	dynasty=55939

	religion="stone_cow"
	culture="vahari"
	
	7818.1.1 = {birth="7818.1.1"}
	7869.1.1 = {death="7869.1.1"}
}
34455939 = {
	name="Nabhi"	# a lord
	dynasty=55939

	religion="stone_cow"
	culture="vahari"

	father=34555939
	
	7842.1.1 = {birth="7842.1.1"}
	7901.1.1 = {death="7901.1.1"}
}
34355939 = {
	name="Zaid"	# a lord
	dynasty=55939

	religion="stone_cow"
	culture="vahari"

	father=34455939
	
	7865.1.1 = {birth="7865.1.1"}
	7929.1.1 = {death="7929.1.1"}
}
34255939 = {
	name="Turkan"	# a lord
	dynasty=55939

	religion="stone_cow"
	culture="vahari"

	father=34355939
	
	7887.1.1 = {birth="7887.1.1"}
	7944.1.1 = {death="7944.1.1"}
}
34155939 = {
	name="Rashid"	# a lord
	dynasty=55939

	religion="stone_cow"
	culture="vahari"

	father=34255939
	
	7908.1.1 = {birth="7908.1.1"}
	7960.1.1 = {death="7960.1.1"}
}
34055939 = {
	name="Haliq"	# a lord
	dynasty=55939

	religion="stone_cow"
	culture="vahari"

	father=34155939
	
	7928.1.1 = {birth="7928.1.1"}
	7996.1.1 = {death="7996.1.1"}
}
1055939 = {
	name="Is'mail"	# a lord
	dynasty=55939

	religion="stone_cow"
	culture="vahari"

	father=34055939
	
	7949.1.1 = {birth="7949.1.1"}
	7965.1.1 = {add_trait=poor_warrior}
	8010.1.1 = {death="8010.1.1"}
}
1155939 = {
	name="Jibril"	# a lord
	dynasty=55939

	religion="stone_cow"
	culture="vahari"

	father=1055939

	7976.1.1 = {birth="7976.1.1"}
	7992.1.1 = {add_trait=skilled_warrior}
	8040.1.1 = {death="8040.1.1"}
}
1355939 = {
	name="Isa"	# a lord
	dynasty=55939

	religion="stone_cow"
	culture="vahari"

	father=1155939

	8005.1.1 = {birth="8005.1.1"}
	8021.1.1 = {add_trait=poor_warrior}
	8048.1.1 = {death="8048.1.1"}
}
1855939 = {
	name="Aghlab"	# a lord
	dynasty=55939

	religion="stone_cow"
	culture="vahari"

	father=1355939

	8032.1.1 = {birth="8032.1.1"}
	8048.1.1 = {add_trait=poor_warrior}
	8079.1.1 = {death="8079.1.1"}
}
2355939 = {
	name="Burhanaddin"	# a lord
	dynasty=55939

	religion="stone_cow"
	culture="vahari"

	father=1855939

	8060.1.1 = {birth="8060.1.1"}
	8076.1.1 = {add_trait=trained_warrior}
	8128.1.1 = {death="8128.1.1"}
}
2655939 = {
	name="Ramadan"	# a lord
	dynasty=55939

	religion="stone_cow"
	culture="vahari"

	father=2355939

	8083.1.1 = {birth="8083.1.1"}
	8099.1.1 = {add_trait=trained_warrior}
	8132.1.1 = {death="8132.1.1"}
}
2955939 = {
	name="Abdullah"	# a lord
	dynasty=55939

	religion="stone_cow"
	culture="vahari"

	father=2655939

	8118.1.1 = {birth="8118.1.1"}
	8134.1.1 = {add_trait=trained_warrior}
	8187.1.1 = {death="8187.1.1"}
}
3155939 = {
	name="Aram"	# a lord
	dynasty=55939

	religion="stone_cow"
	culture="vahari"

	father=2955939

	8139.1.1 = {birth="8139.1.1"}
	8155.1.1 = {add_trait=skilled_warrior}
	8209.1.1 = {death="8209.1.1"}
}
3355939 = {
	name="Mubarak"	# a lord
	dynasty=55939

	religion="stone_cow"
	culture="vahari"

	father=3155939

	8165.1.1 = {birth="8165.1.1"}
	8181.1.1 = {add_trait=poor_warrior}
	8223.1.1 = {death="8223.1.1"}
}
3555939 = {
	name="Jabir"	# a lord
	dynasty=55939

	religion="stone_cow"
	culture="vahari"

	father=3355939

	8198.1.1 = {birth="8198.1.1"}
	8214.1.1 = {add_trait=master_warrior}
	8250.1.1 = {death="8250.1.1"}
}
3855939 = {
	name="Abdullah"	# a lord
	dynasty=55939

	religion="stone_cow"
	culture="vahari"

	father=3555939

	8217.1.1 = {birth="8217.1.1"}
	8233.1.1 = {add_trait=skilled_warrior}
	8270.1.1 = {death="8270.1.1"}
}
51055939 = {
	name="Shaiban"	# a lord
	dynasty=55939

	religion="stone_cow"
	culture="vahari"

	father=3855939

	8237.1.1 = {birth="8237.1.1"}
	8253.1.1 = {add_trait=trained_warrior}
	8295.1.1 = {death="8295.1.1"}
}
52055939 = {
	name="Sadiq"	# a lord
	dynasty=55939

	religion="stone_cow"
	culture="vahari"

	father=51055939

	8258.1.1 = {birth="8258.1.1"}
	8274.1.1 = {add_trait=skilled_warrior}
}
44155939 = {
	name="Ubayd"
	dynasty=55939

	religion="stone_cow"
	culture="vahari"

	father=52055939

	8288.1.1 = {birth="8288.1.1"}
}

### House Kamali
34455940 = {
	name="Gaffar"	# a lord
	dynasty=55940

	religion="stone_cow"
	culture="vahari"
	
	7826.1.1 = {birth="7826.1.1"}
	7881.1.1 = {death="7881.1.1"}
}
34355940 = {
	name="Kadri"	# a lord
	dynasty=55940

	religion="stone_cow"
	culture="vahari"

	father=34455940
	
	7853.1.1 = {birth="7853.1.1"}
	7912.1.1 = {death="7912.1.1"}
}
34255940 = {
	name="Tullhum"	# a lord
	dynasty=55940

	religion="stone_cow"
	culture="vahari"

	father=34355940
	
	7878.1.1 = {birth="7878.1.1"}
	7933.1.1 = {death="7933.1.1"}
}
34155940 = {
	name="Shakur"	# a lord
	dynasty=55940

	religion="stone_cow"
	culture="vahari"

	father=34255940
	
	7909.1.1 = {birth="7909.1.1"}
	7959.1.1 = {death="7959.1.1"}
}
34055940 = {
	name="Qizzaq"	# a lord
	dynasty=55940

	religion="stone_cow"
	culture="vahari"

	father=34155940
	
	7930.1.1 = {birth="7930.1.1"}
	7989.1.1 = {death="7989.1.1"}
}
100055940 = {
	name="Murad"	# a lord
	dynasty=55940

	religion="stone_cow"
	culture="vahari"
	
	father=34055940

	7954.1.1 = {birth="7954.1.1"}
	7970.1.1 = {add_trait=poor_warrior}
	8038.1.1 = {death="8038.1.1"}
}
100155940 = {
	name="Talib"	# a lord
	dynasty=55940

	religion="stone_cow"
	culture="vahari"

	father=100055940

	7983.1.1 = {birth="7983.1.1"}
	7999.1.1 = {add_trait=trained_warrior}
	8047.1.1 = {death="8047.1.1"}
}
100255940 = {
	name="Azam"	# a lord
	dynasty=55940

	religion="stone_cow"
	culture="vahari"

	father=100155940

	8009.1.1 = {birth="8009.1.1"}
	8025.1.1 = {add_trait=trained_warrior}
	8083.1.1 = {death = {death_reason = death_accident}}
}
100655940 = {
	name="Ubayd"	# a lord
	dynasty=55940

	religion="stone_cow"
	culture="vahari"

	father=100255940

	8027.1.1 = {birth="8027.1.1"}
	8043.1.1 = {add_trait=skilled_warrior}
	8087.1.1 = {death="8087.1.1"}
}
101255940 = {
	name="Halil"	# a lord
	dynasty=55940

	religion="stone_cow"
	culture="vahari"

	father=100655940

	8060.1.1 = {birth="8060.1.1"}
	8076.1.1 = {add_trait=skilled_warrior}
	8116.1.1 = {death="8116.1.1"}
}
101455940 = {
	name="Ali"	# a lord
	dynasty=55940

	religion="stone_cow"
	culture="vahari"

	father=101255940

	8086.1.1 = {birth="8086.1.1"}
	8102.1.1 = {add_trait=skilled_warrior}
	8141.1.1 = {death="8141.1.1"}
}
101655940 = {
	name="Shujah"	# a lord
	dynasty=55940

	religion="stone_cow"
	culture="vahari"

	father=101455940

	8120.1.1 = {birth="8120.1.1"}
	8136.1.1 = {add_trait=poor_warrior}
	8169.1.1 = {death="8169.1.1"}
}
101755940 = {
	name="Burhanaddin"	# a lord
	dynasty=55940

	religion="stone_cow"
	culture="vahari"

	father=101655940

	8144.1.1 = {birth="8144.1.1"}
	8160.1.1 = {add_trait=poor_warrior}
	8199.1.1 = {death="8199.1.1"}
}
102055940 = {
	name="Qadir"	# a lord
	dynasty=55940

	religion="stone_cow"
	culture="vahari"

	father=101755940

	8167.1.1 = {birth="8167.1.1"}
	8183.1.1 = {add_trait=poor_warrior}
	8214.1.1 = {death="8214.1.1"}
}
102255940 = {
	name="Nizam"	# a lord
	dynasty=55940

	religion="stone_cow"
	culture="vahari"

	father=102055940

	8189.1.1 = {birth="8189.1.1"}
	8205.1.1 = {add_trait=poor_warrior}
	8244.1.1 = {death="8244.1.1"}
}
102455940 = {
	name="Wahab"	# a lord
	dynasty=55940

	religion="stone_cow"
	culture="vahari"

	father=102255940

	8210.1.1 = {birth="8210.1.1"}
	8226.1.1 = {add_trait=poor_warrior}
	8267.1.1 = {death="8267.1.1"}
}
102655940 = {
	name="Husam"	# a lord
	dynasty=55940

	religion="stone_cow"
	culture="vahari"

	father=102455940

	8243.1.1 = {birth="8243.1.1"}
	8259.1.1 = {add_trait=poor_warrior}
}
103155940 = {
	name="Burhanaddin"	# not a lord
	dynasty=55940

	religion="stone_cow"
	culture="vahari"

	father=102655940

	8268.1.1 = {birth="8268.1.1"}
	8284.1.1 = {add_trait=poor_warrior}
	8286.1.1 = {add_spouse=403155940}
}
403155940 = {
	name="Setara"
	female=yes

	religion="stone_cow"
	culture="vahari"

	8268.1.1 = {birth="8268.1.1"}
}

### House Dajani
34555941 = {
	name="Dhazim"	# a lord
	dynasty=55941

	religion="stone_cow"
	culture="vahari"
	
	7817.1.1 = {birth="7817.1.1"}
	7877.1.1 = {death="7877.1.1"}
}
34455941 = {
	name="Faraq"	# a lord
	dynasty=55941

	religion="stone_cow"
	culture="vahari"

	father=34555941
	
	7839.1.1 = {birth="7839.1.1"}
	7893.1.1 = {death="7893.1.1"}
}
34355941 = {
	name="Osmaq"	# a lord
	dynasty=55941

	religion="stone_cow"
	culture="vahari"

	father=34455941
	
	7863.1.1 = {birth="7863.1.1"}
	7921.1.1 = {death="7921.1.1"}
}
34255941 = {
	name="Sahar"	# a lord
	dynasty=55941

	religion="stone_cow"
	culture="vahari"

	father=34355941
	
	7889.1.1 = {birth="7889.1.1"}
	7941.1.1 = {death="7941.1.1"}
}
34155941 = {
	name="Talam"	# a lord
	dynasty=55941

	religion="stone_cow"
	culture="vahari"

	father=34255941
	
	7914.1.1 = {birth="7914.1.1"}
	7965.1.1 = {death="7965.1.1"}
}
34055941 = {
	name="Orhad"	# a lord
	dynasty=55941

	religion="stone_cow"
	culture="vahari"

	father=34155941
	
	7940.1.1 = {birth="7940.1.1"}
	7995.1.1 = {death="7995.1.1"}
}
100055941 = {
	name="Jaleel"	# a lord
	dynasty=55941

	religion="stone_cow"
	culture="vahari"
	
	father=34055941

	7964.1.1 = {birth="7964.1.1"}
	7980.1.1 = {add_trait=poor_warrior}
	8032.1.1 = {death="8032.1.1"}
}
100155941 = {
	name="Youkhanna"	# a lord
	dynasty=55941

	religion="stone_cow"
	culture="vahari"

	father=100055941

	7988.1.1 = {birth="7988.1.1"}
	8004.1.1 = {add_trait=skilled_warrior}
	8040.1.1 = {death="8040.1.1"}
}
100355941 = {
	name="Qadir"	# a lord
	dynasty=55941

	religion="stone_cow"
	culture="vahari"

	father=100155941

	8022.1.1 = {birth="8022.1.1"}
	8038.1.1 = {add_trait=poor_warrior}
	8054.1.1 = {death="8054.1.1"}
}
100555941 = {
	name="Sami"	# a lord
	dynasty=55941

	religion="stone_cow"
	culture="vahari"

	father=100355941

	8053.1.1 = {birth="8053.1.1"}
	8069.1.1 = {add_trait=poor_warrior}
	8130.1.1 = {death="8130.1.1"}
}
100655941 = {
	name="Hussayn"	# a lord
	dynasty=55941

	religion="stone_cow"
	culture="vahari"

	father=100555941

	8085.1.1 = {birth="8085.1.1"}
	8101.1.1 = {add_trait=poor_warrior}
	8144.1.1 = {death="8144.1.1"}
}
100955941 = {
	name="Ghalib"	# a lord
	dynasty=55941

	religion="stone_cow"
	culture="vahari"

	father=100655941

	8113.1.1 = {birth="8113.1.1"}
	8129.1.1 = {add_trait=poor_warrior}
	8173.1.1 = {death="8173.1.1"}
}
101355941 = {
	name="Aarif"	# a lord
	dynasty=55941

	religion="stone_cow"
	culture="vahari"

	father=100955941

	8149.1.1 = {birth="8149.1.1"}
	8165.1.1 = {add_trait=trained_warrior}
	8192.1.1 = {death="8192.1.1"}
}
101455941 = {
	name="Idris"	# a lord
	dynasty=55941

	religion="stone_cow"
	culture="vahari"

	father=101355941

	8178.1.1 = {birth="8178.1.1"}
	8194.1.1 = {add_trait=poor_warrior}
	8218.1.1 = {death="8218.1.1"}
}
101755941 = {
	name="Bakr"	# a lord
	dynasty=55941

	religion="stone_cow"
	culture="vahari"

	father=101455941

	8198.1.1 = {birth="8198.1.1"}
	8214.1.1 = {add_trait=trained_warrior}
	8257.1.1 = {death="8257.1.1"}
}
102155941 = {
	name="Mukhtar"	# a lord
	dynasty=55941

	religion="stone_cow"
	culture="vahari"

	father=101755941

	8216.1.1 = {birth="8216.1.1"}
	8232.1.1 = {add_trait=skilled_warrior}
	8295.1.1 = {death="8295.1.1"}
}
102555941 = {
	name="Bahir"	# a lord
	dynasty=55941

	religion="stone_cow"
	culture="vahari"

	father=102155941

	8247.1.1 = {birth="8247.1.1"}
	8263.1.1 = {add_trait=poor_warrior}
}
102755941 = {
	name="Khaireddin"	# not a lord
	dynasty=55941

	religion="stone_cow"
	culture="vahari"

	father=102555941

	8271.1.1 = {birth="8271.1.1"}
	8287.1.1 = {add_trait=trained_warrior}
	8289.1.1 = {add_spouse=402755941}
}
402755941 = {
	name="Taneen"
	female=yes

	religion="stone_cow"
	culture="vahari"

	8271.1.1 = {birth="8271.1.1"}
}

##############
### Zabhad ###
##############
### House Mahabhar
34455936 = {
	name="Jarrah"	# a lord
	dynasty=55936

	religion="stone_cow"
	culture="zabhadi"

	7833.1.1 = {birth="7833.1.1"}
	7880.1.1 = {death="7880.1.1"}
}
34355936 = {
	name="Hassaq"	# a lord
	dynasty=55936

	religion="stone_cow"
	culture="zabhadi"

	father=34455936
	
	7854.1.1 = {birth="7854.1.1"}
	7903.1.1 = {death="7903.1.1"}
}
34255936 = {
	name="Bashar"	# a lord
	dynasty=55936

	religion="stone_cow"
	culture="zabhadi"

	father=34355936
	
	7878.1.1 = {birth="7878.1.1"}
	7935.1.1 = {death="7935.1.1"}
}
34155936 = {
	name="Galim"	# a lord
	dynasty=55936

	religion="stone_cow"
	culture="zabhadi"

	father=34255936
	
	7906.1.1 = {birth="7906.1.1"}
	7967.1.1 = {death="7967.1.1"}
}
34055936 = {
	name="Malak"	# a lord
	dynasty=55936

	religion="stone_cow"
	culture="zabhadi"

	father=34155936
	
	7931.1.1 = {birth="7931.1.1"}
	7990.1.1 = {death="7990.1.1"}
}
1055936 = {
	name="Abdullah"	# a lord
	dynasty=55936

	religion="stone_cow"
	culture="zabhadi"
	
	father=34055936

	7955.1.1 = {birth="7955.1.1"}
	7971.1.1 = {add_trait=poor_warrior}
	8019.1.1 = {death="8019.1.1"}
}
1355936 = {
	name="Mubarak"	# a lord
	dynasty=55936

	religion="stone_cow"
	culture="zabhadi"

	father=1055936

	7976.1.1 = {birth="7976.1.1"}
	7992.1.1 = {add_trait=trained_warrior}
	8053.1.1 = {death="8053.1.1"}
}
1655936 = {
	name="Sadiq"	# a lord
	dynasty=55936

	religion="stone_cow"
	culture="zabhadi"

	father=1355936

	8001.1.1 = {birth="8001.1.1"}
	8017.1.1 = {add_trait=trained_warrior}
	8056.1.1 = {death="8056.1.1"}
}
1955936 = {
	name="Nizam"	# a lord
	dynasty=55936

	religion="stone_cow"
	culture="zabhadi"

	father=1655936

	8025.1.1 = {birth="8025.1.1"}
	8041.1.1 = {add_trait=poor_warrior}
	8078.1.1 = {death="8078.1.1"}
}
2055936 = {
	name="Jabir"	# a lord
	dynasty=55936

	religion="stone_cow"
	culture="zabhadi"

	father=1955936

	8044.1.1 = {birth="8044.1.1"}
	8060.1.1 = {add_trait=skilled_warrior}
	8105.1.1 = {death="8105.1.1"}
}
2455936 = {
	name="Mubarak"	# a lord
	dynasty=55936

	religion="stone_cow"
	culture="zabhadi"

	father=2055936

	8074.1.1 = {birth="8074.1.1"}
	8090.1.1 = {add_trait=poor_warrior}
	8129.1.1 = {death = {death_reason = death_accident}}
}
2855936 = {
	name="Hafiz"	# a lord
	dynasty=55936

	religion="stone_cow"
	culture="zabhadi"

	father=2455936

	8098.1.1 = {birth="8098.1.1"}
	8114.1.1 = {add_trait=skilled_warrior}
	8161.1.1 = {death = {death_reason = death_murder}}
}
2955936 = {
	name="Isa"	# a lord
	dynasty=55936

	religion="stone_cow"
	culture="zabhadi"

	father=2855936

	8121.1.1 = {birth="8121.1.1"}
	8137.1.1 = {add_trait=poor_warrior}
	8170.1.1 = {death="8170.1.1"}
}
3055936 = {
	name="Azam"	# a lord
	dynasty=55936

	religion="stone_cow"
	culture="zabhadi"

	father=2955936

	8143.1.1 = {birth="8143.1.1"}
	8159.1.1 = {add_trait=poor_warrior}
	8203.1.1 = {death="8203.1.1"}
}
3455936 = {
	name="Aarif"	# a lord
	dynasty=55936

	religion="stone_cow"
	culture="zabhadi"

	father=3055936

	8166.1.1 = {birth="8166.1.1"}
	8182.1.1 = {add_trait=trained_warrior}
	8213.1.1 = {death = {death_reason = death_murder}}
}
4055936 = {
	name="Alim"		# a lord
	dynasty=55936

	religion="stone_cow"
	culture="zabhadi"

	father=3455936

	8199.1.1 = {birth="8199.1.1"}
	8215.1.1 = {add_trait=trained_warrior}
	8270.1.1 = {death="8270.1.1"}
}
4255936 = {
	name="Hafiz"	# a lord
	dynasty=55936

	religion="stone_cow"
	culture="zabhadi"

	father=4055936

	8230.1.1 = {birth="8230.1.1"}
	8246.1.1 = {add_trait=poor_warrior}
	8290.1.1 = {death="8290.1.1"}
}
5055936 = {
	name="Aghlab"	# a lord
	dynasty=55936

	religion="stone_cow"
	culture="zabhadi"

	father=4255936

	8259.1.1 = {birth="8259.1.1"}
	8275.1.1 = {add_trait=poor_warrior}
}
5455936 = {
	name="Yahya"
	dynasty=55936

	religion="stone_cow"
	culture="zabhadi"

	father=5055936

	8296.1.1 = {birth="8296.1.1"}
}

### House Dallal
34555937 = {
	name="Latif"	# a lord
	dynasty=55937

	religion="stone_cow"
	culture="zabhadi"
	
	7818.1.1 = {birth="7818.1.1"}
	7872.1.1 = {death="7872.1.1"}
}
34455937 = {
	name="Nasar"	# a lord
	dynasty=55937

	religion="stone_cow"
	culture="zabhadi"

	father=34555937
	
	7842.1.1 = {birth="7842.1.1"}
	7894.1.1 = {death="7894.1.1"}
}
34355937 = {
	name="Tarun"	# a lord
	dynasty=55937

	religion="stone_cow"
	culture="zabhadi"

	father=34455937
	
	7866.1.1 = {birth="7866.1.1"}
	7921.1.1 = {death="7921.1.1"}
}
34255937 = {
	name="Wakir"	# a lord
	dynasty=55937

	religion="stone_cow"
	culture="zabhadi"

	father=34355937
	
	7890.1.1 = {birth="7890.1.1"}
	7946.1.1 = {death="7946.1.1"}
}
34155937 = {
	name="Zaffar"	# a lord
	dynasty=55937

	religion="stone_cow"
	culture="zabhadi"

	father=34255937
	
	7912.1.1 = {birth="7912.1.1"}
	7965.1.1 = {death="7965.1.1"}
}
34055937 = {
	name="Burhan"	# a lord
	dynasty=55937

	religion="stone_cow"
	culture="zabhadi"

	father=34155937
	
	7938.1.1 = {birth="7938.1.1"}
	7996.1.1 = {death="7996.1.1"}
}
100055937 = {
	name="Alim"	# a lord
	dynasty=55937

	religion="stone_cow"
	culture="zabhadi"
	
	father=34055937

	7956.1.1 = {birth="7956.1.1"}
	7972.1.1 = {add_trait=poor_warrior}
	8036.1.1 = {death="8036.1.1"}
}
100155937 = {
	name="Nizam"	# a lord
	dynasty=55937

	religion="stone_cow"
	culture="zabhadi"

	father=100055937

	7988.1.1 = {birth="7988.1.1"}
	8004.1.1 = {add_trait=poor_warrior}
	8042.1.1 = {death="8042.1.1"}
}
100255937 = {
	name="Is'mail"	# a lord
	dynasty=55937

	religion="stone_cow"
	culture="zabhadi"

	father=100155937

	8021.1.1 = {birth="8021.1.1"}
	8037.1.1 = {add_trait=poor_warrior}
	8076.1.1 = {death="8076.1.1"}
}
100355937 = {
	name="Isa"	# a lord
	dynasty=55937

	religion="stone_cow"
	culture="zabhadi"

	father=100255937

	8044.1.1 = {birth="8044.1.1"}
	8060.1.1 = {add_trait=poor_warrior}
	8118.1.1 = {death="8118.1.1"}
}
100755937 = {
	name="Faruk"	# a lord
	dynasty=55937

	religion="stone_cow"
	culture="zabhadi"

	father=100355937

	8074.1.1 = {birth="8074.1.1"}
	8090.1.1 = {add_trait=trained_warrior}
	8132.1.1 = {death="8132.1.1"}
}
101155937 = {
	name="Murad"	# a lord
	dynasty=55937

	religion="stone_cow"
	culture="zabhadi"

	father=100755937

	8101.1.1 = {birth="8101.1.1"}
	8117.1.1 = {add_trait=poor_warrior}
	8158.1.1 = {death="8158.1.1"}
}
101255937 = {
	name="Mirza"	# a lord
	dynasty=55937

	religion="stone_cow"
	culture="zabhadi"

	father=101155937

	8126.1.1 = {birth="8126.1.1"}
	8142.1.1 = {add_trait=trained_warrior}
	8186.1.1 = {death="8186.1.1"}
}
101955937 = {
	name="Jaleel"	# a lord
	dynasty=55937

	religion="stone_cow"
	culture="zabhadi"

	father=101255937

	8150.1.1 = {birth="8150.1.1"}
	8166.1.1 = {add_trait=poor_warrior}
	8187.1.1 = {death="8187.1.1"}
}
102055937 = {
	name="Uways"	# a lord
	dynasty=55937

	religion="stone_cow"
	culture="zabhadi"

	father=101955937

	8182.1.1 = {birth="8182.1.1"}
	8198.1.1 = {add_trait=poor_warrior}
	8237.1.1 = {death="8237.1.1"}
}
102255937 = {
	name="Sadiq"	# a lord
	dynasty=55937

	religion="stone_cow"
	culture="zabhadi"

	father=102055937

	8213.1.1 = {birth="8213.1.1"}
	8229.1.1 = {add_trait=skilled_warrior}
	8254.1.1 = {death="8254.1.1"}
}
102755937 = {
	name="Jalil"	# a lord
	dynasty=55937

	religion="stone_cow"
	culture="zabhadi"

	father=102255937

	8239.1.1 = {birth="8239.1.1"}
	8255.1.1 = {add_trait=trained_warrior}
	8299.1.1 = {death="8299.1.1"}
}
102855937 = {
	name="Akin"	# a lord
	dynasty=55937

	religion="stone_cow"
	culture="zabhadi"

	father=102755937

	8264.1.1 = {birth="8264.1.1"}
	8280.1.1 = {add_trait=poor_warrior}
}
103255937 = {
	name="Akin"	# not a lord
	dynasty=55937

	religion="stone_cow"
	culture="zabhadi"

	father=102855937

	8288.1.1 = {birth="8288.1.1"}
}