###EVENTS FOR THE CHINESE GRACE DECISIONS###

#Written by:
#Mathilda Bjarnehed
#Milla Isaksson
#Joel Hansson

namespace = JD

#GAINING GRACE

 
#Strategist (AGOT adaptation: strategist appears from distant land)
character_event = {
    id = JD.20039
	
    hide_window = yes
    is_triggered_only = yes
	has_dlc = "Jade Dragon"
	only_playable = yes
	capable_only = yes
	prisoner = no
	min_age = 16
	
	trigger = {
		higher_tier_than = DUKE
		prestige = 750
		demesne_size = 1
		NOT = { government = wildling_feudal_government }
		NOT = { trait = pirate }
		NOT_mythical_creature_trigger = yes
	}
	
    immediate = { 
		#find far away location
		random_playable_ruler = {
			limit = {
				higher_tier_than = DUKE
				demesne_size = 1
				NOT = { is_within_diplo_range = ROOT }
				is_nomadic = no
				NOT = { government = wildling_feudal_government }
				NOT = { trait = pirate }
				NOT_mythical_creature_trigger = yes
			}
			capital_scope = { save_event_target_as = strategist_location }
		}
		if = {
			limit = { NOT = { event_target:strategist_location = { always = yes } } }
			random_playable_ruler = {
				limit = {
					higher_tier_than = DUKE
					demesne_size = 1
					capital_scope = { ROOT = { capital_scope = { distance = { where = PREVPREV value = 1000 } } } }
					is_nomadic = no
					NOT = { government = wildling_feudal_government }
					NOT = { trait = pirate }
					NOT_mythical_creature_trigger = yes
				}
				capital_scope = { save_event_target_as = strategist_location }
			}
		}
		event_target:strategist_location = {
			owner = {
				random_list = {
					50 = { #Female
						modifier = {
							factor = 0
							event_target:strategist_location = {
								owner = {
									NOR = {
										gender_equality_trigger = yes
										true_cognatic_culture_trigger = yes
									}
								}
							}	
						}
						modifier = {
							factor = 0.1
							event_target:strategist_location = {
								owner = {
									NOT = { gender_equality_trigger = yes }
								}
							}	
						}
						create_character = {
							age = 30
							dynasty = actually_culture
							religion = event_target:strategist_location
							culture = event_target:strategist_location
							female = yes
							health = 7
							random_traits = no
						}
					}
					50 = { #Male
						create_character = {
							age = 30
							dynasty = actually_culture
							religion = event_target:strategist_location
							culture = event_target:strategist_location
							female = no
							health = 7
							random_traits = no
						}
					}
				}
				new_character = {
					#Education & other basic stuff
					save_event_target_as = chinese_strategist
					add_character_modifier = {
						name = jd_strategist
						duration = -1
					}
					set_character_flag = ai_flag_refuse_concubinage
					set_character_flag = ai_flag_refuse_marriage
					set_character_flag = originated_from_chinese_court
					set_character_flag = chinese_courtier_original_court_@PREV
					set_character_flag = no_court_invites
					set_character_flag = is_chinese_strategist
					reverse_opinion = { 
						who = PREV
						modifier = opinion_my_chinese_pet
						years = 100
					}
					random_list = {
						80 = { add_trait = skilled_tactician }
						20 = { add_trait = brilliant_strategist }
					}
					random_list = {
						20 = { add_trait = brave } 
						20 = { add_trait = strong }
						5 = { add_trait = strong_1}
						1 = { add_trait = strong_2 }
						20 = { add_trait = shrewd }
						20 = { add_trait = tall }
						5 = { add_trait = tall_1 }
						1 = { add_trait = tall_2 }
						40 = { add_trait = robust }
					}
					random_list = {
						40 = { add_trait = trained_warrior }
						50 = { add_trait = skilled_warrior }
						10 = { add_trait = master_warrior }
					}
					if = {
						limit = { religion = the_seven }
						knight_character_effect = yes
					}
					random_list = {
						71 = { } #Nothing
						20 = { add_scarred_tiered_effect = yes }
						5 = { 
							trigger = { has_dlc = Reapers }
							add_trait = one_eyed 
							change_martial = 1
						}
						2 = { 
							trigger = { has_dlc = Reapers }
							add_trait = one_handed
							change_martial = 1
						}
						2 = { add_trait = ugly }
					}
					random = {
						chance = 10
						add_trait = homosexual
					}
					opinion = {
						who = PREV
						modifier = opinion_servant
						months = 1200
					}

					#Add archetype 
					random_list = {
						#Conservative 
						25 = {
							set_character_flag = archetype_conservative
							if = {
								limit = { has_dlc = "Way of Life" }
								add_trait = strategist
							}
							add_trait = logistics_expert
							random_list = {
								66 = { }
								33 = { add_trait = master_of_flame }
								33 = { add_trait = sapper } 
								33 = { add_trait = levy_coordinator }
							}
							random = {
								chance = 50
								add_trait = zealous
							}
							add_trait = stubborn
							add_trait = temperate
							lose_weight_medium_effect = yes
							weight_trait_check_effect = yes
							random_list = {
								20 = { add_trait = greedy }
								20 = { add_trait = wroth }
								20 = { add_trait = deceitful }
								20 = { add_trait = shy }
								20 = { add_trait = cruel }
								20 = { add_trait = ruthless }
								20 = { add_trait = rude }
							}
							random_list = {
								25 = { add_trait = poet }
								25 = { add_trait = chaste }
								25 = { 
									add_trait = patient
									remove_trait = wroth
								}
								25 = { add_trait = just }
								25 = { add_trait = authoritative }
							}
						}
						#Supportive
						25 = {
							set_character_flag = archetype_supportive
							if = {
								limit = { has_dlc = "Way of Life" }    
								random_list = {
									50 = { add_trait = hunter }
									50 = { add_trait = strategist }
								}
							}
							add_trait = sapper 
							random_list = {
								66 = { }
								33 = { add_trait = master_of_flame }
								33 = { add_trait = logistics_expert } 
								33 = { add_trait = levy_coordinator }
							}
							add_trait = humble
							add_trait = patient
							random_list = {
								30 = { add_trait = slothful }
								70 = { add_trait = shy }
							}
							random_list = {
								25 = { add_trait = content }
								25 = { add_trait = charitable }
								25 = { add_trait = kind }
								25 = { add_trait = trusting }
								25 = { add_trait = honorable }
							}      
						}
						#Decisive
						25 = {
							set_character_flag = archetype_decisive
							if = {
								limit = { has_dlc = "Way of Life" }
								random_list = {
									50 = { add_trait = strategist }
									50 = { add_trait = duelist }
								}
							}
							add_trait = master_of_flame 
							random_list = {
								66 = { }
								33 = { add_trait = logistics_expert }
								33 = { add_trait = levy_coordinator }
								33 = { add_trait = sapper }
							}
							add_trait = ambitious
							add_trait = cynical
							random_list = {
								20 = { add_trait = cruel }
								20 = { add_trait = stubborn }
								20 = { add_trait = greedy }
								20 = { add_trait = wroth }
								20 = { add_trait = proud }
								20 = { add_trait = authoritative }
							}
							random_list = {
								20 = { add_trait = falconer }
								20 = { add_trait = diligent }
								20 = { add_trait = brave }
								20 = { add_trait = honest }
								20 = { add_trait = gregarious }
								20 = { add_trait = honorable }
							}    
						}
						#Sociable
						25 = {
							set_character_flag = archetype_sociable
							if = {
								limit = { has_dlc = "Way of Life" }
								random_list = {
									20 = { add_trait = duelist }
									40 = { add_trait = hunter }
									40 = { add_trait = gamer }
								}
							}
							add_trait = levy_coordinator 
							random_list = {
								66 = { }
								33 = { add_trait = master_of_flame }
								33 = { add_trait = logistics_expert } 
								33 = { add_trait = sapper }
							}
							add_trait = gregarious
							add_trait = charitable
							random_list = {
								33 = { add_trait = envious }
								33 = { 
									add_trait = gluttonous 
									gain_weight_medium_effect = yes
									weight_trait_check_effect = yes
								}
								33 = { add_trait = proud }
								33 = { add_trait = familyperson }
							}
							random_list = {
								25 = { add_trait = falconer }
								25 = { add_trait = kind }
								25 = { add_trait = honest }
								25 = { add_trait = lustful }
								25 = { add_fashionable_groomed_effect = yes }
							}   
						}
					} 
					#Add second commander trait
					if = {
						limit = { 
							PREV = {
								tier = EMPEROR
								yearly_income = 250
								prestige = 4000
								is_adult = yes
								is_incapable = no
							}
						}
						random_list = {
							25 = {
								trigger = { NOT = {trait = master_of_flame } }
								add_trait = master_of_flame
							}
							25 = {
								trigger = { NOT = {trait = logistics_expert } }
								add_trait = logistics_expert
							}
							25 = {
								trigger = { NOT = {trait = levy_coordinator } }
								add_trait = levy_coordinator
							}
							25 = {
								trigger = { NOT = {trait = sapper } }
								add_trait = sapper
							}
						} 
						set_character_flag = jd_strategist_golden_age
					}
					while = {
						limit = { NOT = { martial = 15 } }
						change_martial = 1
					}
				}
				ROOT = { letter_event = { id = JD.20040 } }
			}	
        } 
    }
}

#Governor presents strategist
letter_event = {
    id = JD.20040
    desc = EVTDESC_JD_20040
    border = GFX_event_letter_frame_diplomacy

    is_triggered_only = yes
	has_dlc = "Jade Dragon"
	portrait = event_target:chinese_strategist
	
    option = { 
        name = EVTOPTA_JD_20040
		ai_chance = {
			factor = 50
			modifier = {
				factor = 3
				war = yes
			}
			modifier = {
				factor = 3
				trait = humble
			}
			modifier = {
				factor = 3
				trait = trusting
			}
			modifier = {
				factor = 3
				trait = patient
			}
			modifier = {
				factor = 3
				trait = charitable
			}
		}
		scaled_wealth = { value = -0.5 min = -75 max = -200 }		
        event_target:chinese_strategist = {
            show_scope_change = no
            show_portrait = yes
			move_character = ROOT
            if = {
                limit = { 
                    can_hold_title = title_commander 
                    ROOT = { can_grant_title = title_commander }
                }
                give_minor_title = title_commander
            }
			hidden_tooltip = { wealth = 40 }
        }
    }
	option = { 
        name = EVTOPTB_JD_20040
		ai_chance = {
			factor = 50
			modifier = {
				factor = 3
				NOT = { yearly_income = 150 }
				NOT = { wealth = 75 }
			}
			modifier = {
				factor = 3
				yearly_income = 150
				NOT = { scaled_wealth = 0.5 }
			}
			modifier = {
				factor = 3
				trait = proud
			}
			modifier = {
				factor = 3
				trait = paranoid
			}
			modifier = {
				factor = 3
				trait = wroth
			}
			modifier = {
				factor = 3
				trait = greedy
			}
		}
		hidden_tooltip = {
			event_target:chinese_strategist = {
				death = { death_reason = death_missing }
			}
		}
	}	
}




#Strategist has taught someone else, event for picking commander and trait (hidden)
character_event = {
    id = JD.20041
    hide_window = yes

    is_triggered_only = yes
	has_dlc = "Jade Dragon"

    only_playable = yes

    trigger = {
        any_courtier_or_vassal = { #Chinese commander
            has_character_modifier = jd_strategist
			is_incapable = no
			prisoner = no
			NOT = { is_inaccessible_trigger = yes }
			liege = { character = ROOT }
        }
    }
	
		
	weight_multiplier = {
		days = 1
		modifier = {
			factor = 2
			any_courtier_or_vassal = {
				has_character_modifier = jd_strategist
				has_character_flag = jd_strategist_golden_age
			}
		}
	}

    immediate = {
        random_courtier_or_vassal = {
            limit = { 
				has_character_modifier = jd_strategist
				is_incapable = no
				prisoner = no
				NOT = { is_inaccessible_trigger = yes }
				liege = {
					character = ROOT
					any_courtier_or_vassal = { #Potential student commander
						has_minor_title = title_commander
						NOT = { has_character_modifier = jd_strategist }
						can_have_more_leadership_traits = yes
						ai = yes
						NAND = { #They do not have all chinese leadership traits
							trait = master_of_flame
							trait = logistics_expert
							trait = levy_coordinator
							trait = sapper
						}
					}
				}
            }
            save_event_target_as = commander_teacher
			liege = {
				random_courtier_or_vassal = {
					limit = {
						has_minor_title = title_commander
						NOT = { has_character_modifier = jd_strategist }
						can_have_more_leadership_traits = yes
						ai = yes
						NAND = { #They do not have all chinese leadership traits
							trait = master_of_flame
							trait = logistics_expert
							trait = levy_coordinator
							trait = sapper
						}
					}
					save_event_target_as = commander_student
					set_character_flag = taught_chinese_strategy
					random_list = {
						25 = {
							trigger = {
								NOT = { trait = master_of_flame }
							}
							modifier = {
								factor = 2
								event_target:commander_teacher = { trait = master_of_flame }
							}
							set_character_flag = give_master_of_flame
						}
						25 = {
							trigger = {
								NOT = { trait = logistics_expert }
							}
							modifier = {
								factor = 2
								event_target:commander_teacher = { trait = logistics_expert }
							}
							set_character_flag = give_logistics_expert
						}
						25 = {
							trigger = {
								NOT = { trait = levy_coordinator }
							}
							modifier = {
								factor = 2
								event_target:commander_teacher = { trait = levy_coordinator }
							}
							set_character_flag = give_levy_coordinator
						}
						25 = {
							trigger = {
								NOT = { trait = sapper }
							}
							modifier = {
								factor = 2
								event_target:commander_teacher = { trait = sapper }
							}
							set_character_flag = give_sapper
						}
					}
					character_event = { id = JD.20042 }
				}
			}
        }
    }
}

#Ping event
character_event = {
    id = JD.20042
    hide_window = yes
    is_triggered_only = yes
	has_dlc = "Jade Dragon"
    immediate = { 
    	FROM = { character_event = { id = JD.20043 } }
    	character_event = { id = JD.20044 days = 1 } #clear flag
    }
}

#Handing out trait and notifying liege
character_event = {
    id = JD.20043
    border = GFX_event_normal_frame_war
	picture = GFX_evt_china_invades
	
    is_triggered_only = yes
	has_dlc = "Jade Dragon"
	
    desc = {
        trigger = { event_target:commander_student = { has_character_flag = give_master_of_flame } }
        text = EVTDESC_JD_20041_A
    }
    desc = {
        trigger = { event_target:commander_student = { has_character_flag = give_logistics_expert } }
        text = EVTDESC_JD_20041_B
    }
    desc = {
        trigger = { event_target:commander_student = { has_character_flag = give_levy_coordinator } }
        text = EVTDESC_JD_20041_C
    }
    desc = {
        trigger = { event_target:commander_student = { has_character_flag = give_sapper } }
        text = EVTDESC_JD_20041_D
    }

    option = { 
		name = OK
		event_target:commander_student = {
			set_character_flag = taught_chinese_strategy
            trigger_switch = {
                on_trigger = has_character_flag
                give_master_of_flame    = { add_trait = master_of_flame }
                give_logistics_expert   = { add_trait = logistics_expert }
                give_levy_coordinator   = { add_trait = levy_coordinator }
                give_sapper             = { add_trait = sapper }
            }
        }
    }
}
#Clear flag separately so desc works for notification
character_event = {
	id = JD.20044
	is_triggered_only = yes
	hide_window = yes
	has_dlc = "Jade Dragon"
	immediate = {
		clr_character_flag = give_master_of_flame
		clr_character_flag = give_logistics_expert
		clr_character_flag = give_levy_coordinator
		clr_character_flag = give_sapper
	}
}
