decisions = {
	#Trial by Combat
	demand_trial_by_combat = {
		is_high_prio = yes
		potential = {	
			prisoner = yes	
			NOT = { trait = salt_wife }
			NOT = { trait = slave }
			NOT = { trait = dragon }
			NOT = { culture_group = winter_group }	
			NOT = { culture_group = unoccupied_group }
			OR = {
				had_character_flag = { flag = demmanded_first_trial_by_combat days = 720 } 
				NOT = { has_character_flag = demmanded_first_trial_by_combat }
			}
			OR = {
				NOT = { has_character_flag = demmanded_trial_by_combat }
				had_character_flag = { flag = demmanded_trial_by_combat days = 365 } 
			}	
			# OR = {
				# any_courtier = {
					# age = 16
					# is_female = no
					# OR = {
						# trait = poor_warrior
						# trait = trained_warrior
						# trait = skilled_warrior
						# trait = master_warrior
					# }	
					# is_incapable = no
					# NOT = { trait = crippled }
					# is_ill = no
					# prisoner = no
					# OR = {
						# NOT = { trait = dwarf }
						# trait = skilled_warrior
					# }	
					# opinion = { who = ROOT value = 0 }  #TESTING POURPOSES CHANGE -99 TO 50	
					# NOT = { 
						# reverse_has_opinion_modifier = {
							# who = ROOT
							# modifier = refused_championing
						# }
					# }
				# }				
			# }
			NOT = { has_character_flag = captured_in_battle }
			NOT = { has_character_flag = lost_trial_by_combat }
			NOT = { has_character_modifier = getting_justice }
			host = { 
				OR = {
					NOT = { has_character_flag = trial_by_combat }
					had_character_flag = { flag = trial_by_combat days = 100 }
				}
			}	
			#pacifists
			NOT = { pacifist = yes }
			host = { NOT = { pacifist = yes } }
			NAND = { #jogos nhai do not draw eachother's blood
				has_jogos_nhai_war_block_trigger = yes
				host = { has_jogos_nhai_war_block_trigger = yes }
			}
		}
		allow = {	
			prisoner = yes
			age = 16		
			is_incapable = no
			NOT = { diplomatic_immunity = yes }
			host = { 
				NOT = { is_inaccessible_trigger = yes } 
				custom_tooltip = {
					text = TOOLTIPtbc_ongoing
					hidden_tooltip = {
						OR = {
							NOT = { has_character_flag = trial_by_combat }
							had_character_flag = { flag = trial_by_combat days = 100 }
						}
					}
				}
			}
		}
		effect = {
			custom_tooltip = { text = TOOLTIPTRIALBYCOMBAT1 }
			hidden_tooltip = {
				set_character_flag = demmanded_first_trial_by_combat
				set_character_flag = choosing_champion
				#set_character_flag = select_champion
				clr_character_flag = prisoner_has_champion
				if = {
					limit = { ai = no }
					set_character_flag = select_champion
					character_event = { id = trial_by_combat.999 }
				}	
				if = {
					limit = { ai = yes } #Ai select via event
					character_event = { id = trial_by_combat.27  days = 10 random = 5 }
				}
			}	
		}
		ai_will_do = {
			factor = 1
			modifier = {
				factor = 0.01
			}
			modifier = {
				factor = 2
				trait = wroth
			}
			modifier = {
				factor = 2
				trait = proud
			}
			modifier = {
				factor = 4
				trait = brave
			}
			modifier = {
				factor = 2
				trait = ambitious
			}
			modifier = {
				factor = 0.5
				trait = patient
			}
			modifier = {
				factor = 0.5
				trait = humble
			}
			modifier = {
				factor = 0.1
				trait = craven
			}
			modifier = {
				factor = 0.5
				trait = content
			}
		}
	}
	tbc_fight_personally = {
		is_high_prio = yes
		ai = no
		potential = {
			ai = no
			is_ruler = yes
			has_character_flag = demmanded_first_trial_by_combat
			has_character_flag = select_champion
			prisoner = yes	
			age = 16					
		}
		allow = {	
			age = 16
			prisoner = yes	
			host = { 
				custom_tooltip = {
					text = TOOLTIPtbc_ongoing
					hidden_tooltip = {
						OR = {
							NOT = { has_character_flag = trial_by_combat }
							had_character_flag = { flag = trial_by_combat days = 100 }
						}
					}
				}
			}	
			is_ill = no
			NOT = { has_severe_disability_trigger = yes }				
		}
		effect = {
			custom_tooltip = { text = TOOLTIPTRIALBYCOMBAT2 }
			clr_character_flag = select_champion
			clr_character_flag = choosing_champion
			hidden_tooltip = {
				host = {
					character_event = {
						id = trial_by_combat.4
						days = 2
					}
				}
			}
		}
		ai_will_do = {
			factor = 0
			# modifier = {
				# factor = 0.03
			# }
			# modifier = {
				# factor = 0
				# is_female = yes
				# NOT = {
					# OR = {
						# culture_group = hyrkoon_group
						# AND = {
							# OR = {
								# trait = skilled_warrior
								# trait = master_warrior
							# }	
							# OR = {
								# trait = brave
								# is_strong_trigger = yes
							# }	
						# }
					# }
				# }
			# }
			# modifier = {
				# factor = 0
				# NOT = {
					# OR = {
						# trait = poor_warrior
						# trait = trained_warrior
						# trait = skilled_warrior
						# trait = master_warrior
					# }
				# }	
			# }
			# modifier = {
				# factor = 0.5
				# trait = poor_warrior
			# }
			# modifier = {
				# factor = 3
				# trait = trained_warrior
			# }
			# modifier = {
				# factor = 10
				# trait = skilled_warrior
			# }
			# modifier = {
				# factor = 20
				# trait = master_warrior
			# }
			# modifier = {
				# factor = 2
				# OR = {
					# is_smart_trigger = yes
					# trait = genius
				# }
			# }
			# modifier = {
				# factor = 2
				# is_strong_trigger = yes
			# }
			# modifier = {
				# factor = 2
				# trait = brave
			# }
			# modifier = {
				# factor = 0.5
				# trait = patient
			# }
			# modifier = {
				# factor = 0.1
				# is_weak_trigger = yes
			# }
			# modifier = {
				# factor = 0.05
				# trait = craven
			# }
			# modifier = {
				# factor = 0.1
				# trait = dwarf
			# }
			# modifier = {
				# factor = 0.25
				# health_traits = 1
			# }
			# modifier = {
				# factor = 0.5
				# OR = {
					# is_dumb_trigger = yes
					# trait = imbecile
				# }
			# }
		}
	}
	offer_to_take_black = {
		is_high_prio = yes
		ai = no #AI uses event trial.309
		potential = {
			offer_to_take_black_potential_trigger = yes
		}
		allow = {	
			offer_to_take_black_allow_trigger = yes		
		}
		effect = {
			custom_tooltip = { 
				text = TOOLTIPoffer_to_take_black
				hidden_tooltip = {
					host = { character_event = { id = trial.310 } }
				}
			}
		}
		ai_will_do = {
			factor = 0
		}
	}
}
targetted_decisions = {	
	tbc_champion = {
		is_high_prio = yes
		ai_target_filter = realm
		filter = realm
		ai = no
		
		from_potential = {
			ai = no
			prisoner = yes	
			has_character_flag = demmanded_first_trial_by_combat
			has_character_flag = select_champion				
		}
		potential = {	
			OR = {
				liege = { character = FROM }
				dynasty = FROM
				is_friend = FROM
				AND = {
					trait = kingsguard
					FROM = { has_landed_title = e_iron_throne }
				}
			}	
			FROM = { NOT = { host = { character = PREVPREV } } }
		}
		allow = {	
			FROM = { 
				host = { 
					custom_tooltip = {
						text = TOOLTIPtbc_ongoing
						hidden_tooltip = {
							OR = {
								NOT = { has_character_flag = trial_by_combat }
								had_character_flag = { flag = trial_by_combat days = 100 }
							}
						}
					}
				} 
			}
			eligible_trial_by_combat_champion_for_FROM_trigger = yes
		}
		effect = {
			custom_tooltip = { text = TOOLTIPTRIALBYCOMBAT3 }
			hidden_tooltip = {
				FROM = { clr_character_flag = select_champion }
				letter_event = { id = trial_by_combat.1 }
			}
		}
		ai_will_do = {
			factor = 0
			# modifier = {
				# factor = 0.05
			# }
			# modifier = {
				# factor = 0.5
				# trait = poor_warrior
			# }
			# modifier = {
				# factor = 3
				# trait = trained_warrior
			# }
			# modifier = {
				# factor = 10
				# trait = skilled_warrior
			# }
			# modifier = {
				# factor = 20
				# trait = master_warrior
			# }
			# modifier = {
				# factor = 2
				# OR = {
					# is_smart_trigger = yes
					# trait = genius
				# }
			# }
			# modifier = {
				# factor = 2
				# is_strong_trigger = yes
			# }
			# modifier = {
				# factor = 2
				# trait = brave
			# }
			# modifier = {
				# factor = 0.25
				# is_weak_trigger = yes
			# }
			# modifier = {
				# factor = 0.25
				# trait = craven
			# }
			# modifier = {
				# factor = 0.5
				# OR = {
					# is_dumb_trigger = yes
					# trait = imbecile
				# }
			# }
			# modifier = {
				# factor = 0.1
				# trait = dwarf
			# }
			# modifier = {
				# factor = 0.25
				# health_traits = 1
			# }
		}
	}
	
	#Trial by Court
	give_justice = { 
		ai_target_filter = court
		filter = court
		is_high_prio = yes
		only_rulers = yes
		
		from_potential = {
			is_ruler = yes
			OR = {
				is_patrician = yes
				higher_tier_than = BARON	
			}
			NOT = { trait = wildling }
			NOT = { culture = moon_clansman }			
		}

		potential = {
			prisoner = yes
			host = { character = FROM }	
			NOT = { trait = dragon }
			NOT = { trait = white_walker }
		}
					
		allow = { 
			show_only_failed_conditions = yes
			FROM = { 
				NOT = { is_inaccessible_trigger = yes } 
				NOT = { has_character_modifier = giving_justice } ###must not be in a court proceeding	
			}							
			age = 16		
			NOT = { trait = salt_wife }
			NOT = { trait = slave }
			NOT = { diplomatic_immunity = yes }
			OR = {
				is_liege_or_above = FROM
				custom_tooltip = {
					text = TOOLTIPgive_justiceTRIARCH
					hidden_tooltip = {
						AND = { #Junior triarchs can call city subjects for trial
							FROM = { has_minor_title = title_triarch }
							any_liege = { 
								is_merchant_republic = yes 
								is_vassal_or_below = FROM
							}
						}
					}	
				}
				custom_tooltip = {
					text = TOOLTIPgive_justiceRELIGIOUSHEAD
					hidden_tooltip = {
						OR = {
							FROM = {
								controls_religion = yes
								religion = ROOT
							}
							FROM = { #I'm the High Septon and Faith authority is high
								has_landed_title = k_the_most_devout
								ROOT = {
									crownlaw_title = { 
										OR = {
											has_law = investiture_law_2
											has_law = investiture_law_3
										}
									}	
								}	
							}
						}	
					}	
				}
			}
			custom_tooltip = {
				text = TOOLTIPgive_justiceBATTLE
				hidden_tooltip = { NOT = { has_character_flag = captured_in_battle } }
			}	
			NOT = { has_character_modifier = getting_justice }
			custom_tooltip = {
				text = TOOLTIPgive_justicetLOSTTRIAL
				hidden_tooltip = { NOT = { has_character_flag = lost_trial_by_combat } }
			}
			custom_tooltip = {
				text = TOOLTIPgive_justicetCHAMPION
				hidden_tooltip = {
					OR = {
						NOT = { has_character_flag = choosing_champion }
						had_character_flag = { flag = choosing_champion days = 100 }
					}	
				}
			}	
			# NOT = {
				# has_opinion_modifier = {
					# who = FROM
					# modifier = kidnapped_me
				# }
			# }
			NOT = { FROM = { ROOT = { just_execution_reason_PREV_trigger = yes } } }
		} 
				
		effect = {
			FROM = {
				add_character_modifier = {
					name = giving_justice
					duration = 60
				}
			}	
			hidden_tooltip = { #so diplomacy stat is normal
				remove_character_modifier = the_dungeon
				remove_character_modifier = the_oubliette
				remove_character_modifier = house_arrest
				#Diplomatic immunity to prevent hostile actions during trial
				diplomatic_immunity = yes
				character_event = { id = trial.500 days = 365 } #failsafe
			}
			add_character_modifier = {
				name = getting_justice
				duration = 60
			}
			clr_character_flag = select_champion
			clr_character_flag = choosing_champion
			set_character_flag = first_trial.0_event
			character_event = { id = trial.0 days = 1 }			
		}
				
		ai_will_do = { 
			factor = 1 
			modifier = {
				factor = 0.05 # Less likely to do it
			}
			modifier = {
				factor = 5
				FROM = { trait = just }
			}
			modifier = {
				factor = 0
				FROM = { 
					NOT = { trait = just }
					job_castellan = { 
						NOT = { diplomacy = 8 } 
					} 
				}
			}
		} #ai has a chance
	} #end give justice
	
	trial_by_seven_champion = {
		is_high_prio = yes
		ai_target_filter = realm
		filter = realm
		ai = no
		
		from_potential = {
			ai = no #ai uses event trial_by_seven.299
			has_character_modifier = trial_by_seven
			OR = {
				AND = {
					prisoner = yes
					has_character_flag = demmanded_first_trial_by_combat
					has_character_flag = choosing_seven_champion
					NOT = {
						any_opinion_modifier_target = {
							count = 6
							reverse_has_opinion_modifier = { who = PREV modifier = opinion_seven_champion }
							NOT = { has_severe_disability_trigger = yes }	
							has_epidemic = no
							prisoner = no
						}	
					}	
				}
				AND = {
					any_courtier = {
						prisoner = yes	
						host = { character = PREVPREV }
						has_character_flag = demmanded_first_trial_by_combat
						has_character_flag = choosing_seven_champion
					}	
					NOT = {
						any_opinion_modifier_target = {
							count = 7
							reverse_has_opinion_modifier = { who = PREV modifier = opinion_seven_champion }
							NOT = { has_severe_disability_trigger = yes }	
							has_epidemic = no
							prisoner = no
						}	
					}	
				}
			}	
		}
		potential = {	
			OR = {
				liege = { character = FROM }
				dynasty = FROM
				is_friend = FROM
			}	
		}
		allow = {
			eligible_trial_by_combat_champion_for_FROM_trigger = yes		
			NOT = { trait = kingsguard }
			NOT = { has_character_modifier = trial_by_seven }
		}
		effect = {
			custom_tooltip = { text = TOOLTIPTRIALBYSEVEN2 }
			FROM = {
				if = {
					limit = {
						has_landed_title = e_iron_throne
						d_kingsguard = { has_holder = yes }
					}
					custom_tooltip = { text = TOOLTIPTRIALBYSEVEN2KG }
				}
			}	
			hidden_tooltip = {
				letter_event = { id = trial_by_seven.2 }
			}
		}
		ai_will_do = {
			factor = 1
			modifier = {
				factor = 0.75
			}
			modifier = {
				factor = 3
				FROM = { had_character_flag = { flag = choosing_seven_champion days = 18 } }
			}
			modifier = {
				factor = 0.25
				trait = poor_warrior
			}
			modifier = {
				factor = 20
				trait = skilled_warrior
			}
			modifier = {
				factor = 50
				trait = master_warrior
			}
			modifier = {
				factor = 2
				is_smart_incl_genius_trigger = yes
			}
			modifier = {
				factor = 2
				is_agile_trigger = yes
			}
			modifier = {
				factor = 2
				is_strong_trigger = yes
			}
			modifier = {
				factor = 2
				trait = brave
			}
			modifier = {
				factor = 0.25
				is_weak_trigger = yes
			}
			modifier = {
				factor = 0.25
				is_lazy_trigger = yes
			}
			modifier = {
				factor = 0.25
				trait = craven
			}
			modifier = {
				factor = 0.5
				OR = {
					is_dumb_trigger = yes
					is_imbecile_trigger = yes
				}
			}
			modifier = {
				factor = 0.1
				is_short_trigger = yes
			}
			modifier = {
				factor = 0.25
				OR = {
					is_ill = yes
					has_severe_disability_trigger = yes
				}
			}
		}
	}
} #end decisions
#decisions = {
	# appeal_to_top_liege = {
		# is_high_prio = yes
		# potential = {	
			# prisoner = yes	
			# NOT = { trait = salt_wife }
			# NOT = { trait = slave }
			# OR = {
				# wealth = 100
				# ai = no			
			# }
			# host = {
				# independent = no
				# crownlaw_title = {
					# OR = {
						# has_law = centralization_3
						# has_law = centralization_4
					# }
				# }
				# top_liege = {
					# OR = {
						# tier = EMPEROR
						# AND = {
							# tier = KING
							# primary_title = { NOT = { check_variable = { which = "de_facto_empire" value = 1 } } }
						# }	
					# }
				# }
			# }
			
			# OR = {
				# had_character_flag = { flag = demmanded_first_trial_by_combat days = 720 } 
				# NOT = { has_character_flag = demmanded_first_trial_by_combat }
			# }
			# OR = {
				# NOT = { has_character_flag = demmanded_trial_by_combat }
				# had_character_flag = { flag = demmanded_trial_by_combat days = 365 } 
			# }	
			# NOT = { has_character_flag = captured_in_battle }
			# NOT = { has_character_modifier = getting_justice }
		# }
		# allow = {	
			# prisoner = yes
			# age = 16		
			# is_incapable = no
			# wealth = 100
		# }
		# effect = {
			# wealth = -100
			# top_liege = {	
			# }
		# }
		# ai_will_do = {
			# factor = 1
			# modifier = {
				# factor = 0.75
			# }
			# modifier = {
				# factor = 2
				# trait = wroth
			# }
			# modifier = {
				# factor = 2
				# trait = proud
			# }
			# modifier = {
				# factor = 4
				# trait = brave
			# }
			# modifier = {
				# factor = 2
				# trait = ambitious
			# }
			# modifier = {
				# factor = 0.5
				# trait = patient
			# }
			# modifier = {
				# factor = 0.5
				# trait = humble
			# }
			# modifier = {
				# factor = 0.1
				# trait = craven
			# }
			# modifier = {
				# factor = 0.5
				# trait = content
			# }
		# }
	# }
	
	#Trial by Seven
	# demand_trial_by_seven = {
		# is_high_prio = yes
		# potential = {			
			# prisoner = yes	
			# religion = the_seven
			# host = { religion = the_seven }	
			# OR = {
				# ai = no
				# host = {
					# OR = {
						# ai = no
						# tier = EMPEROR
					# }
				# }
			# }
			# # # So global event targets can be used
			# # NOT = { has_global_flag = trial_by_seven }
						
			# # Not impossible to do it
			# NOT = { trait = salt_wife }
			# NOT = { trait = slave }
			# NOT = { trait = dragon }
			# NOT = { trait = white_walker }
			# NOT = { culture_group = unoccupied_group }
			
			# # Not captured in war
			# NOT = { has_character_flag = captured_in_battle }
			# # Not already demanded it
			# OR = {
				# NOT = { has_character_flag = demmanded_trial_by_combat }
				# had_character_flag = { flag = demmanded_trial_by_combat days = 365 } 
			# }
			# NOT = { has_character_flag = demmanded_trial_by_seven } 
			# # Not already lost it
			# NOT = { has_character_flag = lost_trial_by_combat }
			# # Not already in trial by court
			# NOT = { has_character_modifier = getting_justice }
			# # Host not doing one
			# host = { 
				# NOT = { has_character_flag = trial_by_combat }
				# NOT = { has_character_flag = trial_by_seven }
			# }			
		# }
		# allow = {
			# # General stuff
			# prisoner = yes
			# age = 16
			# is_incapable = no
			# host = { NOT = { is_inaccessible_trigger = yes } }
			# OR = {
				# piety = 250
				# prestige = 500
				# trait = lunatic
			# }
			# is_ill = no
			# NOT = { has_severe_disability_trigger = yes }	
			
			
			# # any_courtier = {
				# # # Can do it
				# # NOT = { has_character_flag = trial_by_seven_fighter }
				# # age = 16
				# # is_female = no
				# # NOT = { is_inaccessible_trigger = yes }
				# # # Is a fighter
				# # OR = {
					# # trait = poor_warrior
					# # trait = trained_warrior
					# # trait = skilled_warrior
					# # trait = master_warrior
				# # }	
				# # # Not physically prevented
				# # is_incapable = no
				# # NOT = { trait = crippled }
				# # is_ill = no
				# # prisoner = no
				# # OR = {
					# # NOT = { trait = dwarf }
					# # trait = skilled_warrior
				# # }	
				# # # Likes prisoner
				# # opinion = { who = ROOT value = 0 }
				# # count = 6
			# # }
		# }
		# effect = {
			# #set_global_flag = trial_by_seven
			# custom_tooltip = {
				# text = TOOLTIPtrial_by_seven
				# hidden_tooltip = {
					# # Demanded it
					# set_character_flag = demmanded_trial_by_seven
					# # Host doing one
					# host = { 
						# set_character_flag = trial_by_seven 
					# }
					# # Save target for fighter one
					# ROOT = { save_event_target_as = trial_by_seven_fighter_1_prisoner }
		
		
					# # Captor has fighters spawned to prevent issues
					# host = {
						# #save_global_event_target_as = trial_by_seven_fighter_1_captor
						# # Create random courtier as fighter 2
						# create_random_soldier = {
							# random_traits = no
							# dynasty = NONE
							# religion = the_seven
							# female = no
							# min_age = 18
							# max_age = 38
						# }
						# new_character = {
							# random_list = {
								# 20 = { add_trait = poor_warrior }
								# 40 = { add_trait = trained_warrior } 
								# 35 = { add_trait = skilled_warrior }
								# 15 = { add_trait = master_warrior }
							# }
							# remove_trait = incapable
							# remove_trait = infrim
							# remove_trait = wounded
							# remove_trait = maimed
							# remove_trait = crippled
							# if = {
								# limit = {
									# trait = dwarf
									# NOT = { trait = skilled_warrior }
									# remove_trait = dwarf
								# }
							# }
							# remove_trait = inbred
							# ROOT = { host = { wealth = -5 } }
							# wealth = 5
							# save_global_event_target_as = trial_by_seven_fighter_2_captor
							# set_character_flag = trial_by_seven_fighter				
						# }
						
						# # Save variable of fighters left for knowledge of loser
						# set_variable = { which = "trial_by_seven_fighters_captor_counter" value = 7 }
					# }
				# }
				# # The actual events start
				# hidden_tooltip = {
					# narrative_event = { id = trial_by_seven.1 }
				# }	
				# # Save variable of fighters left for knowledge of loser
				# set_variable = { which = "trial_by_seven_fighters_overall_counter" value = 0 }
			# }
		# }
		# ai_will_do = {
			# factor = 1
			# modifier = {
				# factor = 0.1
			# }
			# modifier = {
				# factor = 2
				# trait = wroth
			# }
			# modifier = {
				# factor = 2
				# trait = proud
			# }
			# modifier = {
				# factor = 4
				# trait = brave
			# }
			# modifier = {
				# factor = 2
				# trait = ambitious
			# }
			# modifier = {
				# factor = 0.5
				# trait = patient
			# }
			# modifier = {
				# factor = 0.5
				# trait = humble
			# }
			# modifier = {
				# factor = 0.1
				# trait = craven
			# }
			# modifier = {
				# factor = 0.5
				# trait = content
			# }
		# }
	# }
#}	