###########################################
#                                         #
# Way of Life hunting events              #
#                                         #
# ID WoL.5000-WoL.5999                    #
#                                         #
###########################################

# Written by Tobias Bodlund

namespace = WoL

###########################################
# The Legendary White Stag/Bear/Tiger/Lion# #AGOT: Lemur
# ID WoL.5000-WoL.5199                    #
###########################################

character_event = {
	id = WoL.5000

	hide_window = yes
	
	is_triggered_only = yes
	
	only_playable = yes
	
	trigger = {
		has_focus = focus_hunting
		in_command = no
		NOT = { has_character_flag = epic_hunt }
		NOT = { pacifist = yes }
		NOT = { has_character_flag = do_not_disturb }
	}

	immediate = {
		set_character_flag = epic_hunt
		if = {
			limit = {
				capital_scope = {
					NOT = {
						OR = {
							region = world_beyond_the_wall
							region = world_ibben
							region = world_bone_mountains
							region = world_jade_sea
							region = world_volantis
							region = world_ghiscar
							region = world_summer_sea
							region = world_qohor
						}
					}
				}
			}
			set_character_flag = white_stag
		}
		if = {
			limit = {
				capital_scope = {
					OR = {
						region = world_beyond_the_wall
						region = world_ibben
						region = world_bone_mountains
					}
				}
			}
			set_character_flag = white_bear
		}
		if = {
			limit = {
				capital_scope = {
					OR = {
						region = world_jade_sea
						region = world_volantis
					}
				}
			}
			set_character_flag = white_tiger
		}
		if = {
			limit = {
				capital_scope = {
					region = world_ghiscar
				}
			}
			set_character_flag = white_lion
		}
		if = {
			limit = {
				capital_scope = {
					OR = {
						region = world_summer_sea
						region = world_qohor
					}
				}
			}
			set_character_flag = white_lemur
		}
		narrative_event = { id = WoL.5001 }
	}
}

# Hear rumors of legendary animal
narrative_event = {
	id = WoL.5001
	picture = GFX_evt_mysterious_forest
	border = GFX_event_narrative_frame_war

	is_triggered_only = yes
	
	title = { # Stag
		trigger = {
			has_character_flag = white_stag
		}
		text = EVTTITLE_WoL_5001_stag
	}
	title = { # Bear
		trigger = {
			has_character_flag = white_bear
		}
		text = EVTTITLE_WoL_5001_bear
	}
	title = { # Tiger
		trigger = {
			has_character_flag = white_tiger
		}
		text = EVTTITLE_WoL_5001_tiger
	}
	title = { # Lion
		trigger = {
			has_character_flag = white_lion
		}
		text = EVTTITLE_WoL_5001_lion
	}
	title = { # Lemur
		trigger = {
			has_character_flag = white_lemur
		}
		text = EVTTITLE_WoL_5001_lemur
	}
	
	desc = { # Stag
		trigger = {
			has_character_flag = white_stag
		}
		text = EVTDESC_WoL_5001_stag
	}
	desc = { # Bear
		trigger = {
			has_character_flag = white_bear
		}
		text = EVTDESC_WoL_5001_bear
	}
	desc = { # Tiger
		trigger = {
			has_character_flag = white_tiger
		}
		text = EVTDESC_WoL_5001_tiger
	}
	desc = { # Lion
		trigger = {
			has_character_flag = white_lion
		}
		text = EVTDESC_WoL_5001_lion
	}
	desc = { # Lemur
		trigger = {
			has_character_flag = white_lemur
		}
		text = EVTDESC_WoL_5001_lemur
	}
	
	option = {
		name = EVTOPTA_WoL_5001
		hidden_tooltip = { character_event = { id = WoL.5002 days = 50 random = 150 } } # Investigate
	}
	option = {
		name = EVTOPTB_WoL_5001
		trigger = { NOT = { trait = hunter } }
		clr_character_flag = epic_hunt            # Not interested
	}
}

# Legendary animal has been sighted... decide whether to go on a hunt or not
character_event = {
	id = WoL.5002

	hide_window = yes
	
	is_triggered_only = yes
	
	trigger = {
		has_focus = focus_hunting    # To interrupt events if player changes focus
	}
	
	immediate = {
		if = {
			limit = {
				OR = {
					has_regent = yes
					in_command = yes
					trait = pregnant
					has_character_flag = do_not_disturb
				}
			}
			repeat_event = { id = WoL.5002 days = 30 } # Fire again with no scope changes
			break = yes
		}
		capital_scope = {
			ROOT = {
				random_realm_province = {
					limit = {
						NOT = {
							distance = {
								where = PREVPREV
								distance = 500
							}
						}
					}
					province_event = { id = WoL.5003 }
				}
			}
		}
	}
}

province_event = {
	id = WoL.5003
	
	hide_window = yes
	
	is_triggered_only = yes
	
	immediate = {
		FROM = { character_event = { id = WoL.5004 } }
	}
}

character_event = {
	id = WoL.5004
	picture = GFX_evt_hunt
	border = GFX_event_normal_frame_war

	is_triggered_only = yes
	
	desc = { # Stag
		trigger = {
			has_character_flag = white_stag
		}
		text = EVTDESC_WoL_5004_stag
	}
	desc = { # Bear
		trigger = {
			has_character_flag = white_bear
		}
		text = EVTDESC_WoL_5004_bear
	}
	desc = { # Tiger
		trigger = {
			has_character_flag = white_tiger
		}
		text = EVTDESC_WoL_5004_tiger
	}
	desc = { # Lion
		trigger = {
			has_character_flag = white_lion
		}
		text = EVTDESC_WoL_5004_lion
	}
	desc = { # Lemur
		trigger = {
			has_character_flag = white_lemur
		}
		text = EVTDESC_WoL_5004_lemur
	}
	
	option = {
		name = EVTOPTA_WoL_5004
		hidden_tooltip = { character_event = { id = WoL.5010 days = 60 } }  # Set out on hunt!
		
		end_inaccessibility_effect = yes #removes in hiding or in_seclusion

		set_character_flag = do_not_disturb
	}
	option = {
		name = EVTOPTB_WoL_5004
		trigger = { NOT = { trait = hunter } }
		clr_character_flag = epic_hunt               # Not now
	}
}

# During normal hunt, gets glimpse of legendary animal
character_event = {
	id = WoL.5006

	hide_window = yes
	
	is_triggered_only = yes
	capable_only = yes
	prisoner = no
	has_dlc = "Way of Life"
	
	trigger = {
		has_focus = focus_hunting
		NOT = { has_character_flag = epic_hunt }	
		has_character_modifier = holding_grand_hunt	
	}
	
	immediate = {
		set_character_flag = epic_hunt
		if = {
			limit = {
				capital_scope = {
					NOT = {
						OR = {
							region = world_beyond_the_wall
							region = world_ibben
							region = world_bone_mountains
							region = world_jade_sea
							region = world_volantis
							region = world_ghiscar
							region = world_summer_sea
							region = world_qohor
						}
					}
				}
			}
			set_character_flag = white_stag
		}
		if = {
			limit = {
				capital_scope = {
					OR = {
						region = world_beyond_the_wall
						region = world_ibben
						region = world_bone_mountains
					}
				}
			}
			set_character_flag = white_bear
		}
		if = {
			limit = {
				capital_scope = {
					OR = {
						region = world_jade_sea
						region = world_volantis
					}
				}
			}
			set_character_flag = white_tiger
		}
		if = {
			limit = {
				capital_scope = {
					region = world_ghiscar
				}
			}
			set_character_flag = white_lion
		}
		if = {
			limit = {
				capital_scope = {
					OR = {
						region = world_summer_sea
						region = world_qohor
					}
				}
			}
			set_character_flag = white_lemur
		}
		narrative_event = { id = WoL.5007 }
	}
}

# Catches glimpse of legendary animal during hunt
narrative_event = {
	id = WoL.5007
	picture = GFX_evt_mysterious_forest
	border = GFX_event_narrative_frame_war

	is_triggered_only = yes
	
	trigger = {
		has_focus = focus_hunting    # To interrupt events if player changes focus
	}

	title = { # Stag
		trigger = {
			has_character_flag = white_stag
		}
		text = EVTTITLE_WoL_5001_stag
	}
	title = { # Bear
		trigger = {
			has_character_flag = white_bear
		}
		text = EVTTITLE_WoL_5001_bear
	}
	title = { # Tiger
		trigger = {
			has_character_flag = white_tiger
		}
		text = EVTTITLE_WoL_5001_tiger
	}
	title = { # Lion
		trigger = {
			has_character_flag = white_lion
		}
		text = EVTTITLE_WoL_5001_lion
	}
	title = { # Lemur
		trigger = {
			has_character_flag = white_lemur
		}
		text = EVTTITLE_WoL_5001_lemur
	}
	
	desc = { # Stag
		trigger = {
			has_character_flag = white_stag
		}
		text = EVTDESC_WoL_5007_stag
	}
	desc = { # Bear
		trigger = {
			has_character_flag = white_bear
		}
		text = EVTDESC_WoL_5007_bear
	}
	desc = { # Tiger
		trigger = {
			has_character_flag = white_tiger
		}
		text = EVTDESC_WoL_5007_tiger
	}
	desc = { # Lion
		trigger = {
			has_character_flag = white_lion
		}
		text = EVTDESC_WoL_5007_lion
	}
	desc = { # Lemur
		trigger = {
			has_character_flag = white_lemur
		}
		text = EVTDESC_WoL_5007_lemur
	}
	
	immediate = {
		set_character_flag = epic_hunt
		if = {
			limit = {
				capital_scope = {
					NOT = {
						OR = {
							region = world_beyond_the_wall
							region = world_ibben
							region = world_bone_mountains
							region = world_jade_sea
							region = world_volantis
							region = world_ghiscar
							region = world_summer_sea
							region = world_qohor
						}
					}
				}
			}
			set_character_flag = white_stag
		}
		if = {
			limit = {
				capital_scope = {
					OR = {
						region = world_beyond_the_wall
						region = world_ibben
						region = world_bone_mountains
					}
				}
			}
			set_character_flag = white_bear
		}
		if = {
			limit = {
				capital_scope = {
					OR = {
						region = world_jade_sea
						region = world_volantis
					}
				}
			}
			set_character_flag = white_tiger
		}
		if = {
			limit = {
				capital_scope = {
					region = world_ghiscar
				}
			}
			set_character_flag = white_lion
		}
		if = {
			limit = {
				capital_scope = {
					OR = {
						region = world_summer_sea
						region = world_qohor
					}
				}
			}
			set_character_flag = white_lemur
		}
	}
	
	option = {
		name = EVTOPTA_WoL_5001
		hidden_tooltip = { character_event = { id = WoL.5002 days = 50 random = 150 } } # Investigate
	}
	option = {
		name = EVTOPTB_WoL_5001
		trigger = { NOT = { trait = hunter } }
		clr_character_flag = epic_hunt            # Not interested
	}
}

# Hunt starts
character_event = {
	id = WoL.5010
	picture = GFX_evt_hunt
	border = GFX_event_normal_frame_war

	is_triggered_only = yes
	
	trigger = {
		has_focus = focus_hunting    # To interrupt events if player changes focus
	}
	
	desc = { # Stag
		trigger = {
			has_character_flag = white_stag
		}
		text = EVTDESC_WoL_5010_stag
	}
	desc = { # Bear
		trigger = {
			has_character_flag = white_bear
		}
		text = EVTDESC_WoL_5010_bear
	}
	desc = { # Tiger
		trigger = {
			has_character_flag = white_tiger
		}
		text = EVTDESC_WoL_5010_tiger
	}
	desc = { # Lion
		trigger = {
			has_character_flag = white_lion
		}
		text = EVTDESC_WoL_5010_lion
	}
	desc = { # Lemur
		trigger = {
			has_character_flag = white_lemur
		}
		text = EVTDESC_WoL_5010_lemur
	}
	
	option = {
		name = EVTOPTA_WoL_5010
		trigger = {
			NOT = { has_character_flag = failed_epic_hunt }
		}
		hidden_tooltip = { character_event = { id = WoL.5011 days = 15 random = 20 } }  # Set out on hunt!
	}
	option = {
		name = EVTOPTB_WoL_5010
		trigger = {
			has_character_flag = failed_epic_hunt
		}
		hidden_tooltip = { character_event = { id = WoL.5011 days = 15 random = 20 } }  # Set out on hunt!
	}
}

# Hunt outcome
character_event = {
	id = WoL.5011
	
	hide_window = yes

	is_triggered_only = yes
	
	trigger = {
		has_focus = focus_hunting    # To interrupt events if player changes focus
	}
	
	immediate = {
		random_list = {
			1 = {
				character_event = { id = WoL.5030 }  # Actually finds and kills animal
			}
			10 = {
				set_character_flag = failed_epic_hunt
				character_event = { id = WoL.5035 }  # Comes very close to animal and sees its majestic beauty
			}
			10 = {
				set_character_flag = failed_epic_hunt
				character_event = { id = WoL.5040 }  # Meets other hunter obsessed with same animal, he joins your court, random character
			}
			10 = {
				set_character_flag = failed_epic_hunt
				character_event = { id = WoL.5045 }  # Gets lost in the wilderness, bad experience
			}
			10 = {
				set_character_flag = failed_epic_hunt
				character_event = { id = WoL.5050 }  # Gets lost in the wilderness, good experience
			}
			30 = {
				set_character_flag = failed_epic_hunt
				character_event = { id = WoL.5055 }  # Uneventful hunt, returns home emptyhanded
			}
			10 = {
				set_character_flag = failed_epic_hunt
				character_event = { id = WoL.5060 }  # Gets lost, finds cottage, meets strange old witch
			}
			10 = {
				set_character_flag = failed_epic_hunt
				character_event = { id = WoL.5065 }  # Gets lost, finds cottage, meets attractive person of opposite sex...
			}
		}
	}
}

# Actually finds and kills animal
character_event = {
	id = WoL.5030
	picture = GFX_evt_mysterious_forest
	border = GFX_event_normal_frame_war

	is_triggered_only = yes
	
	desc = { # Stag
		trigger = {
			has_character_flag = white_stag
		}
		text = EVTDESC_WoL_5030_stag
	}
	desc = { # Bear
		trigger = {
			has_character_flag = white_bear
		}
		text = EVTDESC_WoL_5030_bear
	}
	desc = { # Tiger
		trigger = {
			has_character_flag = white_tiger
		}
		text = EVTDESC_WoL_5030_tiger
	}
	desc = { # Lion
		trigger = {
			has_character_flag = white_lion
		}
		text = EVTDESC_WoL_5030_lion
	}
	desc = { # Lemur
		trigger = {
			has_character_flag = white_lemur
		}
		text = EVTDESC_WoL_5030_lemur
	}
	
	option = {
		name = EVTOPTA_WoL_5030 # Kill and get hunter trait
		prestige = 200
		if = {
			limit = { NOT = { lifestyle_traits = 1 } }
			add_trait = hunter
		}
		set_character_flag = achievement_great_hunter
		clr_character_flag = do_not_disturb
		clr_character_flag = failed_epic_hunt
		if = {
			limit = { has_character_modifier = hunting_white_stag }
			remove_character_modifier = hunting_white_stag
		}
		if = {
			limit = { has_character_modifier = hunting_white_bear }
			remove_character_modifier = hunting_white_bear
		}
		if = {
			limit = { has_character_modifier = hunting_white_tiger }
			remove_character_modifier = hunting_white_tiger
		}
		if = {
			limit = { has_character_modifier = hunting_white_lion }
			remove_character_modifier = hunting_white_lion
		}
		if = {
			limit = { has_character_modifier = hunting_white_lemur }
			remove_character_modifier = hunting_white_lemur
		}
		if = {
			limit = { has_nickname = no }
			give_nickname = nick_the_hunter
		}
		add_character_modifier = {
			modifier = master_hunter
			duration = -1
		}
	}
	option = {
		name = EVTOPTB_WoL_5030 # Spare the animal's life
		prestige = 200
		clr_character_flag = do_not_disturb
		clr_character_flag = failed_epic_hunt
		if = {
			limit = { has_character_modifier = hunting_white_stag }
			remove_character_modifier = hunting_white_stag
		}
		if = {
			limit = { has_character_modifier = hunting_white_bear }
			remove_character_modifier = hunting_white_bear
		}
		if = {
			limit = { has_character_modifier = hunting_white_tiger }
			remove_character_modifier = hunting_white_tiger
		}
		if = {
			limit = { has_character_modifier = hunting_white_lion }
			remove_character_modifier = hunting_white_lion
		}
		if = {
			limit = { has_character_modifier = hunting_white_lemur }
			remove_character_modifier = hunting_white_lemur
		}
		if = {
			limit = { has_nickname = no }
			give_nickname = nick_the_hunter
		}
		add_character_modifier = {
			modifier = master_hunter
			duration = -1
		}
	}
}

# Comes very close to animal and sees its majestic beauty
character_event = {
	id = WoL.5035
	picture = GFX_evt_mysterious_forest
	border = GFX_event_normal_frame_war

	is_triggered_only = yes
	
	desc = { # Stag
		trigger = {
			has_character_flag = white_stag
		}
		text = EVTDESC_WoL_5035_stag
	}
	desc = { # Bear
		trigger = {
			has_character_flag = white_bear
		}
		text = EVTDESC_WoL_5035_bear
	}
	desc = { # Tiger
		trigger = {
			has_character_flag = white_tiger
		}
		text = EVTDESC_WoL_5035_tiger
	}
	desc = { # Lion
		trigger = {
			has_character_flag = white_lion
		}
		text = EVTDESC_WoL_5035_lion
	}
	desc = { # Lemur
		trigger = {
			has_character_flag = white_lemur
		}
		text = EVTDESC_WoL_5035_lemur
	}
	
	option = {
		name = EVTOPTA_WoL_5035
		trigger = {
			NOT = { lifestyle_traits = 1 }
		}
		add_trait = hunter
		if = {
			limit = { has_nickname = no }
			give_nickname = nick_the_hunter
		}
		if = {
			limit = {
				has_character_flag = white_stag
				NOT = { has_character_modifier = hunting_white_stag }
			}
			add_character_modifier = {
				name = hunting_white_stag
				duration = -1
			}
		}
		if = {
			limit = {
				has_character_flag = white_bear
				NOT = { has_character_modifier = hunting_white_bear }
			}
			add_character_modifier = {
				name = hunting_white_bear
				duration = -1
			}
		}
		if = {
			limit = {
				has_character_flag = white_tiger
				NOT = { has_character_modifier = hunting_white_tiger }
			}
			add_character_modifier = {
				name = hunting_white_tiger
				duration = -1
			}
		}
		if = {
			limit = {
				has_character_flag = white_lion
				NOT = { has_character_modifier = hunting_white_lion }
			}
			add_character_modifier = {
				name = hunting_white_lion
				duration = -1
			}
		}
		if = {
			limit = {
				has_character_flag = white_lemur
				NOT = { has_character_modifier = hunting_white_lemur }
			}
			add_character_modifier = {
				name = hunting_white_lemur
				duration = -1
			}
		}
		clr_character_flag = do_not_disturb
		hidden_tooltip = { character_event = { id = WoL.5002 days = 365 random = 1000 } }
	}
	option = {
		name = EVTOPTB_WoL_5035
		if = {
			limit = {
				has_character_flag = white_stag
				NOT = { has_character_modifier = hunting_white_stag }
			}
			add_character_modifier = {
				name = hunting_white_stag
				duration = -1
			}
		}
		if = {
			limit = {
				has_character_flag = white_bear
				NOT = { has_character_modifier = hunting_white_bear }
			}
			add_character_modifier = {
				name = hunting_white_bear
				duration = -1
			}
		}
		if = {
			limit = {
				has_character_flag = white_tiger
				NOT = { has_character_modifier = hunting_white_tiger }
			}
			add_character_modifier = {
				name = hunting_white_tiger
				duration = -1
			}
		}
		if = {
			limit = {
				has_character_flag = white_lion
				NOT = { has_character_modifier = hunting_white_lion }
			}
			add_character_modifier = {
				name = hunting_white_lion
				duration = -1
			}
		}
		if = {
			limit = {
				has_character_flag = white_lemur
				NOT = { has_character_modifier = hunting_white_lemur }
			}
			add_character_modifier = {
				name = hunting_white_lemur
				duration = -1
			}
		}
		clr_character_flag = do_not_disturb
		hidden_tooltip = { character_event = { id = WoL.5002 days = 365 random = 1000 } }
	}
}

# Meets other hunter obsessed with same animal, he joins your court, random character
character_event = {
	id = WoL.5040
	picture = GFX_evt_hunt
	border = GFX_event_normal_frame_war

	is_triggered_only = yes
	
	desc = EVTDESC_WoL_5040
	
	option = {
		name = EVTOPTA_WoL_5040  # Invite him to your court
		capital_scope = {
			ROOT = {
				create_character = {
					random_traits = yes
					dynasty = NONE
					religion = PREV
					culture = PREV
					female = no
					age = 36
					trait = hunter
					trait = brave
					attributes = {
						martial = 8
					}
				}
				new_character = {
					give_nickname = nick_the_hunter
					add_random_education_trait = martial
					random_list = {
						40 = { add_trait = poor_warrior }
						40 = { add_trait = trained_warrior }
						10 = { add_trait = skilled_warrior }
					}
				}
			}
		}	
		if = {
			limit = {
				has_character_flag = white_stag
				NOT = { has_character_modifier = hunting_white_stag }
			}
			add_character_modifier = {
				name = hunting_white_stag
				duration = -1
			}
		}
		if = {
			limit = {
				has_character_flag = white_bear
				NOT = { has_character_modifier = hunting_white_bear }
			}
			add_character_modifier = {
				name = hunting_white_bear
				duration = -1
			}
		}
		if = {
			limit = {
				has_character_flag = white_tiger
				NOT = { has_character_modifier = hunting_white_tiger }
			}
			add_character_modifier = {
				name = hunting_white_tiger
				duration = -1
			}
		}
		if = {
			limit = {
				has_character_flag = white_lion
				NOT = { has_character_modifier = hunting_white_lion }
			}
			add_character_modifier = {
				name = hunting_white_lion
				duration = -1
			}
		}
		if = {
			limit = {
				has_character_flag = white_lemur
				NOT = { has_character_modifier = hunting_white_lemur }
			}
			add_character_modifier = {
				name = hunting_white_lemur
				duration = -1
			}
		}
		hidden_tooltip = { character_event = { id = WoL.5062 days = 5 } }
		hidden_tooltip = { character_event = { id = WoL.5002 days = 365 random = 1000 } }
	}
	option = {
		name = EVTOPTB_WoL_5040  # Leave him be
		if = {
			limit = {
				has_character_flag = white_stag
				NOT = { has_character_modifier = hunting_white_stag }
			}
			add_character_modifier = {
				name = hunting_white_stag
				duration = -1
			}
		}
		if = {
			limit = {
				has_character_flag = white_bear
				NOT = { has_character_modifier = hunting_white_bear }
			}
			add_character_modifier = {
				name = hunting_white_bear
				duration = -1
			}
		}
		if = {
			limit = {
				has_character_flag = white_tiger
				NOT = { has_character_modifier = hunting_white_tiger }
			}
			add_character_modifier = {
				name = hunting_white_tiger
				duration = -1
			}
		}
		if = {
			limit = {
				has_character_flag = white_lion
				NOT = { has_character_modifier = hunting_white_lion }
			}
			add_character_modifier = {
				name = hunting_white_lion
				duration = -1
			}
		}
		if = {
			limit = {
				has_character_flag = white_lemur
				NOT = { has_character_modifier = hunting_white_lemur }
			}
			add_character_modifier = {
				name = hunting_white_lemur
				duration = -1
			}
		}
		hidden_tooltip = { character_event = { id = WoL.5062 days = 5 } }
		hidden_tooltip = { character_event = { id = WoL.5002 days = 365 random = 1000 } }
	}
	option = {
		name = EVTOPTC_WoL_5040  # He's a rival, kill him!
		trigger = {
			OR = {
				trait = impaler
				trait = lunatic
				trait = wroth
				trait = paranoid
			}
			NOT = { trait = kind }
			NOT = { trait = trusting }
		}
		if = {
			limit = { NOT = { personality_traits = 6 } }
			if = {
				limit = { NOT = { trait = cruel } }
				add_trait = cruel
			}
			if = {
				limit = { 
					trait = paranoid 
					NOT = { trait = content }
				}
				add_trait = envious
			}
			if = {
				limit = { NOT = { trait = paranoid } }
				add_trait = paranoid
			}
		}	
		if = {
			limit = {
				has_character_flag = white_stag
				NOT = { has_character_modifier = hunting_white_stag }
			}
			add_character_modifier = {
				name = hunting_white_stag
				duration = -1
			}
		}
		if = {
			limit = {
				has_character_flag = white_bear
				NOT = { has_character_modifier = hunting_white_bear }
			}
			add_character_modifier = {
				name = hunting_white_bear
				duration = -1
			}
		}
		if = {
			limit = {
				has_character_flag = white_tiger
				NOT = { has_character_modifier = hunting_white_tiger }
			}
			add_character_modifier = {
				name = hunting_white_tiger
				duration = -1
			}
		}
		if = {
			limit = {
				has_character_flag = white_lion
				NOT = { has_character_modifier = hunting_white_lion }
			}
			add_character_modifier = {
				name = hunting_white_lion
				duration = -1
			}
		}
		if = {
			limit = {
				has_character_flag = white_lemur
				NOT = { has_character_modifier = hunting_white_lemur }
			}
			add_character_modifier = {
				name = hunting_white_lemur
				duration = -1
			}
		}
		hidden_tooltip = { character_event = { id = WoL.5062 days = 5 } }
		hidden_tooltip = { character_event = { id = WoL.5002 days = 365 random = 1000 } }
	}
}

# Gets lost in the wilderness, bad experience
character_event = {
	id = WoL.5045
	desc = EVTDESC_WoL_5045
	picture = GFX_evt_bandits
	border = GFX_event_normal_frame_war

	is_triggered_only = yes
	
	option = {
		name = EVTOPTA_WoL_5045
		if = {
			limit = { is_ill = yes }
			if = {
				limit = {
					NOT = {
						has_dlc = "Reapers"
					}
				}
				add_trait = pneumonic
			}
			if = {
				limit = {
					has_dlc = "Reapers"
				}
				add_trait = infection
				hidden_tooltip = {
					character_event = { id = RIP.11001 days = 365 random = 1095 }
				}
			}
		}
		if = {
			limit = {
				trait = stressed
			}
			random = {
				chance = 20
				add_trait = depressed
				hidden_tooltip = { character_event = { id = 38288 } } #notify
			}
		}
		if = {
			limit = {
				NOT = { trait = stressed }
			}
			random = {
				chance = 20
				add_trait = stressed
				hidden_tooltip = { character_event = { id = 38282 } } #notify
			}
		}
		if = {
			limit = {
				NOT = { trait = patient }
				NOT = { trait = wroth }
				NOT = { personality_traits = 6 }
			}
			random = {
				chance = 20
				add_trait = wroth
				hidden_tooltip = { character_event = { id = 38254 } } #notify
			}
		}
		if = {
			limit = {
				has_character_flag = white_stag
				NOT = { has_character_modifier = hunting_white_stag }
			}
			add_character_modifier = {
				name = hunting_white_stag
				duration = -1
			}
		}
		if = {
			limit = {
				has_character_flag = white_bear
				NOT = { has_character_modifier = hunting_white_bear }
			}
			add_character_modifier = {
				name = hunting_white_bear
				duration = -1
			}
		}
		if = {
			limit = {
				has_character_flag = white_tiger
				NOT = { has_character_modifier = hunting_white_tiger }
			}
			add_character_modifier = {
				name = hunting_white_tiger
				duration = -1
			}
		}
		if = {
			limit = {
				has_character_flag = white_lion
				NOT = { has_character_modifier = hunting_white_lion }
			}
			add_character_modifier = {
				name = hunting_white_lion
				duration = -1
			}
		}
		if = {
			limit = {
				has_character_flag = white_lemur
				NOT = { has_character_modifier = hunting_white_lemur }
			}
			add_character_modifier = {
				name = hunting_white_lemur
				duration = -1
			}
		}
		hidden_tooltip = { character_event = { id = WoL.5062 days = 5 } }
		hidden_tooltip = { character_event = { id = WoL.5002 days = 365 random = 1000 } }
	}
}

# Gets lost in the wilderness, good experience
character_event = {
	id = WoL.5050
	picture = GFX_evt_fishing
	border = GFX_event_normal_frame_war

	is_triggered_only = yes
	
	desc = EVTDESC_WoL_5050
	
	option = {
		name = EVTOPTA_WoL_5050
		if = {
			limit = {
				trait = slothful
			}
			remove_trait = slothful
		}
		if = {
			limit = {
				is_strong_trigger = no
				is_agile_trigger = no
				is_weak_trigger = no
				is_lazy_trigger = no
			}
			random = {
				chance = 20
				add_trait = robust
			}
		}
		if = {
			limit = { is_weak_trigger = yes }
			random = {
				chance = 20
				remove_trait = weak
				remove_trait = weak_1
				remove_trait = weak_2
				remove_trait = feeble
			}
		}
		if = {
			limit = { is_lazy_trigger = yes }
			random = {
				chance = 20
				remove_trait = lazy
				remove_trait = lazy_1
				remove_trait = lazy_2
			}
		}
		if = {
			limit = {
				has_character_flag = white_stag
				NOT = { has_character_modifier = hunting_white_stag }
			}
			add_character_modifier = {
				name = hunting_white_stag
				duration = -1
			}
		}
		if = {
			limit = {
				has_character_flag = white_bear
				NOT = { has_character_modifier = hunting_white_bear }
			}
			add_character_modifier = {
				name = hunting_white_bear
				duration = -1
			}
		}
		if = {
			limit = {
				has_character_flag = white_tiger
				NOT = { has_character_modifier = hunting_white_tiger }
			}
			add_character_modifier = {
				name = hunting_white_tiger
				duration = -1
			}
		}
		if = {
			limit = {
				has_character_flag = white_lion
				NOT = { has_character_modifier = hunting_white_lion }
			}
			add_character_modifier = {
				name = hunting_white_lion
				duration = -1
			}
		}
		if = {
			limit = {
				has_character_flag = white_lemur
				NOT = { has_character_modifier = hunting_white_lemur }
			}
			add_character_modifier = {
				name = hunting_white_lemur
				duration = -1
			}
		}
		hidden_tooltip = { character_event = { id = WoL.5062 days = 5 } }
		hidden_tooltip = { character_event = { id = WoL.5002 days = 365 random = 1000 } }
	}
}

# Uneventful hunt, returns home emptyhanded
character_event = {
	id = WoL.5055
	picture = GFX_evt_bad_news
	border = GFX_event_normal_frame_war

	is_triggered_only = yes
	
	desc = EVTDESC_WoL_5055
	
	option = { # Blame self
		name = EVTOPTA_WoL_5055
		ai_chance = {
			factor = 1
			modifier = {
				factor = 0
				OR = {
					trait = proud
					trait = arbitrary
				}
			}	
		}
		prestige = -20
		if = {
			limit = {
				NOT = { trait = stressed }	
			}
			random = {
				chance = 15
				add_trait = stressed
				hidden_tooltip = { character_event = { id = 38282 } }
			}	
		}
		if = {
			limit = {
				NOT = { trait = humble }
				NOT = { trait = proud }
				NOT = { personality_traits = 6 }				
			}
			random = {
				chance = 25
				add_trait = humble
				hidden_tooltip = { character_event = { id = 38260 } }
			}	
		}
		if = {
			limit = {
				has_character_flag = white_stag
				NOT = { has_character_modifier = hunting_white_stag }
			}
			add_character_modifier = {
				name = hunting_white_stag
				duration = -1
			}
		}
		if = {
			limit = {
				has_character_flag = white_bear
				NOT = { has_character_modifier = hunting_white_bear }
			}
			add_character_modifier = {
				name = hunting_white_bear
				duration = -1
			}
		}
		if = {
			limit = {
				has_character_flag = white_tiger
				NOT = { has_character_modifier = hunting_white_tiger }
			}
			add_character_modifier = {
				name = hunting_white_tiger
				duration = -1
			}
		}
		if = {
			limit = {
				has_character_flag = white_lion
				NOT = { has_character_modifier = hunting_white_lion }
			}
			add_character_modifier = {
				name = hunting_white_lion
				duration = -1
			}
		}
		if = {
			limit = {
				has_character_flag = white_lemur
				NOT = { has_character_modifier = hunting_white_lemur }
			}
			add_character_modifier = {
				name = hunting_white_lemur
				duration = -1
			}
		}
		clr_character_flag = do_not_disturb
		hidden_tooltip = { character_event = { id = WoL.5002 days = 365 random = 1000 } }
	}
	option = { # Blame servants
		name = EVTOPTB_WoL_5055
		ai_chance = {
			factor = 1
			modifier = {
				factor = 0
				trait = humble
			}	
		}
		if = {
			limit = {
				NOT = { trait = proud }
				NOT = { trait = humble }
				NOT = { personality_traits = 6 }
				trait = arbitrary
			}
			random = {
				chance = 25
				add_trait = proud
				hidden_tooltip = { character_event = { id = 38261 } }
			}	
		}
		if = {
			limit = {
				NOT = { trait = arbitrary }
				NOT = { trait = just }
				NOT = { personality_traits = 6 }
			}
			random = {
				chance = 25
				add_trait = arbitrary
				hidden_tooltip = { character_event = { id = 38266 } }
			}	
		}
		if = {
			limit = {
				has_character_flag = white_stag
				NOT = { has_character_modifier = hunting_white_stag }
			}
			add_character_modifier = {
				name = hunting_white_stag
				duration = -1
			}
		}
		if = {
			limit = {
				has_character_flag = white_bear
				NOT = { has_character_modifier = hunting_white_bear }
			}
			add_character_modifier = {
				name = hunting_white_bear
				duration = -1
			}
		}
		if = {
			limit = {
				has_character_flag = white_tiger
				NOT = { has_character_modifier = hunting_white_tiger }
			}
			add_character_modifier = {
				name = hunting_white_tiger
				duration = -1
			}
		}
		if = {
			limit = {
				has_character_flag = white_lion
				NOT = { has_character_modifier = hunting_white_lion }
			}
			add_character_modifier = {
				name = hunting_white_lion
				duration = -1
			}
		}
		if = {
			limit = {
				has_character_flag = white_lemur
				NOT = { has_character_modifier = hunting_white_lemur }
			}
			add_character_modifier = {
				name = hunting_white_lemur
				duration = -1
			}
		}
		clr_character_flag = do_not_disturb
		hidden_tooltip = { character_event = { id = WoL.5002 days = 365 random = 1000 } }
	}
}

# Gets lost, finds cottage, meets strange old witch who promises to make you a better hunter
character_event = {
	id = WoL.5060
	picture = GFX_evt_pagan
	border = GFX_event_normal_frame_war

	is_triggered_only = yes
	
	desc = EVTDESC_WoL_5060
	
	option = { # Drink potion
		name = EVTOPTA_WoL_5060
		wealth = -5
		hidden_tooltip = { character_event = { id = WoL.5061 } }
		custom_tooltip = { text = potion_unforeseen_effects } # This might have unforeseen effects...
		clr_character_flag = do_not_disturb
		hidden_tooltip = { character_event = { id = WoL.5002 days = 365 random = 1000 } }

	}
	option = { # Don't drink potion, return home
		name = EVTOPTB_WoL_5060
		hidden_tooltip = { character_event = { id = WoL.5062 days = 3 } }
		clr_character_flag = do_not_disturb
		hidden_tooltip = { character_event = { id = WoL.5002 days = 365 random = 1000 } }
	}
}

# Drank the potion
character_event = {
	id = WoL.5061
	picture = GFX_evt_pagan
	border = GFX_event_normal_frame_war

	is_triggered_only = yes
	
	desc = {
		trigger = {
			OR = {
				has_character_flag = potion_lustful
				has_character_flag = potion_brave
				has_character_flag = potion_diligent
			}
		}
		text = EVTDESC_WoL_5061_good
	}
	desc = {
		trigger = {
			OR = {
				has_character_flag = potion_ill
				has_character_flag = potion_stressed
			}
		}
		text = EVTDESC_WoL_5061_bad
	}
	
	immediate = {
		random_list = {
			10 = {
				set_character_flag = potion_ill
			}
			10 = {
				set_character_flag = potion_stressed
			}
			10 = {
				set_character_flag = potion_lustful
			}
			10 = {
				set_character_flag = potion_brave
			}
			10 = {
				set_character_flag = potion_diligent
			}
		}
	}
	
	option = { # Ill
		name = EVTOPTA_WoL_5061
		trigger = {
			has_character_flag = potion_ill
		}
		if = {
			limit = {
				is_ill = no
			}
			if = {
				limit = {
					NOT = {
						has_dlc = "Reapers"
					}
				}
				add_trait = ill
			}
			if = {
				limit = {
					has_dlc = "Reapers"
				}
				set_character_flag = disease_not_serious
				add_trait = diarrhea
				character_event = { id = RIP.11004 days = 30 random = 90 }
			}
		}
		clr_character_flag = potion_ill
		hidden_tooltip = { character_event = { id = WoL.5062 days = 3 } }
	}
	option = { # Stressed
		name = EVTOPTA_WoL_5061
		trigger = {
			has_character_flag = potion_stressed
		}
		if = {
			limit = {
				NOT = { trait = stressed }
			}
			add_trait = stressed
		}
		clr_character_flag = potion_stressed
		hidden_tooltip = { character_event = { id = WoL.5062 days = 3 } }
	}
	option = { # Lustful
		name = EVTOPTC_WoL_5061
		trigger = {
			has_character_flag = potion_lustful
		}
		if = {
			limit = { trait = chaste }
			remove_trait = chaste
		}
		if = {
			limit = { trait = celibate }
			remove_trait = celibate
		}
		if = {
			limit = {
				NOT = { trait = lustful }
			}
			add_trait = lustful
		}
		clr_character_flag = potion_lustful
		hidden_tooltip = { character_event = { id = WoL.5062 days = 3 } }
	}
	option = { # Brave
		name = EVTOPTC_WoL_5061
		trigger = {
			has_character_flag = potion_brave
		}
		if = {
			limit = { trait = craven }
			remove_trait = craven
		}
		if = {
			limit = {
				NOT = { trait = brave }
			}
			add_trait = brave
		}
		clr_character_flag = potion_brave
		hidden_tooltip = { character_event = { id = WoL.5062 days = 5 } }
	}
	option = { # Diligent
		name = EVTOPTC_WoL_5061
		trigger = {
			has_character_flag = potion_diligent
		}
		if = {
			limit = { trait = slothful }
			remove_trait = slothful
		}
		if = {
			limit = {
				NOT = { trait = diligent }
			}
			add_trait = diligent
		}
		clr_character_flag = potion_diligent
		hidden_tooltip = { character_event = { id = WoL.5062 days = 5 } }
	}
}

# Returns home after meeting witch or lover in woods
character_event = {
	id = WoL.5062
	desc = EVTDESC_WoL_5062
	picture = GFX_evt_rider_adventure
	border = GFX_event_normal_frame_war

	is_triggered_only = yes
	
	option = { # No catch this time
		name = EVTOPTA_WoL_5062
		clr_character_flag = do_not_disturb
		if = {
			limit = {
				has_character_flag = white_stag
				NOT = { has_character_modifier = hunting_white_stag }
			}
			add_character_modifier = {
				name = hunting_white_stag
				duration = -1
			}
		}
		if = {
			limit = {
				has_character_flag = white_bear
				NOT = { has_character_modifier = hunting_white_bear }
			}
			add_character_modifier = {
				name = hunting_white_bear
				duration = -1
			}
		}
		if = {
			limit = {
				has_character_flag = white_tiger
				NOT = { has_character_modifier = hunting_white_tiger }
			}
			add_character_modifier = {
				name = hunting_white_tiger
				duration = -1
			}
		}
		if = {
			limit = {
				has_character_flag = white_lion
				NOT = { has_character_modifier = hunting_white_lion }
			}
			add_character_modifier = {
				name = hunting_white_lion
				duration = -1
			}
		}
		if = {
			limit = {
				has_character_flag = white_lemur
				NOT = { has_character_modifier = hunting_white_lemur }
			}
			add_character_modifier = {
				name = hunting_white_lemur
				duration = -1
			}
		}
	}
}


# Gets lost, finds cottage, meets person of opposite sex, can choose to get busy or not
character_event = {
	id = WoL.5065
	picture = GFX_evt_rider_adventure
	border = GFX_event_normal_frame_war

	is_triggered_only = yes
	
	desc = {
		trigger = {
			has_character_flag = woods_female_lover
		}
		text = EVTDESC_WoL_5065_female_lover
	}
	desc = {
		trigger = {
			has_character_flag = woods_male_lover
		}
		text = EVTDESC_WoL_5065_male_lover
	}
	
	immediate = {
		if = {
			limit = {
				OR = {
					AND = {
						is_female = no
						NOT = { trait = homosexual }
					}
					AND = {
						is_female = yes
						trait = homosexual
					}
				}
			}
			set_character_flag = woods_female_lover
		}
		if = {
			limit = {
				OR = {
					AND = {
						is_female = yes
						NOT = { trait = homosexual }
					}
					AND = {
						is_female = no
						trait = homosexual
					}
				}
			}
			set_character_flag = woods_male_lover
		}
	}
	
	option = { # Have a romantic time...
		name = EVTOPTA_WoL_5065
		trigger = {
			NOT = { trait = celibate }
			NOT = { trait = chaste }
		}
		add_character_modifier = {
			name = good_times
			years = 2
		}
		if = {
			limit = { 
				NOT = { trait = lustful } 
				NOT = { personality_traits = 6 }
			}
			add_trait = lustful
		}
		hidden_tooltip = { character_event = { id = WoL.5066 } }
		hidden_tooltip = { character_event = { id = WoL.5002 days = 365 random = 1000 } }
	}
	option = { # Get out of there
		name = EVTOPTB_WoL_5065
		if = {
			limit = { 
				NOT = { trait = chaste } 
				NOT = { trait = lustful }
				NOT = { trait = celibate }
				NOT = { personality_traits = 6 }
			}
			random = {
				chance = 20
				add_trait = chaste
				hidden_tooltip = { character_event = { id = 38274 } } #notify
			}
		}
		hidden_tooltip = { character_event = { id = WoL.5062 days = 5 } }
		hidden_tooltip = { character_event = { id = WoL.5002 days = 365 random = 1000 } }
	}
	option = { # It's a trap! Attack!
		name = EVTOPTB_WoL_5065
		trigger = {
			OR = {
				trait = paranoid
				trait = lunatic
			}
		}
		custom_tooltip = { text = cottage_person_dies }
		if = {
			limit = { 
				NOT = { trait = wroth } 
				NOT = { trait = patient }
				NOT = { personality_traits = 6 }
			}
			add_trait = wroth
		}
		if = {
			limit = {
				trait = wroth
				NOT = { trait = paranoid }
				NOT = { trait = trusting }
				NOT = { personality_traits = 6 }
			}
			add_trait = paranoid
		}
		hidden_tooltip = { character_event = { id = WoL.5062 days = 5 } }
		hidden_tooltip = { character_event = { id = WoL.5002 days = 365 random = 1000 } }
	}
}

# Getting busy, bring lover home or not?
character_event = {
	id = WoL.5066
	desc = EVTDESC_WoL_5066
	picture = GFX_evt_lovers
	border = GFX_event_normal_frame_war

	is_triggered_only = yes
	
	option = { # It was nice but I've got to go
		name = EVTOPTA_WoL_5066
		clr_character_flag = woods_female_lover
		clr_character_flag = woods_male_lover
		hidden_tooltip = { character_event = { id = WoL.5062 days = 5 } }
	}
	option = { # Bring home lover
		name = EVTOPTB_WoL_5066
		capital_scope = {
			ROOT = {
				if = {
					limit = { has_character_flag = woods_female_lover }
					create_character = {
						random_traits = yes
						dynasty = NONE
						religion = PREV
						culture = PREV
						female = yes
						age = 17
						trait = intricate_webweaver
						trait = fair
						trait = quick
						trait = lustful
						attributes = {
							intrigue = 10
						}
					}
				}
				if = {
					limit = { has_character_flag = woods_male_lover }
					create_character = {
						random_traits = yes
						dynasty = NONE
						religion = PREV
						culture = PREV
						female = no
						age = 17
						trait = intricate_webweaver
						trait = fair
						trait = quick
						trait = lustful
						attributes = {
							intrigue = 10
						}
					}
				}
				new_character = {
					give_nickname = nick_of_the_wilds
					if = {
						limit = { ROOT = { trait = homosexual } }
						add_trait = homosexual
					}
					remove_trait = genius
					remove_trait = genius_1
					remove_trait = imbecile
					remove_trait = imbecile_1
					remove_trait = ugly
					remove_trait = ugly_1
					remove_trait = ugly_2
					remove_trait = slow
					remove_trait = slow_1
					remove_trait = chaste
					add_lover = ROOT
				}
			}
		}	
		clr_character_flag = woods_female_lover
		clr_character_flag = woods_male_lover
		hidden_tooltip = { character_event = { id = WoL.5062 days = 5 } }
	}
}

###########################################
# Favorite hunting dog                    #
# ID WoL.5200-WoL.5299                    #
###########################################

# Select giver
character_event = {
	id = WoL.5200

	hide_window = yes
	
	is_triggered_only = yes
	
	only_playable = yes
	
	trigger = {
		has_focus = focus_hunting
		NOT = { has_character_modifier = pet_hunting_dog }
		NOT = { has_character_flag = offered_puppy }
		NOT = { has_character_flag = had_hunting_dog }
		NOT = { pacifist = yes }
	}

	immediate = {
		random_friend = {
			limit = {
				NOT = { trait = incapable }
				prisoner = no
				is_adult = yes
				NOT = { trait = dragon }
			}
			character_event = { id = WoL.5201 }
			ROOT = { set_character_flag = offered_puppy }
			break = yes
		}
		random_spouse = { 
			limit = {
				NOT = { trait = incapable }
				prisoner = no
				opinion = { who = ROOT value = 0 }
			}
			character_event = { id = WoL.5201 } 
			ROOT = { set_character_flag = offered_puppy }
			break = yes
		}
		random_lover = { 
			limit = {
				NOT = { trait = incapable }
				prisoner = no
			}
			character_event = { id = WoL.5201 } 
			ROOT = { set_character_flag = offered_puppy }
			break = yes
		}
		random_courtier = { 
			limit = {
				NOT = { trait = incapable }
				prisoner = no
				is_adult = yes
				opinion = { who = ROOT value = 0 }
				NOT = { trait = dragon }
			}
			character_event = { id = WoL.5201 } 
			ROOT = { set_character_flag = offered_puppy }
			break = yes
		}
		random_courtier = {
			limit = {
				NOT = { trait = incapable }
				prisoner = no
				is_adult = yes
				NOT = { trait = dragon }
			}
			character_event = { id = WoL.5201 } 
			ROOT = { set_character_flag = offered_puppy }
			break = yes
		}	
	}
}

# Giver of puppy
character_event = {
	id = WoL.5201

	hide_window = yes
	
	is_triggered_only = yes

	immediate = {
		FROM = { character_event = { id = WoL.5202 } }
	}
}

# Accept or decline
character_event = {
	id = WoL.5202
	desc = EVTDESC_WoL_5202
	picture = GFX_evt_hunting_scene
	border = GFX_event_normal_frame_war

	is_triggered_only = yes
	
	option = { # Accept
		name = EVTOPTA_WoL_5202
		#hidden_tooltip = { character_event = { id = WoL.5203 } }
		add_dog_effect = yes
		clr_character_flag = offered_puppy
		clr_character_flag = hunting_dog_already_killed
		set_character_flag = had_hunting_dog
	}
	option = { # Send it back
		name = EVTOPTB_WoL_5202
		reverse_opinion = {
			modifier = opinion_insulted
			who = FROM
			years = 2
		}
		clr_character_flag = offered_puppy
	}
	option = { # Pay someone to discreetly dispose of it
		name = EVTOPTC_WoL_5202
		wealth = -10
		random = {
			chance = 30
			reverse_opinion = {
				modifier = insulted
				who = FROM
				years = 5
			}
		}
		clr_character_flag = offered_puppy
	}
}

# # Name puppy
# character_event = {
	# id = WoL.5203
	# desc = EVTDESC_WoL_5203
	# picture = GFX_evt_hunting_scene
	# border = GFX_event_normal_frame_war

	# is_triggered_only = yes
	
	# immediate = {
		# random_list = {
			# 90 = { set_character_flag = good_dog }  # Decide dog's personality...
			# 10 = { set_character_flag = bad_dog }
		# }
	# }
	
	# option = { # Faithful
		# name = EVTOPTA_WoL_5203
		# set_character_flag = dog_name_faithful
		# hidden_tooltip = { character_event = { id = WoL.5204 days = 150 } }
	# }
	# option = { # Hunter
		# name = EVTOPTB_WoL_5203
		# set_character_flag = dog_name_hunter
		# hidden_tooltip = { character_event = { id = WoL.5204 days = 150 } }
	# }
	# option = { # Tricky
		# name = EVTOPTC_WoL_5203
		# set_character_flag = dog_name_tricky
		# hidden_tooltip = { character_event = { id = WoL.5204 days = 150 } }
	# }
	# option = { # Lucifer #The Stranger
		# name = EVTOPTD_WoL_5203
		# trigger = {
			# OR = {
				# trait = cynical
				# trait = possessed
				# is_devil_worshiper_trigger = yes
			# }
			# religion = the_seven
		# }
		# set_character_flag = dog_name_stranger
		# hidden_tooltip = { character_event = { id = WoL.5204 days = 150 } }
	# }
	# option = { # Shaytan #Storm God
		# name = EVTOPTE_WoL_5203
		# trigger = {
			# OR = {
				# trait = cynical
				# trait = possessed
				# is_devil_worshiper_trigger = yes
			# }
			# religion = drowned_god
		# }
		# set_character_flag = dog_name_storm_god
		# hidden_tooltip = { character_event = { id = WoL.5204 days = 150 } }
	# }
	# option = { # The Great Other
		# name = EVTOPTF_WoL_5203
		# trigger = {
			# OR = {
				# trait = cynical
				# trait = possessed
				# is_devil_worshiper_trigger = yes
			# }
			# religion = rhllor
		# }
		# set_character_flag = dog_name_great_other
		# hidden_tooltip = { character_event = { id = WoL.5204 days = 150 } }
	# }
	# option = { # Erlik  #The other
		# name = EVTOPTG_WoL_5203
		# trigger = {
			# OR = {
				# trait = cynical
				# trait = possessed
				# is_devil_worshiper_trigger = yes
			# }
			# OR = {
				# is_old_gods_religion_trigger = yes
				# religion = lady_of_the_waves
			# }
		# }
		# set_character_flag = dog_name_other
		# hidden_tooltip = { character_event = { id = WoL.5204 days = 150 } }
	# }
# }

# Puppy is growing and starts showing personality
character_event = {
	id = WoL.5204
	picture = GFX_evt_hunting_scene
	border = GFX_event_normal_frame_war

	is_triggered_only = yes

	desc = {
		trigger = {
			has_character_flag = good_dog
		}
		text = EVTDESC_WoL_5204_good
	}
	desc = {
		trigger = {
			has_character_flag = bad_dog
		}
		text = EVTDESC_WoL_5204_bad
	}
	
	option = {
		name = EVTOPTA_WoL_5204
		trigger = {
			has_character_flag = good_dog
		}
		prestige = 10
	}
	option = {
		name = EVTOPTB_WoL_5204
		trigger = {
			has_character_flag = bad_dog
		}
		prestige = 10
	}
}


## Random dog events...

# Dog makes you happier
character_event = {
	id = WoL.5210
	desc = EVTDESC_WoL_5210
	picture = GFX_evt_hunting_scene
	border = GFX_event_normal_frame_war

	is_triggered_only = yes
	
	only_playable = yes
	only_capable = yes
	prisoner = no
	
	trigger = {
		has_character_modifier = pet_hunting_dog
		OR = {
			trait = stressed
			trait = depressed
		}
	}
	
	option = {
		name = EVTOPTA_WoL_5210
		if = {
			limit = { trait = stressed }
			remove_trait = stressed
		}
		if = {
			limit = { trait = depressed }
			remove_trait = depressed
		}
	}
}

# Dog makes you popular
character_event = {
	id = WoL.5211
	desc = EVTDESC_WoL_5211
	picture = GFX_evt_hunting_scene
	border = GFX_event_normal_frame_war

	is_triggered_only = yes

	only_playable = yes
	only_capable = yes
	prisoner = no
	
	trigger = {
		has_character_modifier = pet_hunting_dog
		has_character_flag = good_dog
		OR = {
			trait = stressed
			trait = depressed
		}
	}
	
	option = {
		name = EVTOPTA_WoL_5211
		any_courtier = {
			limit = {
				is_adult = yes
				trait = hunter
			}
			opinion = {
				modifier = opinion_nice_dog
				who = ROOT
				years = 3
			}
		}
		any_courtier = {
			limit = { is_adult = no }
			opinion = {
				modifier = opinion_nice_dog_children
				who = ROOT
				years = 8
			}
		}
	}
}

# Dog makes you get out more - train dog?
character_event = {
	id = WoL.5220
	desc = EVTDESC_WoL_5220
	picture = GFX_evt_hunting_scene
	border = GFX_event_normal_frame_war

	is_triggered_only = yes

	only_playable = yes
	only_capable = yes
	prisoner = no

	trigger = {
		has_character_modifier = pet_hunting_dog
		in_command = no
		NOT = { has_character_flag = training_dog }
	}
	
	immediate = {
		set_character_flag = training_dog
	}
	
	option = { # Train dog
		name = EVTOPTA_WoL_5220
		hidden_tooltip = { character_event = { id = WoL.5221 days = 150 random = 150 } }
		custom_tooltip = { text = trains_dog }
	}
	option = { # Nah
		name = EVTOPTB_WoL_5220
		prestige = 20
	}
}

# Spending time outside training dog has its effects
character_event = {
	id = WoL.5221
	desc = EVTDESC_WoL_5221
	picture = GFX_evt_hunting_scene
	border = GFX_event_normal_frame_war

	is_triggered_only = yes

	trigger = {
		has_character_modifier = pet_hunting_dog
	}
	
	option = { # Train dog
		name = EVTOPTA_WoL_5221
		if = {
			limit = {
				NOT = { is_weak_trigger = yes }
				trait = diligent
			}
			health = 1
		}
		if = {
			limit = {
				NOT = { is_weak_trigger = yes }
				NOT = { trait = diligent }
				NOT = { trait = slothful }
				NOT = { personality_traits = 6 }
			}
			add_trait = diligent
		}
		if = {
			limit = {
				trait = feeble
			}
			remove_trait = feeble
		}
	}
}

# Bad dog kills other dog
character_event = {
	id = WoL.5230
	desc = EVTDESC_WoL_5230
	picture = GFX_evt_hunting_scene
	border = GFX_event_normal_frame_war

	is_triggered_only = yes

	only_playable = yes
	only_capable = yes
	prisoner = no

	trigger = {
		has_character_modifier = pet_hunting_dog
		has_character_flag = bad_dog
	}

	option = {
		name = EVTOPTA_RoI_161
		random_courtier = {
			limit = {
				ai = yes
				NOT = { trait = dragon }
			}
			opinion = {
				modifier = opinion_unhappy
				who = ROOT
				years = 8
			}
		}
	}
}

# Bad dog kills or wounds courtier
character_event = {
	id = WoL.5231
	desc = EVTDESC_WoL_5231
	picture = GFX_evt_hunting_scene
	border = GFX_event_normal_frame_war

	is_triggered_only = yes

	only_playable = yes
	only_capable = yes
	prisoner = no

	trigger = {
		has_character_modifier = pet_hunting_dog
		has_character_flag = bad_dog
	}
	
	immediate = {
		random_courtier = {
			limit = {
				is_ruler = no
				ai = yes
				liege = { character = ROOT }
				NOT = { trait = dragon }
			}
			set_character_flag = bad_dog_victim
		}	
	}

	option = {
		name = EVTOPTA_WoL_5231
		random_courtier = {
			limit = { has_character_flag = bad_dog_victim }
			random_list = {
				50 = {
				}
				30 = {
					add_trait_silently_wounded_effect = yes
					opinion = {
						modifier = opinion_unhappy
						who = ROOT
						years = 8
					}
				}
				20 = {
					hidden_tooltip = {
						any_dynasty_member = {
							opinion = {
								modifier = accused_of_murder
								who = ROOT
								years = 5
							}
						}
					}
					red_god_resurrect_effect = yes #check for rhllor resurrection
					death = {
						death_reason = death_accident
					}
					custom_tooltip = { text = crazymurderdog_tooltip }					
				}
			}
		}
	}
	option = {
		name = EVTOPTB_WoL_5231
		trigger = {
			OR = {
				trait = impaler
				trait = possessed
				trait = lunatic
				trait = cruel
			}
		}
		prestige = 100
		custom_tooltip = { text = crazymurderdog_court_tooltip }
		hidden_tooltip = {	
			any_courtier = {
				limit = {
					NOT = { trait = dragon }
					NOT = { character = ROOT }
					NOT = { trait = slave }
				}
				opinion = {
					modifier = opinion_shocked
					who = ROOT
					years = 1
				}
			}
		}
		random_courtier = {
			limit = { has_character_flag = bad_dog_victim }
			random_list = {
				50 = {
				}
				30 = {
					add_trait_silently_wounded_effect = yes
					opinion = {
						modifier = opinion_unhappy
						who = ROOT
						years = 8
					}
				}
				20 = {
					hidden_tooltip = {
						any_dynasty_member = {
							opinion = {
								modifier = accused_of_murder
								who = ROOT
								years = 5
							}
						}
					}
					red_god_resurrect_effect = yes #check for rhllor resurrection
					death = {
						death_reason = death_accident
					}
					custom_tooltip = { text = crazymurderdog_tooltip }	
				}
			}
		}
	}
}


# Dog dies! Decide on funeral
character_event = {
	id = WoL.5290
	desc = EVTDESC_WoL_5290
	picture = GFX_evt_hunting_scene
	border = GFX_event_normal_frame_war

	is_triggered_only = yes

	trigger = {
		has_character_modifier = pet_hunting_dog
		NOT = { has_character_flag = hunting_dog_already_killed }
	}
	
	immediate = {
		remove_character_modifier = pet_best_friends
	}
	
	option = { # Bury him quietly
		name = EVTOPTA_WoL_5290
		remove_character_modifier = pet_hunting_dog
		hidden_tooltip = { character_event = { id = WoL.5291 } }
	}
	option = { # Throw a grand funeral
		name = EVTOPTB_WoL_5290
		remove_character_modifier = pet_hunting_dog
		hidden_tooltip = { character_event = { id = WoL.5291 } }
	}
	option = { # Lunatic option - build him a great pyramid - use dogs name
		name = EVTOPTC_WoL_5290
		trigger = {
			ai = no
			OR = {
				trait = lunatic
				trait = possessed
			}			
		}
		scaled_wealth = { value = -2 min = -20 max = -200 }
		capital_scope = {
			add_province_modifier = { # Powerful but extremely unusual
				name = pyramid
				duration = -1
			}
		}
		remove_character_modifier = pet_hunting_dog
		hidden_tooltip = { character_event = { id = WoL.5291 } }
	}
	after = {
		hidden_effect = {
			if = {
				limit = {
					has_dlc = "Mystics"
					OR = {
						has_character_modifier = good_relationship_omen
						has_character_modifier = bad_relationship_omen
					}
				}
				set_character_flag = dog_death_omen
				character_event = { id = MNM.1213 days = 35 random = 30 } # Scrying vision come true
			}
			send_new_dog_event_effect = yes # Will only work for certain bloodlines...
		}
	}
}
# flag and delayed event clearing
character_event = {
	id = WoL.5291
	hide_window = yes
	is_triggered_only = yes
	
	immediate = {
		remove_character_modifier = pet_hunting_dog
		clear_delayed_event = { id = WoL.5290 }
		clear_delayed_event = { id = WoL.5204 }
		clear_delayed_event = { id = WoL.5221 }
		clear_persistent_event_target = hunting_dog_name
	}
}
##AGOT Event## Peasant Hunting
character_event = {
	id = WoL.5550
	picture = GFX_evt_hunting_scene
	border = GFX_event_normal_frame_war

	is_triggered_only = yes
	capable_only = yes
	prisoner = no
	min_age = 16
	war = no
	
	desc = {
		text = EVTDESC_WoL_5550
		trigger = { NOT = { prefers_men_trigger = yes } }
	}
	desc = {
		text = EVTDESC_WoL_5550B
		trigger = { prefers_men_trigger = yes }
	}
	
	trigger = {
		OR = {
			has_focus = focus_hunting
			trait = hunter
		}
		trait = cruel
		OR = {
			is_ruler = yes
			liege = { dynasty = ROOT }
		}
		NOT = { trait = honorable }
		NOT = { trait = just }
		NOT = { trait = chaste }
		NOT = { trait = celibate }
		NOT = { trait = eunuch }
		NOT = { has_severe_disability_trigger = yes }
		is_ill = no
		has_epidemic = no
		is_at_sea = no
	}
	
	weight_multiplier = {
		days = 1
		modifier = {
			factor = 10
			trait = impaler
		}
		modifier = {
			factor = 2
			trait = proud
		}
		modifier = {
			factor = 2
			trait = wroth
		}
		modifier = {
			factor = 2
			trait = arbitrary
		}
		modifier = {
			factor = 2
			trait = lunatic
		}
		modifier = {
			factor = 2
			trait = lustful
		}
		modifier = {
			factor = 0.5
			trait = humble
		}
		modifier = {
			factor = 0.5
			trait = patient
		}
	}
	
	option = { # Let the hunt begin!
		name = EVTOPTA_WoL_5550
		custom_tooltip = {
			text = TOOLTIPEVT5550
			hidden_tooltip = {
				random_list = {
					45 = { #Good hunt
						character_event = { id = WoL.5551 days = 2 }
					}
					45 = { #Poor hunt
						character_event = { id = WoL.5552 days = 2 }
					}
					9 = { #Gets away
						character_event = { id = WoL.5553 days = 2 }
					}
					1 = { #Target kills hunter
						character_event = { id = WoL.5554 days = 2 }
					}
				}	
			}
		}
	}
	option = { # No
		name = EVTOPTB_WoL_5550
		ai_chance = { factor = 0 }
	}
}
character_event = { #Target provides good sport
	id = WoL.5551
	picture = GFX_evt_hunting_scene
	border = GFX_event_normal_frame_war

	is_triggered_only = yes
	
	desc = {
		text = EVTDESC_WoL_5551
		trigger = { 
			NOT = { prefers_men_trigger = yes }
		}
	}
	desc = {
		text = EVTDESC_WoL_5551B
		trigger = { 
			prefers_men_trigger = yes
		}
	}
	
	immediate = {
		hidden_tooltip = {
			if = {
				limit = { liege = { dynasty = ROOT } }
				liege = { character_event = { id = WoL.5555 } }
			}
		}	
		add_blood_splatter_effect = yes
	}

	option = { # Grant quick death
		name = {
			text = EVTOPTA_WoL_5551
			trigger = { NOT = { dynasty = 87 } }
		}	
		name = {
			text = EVTOPTA_WoL_5551B #Flay
			trigger = { dynasty = 87 } #Bolton
		}
		prestige = 20
		piety = -20
		if = {
			limit = {
				NOT = { trait = impaler } 
				NOT = { lifestyle_traits = 1 } 
			}
			random = {
				chance = 10
				add_trait = impaler
			}
		}
	}
	option = { # Name dog after them
		name = EVTOPTB_WoL_5551
		prestige = 20
		piety = -20
		if = {
			limit = {
				NOT = { trait = lunatic } 
			}
			random = {
				chance = 5
				add_trait = lunatic
				hidden_tooltip = { character_event = { id = 38304 } }			
			}
		}
	}
	option = { # Let them go
		trigger = { is_ruler = yes }
		name = EVTOPTC_WoL_5551
		location = {
			ROOT = {
				if = {
					limit = { NOT = { prefers_men_trigger = yes } }
					create_character = {
						random_traits = yes
						dynasty = NONE
						religion = PREV
						culture = PREV
						female = yes
						age = 18
						trait = brave
						trait = diligent
					}
				}	
				if = {
					limit = { prefers_men_trigger = yes }
					create_character = {
						random_traits = yes
						dynasty = NONE
						religion = PREV
						culture = PREV
						female = no
						age = 18
						trait = brave
						trait = diligent
					}
				}
				new_character = {
					ROOT = {
						random_realm_lord = {
							limit = { 
								tier = BARON 
								at_location = ROOT
							}
							reverse_banish = PREVPREV
						}
					}	
					opinion = {
						who = ROOT
						modifier = opinion_hate
						months = 120
					}
					if = {
						limit = { 
							is_female = yes 
							ROOT = { 
								fertility = 0.1 
								is_female = no
							}
						}
						random = {
							chance = 50
							impregnate_cuckoo = ROOT
						}
					}
				}
			}
		}	
	}
}	
character_event = { #Target provides poor sport
	id = WoL.5552
	desc = EVTDESC_WoL_5552
	picture = GFX_evt_hunting_scene
	border = GFX_event_normal_frame_war

	is_triggered_only = yes
	
	desc = {
		text = EVTDESC_WoL_5552
		trigger = { NOT = { prefers_men_trigger = yes } }
	}
	desc = {
		text = EVTDESC_WoL_5552B
		trigger = { prefers_men_trigger = yes }
	}
	
	immediate = {
		hidden_tooltip = {
			if = {
				limit = { liege = { dynasty = ROOT } }
				liege = { character_event = { id = WoL.5555 } }
			}
		}	
		add_blood_splatter_effect = yes
	}

	option = { # Grant painful death
		name = {
			text = EVTOPTA_WoL_5552
			trigger = { 
				NOT = { dynasty = 87 } 
				NOT = { prefers_men_trigger = yes }
			}
		}	
		name = {
			text = EVTOPTA_WoL_5552B
			trigger = {
				NOT = { dynasty = 87 } 
				prefers_men_trigger = yes
			}
		}
		name = {
			text = EVTOPTA_WoL_5552C #Flay
			trigger = { dynasty = 87 } #Bolton
		}
		prestige = 10
		piety = -30
		if = {
			limit = {
				NOT = { trait = impaler } 
				NOT = { lifestyle_traits = 1 } 
			}
			random = {
				chance = 25
				add_trait = impaler
			}
		}
	}
	option = { # Feed to dogs
		name = EVTOPTB_WoL_5552
		prestige = 10
		piety = -30
		if = {
			limit = {
				NOT = { trait = ruthless } 
				NOT = { trait = honorable } 
				NOT = { personality_traits = 6 } 
			}
			random = {
				chance = 25
				add_trait = ruthless
				hidden_tooltip = { character_event = { id = trait_notification.18 } }
			}
		}
	}
	option = { # Imprison
		trigger = { ai = no }
		name = EVTOPTC_WoL_5552
		location = {
			ROOT = {
				if = {
					limit = { NOT = { prefers_men_trigger = yes } }
					create_character = {
						random_traits = yes
						dynasty = NONE
						religion = PREV
						culture = PREV
						female = yes
						age = 18
						trait = craven
					}
				}	
				if = {
					limit = { prefers_men_trigger = yes }
					create_character = {
						random_traits = yes
						dynasty = NONE
						religion = PREV
						culture = PREV
						female = no
						age = 18
						trait = craven
					}
				}
				new_character = {
					imprison = ROOT
					opinion = {
						who = ROOT
						modifier = opinion_hate
						months = 120
					}
					if = {
						limit = { 
							is_female = yes 
							ROOT = { 
								fertility = 0.1 
								is_female = no
							}
						}
						random = {
							chance = 50
							impregnate_cuckoo = ROOT
						}
					}
				}
			}
		}	
	}
}
character_event = { #Target gets away
	id = WoL.5553
	picture = GFX_evt_hunting_scene
	border = GFX_event_normal_frame_war

	is_triggered_only = yes
	
	desc = {
		text = EVTDESC_WoL_5553
		trigger = { NOT = { prefers_men_trigger = yes } }
	}
	desc = {
		text = EVTDESC_WoL_5553B
		trigger = { prefers_men_trigger = yes }
	}
	
	immediate = {
		hidden_tooltip = {
			if = {
				limit = { liege = { dynasty = ROOT } }
				liege = { character_event = { id = WoL.5555 } }
			}
		}	
	}

	option = { # Well done
		name = EVTOPTA_WoL_5553
		prestige = -40
	}
	option = { # Kill all the dogs in a rage
		name = EVTOPTB_WoL_5553
		piety = -20
		add_blood_splatter_effect = yes
		if = {
			limit = {
				NOT = { trait = wroth } 
				NOT = { trait = patient } 
				NOT = { personality_traits = 6 } 
			}
			random = {
				chance = 25
				add_trait = wroth
				hidden_tooltip = { character_event = { id = 38254 } }
			}	
		}
	}
}	
character_event = { #Target kills you!
	id = WoL.5554
	picture = GFX_evt_hunting_scene
	border = GFX_event_normal_frame_war

	is_triggered_only = yes
	
	desc = {
		text = EVTDESC_WoL_5554
		trigger = { NOT = { prefers_men_trigger = yes } }
	}
	desc = {
		text = EVTDESC_WoL_5554B
		trigger = { prefers_men_trigger = yes }
	}
	
	immediate = {
		hidden_tooltip = {
			if = {
				limit = { liege = { dynasty = ROOT } }
				liege = { character_event = { id = WoL.5556 } }
			}
		}	
	}

	option = {
		name = EVTOPTA_WoL_5554	
		death = { death_reason = death_accident_hunting }
	}
}	
character_event = { #Inform liege relative is peasant hunting
	id = WoL.5555
	picture = GFX_evt_hunting_scene
	border = GFX_event_normal_frame_war

	is_triggered_only = yes
	
	desc = {
		text = EVTDESC_WoL_5555
		trigger = { FROM = { NOT = { prefers_men_trigger = yes } } }
	}
	desc = {
		text = EVTDESC_WoL_5555B
		trigger = { FROM = { prefers_men_trigger = yes } }
	}

	option = {
		name = EVTOPTA_WoL_5555
		opinion = { who = FROM modifier = opinion_peasant_hunting }
	}
}	
character_event = { #Inform liege relative died whilst peasant hunting
	id = WoL.5556
	picture = GFX_evt_hunting_scene
	border = GFX_event_normal_frame_war

	is_triggered_only = yes
	
	desc = {
		text = EVTDESC_WoL_5556
		trigger = { FROM = { NOT = { prefers_men_trigger = yes } } }
	}
	desc = {
		text = EVTDESC_WoL_5556B
		trigger = { FROM = { prefers_men_trigger = yes } }
	}

	option = {
		name = EVTOPTA_WoL_5556
	}
}	