roberts_hammer = {
    max_amount = 1
    spawn_date = 8278.1.1
	
	spawn_chance = {
		value = 100
		modifier = {
			factor = 0
			NOT = { year = 8278 }
		}
	}
    
    weight = {
		value = 0
		additive_modifier = {
			value = 100
			has_landed_title = e_iron_throne
			c_317 = { is_alive = no }
		}
		additive_modifier = {
			value = 100
			character = 317
		}
	}
    artifacts = {
        roberts_hammer = {
            value = 1
        }
    }
}
forrester_sword = {
    max_amount = 1
    spawn_date = 1.1.1
	
    spawn_chance = {
		value = 100
	}
    weight = {
		value = 0
		additive_modifier = {
			value = 100
			has_landed_title = c_blackgrove
		}
	}
    artifacts = {
        forrester_sword = {
            value = 1
        }
    }
}
royce_bronze_armor = {
	max_amount = 1
	spawn_date = 1.1.1

    spawn_chance = {
		value = 100
	}
    weight = {
		value = 0
		additive_modifier = {
			value = 100
			has_landed_title = c_runestone
		}
	}
    artifacts = {
        royce_bronze_armor = {
            value = 1
        }
    }
}
##Crowns #now spawned in character history so right crown is equipped
# aegons_crown = {
    # max_amount = 1
    # spawn_date = 7998.1.2
	
	# spawn_chance = {
		# value = 100
		# modifier = {
			# factor = 0
			# NOT = { e_iron_throne = { has_holder = yes } }
		# }
		# modifier = {
			# factor = 0
			# year = 8161 #lost with Daeron I in Dorne
		# }
	# }
    
    # weight = {
		# value = 0
		# additive_modifier = {
			# value = 100
			# has_landed_title = e_iron_throne
		# }
	# }
    # artifacts = {
        # aegons_crown = {
            # value = 1
        # }
    # }
# }
# aenys_crown = {
    # max_amount = 1
    # spawn_date = 8037.9.9
	
	# spawn_chance = {
		# value = 100
		# modifier = {
			# factor = 0
			# NOT = { e_iron_throne = { has_holder = yes } }
		# }
		# modifier = {
			# factor = 0
			# NOT = { year = 8037 }
		# }
		# modifier = {
			# factor = 0
			# AND = {
				# NOT = { year = 8038 }
				# NOT = { month = 8 }
			# }	
		# }
	# }
    
    # weight = {
		# value = 0
		# additive_modifier = {
			# value = 100
			# has_landed_title = e_iron_throne
		# }
	# }
    # artifacts = {
        # aenys_crown = {
            # value = 1
        # }
    # }
# }
# jaehaerys_crown = {
    # max_amount = 1
    # spawn_date = 8048.10.1
	
	# spawn_chance = {
		# value = 100
		# modifier = {
			# factor = 0
			# NOT = { e_iron_throne = { has_holder = yes } }
		# }
		# modifier = {
			# factor = 0
			# NOT = { year = 8048 }
		# }
		# modifier = {
			# factor = 0
			# AND = {
				# NOT = { year = 8049 }
				# NOT = { month = 9 }
			# }	
		# }
		# modifier = {
			# factor = 0
			# year = 8130 #sold by rhaenyra in the dance
		# }
	# }
    
    # weight = {
		# value = 0
		# additive_modifier = {
			# value = 100
			# has_landed_title = e_iron_throne
			# NOT = { year = 8129 }
		# }
		# additive_modifier = {
			# value = 100
			# character = 77012 #Rhaenyra
			# year = 8129
		# }
	# }
    # artifacts = {
        # jaehaerys_crown = {
            # value = 1
        # }
    # }
# }
# aegon_III_crown = {
    # max_amount = 1
    # spawn_date = 8131.1.8
	
	# spawn_chance = {
		# value = 100
		# modifier = {
			# factor = 0
			# NOT = { e_iron_throne = { has_holder = yes } }
		# }
		# modifier = {
			# factor = 0
			# NOT = { year = 8131 }
		# }
	# }
    
    # weight = {
		# value = 0
		# additive_modifier = {
			# value = 100
			# has_landed_title = e_iron_throne
		# }
	# }
    # artifacts = {
        # aegon_III_crown = {
            # value = 1
        # }
    # }
# }
# baelors_crown = {
    # max_amount = 1
    # spawn_date = 8161.1.1
	
	# spawn_chance = {
		# value = 100
		# modifier = {
			# factor = 0
			# NOT = { e_iron_throne = { has_holder = yes } }
		# }
		# modifier = {
			# factor = 0
			# NOT = { year = 8161 }
		# }
		# modifier = {
			# factor = 0
			# NOT = { c_77017 = { is_alive = yes } }
		# }
	# }
    
    # weight = {
		# value = 0
		# additive_modifier = {
			# value = 100
			# has_landed_title = e_iron_throne
			# character = 77017
		# }
	# }
    # artifacts = {
        # baelors_crown = {
            # value = 1
        # }
    # }
# }
# aegon_IV_crown = {
    # max_amount = 1
    # spawn_date = 8172.1.1
	
	# spawn_chance = {
		# value = 100
		# modifier = {
			# factor = 0
			# NOT = { e_iron_throne = { has_holder = yes } }
		# }
		# modifier = {
			# factor = 0
			# NOT = { year = 8172 }
		# }
	# }
    
    # weight = {
		# value = 0
		# additive_modifier = {
			# value = 100
			# has_landed_title = e_iron_throne
		# }
	# }
    # artifacts = {
        # aegon_IV_crown = {
            # value = 1
        # }
    # }
# }
# maekars_crown = {
    # max_amount = 1
    # spawn_date = 8221.1.1
	
	# spawn_chance = {
		# value = 100
		# modifier = {
			# factor = 0
			# NOT = { e_iron_throne = { has_holder = yes } }
		# }
		# modifier = {
			# factor = 0
			# NOT = { year = 8221 }
		# }
	# }
    
    # weight = {
		# value = 0
		# additive_modifier = {
			# value = 100
			# has_landed_title = e_iron_throne
		# }
	# }
    # artifacts = {
        # maekars_crown = {
            # value = 1
        # }
    # }
# }
# crown_of_majesty = { #roberts crown
    # max_amount = 1
    # spawn_date = 8284.1.1
	
	# spawn_chance = {
		# value = 100
		# modifier = {
			# factor = 0
			# NOT = { e_iron_throne = { has_holder = yes } }
		# }
		# modifier = {
			# factor = 0
			# NOT = { year = 8284 }
		# }
	# }
    
    # weight = {
		# value = 0
		# additive_modifier = {
			# value = 100
			# has_landed_title = e_iron_throne
		# }
	# }
    # artifacts = {
        # crown_of_majesty = {
            # value = 1
        # }
    # }
# }
# joffreys_crown = {
    # max_amount = 1
    # spawn_date = 8298.10.28
	
	# spawn_chance = {
		# value = 100
		# modifier = {
			# factor = 0
			# NOT = { e_iron_throne = { has_holder = yes } }
		# }
		# modifier = {
			# factor = 0
			# NOT = { year = 8298 }
		# }
		# modifier = {
			# factor = 0
			# AND = {
				# NOT = { year = 8299 }
				# NOT = { month = 10 }
			# }	
		# }
	# }
    
    # weight = {
		# value = 0
		# additive_modifier = {
			# value = 100
			# has_landed_title = e_iron_throne
		# }
	# }
    # artifacts = {
        # joffreys_crown = {
            # value = 1
        # }
    # }
# }
crown_of_winter = {
    max_amount = 1
    spawn_date = 1000.1.1
	
	spawn_chance = {
		value = 100
		modifier = {
			factor = 0
			e_iron_throne = { has_holder = yes }
		}
	}
    
    weight = {
		value = 0
		additive_modifier = {
			value = 100
			has_landed_title = e_north
		}
	}
    artifacts = {
		crown_of_winter = {
            value = 1
        }
    }
}
crown_of_winter_robb = {
    max_amount = 1
    spawn_date = 8298.12.20
	
	spawn_chance = {
		value = 100
	}
    
    weight = {
		value = 0
		additive_modifier = {
			value = 100
			has_landed_title = e_north
		}
		additive_modifier = {
			value = 100
			has_landed_title = d_brotherhood
			e_north = { has_holder = no }
		}
	}
    artifacts = {
		crown_of_winter = {
            value = 1
        }
    }
}
glass_candle = {
    max_amount = 20
    spawn_date = 7000.1.1
	
	spawn_chance = {
		value = 100
	}
    
    weight = {
		value = 0
		additive_modifier = {
			value = 100
			higher_tier_than = COUNT
			capital_scope = {
				NOT = { region = world_westeros }
				NOT = { region = world_stepstones }
				NOT = { region = world_basilisk_isles }
			}
			NOT_mythical_creature_trigger = yes	
		}
	}
    artifacts = {
        glass_candle = {
            value = 1
        }
    }
}
glass_candle_citadel = {
    max_amount = 1
    spawn_date = 7000.1.1
	
	spawn_chance = {
		value = 100
	}
    
    weight = {
		value = 0
		additive_modifier = {
			value = 100
			has_landed_title = c_the_citadel
		}
	}
    artifacts = {
        glass_candle = {
            value = 3
        }
    }
}
glass_candle_qarth = {
    max_amount = 1
    spawn_date = 8269.1.1
	
	spawn_chance = {
		value = 100
	}
    
    weight = {
		value = 0
		additive_modifier = {
			value = 100
			# character = 100269199 #Urrathon Night Walker
			c_100269199 = { character = PREV } #Urrathon Night Walker
		}
	}
    artifacts = {
        glass_candle = {
            value = 1
        }
    }
}
glass_candle_marwyn = {
    max_amount = 1
    spawn_date = 8278.1.1
	
	spawn_chance = {
		value = 100
	}
    
    weight = {
		value = 0
		additive_modifier = {
			value = 100
			has_landed_title = c_the_citadel
			NOT = { year = 8278 }
		}
		additive_modifier = {
			value = 100
			character = 88122 #Marwyn
			year = 8278
		}
	}
    artifacts = {
        glass_candle = {
            value = 1
        }
    }
}
lannister_crown = {
    max_amount = 1
    spawn_date = 1000.1.1
	
	spawn_chance = {
		value = 100
		modifier = {
			factor = 0
			e_westerlands = { has_holder = no }
		}
	}
    
    weight = {
		value = 0
		additive_modifier = {
			value = 100
			has_landed_title = e_westerlands
		}
	}
    artifacts = {
		lannister_crown = {
            value = 1
        }
    }
}
falcon_crown = {
    max_amount = 1
    spawn_date = 6539.1.1
	
	spawn_chance = {
		value = 100
		modifier = {
			factor = 0
			e_vale = { has_holder = no }
		}
		modifier = {
			factor = 0
			NOT = { year = 6539 }
		}
	}
    
    weight = {
		value = 0
		additive_modifier = {
			value = 100
			has_landed_title = e_vale
		}
	}
    artifacts = {
		falcon_crown = {
            value = 1
        }
    }
}
gardener_crown = {
	max_amount = 1
    spawn_date = 1000.1.1
	
	spawn_chance = {
		value = 100
		modifier = {
			factor = 0
			e_reach = { has_holder = no }
		}
	}
    
    weight = {
		value = 0
		additive_modifier = {
			value = 100
			has_landed_title = e_reach
		}
	}
    artifacts = {
		gardener_crown = {
            value = 1
        }
    }
}
durrandon_crown = {
	max_amount = 1
    spawn_date = 1000.1.1
	
	spawn_chance = {
		value = 100
		modifier = {
			factor = 0
			e_stormlands = { has_holder = no }
		}
	}
    
    weight = {
		value = 0
		additive_modifier = {
			value = 100
			has_landed_title = e_stormlands
		}
	}
    artifacts = {
		durrandon_crown = {
            value = 1
        }
    }
}
martell_crown = {
	max_amount = 1
    spawn_date = 1000.1.1
	
	spawn_chance = {
		value = 100
	}
    
    weight = {
		value = 0
		additive_modifier = {
			value = 100
			OR = {
				has_landed_title = e_dorne
				has_landed_title = k_dorne
			}	
		}
	}
    artifacts = {
		martell_crown = {
            value = 1
        }
    }
}
driftwood_crown = {
	max_amount = 1
    spawn_date = 1000.1.1
	
	spawn_chance = {
		value = 100
		modifier = {
			factor = 0
			e_iron_isles = { has_holder = no }
		}
	}
    
    weight = {
		value = 0
		additive_modifier = {
			value = 100
			has_landed_title = e_iron_isles
		}
	}
    artifacts = {
		driftwood_crown = {
            value = 1
        }
    }
}
dragon_binder = {
    max_amount = 1
    spawn_date = 6000.1.1
	
	spawn_chance = {
		value = 100
	}
    
    weight = {
		value = 0
		additive_modifier = {
			value = 100
			higher_tier_than = BARON
			culture = high_valyrian
			NOT = { year = 7886 }
		}
		additive_modifier = {
			value = 100
			has_landed_title = d_warlocks
			year = 7886
			NOT = { year = 8300 }
		}
		additive_modifier = {
			value = 100
			character = 2107 #Euron
			year = 8300
		}
	}
    artifacts = {
        dragon_binder = {
            value = 1
        }
    }
}
dawn = {
    max_amount = 1
    spawn_date = 1000.1.1
	
	spawn_chance = {
		value = 100
	}
    
    weight = {
		value = 0
		additive_modifier = {
			value = 9999
			trait = dawn
		}
		additive_modifier = {
			value = 1
			dynasty = 16
			dynasty_head = { character = PREV }
		}
	}
    artifacts = {
        dawn = {
            value = 1
        }
    }
}
shade_of_the_evening = {
    max_amount = 10
    spawn_date = 5000.1.1
	
	spawn_chance = {
		value = 100
	}
    
    weight = {
		value = 0
		additive_modifier = {
			value = 100
			is_ruler = yes
			demesne_size = 1
			capital_scope = { region = world_qarth }
			NOT = { trait = cynical }
			is_theocracy = no
			NOT_mythical_creature_trigger = yes	
		}
	}
    artifacts = {
        shade_of_the_evening = {
            value = 1
        }
    }
}
dragonbone_bow = {
    max_amount = 5
    spawn_date = 1000.1.1
	
	spawn_chance = {
		value = 100
	}
    
    weight = {
		value = 0
		additive_modifier = {
			value = 100
			higher_tier_than = COUNT
			capital_scope = {
				NOT = { region = world_westeros }
				NOT = { region = world_stepstones }
				NOT = { region = world_basilisk_isles }
			}
			NOT_mythical_creature_trigger = yes	
		}
	}
    artifacts = {
        dragonbone_bow = {
            value = 1
        }
    }
}
dragonbone_axe = {
    max_amount = 2
    spawn_date = 1000.1.1
	
	spawn_chance = {
		value = 100
	}
    
    weight = {
		value = 0
		additive_modifier = {
			value = 100
			higher_tier_than = COUNT
			capital_scope = {
				NOT = { region = world_westeros }
				NOT = { region = world_stepstones }
				NOT = { region = world_basilisk_isles }
			}
			NOT_mythical_creature_trigger = yes	
		}
	}
    artifacts = {
        dragonbone_axe = {
            value = 1
        }
    }
}
dragonbone_whip = {
    max_amount = 4
    spawn_date = 1000.1.1
	
	spawn_chance = {
		value = 100
	}
    
    weight = {
		value = 0
		additive_modifier = {
			value = 100
			OR = {
				trait = slave_owner
				trait = slave_trader
			}	
		}
		additive_modifier = {
			value = 50
			OR = {
				trait = slave_owner
				trait = slave_trader
			}
			culture_group = ghiscari_group
		}
	}
    artifacts = {
        dragonbone_whip = {
            value = 1
        }
    }
}
dragonbone_bracelet = {
    max_amount = 5
    spawn_date = 1000.1.1
	
	spawn_chance = {
		value = 100
	}
    
    weight = {
		value = 0
		additive_modifier = {
			value = 100
			higher_tier_than = COUNT
			capital_scope = {
				NOT = { region = world_westeros }
				NOT = { region = world_stepstones }
				NOT = { region = world_basilisk_isles }
			}
			NOT_mythical_creature_trigger = yes	
		}
	}
    artifacts = {
		dragonbone_bracelet = {
            value = 1
        }
    }
}
dragonbone_statue = {
    max_amount = 3
    spawn_date = 1000.1.1
	
	spawn_chance = {
		value = 100
	}
    
    weight = {
		value = 0
		additive_modifier = {
			value = 100
			higher_tier_than = COUNT
			capital_scope = {
				NOT = { region = world_westeros }
				NOT = { region = world_stepstones }
				NOT = { region = world_basilisk_isles }
			}
			NOT_mythical_creature_trigger = yes	
		}
	}
    artifacts = {
		dragonbone_statue = {
            value = 1
        }
    }
}
valyrian_dagger = {
    max_amount = 7
    spawn_date = 1000.1.1
	
	spawn_chance = {
		value = 100
	}
    
    weight = {
		value = 0
		additive_modifier = {
			value = 100
			higher_tier_than = COUNT
			capital_scope = {
				NOT = { region = world_westeros }
				NOT = { region = world_stepstones }
				NOT = { region = world_basilisk_isles }
			}
			NOT_mythical_creature_trigger = yes	
		}
	}
    artifacts = {
		valyrian_dagger = {
            value = 1
        }
    }
}
valyrian_dagger_canon = {
    max_amount = 1
    spawn_date = 8284.1.1
	
	spawn_chance = {
		value = 100
		modifier = {
			factor = 0
			NOT = { year = 8284 }
		}
	}
    
    weight = {
		value = 0
		additive_modifier = {
			value = 100
			character = 94043 #Littlefinger
			NOT = { year = 8298 }
		}
		additive_modifier = {
			value = 100
			has_landed_title = e_iron_throne #Robert/Joffrey
			year = 8298
			NOT = { start_date = 8298.2.11 }
		}
		additive_modifier = {
			value = 100
			character = 59 #Ned
			start_date = 8298.2.11
			NOT = { start_date = 8298.10.28 }
		}
		additive_modifier = {
			value = 100
			character = 94043 #Littlefinger
			start_date = 8298.10.28
		}
	}
    artifacts = {
		valyrian_dagger = {
            value = 1
        }
    }
}

dragonbone_sword = {
    max_amount = 2
    spawn_date = 1000.1.1
	
	spawn_chance = {
		value = 100
	}
    
    weight = {
		value = 0
		additive_modifier = {
			value = 100
			higher_tier_than = COUNT
			capital_scope = {
				NOT = { region = world_westeros }
				NOT = { region = world_stepstones }
				NOT = { region = world_basilisk_isles }
			}
			NOT_mythical_creature_trigger = yes	
		}
	}
    artifacts = {
		dragonbone_sword = {
            value = 1
        }
    }
}
dragonbone_amulet = {
    max_amount = 2
    spawn_date = 1000.1.1
	
	spawn_chance = {
		value = 100
	}
    
    weight = {
		value = 0
		additive_modifier = {
			value = 100
			higher_tier_than = COUNT
			capital_scope = {
				NOT = { region = world_westeros }
				NOT = { region = world_stepstones }
				NOT = { region = world_basilisk_isles }
			}
			NOT_mythical_creature_trigger = yes	
		}
	}
    artifacts = {
		dragonbone_amulet = {
            value = 1
        }
    }
}
dragonbone_seal = {
    max_amount = 3
    spawn_date = 1000.1.1
	
	spawn_chance = {
		value = 100
	}
    
    weight = {
		value = 0
		additive_modifier = {
			value = 100
			higher_tier_than = COUNT
			capital_scope = {
				NOT = { region = world_westeros }
				NOT = { region = world_stepstones }
				NOT = { region = world_basilisk_isles }
			}
			NOT_mythical_creature_trigger = yes	
		}
	}
    artifacts = {
		dragonbone_seal = {
            value = 1
        }
    }
}
dragonbone_scepter = {
    max_amount = 2
    spawn_date = 1000.1.1
	
	spawn_chance = {
		value = 100
	}
    
    weight = {
		value = 0
		additive_modifier = {
			value = 100
			higher_tier_than = COUNT
			capital_scope = {
				NOT = { region = world_westeros }
				NOT = { region = world_stepstones }
				NOT = { region = world_basilisk_isles }
			}
			NOT_mythical_creature_trigger = yes	
		}
	}
    artifacts = {
		dragonbone_scepter = {
            value = 1
        }
    }
}
dragonbone_necklace = {
    max_amount = 2
    spawn_date = 1000.1.1
	
	spawn_chance = {
		value = 100
	}
    
    weight = {
		value = 0
		additive_modifier = {
			value = 100
			higher_tier_than = COUNT
			capital_scope = {
				NOT = { region = world_westeros }
				NOT = { region = world_stepstones }
				NOT = { region = world_basilisk_isles }
			}
			NOT_mythical_creature_trigger = yes	
		}
	}
    artifacts = {
		dragonbone_necklace = {
            value = 1
        }
    }
}
frog_spear = {
	max_amount = 1
	spawn_date = 1.1.1

    spawn_chance = {
		value = 100
	}
    weight = {
		value = 0
		additive_modifier = {
			value = 100
			has_landed_title = c_greywaterwatch
		}
	}
    artifacts = {
        frog_spear = {
            value = 1
        }
    }
}
manderly_trident = {
	max_amount = 1
	spawn_date = 1.1.1

    spawn_chance = {
		value = 100
	}
    weight = {
		value = 0
		additive_modifier = {
			value = 100
			has_landed_title = c_whiteharbor
		}
	}
    artifacts = {
        manderly_trident = {
            value = 1
        }
    }
}
raven_cloak = {
	max_amount = 1
	spawn_date = 1.1.1

    spawn_chance = {
		value = 100
	}
    weight = {
		value = 0
		additive_modifier = {
			value = 100
			has_landed_title = c_blackwoodvale
		}
	}
    artifacts = {
        raven_cloak = {
            value = 1
        }
    }
}
weirwood_bow = {
    max_amount = 2
    spawn_date = 1000.1.1
	
	spawn_chance = {
		value = 100
	}
    
    weight = {
		value = 0
		additive_modifier = {
			value = 100
			higher_tier_than = COUNT
			capital_scope = {
				NOT = { region = world_westeros }
				NOT = { region = world_stepstones }
				NOT = { region = world_basilisk_isles }
			}
			NOT_mythical_creature_trigger = yes	
		}
	}
    artifacts = {
        weirwood_bow = {
            value = 1
        }
    }
}
weirwood_spear = {
    max_amount = 2
    spawn_date = 1000.1.1
	
	spawn_chance = {
		value = 100
	}
    
    weight = {
		value = 0
		additive_modifier = {
			value = 100
			higher_tier_than = COUNT
			capital_scope = {
				NOT = { region = world_westeros }
				NOT = { region = world_stepstones }
				NOT = { region = world_basilisk_isles }
			}
			NOT_mythical_creature_trigger = yes	
		}
	}
    artifacts = {
		weirwood_spear = {
            value = 1
        }
    }
}
shadowskin_cloak = {
    max_amount = 2
    spawn_date = 1000.1.1
	
	spawn_chance = {
		value = 100
	}
    
    weight = {
		value = 0
		additive_modifier = {
			value = 100
			higher_tier_than = COUNT
			capital_scope = {
				NOT = { region = world_westeros }
				NOT = { region = world_stepstones }
				NOT = { region = world_basilisk_isles }
			}
			NOT_mythical_creature_trigger = yes	
		}
	}
    artifacts = {
        shadowskin_cloak = {
            value = 1
        }
    }
}
dragonglass_dagger = {
    max_amount = 5
    spawn_date = 1000.1.1
	
	spawn_chance = {
		value = 100
	}
    
    weight = {
		value = 0
		additive_modifier = {
			value = 100
			higher_tier_than = COUNT
			capital_scope = {
				NOT = { region = world_westeros }
				NOT = { region = world_stepstones }
				NOT = { region = world_basilisk_isles }
			}
			NOT_mythical_creature_trigger = yes	
		}
	}
    artifacts = {
        dragonglass_dagger = {
            value = 1
        }
    }
}
obsidian_axe = {
    max_amount = 1
    spawn_date = 8279.1.1
	
	spawn_chance = {
		value = 100
		modifier = {
			factor = 0
			NOT = { year = 8279 }
		}
	}
    
    weight = {
		value = 0
		additive_modifier = {
			value = 100
			character = 157009
		}
	}
    artifacts = {
        obsidian_axe = {
            value = 1
        }
    }
}