900.1.1={ law=succ_primogeniture law=cognatic_succession
	liege="d_northmarch"
	de_jure_liege = d_goldengrove
}
7776.1.1={
	holder=83006
}
7811.1.1={
	holder=83005
}
7844.1.1={
	holder=83004
}
7850.1.1={
	holder=83003
}
7888.1.1={
	holder=83002
}
7901.1.1={
	holder=83001
}
7943.1.1={
	holder=83000
}
7952.1.1={
	holder=88295
}
7985.1.1={
	holder=88287
}
7992.1.1={
	holder=88286
}
8035.1.1={
	holder=88285
}
8044.1.1={
	liege="d_goldengrove" #Osgreys lose titles
	holder=60021471 # Wyman (nc)
}
8048.1.1 = { holder=60051471 } # Anslem (nc)
8071.1.1 = { holder=60091471 } # Alester (nc)
8096.1.1 = { holder=60131471 } # Tanton (nc)
8144.1.1 = { holder=60141471 } # Reynard (nc)
8164.1.1 = { holder=60191471 } # Amelryc (nc)
8180.1.1 = { holder=60211471 } # Arryk (nc)
8222.1.1 = { holder=60241471 } # Cliffyrd (nc)
8249.1.1 = { holder=60261471 } # Martyn (nc)

8274.1.1={
	holder=88057
}