6000.1.1={
	liege="d_pinkmaiden"
	de_jure_liege = d_pinkmaiden
}
### House Deddings
7980.1.1={
	holder=3010211
}
8021.1.1={
	holder=1011211 
}
8047.1.1={
	holder=1010211
}
8077.1.1={
	holder=1009211
}
8083.1.1={
	holder=1008211
}
8115.1.1={
	holder=1007211 # Benfrey (SC)
}
8130.5.8={
	holder=1006211 # Belgrave (nc)
}
8157.1.1={
	holder=1005211
}
8159.1.1={
	holder=1004211
}
8201.1.1={
	holder=1003211
}
8240.1.1={
	holder=1002211
}
8253.1.1={
	holder=1001211
}
8280.1.1={
	holder=1000211 # Belgrave (SC)
}
8299.5.1={
    holder=3000211 # William (SC)
}	