6200.1.1={
	liege="e_vale"
	de_jure_liege = d_northweald
	law = succ_primogeniture
}
7970.1.1 = { holder=3002167 }
7999.1.1={ 
	liege="k_vale"
} 
8006.1.1 = { holder=3000167 } # Oswell (nc)
8020.1.1 = { holder=3001167 } # Colemon (nc)
8034.1.1 = { holder=3004167 } # Triston (nc)
8061.1.1 = { holder=3007167 } # Osmund (nc)
8096.1.1 = { holder=3010167 } # Symond (nc)
8115.1.1 = { holder=3015167 } # Coleman (nc)
8177.1.1 = { holder=3017167 } # Walace (nc)
8185.1.1 = { holder=3020167 } # Randyll (nc)
8200.1.1 = { holder=3023167 } # Raymar (nc)
8243.1.1 = { holder=3025167 } # Creighton (nc)
8280.1.1={
	holder=94038
}