1.1.1={ #Hoares (Hoare Castle on great Wyk)
	liege="e_iron_isles"
	law=succ_primogeniture 
	law = agnatic_succession
}
6584.1.1 = { holder = 359066 } #Harras  Hoare
6605.1.1 = { holder = 360066 } #Wulfgar  Hoare
6639.1.1 = { holder = 361066 } #Harrag Hoare (NC)
6648.1.1 = { holder = 362066 } #Euron II Hoare (NC)
6671.1.1 = { holder = 363066 } #Horgan  Hoare
6692.1.1 = { holder = 3163066 } #Balon VIII Hoare (NC)

6734.1.1 = { holder = 0 }

7458.1.1 = { holder = 364066 } #Fergon  Hoare
7470.1.1 = { holder = 365066 } #Othgar I Hoare
7518.1.1 = { holder = 366066 } #Othgar II Hoare
7539.1.1 = { holder = 367066 } #Craghorn  Hoare
7547.1.1 = { holder = 368066 } #Harmund I Hoare
7598.1.1 = { holder = 369066 } #Harmund II Hoare
7612.1.1 = { holder = 370066 } #Harmund III Hoare
7615.1.1 = { holder = 371066 } #Hagon  Hoare
7622.1.1 = { holder = 150227 } #Aubrey Crakehall
7622.6.1 = { holder = 0 }

7784.1.1 = { holder=193066 } # Harrald Half-Drowned
7815.1.1 = { holder=191066 } # Harrald II
7880.1.1 = { holder=11066 } # Qhorwyn
7923.1.1 = { holder=11366 } # Harwyn
7956.1.1 = { holder=11466 } # Harrock
7960.1.1 = { 
	holder=11566 # Harren (C)
} 
7998.2.1 = { 
	holder=6002110
	liege = d_pebbleton	
} # Tymor (nc)
8046.1.1 = { holder=6001110 } # Ynys (nc)
8055.1.1 = { holder=6003110 } # Gynir (nc)
8083.1.1 = { holder=6004110 } # Roryn (nc)
8115.1.1 = { holder=6008110 } # Urron (nc)
8124.1.1 = { holder=6011110 } # Greydon (nc)
8152.1.1 = { holder=6012110 } # Maron (nc)
8196.1.1 = { holder=6018110 } # Hagen (nc)
8253.1.1 = { holder=6026110 } # Waldon (nc)

8288.1.1={
	holder=110
}