800.1.1={
	liege="d_duskendale"
	de_jure_liege = d_rosby
	law = succ_primogeniture
}
7964.1.1={
	holder=6000229
}
8007.1.1={
	holder=6000129
}
8038.1.1={
	holder=6000029	
}
8057.1.1={
	holder=6000329	
}
8081.1.1={
	holder=6000529	
}
8087.1.1={
	holder=6000829	
}
8111.1.1={
	holder = 6001129	
}
8163.1.1={
	holder = 6001329	
}
8177.1.1={
	holder = 6001529	
}
8222.1.1={
	holder = 6001829	
}
8242.1.1={
	holder = 6001929	
}
8266.1.1={
	holder = 29 	#Bayle Rollingford
}