7600.1.1={
	liege="d_rooks_rest"
	de_jure_liege = d_rooks_rest
	law = succ_primogeniture
}
7975.1.1 = { holder=6002141 }
7998.2.1 = {
	liege="e_iron_throne"
}
8006.1.1 = { holder=6000041 } # Eustace (nc)
8022.1.1 = { holder=6000141 } # Alaric (nc)
8059.2.1 = { holder=6000441 } # Clayton (nc)
8083.1.1 = { holder=6000841 } # Maric (nc)
8089.1.1 = { holder=6000941 } # Belgrave (nc)
8113.1.1 = { holder=6001041 } # Arneld (nc)
8129.9.2 = { holder=6001241 } # Lothar (nc)
8169.1.1 = { holder=6001641 } # Lucos (nc)
8227.1.1 = { holder=6001741 } # Howard (nc)
8239.1.1 = { holder=6002341 } # Oswell (nc)
8247.1.1 = { holder=6002741 } # Symond (C)

8290.1.1={
	holder = 41 	#Lothor Staunton
}
