6000.1.1={
	liege="d_oldstones"
	de_jure_liege = d_trident
}
7978.1.1={
	holder=1669113
}
8001.1.1={
	holder=1569113
}
8031.1.1={
	holder=1469113
}
8057.1.1={
	holder=1369113
}
8081.1.1={
	holder=1269113
}
8106.1.1={
	holder=1169113
}
8141.1.1={
	holder=969113
}
8147.1.1={
	holder=869113
}
8171.1.1={
	holder=769113
}
8194.1.1={
	holder=669113
}
8213.1.1={
	holder=569113
}
8222.1.1={
	holder=469113
}
8271.1.1={
	holder=69113
}