1.1.1={ #Hoares (Hoare Castle on great Wyk)
	liege="e_iron_isles"
	law=succ_primogeniture 
	law = agnatic_succession
}
7998.2.1={
	liege="k_iron_isles"
	holder=6002110
} # Tymor (nc)
8046.1.1 = { holder=6001110 } # Ynys (nc)
8055.1.1 = { holder=6003110 } # Gynir (nc)
8083.1.1 = { holder=6004110 } # Roryn (nc)
8115.1.1 = { holder=6008110 } # Urron (nc)
8124.1.1 = { holder=6011110 } # Greydon (nc)
8152.1.1 = { holder=6012110 } # Maron (nc)
8196.1.1 = { holder=6018110 } # Hagen (nc)
8253.1.1 = { holder=6026110 } # Waldon (nc)

8288.1.1={
	holder=110
}
8289.1.1={
	liege="e_iron_isles"
}
8289.6.1={
	liege="k_iron_isles"
}
8299.3.4 = {
	liege="e_iron_isles"
}