6000.1.1={
	de_jure_liege = k_riverlands
	law = succ_primogeniture
}
7600.1.1={
	liege="e_riverlands"
}
7976.1.1={
	holder=14157
}
7998.2.1={
	liege="k_riverlands"
}
8008.1.1={
	holder=13157
}
8037.1.1={
	holder=12157
}
8040.1.1={
	holder=11157
}
8043.1.2={
	holder=10099157
}
8079.1.1={
	holder=9157
}
8130.1.1={
	holder=25157
}
8130.5.8={
	holder=8157 # Willem (SC)
}
8170.1.1={
	holder=7157
}
8178.1.1={
	holder=6157
}
8191.1.1={
	holder=5157
}
8214.1.1={
	holder=4157
}
8237.1.1={
	holder=3157
}
8266.1.1={
	holder=2157
}
8274.1.1={
	holder=157
}