900.1.1={
	liege="e_westerlands"
	de_jure_liege = k_westerlands
	law = succ_primogeniture
}7980.1.1 ={
	holder=313191	
}7998.6.6 ={
	holder=310191	
}
7998.7.6 = {
	liege="k_westerlands"
}8039.1.1 ={
	holder=309191	
}
8065.1.1 ={
	holder=308191	
}
8096.1.1 ={
	holder=307191	
}
8119.1.1 ={
	holder=306191	
}
8146.1.1 ={
	holder=304191	
}
8167.1.1 ={
	holder=302191	
}
8202.1.1 ={
	holder=300191	
}
8219.1.1 ={
	holder=3191	
}	
8266.1.1 = {	
	holder=191
}
