7001.1.1={
	liege="e_north"
	law = succ_primogeniture
}
7969.1.1={
	holder=21101
}
7999.1.1={
	liege="k_north"
}
8021.1.1={
	holder=18101
}
8032.1.1={
	holder=17101
}
8050.1.1={
	holder=15101
}
8092.1.1={
	holder=14101
}
8121.1.1={
	holder=13101
}
8142.1.1={
	holder=12101
}
8187.1.1={
	holder=10101
}
8208.1.1={
	holder=9101
}
8230.1.1={
	holder=19101
}
8251.1.1={
	holder=6101
}
8281.1.1={
	holder=101
}
8299.9.1 = {
	holder=2101
}