 # Triggers are in Province scope. The From Scope contains the settlement holder (character)
 # start trigger is in title scope.

trade_post = {
	tr_port_1 = {
		potential = {
			port = yes
			FROM = {
				is_patrician = yes
			}
		}
		desc = tr_port_1_desc
		trigger = { TECH_TRADE_PRACTICES = 0 }
		gold_cost = 75
		build_time = 182
		ai_creation_factor = 95
		
		tradevalue = 10
		#galleys = 5 does not work
		
		extra_tech_building_start = 10.0 # Never get at start of game
	}
	
	tr_port_2 = {
		potential = {
			port = yes
			FROM = {
				is_patrician = yes
			}
		}
		desc = tr_port_2_desc
		trigger = { TECH_TRADE_PRACTICES = 0 }
		gold_cost = 110
		build_time = 274
		upgrades_from = tr_port_1
		ai_creation_factor = 94
		
		tradevalue = 15
		#galleys = 10
		
		extra_tech_building_start = 10.0 # Never get at start of game
	}
	
	tr_port_3 = {
		potential = {
			port = yes
			FROM = {
				is_patrician = yes
			}
		}
		desc = tr_port_3_desc
		trigger = { TECH_TRADE_PRACTICES = 0 }
		gold_cost = 150
		build_time = 365
		upgrades_from = tr_port_2
		ai_creation_factor = 93
		
		tradevalue = 20
		#galleys = 15
		
		extra_tech_building_start = 10.0 # Never get at start of game
	}
	
	tr_enclave_1 = {
		potential = {
			port = yes
			FROM = {
				is_patrician = yes
			}
		}
		desc = tr_enclave_1_desc
		trigger = { TECH_TRADE_PRACTICES = 0 }
		gold_cost = 75
		build_time = 182
		ai_creation_factor = 90
		
		tax_income = 1
		
		extra_tech_building_start = 10.0 # Never get at start of game
	}
	
	tr_enclave_2 = {
		potential = {
			port = yes
			FROM = {
				is_patrician = yes
			}
		}
		desc = tr_enclave_2_desc
		trigger = { TECH_TRADE_PRACTICES = 0 }
		gold_cost = 110
		build_time = 274
		upgrades_from = tr_enclave_1
		ai_creation_factor = 89
		
		tax_income = 1.5
		
		extra_tech_building_start = 10.0 # Never get at start of game
	}
	
	tr_enclave_3 = {
		potential = {
			port = yes
			FROM = {
				is_patrician = yes
			}
		}
		desc = tr_enclave_3_desc
		trigger = { TECH_TRADE_PRACTICES = 0 }
		gold_cost = 150
		build_time = 365
		upgrades_from = tr_enclave_2
		ai_creation_factor = 88
		
		scouting = yes
		tax_income = 2
		
		extra_tech_building_start = 10.0 # Never get at start of game
	}
	
	tr_garrison_1 = {
		potential = {
			port = yes
			FROM = {
				is_patrician = yes
			}
		}
		desc = tr_garrison_1_desc
		trigger = { TECH_TRADE_PRACTICES = 0 }
		gold_cost = 75
		build_time = 182
		ai_creation_factor = 91
		
		#heavy_infantry = 40 #does not work
		#pikemen = 40
		#archers = 20
		garrison_size = 2.0
		fort_level = 1
		
		extra_tech_building_start = 10.0 # Never get at start of game
	}
	
	tr_garrison_2 = {
		potential = {
			port = yes
			FROM = {
				is_patrician = yes
			}
		}
		desc = tr_garrison_2_desc
		trigger = { TECH_TRADE_PRACTICES = 0 }
		gold_cost = 110
		build_time = 274
		upgrades_from = tr_garrison_1
		ai_creation_factor = 90
		
		#heavy_infantry = 60
		#pikemen = 60
		#archers = 30	
		garrison_size = 2.0
		fort_level = 2
		
		extra_tech_building_start = 10.0 # Never get at start of game
	}
	
	tr_garrison_3 = {
		potential = {
			port = yes
			FROM = {
				is_patrician = yes
			}
		}
		desc = tr_garrison_3_desc
		trigger = { TECH_TRADE_PRACTICES = 0 }
		gold_cost = 150
		build_time = 365
		upgrades_from = tr_garrison_2
		ai_creation_factor = 89
		
		#heavy_infantry = 80
		#pikemen = 80
		#archers = 40
		garrison_size = 3.0
		fort_level = 3
		
		extra_tech_building_start = 10.0 # Never get at start of game
	}
	
	tr_silk_road_1 = {	# Silk Road Trading Post
		potential = {
			OR = {
				trade_route = far_east_trade_route
				#trade_route = northern_trade_route
				trade_route = central_trade_route
				trade_route = southern_trade_route 
				trade_route = rhoyne_trade_route
				trade_route = valyria_trade_route
				trade_route = narrowsea_route
				trade_route = kingsroad_route
				trade_route = goldroad_route
				trade_route = river_road_route
				trade_route = high_road_route
				trade_route = roseroad_route
				trade_route = oceanroad_route
				trade_route = reach_coast_route
				trade_route = dorneroad_route
				trade_route = princespass_route
			}	
		}
		desc = tr_silk_road_1_desc
		trigger = {
			TECH_TRADE_PRACTICES = 0
		}
		gold_cost = 200
		build_time = 150
		ai_creation_factor = 95
		
		trade_route_wealth = 1	# Affects total value of trade route
		trade_route_value = 1	# Affects your cut of the trade route income
		tradevalue = 30
		
		extra_tech_building_start = 10.0 # Never get at start of game
	}
	
	tr_silk_road_2 = {	# Silk Road Market
		potential = {
		}
		desc = tr_silk_road_2_desc
		trigger = {
			TECH_TRADE_PRACTICES = 0
		}
		gold_cost = 400
		build_time = 300
		upgrades_from = tr_silk_road_1
		ai_creation_factor = 95
		
		trade_route_wealth = 2	# Affects total value of trade route
		trade_route_value = 3	# Affects your cut of the trade route income
		tradevalue = 50
		fort_level = 1
		
		extra_tech_building_start = 10.0 # Never get at start of game
	}
	
	tr_silk_road_3 = {	# Major Silk Road City
		potential = {
			FROM = { capital_holding = { location = { province_id = ROOT } } }
		}
		desc = tr_silk_road_3_desc
		trigger = {
			TECH_TRADE_PRACTICES = 0
		}
		gold_cost = 800
		build_time = 600
		upgrades_from = tr_silk_road_2
		ai_creation_factor = 95
		
		trade_route_wealth = 4	# Affects total value of trade route
		trade_route_value = 5	# Affects your cut of the trade route income
		tradevalue = 70
		fort_level = 1
		
		extra_tech_building_start = 10.0 # Never get at start of game
	}
	
	mercenary_garrison_1 = {
		potential = {
			OR = {
				trade_route = far_east_trade_route
				#trade_route = northern_trade_route
				trade_route = central_trade_route
				trade_route = southern_trade_route 
				trade_route = rhoyne_trade_route
				trade_route = valyria_trade_route
				trade_route = narrowsea_route
				trade_route = kingsroad_route
				trade_route = goldroad_route
				trade_route = river_road_route
				trade_route = high_road_route
				trade_route = roseroad_route
				trade_route = oceanroad_route
				trade_route = reach_coast_route
				trade_route = dorneroad_route
				trade_route = princespass_route
			}
		}
		desc = tr_silk_road_garrison_1_desc
		trigger = {
			TECH_TRADE_PRACTICES = 0
		}
		gold_cost = 200
		build_time = 600
		ai_creation_factor = 5
		
		garrison_size = 3
		tradevalue = 5
		
		extra_tech_building_start = 10.0 # Never get at start of game
	}
	
	mercenary_garrison_2 = {
		potential = {
		}
		desc = tr_silk_road_garrison_2_desc
		trigger = {
			TECH_TRADE_PRACTICES = 0
		}
		gold_cost = 400
		build_time = 600
		upgrades_from = mercenary_garrison_1
		ai_creation_factor = 5
		
		garrison_size = 3
		fort_level = 1
		tradevalue = 10
		
		extra_tech_building_start = 10.0 # Never get at start of game
	}
	
	mercenary_garrison_3 = {
		potential = {
			FROM = { capital_holding = { location = { province_id = ROOT } } }
		}
		desc = tr_silk_road_garrison_3_desc
		trigger = {
			TECH_TRADE_PRACTICES = 0
		}
		gold_cost = 600
		build_time = 600
		upgrades_from = mercenary_garrison_2
		ai_creation_factor = 5
		
		garrison_size = 3
		fort_level = 1
		tradevalue = 15
		
		extra_tech_building_start = 10.0 # Never get at start of game
	}
}
