623.1.1={ 
	liege="k_pentos"
	holding_dynasty = 174356
}
7085.1.1 = { holder=100174356 } # Ordello (nc)
7137.1.1 = { holder=104174356 } # Tregar (nc)
7150.1.1 = { holder=105174356 } # Pynto (nc)
7172.1.1 = { holder=107174356 } # Roro (nc)
7176.1.1 = { holder=112174356 } # Lotho (nc)
7181.1.1 = { holder=108174356 } # Tregar (nc)
7204.1.1 = { holder=110174356 } # Roro (nc)
7214.1.1 = { holder=113174356 } # Areo (nc)
7228.1.1 = { holder=115174356 } # Myrmello (nc)
7243.1.1 = { holder=122174356 } # Joss (nc)
7257.1.1 = { holder=123174356 } # Tagganaro (nc)
7285.1.1 = { holder=126174356 } # Daario (nc)
7312.1.1 = { holder=128174356 } # Noho (nc)
7317.1.1 = { holder=129174356 } # Illyrio (nc)
7338.1.1 = { holder=130174356 } # Gyleno (nc)
7378.1.1 = { holder=133174356 } # Areo (nc)
7381.1.1 = { holder=134174356 } # Ternesio (nc)
7392.1.1 = { holder=136174356 } # Moredo (nc)





