1.1.1={ 
	liege="d_warlocks"
}
6443.1.1 = { holder=88000600 } # Sybassion (nc)
6500.1.1 = { holder=88000601 } # Wullon (nc)
6523.1.1 = { holder=88000602 } # Ognos (nc)
6540.1.1 = { holder=88000603 } # Methyso (nc)
6581.1.1 = { holder=88000604 } # Wullon (nc)
6603.1.1 = { holder=88000605 } # Mundello (nc)
6635.1.1 = { holder=88000606 } # Zathor (nc)
6677.1.1 = { holder=88000607 } # Ognos (nc)
6713.1.1 = { holder=88000608 } # Urrathon (nc)
6730.1.1 = { holder=88000609 } # Wendello (nc)
6742.1.1 = { holder=88000610 } # Regon (nc)
