623.1.1={ 
	liege="c_myr"
}

7070.1.1 = { holder=150300534 } # Tycho (nc)
7120.1.1 = { holder=100300534 } # Molloq (nc)
7153.1.1 = { holder=103300534 } # Izembaro (nc)
7191.1.1 = { holder=105300534 } # Moredo (nc)
7230.1.1 = { holder=111300534 } # Ordello (nc)
7240.1.1 = { holder=113300534 } # Daario (nc)
7247.1.1 = { holder=117300534 } # Ferrego (nc)
7307.1.1 = { holder=121300534 } # Pynto (nc)
7335.1.1 = { holder=123300534 } # Byan (nc)
7353.1.1 = { holder=126300534 } # Collio (nc)
7362.1.1 = { holder=130300534 } # Ferrego (nc)







