623.1.1={ 
	liege="c_littletyrosh"
}
7070.1.1 = { holder=155300544 } # Denzo (nc)
7124.1.1 = { holder=100300544 } # Doniphos (nc)
7146.1.1 = { holder=101300544 } # Jaqen (nc)
7179.1.1 = { holder=106300544 } # Ordello (nc)
7211.1.1 = { holder=110300544 } # Pynto (nc)
7234.1.1 = { holder=114300544 } # Tormo (nc)
7241.1.1 = { holder=117300544 } # Ferrego (nc)
7267.1.1 = { holder=118300544 } # Allaquo (nc)
7279.1.1 = { holder=121300544 } # Ordello (nc)
7334.1.1 = { holder=126300544 } # Ezzelyno (nc)
7350.1.1 = { holder=127300544 } # Pynto (nc)
7353.1.1 = { holder=129300544 } # Tagganaro (nc)

7359.1.1 = { holder=128300024 } # Tycho (nc) #Ninepenny kings temp Tyroshi capital
7359.12.31 = { holder=129300544 } # Tagganaro (nc)

7374.1.1 = { holder=131300544 } # Moreo (nc)


