623.1.1={ law=succ_primogeniture law=cognatic_succession
	liege="c_highgarden"
}
7000.1.1 = { holder=10001874 } # Elyas (nc)
7080.1.1 = { holder=10011874 } # Buford (nc)
7085.1.1 = { holder=10031874 } # Osbert (nc)
7119.1.1 = { holder=10041874 } # Hobber (nc)
7144.1.1 = { holder=10071874 } # Igon (nc)
7153.1.1 = { holder=10091874 } # Medwick (nc)
7173.1.1 = { holder=10111874 } # Normund (nc)
7209.1.1 = { holder=10141874 } # Lia (nc)
7234.1.1 = { holder=10151874 } # Alyn (nc)
7245.1.1 = { holder=10161874 } # Jon (nc)
7252.1.1 = { holder=10191874 } # Byren (nc)
7279.1.1 = { holder=10201874 } # Falia (nc)
7319.1.1 = { holder=10221874 } # Ryam (nc)
7344.1.1 = { holder=10231874 } # Byren (nc)
7362.1.1 = { holder=10271874 } # Wendell (nc)
