1.1.1={ 
	liege="d_lorath"
	holding_dynasty = 300537 # Reltis
}
7070.1.1 = { holder=100300537 } # Brusco (nc)
7111.1.1 = { holder=102300537 } # Myrmello (nc)
7127.1.1 = { holder=104300537 } # Allaquo (nc)
7152.1.1 = { holder=105300537 } # Ferrego (nc)
7182.1.1 = { holder=109300537 } # Collio (nc)
7194.1.1 = { holder=116300537 } # Gyloro (nc)
7208.1.1 = { holder=114300537 } # Ternesio (nc)
7210.1.1 = { holder=120300537 } # Lotho (nc)
7234.1.1 = { holder=124300537 } # Tycho (nc)
7275.1.1 = { holder=125300537 } # Pynto (nc)
7283.1.1 = { holder=130300537 } # Yorko (nc)
7320.1.1 = { holder=131300537 } # Tormo (nc)
7338.1.1 = { holder=135300537 } # Izembaro (nc)
7366.1.1 = { holder=138300537 } # Allaquo (nc)
7372.1.1 = { holder=140300537 } # Meralyn (nc)
7396.1.1 = { holder=141300537 } # Collio (nc)






