623.1.1={ 
	liege="k_myr"
	holding_dynasty = 300525 # Trellos
}

7070.1.1 = { holder=150300525 } # Moredo (nc)
7123.1.1 = { holder=100300525 } # Gylono (nc)
7142.1.1 = { holder=101300525 } # Pynto (nc)
7182.1.1 = { holder=102300525 } # Pynto (nc)
7187.1.1 = { holder=104300525 } # Rogga (nc)
7233.1.1 = { holder=108300525 } # Syrio (nc)
7253.1.1 = { holder=110300525 } # Ordello (nc)
7296.1.1 = { holder=115300525 } # Lanna (nc)
7311.1.1 = { holder=117300525 } # Mero (nc)
7351.1.1 = { holder=120300525 } # Gyloro (nc)
7385.1.1 = { holder=121300525 } # Terro (nc)






