623.1.1={ 
	liege="k_tyrosh"
	holding_dynasty = 300542 # Uhoris
}

7070.1.1 = { holder=150300542 } # Vogarro (nc)
7119.1.1 = { holder=100300542 } # Moreo (nc)
7152.1.1 = { holder=102300542 } # Tycho (nc)
7171.1.1 = { holder=105300542 } # Syrio (nc)
7208.1.1 = { holder=112300542 } # Tormo (nc)
7236.1.1 = { holder=113300542 } # Beqqo (nc)
7265.1.1 = { holder=118300542 } # Qarro (nc)
7278.1.1 = { holder=125300542 } # Gyleno (nc)
7324.1.1 = { holder=128300542 } # Ordello (nc)
7337.1.1 = { holder=129300542 } # Qarro (nc)
# 7359.1.1={ liege="d_tyrosh" } #Ninepenny king
# 7359.12.31 = { liege="k_tyrosh" }
7393.1.1 = { holder=132300542 } # Myrmello (nc)
7396.1.1 = { holder=136300542 } # Oro (nc)




