7050.1.1 = { 
	liege=k_volantis
	holding_dynasty=174397
} 
7080.1.1 = { holder=100174397 } # Belicho (nc)
7122.1.1 = { holder=103174397 } # Aelix (nc)
7156.1.1 = { holder=104174397 } # Alios (nc)
7171.1.1 = { holder=108174397 } # Malaquo (nc)
7185.1.1 = { holder=110174397 } # Qavo (nc)
7212.1.1 = { holder=113174397 } # Aelix (nc)
7217.1.1 = { holder=119174397 } # Methyso (nc)
7270.1.1 = { holder=125174397 } # Parquello (nc)
7303.1.1 = { holder=131174397 } # Vaeron (nc)
7314.1.1 = { holder=133174397 } # Qavo (nc)
7360.1.1 = { holder=139174397 } # Qoherys (nc)
7366.1.1 = { holder=141174397 } # Qavo (nc)
7372.1.1 = { holder=143174397 } # Parquello (nc)
7377.1.1 = { holder=144174397 } # Horonno (nc)
7385.1.1 = { holder=145174397 } # Parquello
