623.1.1={ 
	liege="c_volantenecoast"
}
7083.1.1 = { holder=100174372 } 
7145.1.1 = { holder=102174372 } 
7149.1.1 = { holder=105174372 } 
7176.1.1 = { holder=107174372 } 
7179.1.1 = { holder=110174372 } 
7194.1.1 = { holder=111174372 } 
7221.1.1 = { holder=112174372 } 
7259.1.1 = { holder=123174372 } 
7267.1.1 = { holder=125174372 } 
7270.1.1 = { holder=127174372 } 
7298.1.1 = { holder=133174372 } 
7331.1.1 = { holder=135174372 } 
7360.1.1 = { holder=137174372 } 
7376.1.1 = { holder=138174372 } 
7378.1.1 = { holder=142174372 } 



