623.1.1={
	liege="d_asabhad"
}

7095.1.1 = { holder=100055943 } # Uways (nc)
7136.1.1 = { holder=100155943 } # Muzaffaraddin (nc)
7148.1.1 = { holder=100355943 } # Youkhanna (nc)
7182.1.1 = { holder=100755943 } # Halil (nc)
7189.1.1 = { holder=101255943 } # Muzaffaraddin (nc)
7192.1.1 = { holder=101455943 } # Qawurd (nc)
7230.1.1 = { holder=101655943 } # Mukhtar (nc)
7269.1.1 = { holder=101755943 } # Sami (nc)
7270.1.1 = { holder=101855943 } # Yahya (nc)
7319.1.1 = { holder=101955943 } # Nizam (nc)
7346.1.1 = { holder=102155943 } # Bakr (nc)
7393.1.1 = { holder=102655943 } # Aghlab (nc)

