7080.1.1 = { 
	holder=100607303 
	liege = d_central_plains
} # Zaid (nc)
7119.1.1 = { holder=101607303 } # Edrees (nc)
7135.1.1 = { holder=106607303 } # Qader (nc)
7148.1.1 = { holder=107607303 } # Sabeir (nc)
7179.1.1 = { holder=109607303 } # Taj (nc)
7199.1.1 = { holder=110607303 } # Kahkazan (nc)
7255.1.1 = { holder=113607303 } # Usma (nc)
7276.1.1 = { holder=114607303 } # Naim (nc)
7278.1.1 = { holder=115607303 } # Faqar (nc)
7295.1.1 = { holder=117607303 } # Aarak (nc)
7326.1.1 = { holder=119607303 } # Ehsan (nc)
7352.1.1 = { holder=122607303 } # Parviz (nc)
7393.1.1 = { holder=126607303 } # Ramazan (nc)


