5100.1.1={
	liege="d_barrowlands"
	law = succ_primogeniture
}
7055.1.1={
	holder=1052079
}
7079.1.1 = {
	holder=1053079
}
7094.1.1 = {
	holder=12079
}
7129.1.1={
	holder=11079
}
7134.1.1={
	holder=10079
}
7153.1.1={
	holder=9079
}
7177.1.1={
	holder=8079
}
7221.1.1={
	holder=7079
}
7230.5.1={
	holder=6079
}
7272.1.1={
	holder=5079
}
7279.1.1={
	holder=4079
}
7301.1.1={
	holder=3079
}
7329.1.1={
	holder=2079
}
7373.1.1={
	holder=79
}
7384.1.1={
	holder=2068
}

