
3714.1.1 = {
	holder = 356066 #Ravos Hoare
}
3720.1.1 = {
	holder = 0
}

5100.1.1={
	liege = "e_north"
	law = succ_primogeniture
}
7085.1.1={
	holder = 17102 
}
7085.1.1={
	liege=e_iron_isles #Qhored Hoare
}
7109.1.1={
	holder = 16102
}
7144.1.1={
	holder = 15102
}
7163.1.1={
	holder = 14102
}
7188.1.1={
	holder = 13102 # Alwin Mormont
}
7200.1.1={
	liege=e_north
}
7218.1.1={
	holder = 10020102 # Joren Mormont
}
7228.1.1={
    holder = 12102 # Theon Mormont
}
7260.1.1={
	holder = 10102 	
}
7276.1.1={
	holder = 9102
}
7321.1.1={
	holder = 8102
}
7347.1.1={
	holder = 1102
}
7372.1.1={
	holder =336
}
7388.1.1={
	holder = 102
}
7390.1.1={
	holder = 2102
}
