6378.1.1 = {
	liege="k_blackmontTK"
	law = succ_primogeniture
	law = cognatic_succession
}
7031.1.1 = { holder = 152018 }
7052.1.1 = { holder = 153018 }
7094.1.1 = { holder=60018 } # Timeon (nc)
7119.1.1 = { holder=60218 } # Frynne (nc)
7143.1.1 = { holder=60818 } # Castos (nc)
7198.1.1 = { holder=61018 } # Willam (nc)
7227.1.1 = { holder=61318 } # Tremond (nc)
7228.1.1 = { holder=61618 } # Archibald (nc)
7229.1.1 = { holder=61418 } # Perros (nc)


7276.1.1 = { holder=62218 } # Allar (nc)


7313.6.19 = { holder=62718 } # Garin (nc)
	
7337.1.1 = { holder=62818 } # Emberlei (nc)
7349.1.1 = { holder=63018 } # Daemon (nc)
7372.4.2 = { holder=18 } # Larra (C)
