623.1.1={
	liege="d_tolos"
}
7095.1.1 = { holder=10070117 } # Aenar (nc)
7130.1.1 = { holder=10170117 } # Belicho (nc)
7134.1.1 = { holder=10270117 } # Daegar (nc)
7152.1.1 = { holder=10370117 } # Benerro (nc)
7186.1.1 = { holder=10870117 } # Parquello (nc)
7221.1.1 = { holder=10970117 } # Vogarro (nc)
7233.1.1 = { holder=11270117 } # Vaekar (nc)
7268.1.1 = { holder=11370117 } # Doniphos (nc)
7306.1.1 = { holder=11570117 } # Aelix (nc)
7324.1.1 = { holder=11870117 } # Qavo (nc)
7330.1.1 = { holder=11970117 } # Aenar (nc)
7344.1.1 = { holder=12170117 } # Belicho (nc)
7393.1.1 = { holder=12370117 } # Vaeron (nc)
