623.1.1={
	liege="d_qarkash"
}

7095.1.1 = { holder=100069159 } # Regon (nc)
7139.1.1 = { holder=100269159 } # Belicho (nc)
7145.1.1 = { holder=100569159 } # Methyso (nc)
7177.1.1 = { holder=100969159 } # Ordello (nc)
7181.1.1 = { holder=101169159 } # Navathos (nc)
7211.1.1 = { holder=101569159 } # Xaro (nc)
7235.1.1 = { holder=101669159 } # Gathril (nc)
7268.1.1 = { holder=101869159 } # Mathos (nc)
7296.1.1 = { holder=102269159 } # Lotho (nc)
7317.1.1 = { holder=102469159 } # Wendello (nc)
7338.1.1 = { holder=102869159 } # Lotho (nc)
7372.1.1 = { holder=102969159 } # Pyat (nc)
7392.1.1 = { holder=103269159 } # Mathos (nc)
