5100.1.1={
	liege="d_theneck"
	law = succ_primogeniture
}
7086.1.1={
	holder = 22078
}
7111.1.1={
	holder = 21078
}
7140.1.1={
	holder = 20078
}
7164.1.1={
	holder = 19078
}
7171.1.1={
	holder = 18078
}
7204.1.1={
	holder = 17078
}
7216.1.1={
	holder = 16078
}
7262.1.1={
	holder = 14078
}
7288.1.1={
	holder = 13078
}
7313.1.1={
	holder = 12078
}
7339.1.1={
	holder = 11078
}
7351.1.1={
	holder = 10078
}
7370.1.1={
	holder = 78
}
