623.1.1={
	liege="d_zabhad"
}

7095.1.1 = { holder=100055937 } # Alim (nc)
7136.1.1 = { holder=100155937 } # Nizam (nc)
7142.1.1 = { holder=100255937 } # Is'mail (nc)
7176.1.1 = { holder=100355937 } # Isa (nc)
7218.1.1 = { holder=100755937 } # Faruk (nc)
7232.1.1 = { holder=101155937 } # Murad (nc)
7258.1.1 = { holder=101255937 } # Mirza (nc)
7286.1.1 = { holder=101955937 } # Jaleel (nc)
7287.1.1 = { holder=102055937 } # Uways (nc)
7337.1.1 = { holder=102255937 } # Sadiq (nc)
7354.1.1 = { holder=102755937 } # Jalil (nc)
7399.1.1 = { holder=102855937 } # Akin (nc)

