5100.1.1={
	liege="d_northweald"
	law = succ_primogeniture
}
7093.1.1 = { holder=3000169 } # Florian (nc)
7123.1.1 = { holder=3002169 } # Albar (nc)
7132.1.1 = { holder=3006169 } # Elbert (nc)
7170.1.1 = { holder=3010169 } # Wyl (nc)
7176.1.1 = { holder=3016169 } # Bryen (nc)
7204.1.1 = { holder=3018169 } # Banor (SC)
7270.1.1 = { holder=3026169 } # Eustace (nc)
7301.1.1 = { holder=3030169 } # Rolley (nc)
7322.1.1 = { holder=3032169 } # Gilwood (nc)
7347.1.1 = { holder=3036169 } # Royce (nc)

