5100.1.1={
	liege="e_north"
	law = succ_primogeniture
}
7089.1.1={
	holder=42099
}
7127.1.1={
	holder=40099
}
7144.1.1={
	holder=39099
}
7151.1.1={
	holder=38099
}
7176.1.1={
	holder=37099
}
7209.1.1={
	holder=36099
}
7218.1.1={
	holder=35099
}
7231.1.1={
	holder=34099
}
7279.1.1={
	holder=33099
}
7291.1.1={
	holder=32099
}
7301.1.1={
	holder=31099
}
7343.1.1={
	holder=10099
}
7362.1.1={
	holder=99
}
