6100.1.1 = {
	liege = k_norvos
}

7095.1.1 = { holder=100069119 } # Ordello (nc)
7115.1.1 = { holder=100169119 } # Terro (nc)
7132.1.1 = { holder=100269119 } # Meralyn (nc)
7168.1.1 = { holder=100569119 } # Cossomo (nc)
7173.1.1 = { holder=100769119 } # Pynto (nc)
7228.1.1 = { holder=100869119 } # Ferrego (nc)
7237.1.1 = { holder=101269119 } # Luco (nc)
7243.1.1 = { holder=101469119 } # Beqqo (nc)
7280.1.1 = { holder=101669119 } # Illyrio (nc)
7306.1.1 = { holder=102069119 } # Ferrego (nc)
7336.1.1 = { holder=102669119 } # Ordello (nc)
7366.1.1 = { holder=102869119 } # Myrmello (nc)
7370.1.1 = { holder=103269119 } # Ezzelyno (nc)

