900.1.1={
	liege="d_bayofclaws"
}

7092.1.1 = {
	holder=114137
}
7140.1.1 = {
	holder=113137
}
7152.1.1 = {
	holder=112137
}
7172.1.1 = {
	holder=111137
	
}
7185.1.1 = {
	holder=110137
}
7200.1.1 = {
	holder=109137 # Lucias Darry
}
7219.1.1 = {
	holder=5500137 # Jonothor Darry
}
7229.7.1 = {
    holder=5510137 # Derrick Darry
}	
7231.1.5 = {
	holder=107137 # Desmond Darry
}
7277.1.1 = {
	holder=105137 # Jorin Darry
}
7303.1.1 = {
	holder=104137
}
7338.1.1 = {
	holder=100137
}
7383.7.1={
	holder=137
}
7398.10.1={
	holder=1137
}
7399.5.1={
	holder=159
}
7399.10.15={
	holder=4159
}
7399.11.12 = {
	holder=8190 #Lancel
}
7400.4.1 = {
	holder=9190 #Martyn
}
