5100.1.1={
	liege="e_north"
	law = succ_primogeniture
}

6978.1.1 = { holder=3100105 } # Cellador (nc)
7040.1.1 = { holder=3201105 } # Torghen (nc)
7076.1.1={
	holder=14105
}
7099.1.1={
	liege="k_north"
}
7109.1.1={
	holder=13105
}
7137.1.1={
	holder=12105
}
7158.1.1={
	holder=11105
}
7166.1.1={
	holder=10105
}
7190.1.1={
	holder=9105
}
7219.1.1={
	holder=8105
}
7235.1.1={
	holder=7105
}
7250.1.1={
	holder=1050105
}
7289.1.1 = {
	holder=1051105
}
