4000.1.1={
	liege="d_dreadfort"
	law = succ_primogeniture
}
5364.1.1 = { holder=1050087 } # Royce 
5397.1.1 = { holder=1051087 } # Royce II
5425.1.1 = { holder=0 } 
5678.1.1 = { holder=1053087 } # Royce III
5726.1.1 = { holder=1054087} # Royce IV
5757.1.1 = { holder=0 } 

6456.1.1={
	holder = 1055087  #  Rogar the Huntsman
}
6486.1.1 = { holder = 0 }

6573.1.1 = { holder = 1057087 } #Belthesar (C)
6617.1.1 = { holder = 0 }

7001.1.1 = { holder=60087 } # Ralton (nc)
7026.1.1 = { holder=60187 } # Rodrick (nc)
7038.1.1 = { holder=60287 } # Roose (nc)
7060.1.1 = { holder=60387 } # Beren (nc)
7062.1.1 = { holder=60487 } # Donnis (nc)
7069.1.1 = { holder=60587 } # Durin (nc)

7078.1.1={
	holder = 13087
}

7108.1.1={
	holder = 12087
}
7146.1.1={
	holder = 11087
}
7169.1.1={
	holder = 10087
}
7195.1.1={
	holder = 9087
}
7239.1.1={
	holder = 8087
}
7254.1.1={
	holder = 7087
}
7270.1.1={
	holder = 6087
}
7301.1.1={
	holder = 5087
}
7345.1.1={
	holder = 4087
}

