623.1.1={
	liege = d_gelios
}

7095.1.1 = { holder=10006036 } # Vaeron (nc)
7124.1.1 = { holder=10016036 } # Aelix (nc)
7165.1.1 = { holder=10046036 } # Matarys (nc)
7189.1.1 = { holder=10096036 } # Aelix (nc)
7195.1.1 = { holder=10106036 } # Aenar (nc)
7223.1.1 = { holder=10136036 } # Maekar (nc)
7258.1.1 = { holder=10166036 } # Maegon (nc)
7300.1.1 = { holder=10176036 } # Aegon (nc)
7307.1.1 = { holder=10206036 } # Baelon (nc)
7342.1.1 = { holder=10266036 } # Aelix (nc)
7385.1.1 = { holder=10286036 } # Vaermon (nc)
7406.1.1 = { holder=10306036 } # Jaehaerys (nc)
7447.1.1 = { holder=10356036 } # Baelon (nc)

