623.1.1={
	liege="k_lys"
}
7070.1.1 = { holder=150300546 } # Vaelar (nc)
7136.1.1 = { holder=100300546 } # Roro (nc)
7179.1.1 = { holder=105300546 } # Sallodhor (nc)
7206.1.1 = { holder=106300546 } # Cossoma (nc)
7229.1.1 = { holder=109300546 } # Syrio (nc)
7268.1.1 = { holder=112300546 } # Ordello (nc)
7296.1.1 = { holder=115300546 } # Illyrio (nc)
7305.1.1 = { holder=117300546 } # Ordello (nc)
7327.1.1 = { holder=118300546 } # Izembaro (nc)
7349.1.1 = { holder=122300546 } # Tycho (nc)
