623.1.1={
	liege = k_valyria
}

7095.1.1 = { holder=10006008 } # Orys (nc)
7138.1.1 = { holder=10016008 } # Aenar (nc)
7143.1.1 = { holder=10056008 } # Daeron (nc)
7172.1.1 = { holder=10066008 } # Aemond (nc)
7212.1.1 = { holder=10116008 } # Otherys (nc)
7268.1.1 = { holder=10146008 } # Maerys (nc)
7279.1.1 = { holder=10186008 } # Maekar (nc)
7299.1.1 = { holder=10226008 } # Haegon (nc)
7331.1.1 = { holder=10246008 } # Aerion (nc)
7372.1.1 = { holder=10286008 } # Viserys (nc)
7383.1.1 = { holder=10316008 } # Jaekar (nc)
7399.1.1 = { holder=10346008 } # Maekar (nc)
7438.1.1 = { holder=10366008 } # Rhaegar (nc)

