623.1.1={
	liege = k_valyria
}

7095.1.1 = { holder=10006010 } # Aelix (nc)
7125.1.1 = { holder=10016010 } # Maerys (nc)
7126.1.1 = { holder=10066010 } # Maerys (nc)
7163.1.1 = { holder=10096010 } # Baelon (nc)
7210.1.1 = { holder=10146010 } # Maekar (nc)
7240.1.1 = { holder=10156010 } # Qoherys (nc)
7241.1.1 = { holder=10196010 } # Maekar (nc)
7244.1.1 = { holder=10206010 } # Haerys (nc)
7285.1.1 = { holder=10216010 } # Daeron (nc)
7312.1.1 = { holder=10236010 } # Gaemon (nc)
7355.1.1 = { holder=10256010 } # Aemond (nc)
7379.1.1 = { holder=10266010 } # Haegon (nc)
7384.1.1 = { holder=10306010 } # Orys (nc)
7390.1.1 = { holder=10316010 } # Maerys (nc)
7443.1.1 = { holder=10356010 } # Viserys (nc)

