7091.1.1 = { holder=104500017 } # Torghen (nc)
7146.1.1 = { holder=134500017 } # Galbart (nc)
7182.1.1 = { holder=144500017 } # Torghen (nc)
7189.1.1 = { holder=154500017 } # Varamyr (nc)
7206.1.1 = { holder=164500017 } # Wayn (nc)
7231.1.1 = { holder=174500017 } # Kyleg (nc)
7249.1.1 = { holder=184500017 } # Harlon (nc)
7288.1.1 = { holder=214500017 } # Gorne (nc)
7296.1.1 = { holder=224500017 } # Joramun (nc)
7313.1.1={
	liege="k_beyond_wall"
}
7326.9.9={
	liege="0"
}
7350.1.1 = { holder=234500017 } # Mikken (nc)
7351.1.1 = { holder=244500017 } # Bodger (nc)
#7398.1.1 = { holder=254500017 } # Gorne (nc)
7398.1.1={
	liege="k_beyond_wall"
	holder=174347
}
7400.1.1={
	holder=999000666
}
