7087.1.1 = { holder=10559255 } # Direwolf (nc)
7123.1.1 = { holder=11559255 } # Donkey (nc)
7134.1.1 = { holder=12559255 } # Fox (nc)
7165.1.1 = { holder=13559255 } # Eel (nc)
7181.1.1 = { holder=14559255 } # Snowbear (nc)
7217.1.1 = { holder=15559255 } # Whale (nc)
7230.1.1 = { holder=16559255 } # Goat (nc)
7252.1.1 = { holder=17559255 } # Giant (nc)
7298.1.1 = { holder=20559255 } # Donkey (nc)
7313.1.1={
	liege="k_beyond_wall"
}
7326.9.9={
	liege="0"
}
7330.1.1 = { holder=21559255 } # Bat (nc)
7366.1.1 = { holder=22559255 } # Cat (nc)

7382.1.1={
	holder=174404
}
7398.1.1={
	liege="k_beyond_wall"
}
7400.1.1={
	holder=999000666
}
