#c_golden_tooth
1.1.1={
	liege="d_golden_tooth"
}
7095.1.1 = { holder = 315213 }
7132.1.1 = { holder = 314213 }
7158.1.1 = { holder = 312213 }
7211.1.1 = { holder = 311213 }
7230.1.1 = { holder = 310213 }
7254.1.1 = { holder = 305213 } # Lyonel Lefford
7286.1.1 = { holder = 202213 }
7295.6.1 = { holder = 303213 }
7296.5.7 = { holder = 302213 }
7352.1.1 = { holder = 301213 }
7359.3.8 = { holder = 300213 }

