623.1.1={
	liege="k_myr"
}

7095.1.1 = { holder=100300703 } # Gyleno (nc)
7134.1.1 = { holder=110300703 } # Izembaro (nc)
7140.1.1 = { holder=120300703 } # Thoros (nc)
7178.1.1 = { holder=107300703 } # Thoros (nc)
7189.1.1 = { holder=111300703 } # Ezzelyno (nc)
7200.1.1 = { holder=112300703 } # Moreo (nc)
7228.1.1 = { holder=113300703 } # Morosh (nc)
7268.1.1 = { holder=115300703 } # Mero (nc)
7305.1.1 = { holder=156300703 } # Areo (nc)
7332.1.1 = { holder=121300703 } # Joss (nc)
7368.1.1 = { holder=125300703 } # Myrmello (nc)
7373.1.1 = { holder=130300703 } # Qarro (nc)
7392.1.1 = { holder=131300703 } # Allaquo (nc)
