6200.1.1={
	liege="d_gulltown"
	law = succ_primogeniture
}
#House Shett
6401.1.1 = { holder=100185 } # Osgood (nc)
6434.1.1 = { holder=101185 } # Osgood (nc)
6450.1.1 = { holder=102185 } # Osgood (nc)

#House Grafton
6480.1.1 = { holder=550186 } # Gerold # andal warlord
6514.1.1 = { holder=553186 } # Gerold 
6536.1.1 = { holder = 0 }

6978.1.1 = { holder=3100186 } # Bryen (nc)
7040.1.1 = { holder=3201186 } # Marwyn (nc)
7094.1.1 = { holder=3000186 } # Osgood (nc)
7122.1.1 = { holder=3002186 } # Jaime (nc)
7136.1.1 = { holder=3003186 } # Steffon (nc)
7187.1.1 = { holder=3005186 } # Franklyn (nc)
7212.1.1 = { holder=3008186 } # Dafyn (nc)
7222.1.1 = { holder=3011186 } # Illifer (nc)
7244.1.1 = { holder=3013186 } # Criston (nc)
7259.1.1 = { holder=3018186 } # Robert (nc)
7267.1.1 = { holder=3020186 } # Marq (nc)
7276.1.1 = { holder=3021186 } # Colmar (nc)
7316.1.1 = { holder=3025186 } # Dafyn (nc)


