7064.1.1 = { holder=10559139 } # Torghen (nc)
7103.1.1 = { holder=11559139 } # Karlon (nc)
7133.1.1 = { holder=13559139 } # Dryn (nc)
7135.1.1 = { holder=17559139 } # Gerrick (nc)
7162.1.1 = { holder=22559139 } # Harlon (nc)
7185.1.1 = { holder=23559139 } # Mors (nc)
7240.1.1 = { holder=24559139 } # Cayn (nc)
7254.1.1 = { holder=26559139 } # Quort (nc)
7268.1.1 = { holder=28559139 } # Gerrick (nc)
7310.1.1 = { holder=29559139 } # Mikken (nc)
7313.1.1={
	liege="k_beyond_wall"
}
7321.1.1 = { holder=30559139 } # Byam (nc)
7326.9.9={
	liege="0"
}
7364.1.1 = { holder=33559139 } # Raymun (nc)
7375.1.1 = { holder=34559139 } # Alfyn (nc)
#7382.1.1 = { holder=37559139 } # Ygon (nc)


7382.1.1={
	holder=157000
}
7398.1.1={
	liege="k_beyond_wall"
	holder=157000
}
7400.1.1={
	holder=157015
}
