623.1.1={
	liege="d_piqui_jungle"
}
7095.1.1 = { holder=10069101 } # Aghlab (nc)
7132.1.1 = { holder=10269101 } # Abdullah (nc)
7155.1.1 = { holder=10669101 } # Nizam (nc)
7174.1.1 = { holder=10869101 } # Bahir (nc)
7212.1.1 = { holder=11069101 } # Hafiz (nc)
7250.1.1 = { holder=11169101 } # Husam (nc)
7286.1.1 = { holder=11469101 } # Azam (nc)
7294.1.1 = { holder=11769101 } # Yusuf (nc)
7306.1.1 = { holder=12169101 } # Qawurd (nc)
7340.1.1 = { holder=12469101 } # Bahir (nc)
7342.1.1 = { holder=12869101 } # Uways (nc)
7370.1.1 = { holder=12969101 } # Ghalib (nc)



