623.1.1={ law=succ_primogeniture law=cognatic_succession
	liege="d_west_marches"
}

658.1.1 = { holder=6100292 } # Harlon the Hunter (C)
777.1.1 = { holder=0}

6920.1.1 = { holder=6300292 } # Hernarr (nc)
6980.1.1 = { holder=6400292 } # Samwell (nc)
6996.1.1 = { holder=6500292 } # Hylon (nc)
7031.1.1 = { holder=6800292 } # Oryan (nc)
7071.1.1 = { holder=6110292 } # Erren (nc)
7088.1.1 = { holder=6121292 } # Hyle (nc)
7093.1.1 = { holder=3000292 } # Herndon (nc)
7116.1.1 = { holder=3001292 } # Quentin (nc)
7150.1.1 = { holder=3006292 } # Martyn (nc)
7188.1.1 = { holder=3009292 } # Bertram (nc)
7214.1.1 = { holder=3011292 } # Jon (nc)
7244.1.1 = { holder=3015292 } # Petyr (nc)
7258.1.1 = { holder=3018292 } # Garlan (nc)
7277.1.1 = { holder=3021292 } # Hyle (nc)
7306.1.1 = { holder=3026292 } # Randyll (nc)
7329.1.1 = { holder=3029292 } # Renly (nc)
7333.1.1={
	holder=2292 # Imry (nc)
}




