
7062.1.1 = { holder=10559257 } # Fox (nc)
7109.1.1 = { holder=11559257 } # Lion (nc)
7115.1.1 = { holder=15559257 } # Direwolf (nc)
7131.1.1 = { holder=17559257 } # Lion (nc)
7166.1.1 = { holder=19559257 } # Cat (nc)
7189.1.1 = { holder=20559257 } # Eagle (nc)
7214.1.1 = { holder=22559257 } # Snowbear (nc)
7237.1.1 = { holder=24559257 } # Anteater (nc)
7239.1.1 = { holder=27559257 } # Mammoth (nc)
7274.1.1 = { holder=26559257 } # Giant (nc)
7306.1.1 = { holder=30559257 } # Seal (nc)
7313.1.1={
	liege="k_beyond_wall"
}
7320.1.1 = { holder=35559257 } # Elk (nc)
7326.9.9={
	liege="0"
}
7345.1.1 = { holder=37559257 } # Bear (nc)
7361.1.1 = { holder=38559257 } # Donkey (nc)
7389.1.1 = { holder=40559257 } # Beetle (nc)
7371.1.1 = { holder=41559257 } # Deer (nc)
#7390.1.1 = { holder=40559257 } # Unicorn (nc)

7382.1.1={
	holder=157002
}
7398.1.1={
	liege="k_beyond_wall"
	holder=157002
}
7400.1.1={
	holder=999000666
}
