#House Xhaxos
7060.1.1 = { 
	holder=100304008 
	liege=d_walano
	law = succ_seniority
	law = cognatic_succession
} # Adeyemu (nc)
7103.1.1 = { holder=101304008 } # Odingaxho (nc)
7120.1.1 = { holder=103304008 } # Bapato (nc)
7142.1.1 = { holder=107304008 } # Doshuru (nc)
7202.1.1 = { holder=108304008 } # Rudo (nc)
7217.1.1 = { holder=112304008 } # Odingaxho (nc)
7244.1.1 = { holder=114304008 } # Quhura (nc)
7265.1.1 = { holder=115304008 } # Simbhar (nc)
7276.1.1 = { holder=117304008 } # Orengo (nc)
7322.1.1 = { holder=122304008 } # Bapato (nc)
7332.1.1 = { holder=123304008 } # Doshuru (nc)
7377.1.1 = { holder=126304008 } # Adeyemu (nc)
7390.1.1 = { holder=130304008 } # Kwasdo (nc)
