4500.1.1={
	liege="d_kasath"
	law = succ_primogeniture
}
7095.1.1 = { holder=10056815 } # Nitish (nc)
7126.1.1 = { holder=10156815 } # Paarth (nc)
7146.1.1 = { holder=10456815 } # Onkar (nc)
7186.1.1 = { holder=10756815 } # Kushal (nc)
7212.1.1 = { holder=11056815 } # Chitresh (nc)
7253.1.1 = { holder=11456815 } # Atharvan (nc)
7273.1.1 = { holder=11756815 } # Mukesh (nc)
7291.1.1 = { holder=11856815 } # Ganesh (nc)
7312.1.1 = { holder=12056815 } # Tarakesh (nc)
7349.1.1 = { holder=12556815 } # Dinesh (nc)
7376.1.1 = { holder=12956815 } # Shyam (nc)
