623.1.1={
	liege="k_leng"
}
7096.1.1 = { holder=10055960 } # Najib (nc)
7131.1.1 = { holder=10255960 } # Husam (nc)
7155.1.1 = { holder=10555960 } # Azam (nc)
7170.1.1 = { holder=10855960 } # Samir (nc)
7191.1.1 = { holder=11155960 } # Mansur (nc)
7225.1.1 = { holder=11355960 } # Muslihiddin (nc)
7231.1.1 = { holder=11855960 } # Isa (nc)
7242.1.1 = { holder=12055960 } # Hussayn (nc)
7282.1.1 = { holder=12255960 } # Muzaffaraddin (nc)
7335.1.1 = { holder=12755960 } # Mirza (nc)
7338.1.1 = { holder=12955960 } # Ali_Ali (nc)
7362.1.1 = { holder=13655960 } # Idris (nc)
7377.1.1 = { holder=13355960 } # Youkhanna (nc)
7386.1.1 = { holder=13755960 } # Burhanaddin (nc)
7413.1.1 = { holder=13955960 } # Akin (nc)


