623.1.1={
	liege="k_qohor"
}

7095.1.1 = { holder=100069129 } # Ezzelyno (nc)
7124.1.1 = { holder=100169129 } # Meralyn (nc)
7151.1.1 = { holder=100269129 } # Jaqen (nc)
7160.1.1 = { holder=100769129 } # Ternesio (nc)
7196.1.1 = { holder=100869129 } # Tobho (nc)
7226.1.1 = { holder=101169129 } # Beqqo (nc)
7229.1.1 = { holder=101269129 } # Noho (nc)
7264.1.1 = { holder=101569129 } # Vargo (nc)
7288.1.1 = { holder=101969129 } # Yorko (nc)
7313.1.1 = { holder=102269129 } # Tormo (nc)
7352.1.1 = { holder=102669129 } # Narbo (nc)
7361.1.1 = { holder=102869129 } # Lotho (nc)
7378.1.1 = { holder=103069129 } # Pynto (nc)
7398.1.1 = { holder=103469129 } # Allaquo (nc)
