4500.1.1={
	liege="d_gornath"
	law = succ_primogeniture
}
7092.1.1 = { holder=10056803 } # Burhan (nc)
7121.1.1 = { holder=10156803 } # Sahat (nc)
7156.1.1 = { holder=10556803 } # Ekavir (nc)
7193.1.1 = { holder=10656803 } # Shyam (nc)
7204.1.1 = { holder=11256803 } # Taresh (nc)
7233.1.1 = { holder=11756803 } # Taresh (nc)
7253.1.1 = { holder=11956803 } # Jaafar (nc)
7264.1.1 = { holder=12156803 } # Yathavan (nc)
7300.1.1 = { holder=12256803 } # Paarth (nc)
7352.1.1 = { holder=12456803 } # Jash (nc)
7378.1.1 = { holder=12856803 } # Bhagesh (nc)

