7074.1.1 = { 
	holder=100607304 
	liege = d_east_plains
} # Ehsan (nc)
7105.1.1 = { holder=101607304 } # Qader (nc)
7127.1.1 = { holder=103607304 } # Qudratu (nc)
7139.1.1 = { holder=106607304 } # Jakan (nc)
7183.1.1 = { holder=109607304 } # Rasoul (nc)
7209.1.1 = { holder=112607304 } # Tarakai (nc)
7249.1.1 = { holder=115607304 } # Ramez (nc)
7277.1.1 = { holder=118607304 } # Aarak (nc)
7279.1.1 = { holder=120607304 } # Tarakai (nc)
7324.1.1 = { holder=122607304 } # Inzir (nc)
7350.1.1 = { holder=123607304 } # Jakan (nc)
7375.1.1 = { holder=124607304 } # Sadaf (nc)
7391.1.1 = { holder=126607304 } # Janan (nc)
