#House Monye
7090.1.1 = { 
	holder=100304026 
	liege=d_moluu
	law = succ_seniority
	law = cognatic_succession
} # Nyadundo (nc)
7122.1.1 = { holder=103304026 } # Doshuru (nc)
7144.1.1 = { holder=106304026 } # Mermesbhar (nc)
7177.1.1 = { holder=111304026 } # Xhakan (nc)
7199.1.1 = { holder=116304026 } # Xhelimo (nc)
7219.1.1 = { holder=118304026 } # Jaramogo (nc)
7242.1.1 = { holder=119304026 } # Orengo (nc)
7266.1.1 = { holder=122304026 } # Tapuhuru (nc)
7325.1.1 = { holder=125304026 } # Xhelimo (nc)
7335.1.1 = { holder=130304026 } # Mermesbhar (nc)
7345.1.1 = { holder=131304026 } # Xhelimo (nc)
7371.1.1 = { holder=133304026 } # Jalabhar (nc)
7389.1.1 = { holder=137304026 } # Jarado (nc)
