6100.1.1 = {
	liege = k_norvos
}

7095.1.1 = { holder=100069118 } # Illyrio (nc)
7139.1.1 = { holder=100269118 } # Pynto (nc)
7142.1.1 = { holder=100569118 } # Yorko (nc)
7158.1.1 = { holder=100869118 } # Qarro (nc)
7210.1.1 = { holder=101169118 } # Collio (nc)
7250.1.1 = { holder=101569118 } # Gyloro (nc)
7251.1.1 = { holder=101869118 } # Joss (nc)
7309.1.1 = { holder=102069118 } # Tagganaro (nc)
7324.1.1 = { holder=102569118 } # Ternesio (nc)
7341.1.1 = { holder=102669118 } # Roggo (nc)
7372.1.1 = { holder=102969118 } # Tagganaro (nc)
7381.1.1 = { holder=103169118 } # Terro (nc)
