623.1.1={
	liege = d_valyria
}

7095.1.1 = { holder=10006048 } # Orys (nc)
7132.1.1 = { holder=10026048 } # Aegor (nc)
7147.1.1 = { holder=10066048 } # Aemon (nc)
7187.1.1 = { holder=10106048 } # Aemon (nc)
7194.1.1 = { holder=10146048 } # Aemond (nc)
7241.1.1 = { holder=10176048 } # Otherys (nc)
7261.1.1 = { holder=10186048 } # Valarr (nc)
7289.1.1 = { holder=10206048 } # Maegon (nc)
7303.1.1 = { holder=10216048 } # Vaekar (nc)
7336.1.1 = { holder=10236048 } # Aenar (nc)
7361.1.1 = { holder=10266048 } # Rhaegel (nc)
7377.1.1 = { holder=10286048 } # Aelix (nc)
7393.1.1 = { holder=10316048 } # Rhaegel (nc)
