623.1.1={
	liege="k_pentos"
}

7095.1.1 = { holder=100069124 } # Daario (nc)
7124.1.1 = { holder=100169124 } # Tycho (nc)
7130.1.1 = { holder=100369124 } # Ollo (nc)
7148.1.1 = { holder=100669124 } # Terro (nc)
7171.1.1 = { holder=101069124 } # Beqqo (nc)
7196.1.1 = { holder=101469124 } # Ferrego (nc)
7229.1.1 = { holder=101669124 } # Collio (nc)
7250.1.1 = { holder=101869124 } # Meralyn (nc)
7253.1.1 = { holder=102069124 } # Byan (nc)
7276.1.1 = { holder=102269124 } # Moreo (nc)
7315.1.1 = { holder=102769124 } # Meralyn (nc)
7324.1.1 = { holder=102969124 } # Allaquo (nc)
7375.1.1 = { holder=103369124 } # Tagganaro (nc)
