#House Jallone
7055.1.1 = { 
	holder=100304039 
	liege=d_omburu
	law = succ_seniority
	law = cognatic_succession
} # Koroxhar (nc)
7090.1.1 = { holder=101304039 } # Dubaku (nc)
7101.1.1 = { holder=104304039 } # Bapato (nc)
7130.1.1 = { holder=105304039 } # Anyim (nc)
7131.1.1 = { holder=108304039 } # Lusaxharo (nc)
7152.1.1 = { holder=111304039 } # Chibundo (nc)
7202.1.1 = { holder=115304039 } # Eskender (nc)
7232.1.1 = { holder=116304039 } # Gwalahuru (nc)
7275.1.1 = { holder=119304039 } # Dubaku (nc)
7299.1.1 = { holder=121304039 } # Odingaxho (nc)
7300.1.1 = { holder=123304039 } # Quhuru (nc)
7335.1.1 = { holder=126304039 } # Anyim (nc)
7369.1.1 = { holder=130304039 } # Siboxhoan (nc)


