6100.1.1 = {
	liege = k_norvos
}

7095.1.1 = { holder=10069116 } # Moreo (nc)
7127.1.1 = { holder=10269116 } # Myrmello (nc)
7139.1.1 = { holder=10469116 } # Moredo (nc)
7153.1.1 = { holder=10569116 } # Joss (nc)
7162.1.1 = { holder=11169116 } # Terro (nc)
7184.1.1 = { holder=11369116 } # Myrmello (nc)
7208.1.1 = { holder=11469116 } # Beqqo (nc)
7236.1.1 = { holder=11969116 } # Daario (nc)
7246.1.1 = { holder=12069116 } # Cossoma (nc)
7284.1.1 = { holder=12169116 } # Narba (nc)
7325.1.1 = { holder=12269116 } # Gyleno (nc)
7360.1.1 = { holder=12569116 } # Izembara (nc)
7379.1.1 = { holder=12869116 } # Beqqo (nc)
7394.1.1 = { holder=12969116 } # Moredea (nc)
