623.1.1={
	liege = d_oros
}

7095.1.1 = { holder=10000343 } # Qoherys (nc)
7122.1.1 = { holder=10010343 } # Aerys (nc)
7156.1.1 = { holder=10030343 } # Daeron (nc)
7188.1.1 = { holder=10040343 } # Maerys (nc)
7205.1.1 = { holder=10090343 } # Aenar (nc)
7250.1.1 = { holder=10160343 } # Aegor (nc)
7267.1.1 = { holder=10170343 } # Matarys (nc)
7284.1.1 = { holder=10200343 } # Orys (nc)
7322.1.1 = { holder=10240343 } # Rhaegel (nc)
7338.1.1 = { holder=10250343 } # Daeron (nc)
7404.1.1 = { holder=10290343 } # Aerion (nc)

