623.1.1={
	liege="d_port_moraq"
}
7096.1.1 = { holder=1055933 } # Aram (nc)
7122.1.1 = { holder=1155933 } # Azam (nc)
7148.1.1 = { holder=1455933 } # Fadil (nc)
7176.1.1 = { holder=1655933 } # Is'mail (nc)
7198.1.1 = { holder=1955933 } # Husam (nc)
7201.1.1 = { holder=2355933 } # Aarif (nc)
7248.1.1 = { holder=2455933 } # Mahdi (nc)
7260.1.1 = { holder=2855933 } # Mubarak (nc)
7294.1.1 = { holder=3255933 } # Qadir (nc)
7329.1.1 = { holder=3355933 } # Isa (nc)
7375.1.1 = { holder=3655933 } # Mukhtar (nc)
7399.1.1 = { holder=4055933 } # Sadiq (nc)

