#House Xho
7080.7.6 = {
	holder=100304000 # Udo (nc)
	liege=d_red_flower_vale
	law = succ_seniority
	law = cognatic_succession
}
7125.1.1 = { holder=102304000 } # Jalabhar (nc)
7144.1.1 = { holder=105304000 } # Quhuru (nc)
7183.1.1 = { holder=106304000 } # Udo (nc)
7220.1.1 = { holder=112304000 } # Jalabhar (nc)
7242.1.1 = { holder=113304000 } # Dubaku (nc)
7250.1.1 = { holder=116304000 } # Tatenda (nc)
7279.1.1 = { holder=117304000 } # Udo (nc)
7314.1.1 = { holder=118304000 } # Dubaku (nc)
7330.1.1 = { holder=120304000 } # Gwalahuru (nc)
7353.1.1 = { holder=122304000 } # Udo (nc)
7384.1.1 = { 
	holder=125304000 # Jalabhar Xho
} 
7389.6.1 = { 
	holder=134304029 # Dubaku the Bastard
} 
