7045.1.1 = { 
	holder=100600213 
	liege = d_northern_steppe
} # Remekko (nc)
7077.1.1 = { holder=101600213 } # Drogo (nc)
7098.1.1 = { holder=102600213 } # Loso (nc)
7112.1.1 = { holder=103600213 } # Moro (nc)
7128.1.1 = { holder=108600213 } # Jhaquo (nc)
7146.1.1 = { holder=112600213 } # Kovarro (nc)
7202.1.1 = { holder=114600213 } # Moro (nc)
7209.1.1 = { holder=117600213 } # Azho (nc)
7236.1.1 = { holder=121600213 } # Bharbo (nc)
7245.1.1 = { holder=123600213 } # Rovo (nc)
7259.1.1 = { holder=125600213 } # Rakharo (nc)
7295.1.1 = { holder=129600213 } # Kovarro (nc)
7355.1.1 = { holder=132600213 } # Hezzo (nc)
7366.1.1 = { holder=134600213 } # Qano (nc)
7374.1.1 = { holder=137600213 } # Najaho (nc)

