623.1.1={
	liege = d_drakaria
}

7095.1.1 = { holder=10006020 } # Vaeron (nc)
7130.1.1 = { holder=10016020 } # Daemon (nc)
7145.1.1 = { holder=10026020 } # Daegar (nc)
7162.1.1 = { holder=10066020 } # Aegon (nc)
7204.1.1 = { holder=10106020 } # Daegar (nc)
7221.1.1 = { holder=10116020 } # Maekar (nc)
7265.1.1 = { holder=10136020 } # Daeron (nc)
7280.1.1 = { holder=10156020 } # Aegor (nc)
7305.1.1 = { holder=10186020 } # Maegon (nc)
7346.1.1 = { holder=10216020 } # Baelon (nc)
7365.1.1 = { holder=10236020 } # Rhaekar (nc)
7379.1.1 = { holder=10266020 } # Aenar (nc)
7425.1.1 = { holder=10296020 } # Vaekar (nc)
7438.1.1 = { holder=10316020 } # Daemon (nc)


