623.1.1={
	liege="d_saath"
	law = succ_primogeniture
}
7035.1.1 = { holder=10056802 } # Vishruth (nc)
7075.1.1 = { holder=10256802 } # Nayan (nc)
7108.1.1 = { holder=10456802 } # Uttamesh (nc)
7134.1.1 = { holder=10956802 } # Vishruth (nc)
7142.1.1 = { holder=11356802 } # Jaafar (nc)
7175.1.1 = { holder=11556802 } # Kedaar (nc)
7183.1.1 = { holder=11956802 } # Onkar (nc)
7221.1.1 = { holder=12156802 } # Manaar (nc)
7259.1.1 = { holder=12356802 } # Paarth (nc)
7269.1.1 = { holder=12756802 } # Harshil (nc)
7288.1.1 = { holder=12856802 } # Balavant (nc)
7305.1.1 = { holder=13456802 } # Nayan (nc)
7328.1.1 = { holder=14056802 } # Dahak (nc)
7366.1.1 = { holder=14356802 } # Dinesh (nc)
7381.1.1 = { holder=14456802 } # Rathin (nc)
