623.1.1={
	law = succ_primogeniture
	law = true_cognatic_succession
}

7095.1.1 = { holder=1000015 } # Dezyel (nc)
7114.1.1 = { holder=1004015 } # Caleyen (nc)
7154.1.1 = { holder=1006015 } # Mors (nc)
7199.1.1 = { holder=1010015 } # Timyon (nc)
7220.1.1 = { holder=1014015 } # Doran (nc)
7236.1.1 = { holder=1016015 } # Rycas (nc)
7262.1.1 = { holder=1018015 } # Belyar (nc)
7287.1.1 = { holder=1019015 } # Caleyen (nc)
7307.1.1 = { holder=1024015 } # Alleras (nc)
7319.1.1 = { holder=1026015 } # Timyon (nc)
7369.1.1 = { holder=1030015 } # Gasoyne (nc)
7387.1.1 = { holder=1032015 } # Mors (nc)
7406.1.1 = { holder=1034015 } # Quentyn (nc)
7416.1.1 = { holder=1035015 } # Yandry (nc)

