623.1.1={
	liege="d_trader_town"
}
7095.1.1 = { holder=10069169 } # Jibril (nc)
7126.1.1 = { holder=10269169 } # Qadir (nc)
7146.1.1 = { holder=10569169 } # Muslihiddin (nc)
7198.1.1 = { holder=10869169 } # Abdullah (nc)
7221.1.1 = { holder=11369169 } # Yahya (nc)
7223.1.1 = { holder=11869169 } # Bahir (nc)
7247.1.1 = { holder=12069169 } # Akin (nc)
7300.1.1 = { holder=12169169 } # Mukhtar (nc)
7305.1.1 = { holder=12669169 } # Mirza (nc)
7349.1.1 = { holder=12969169 } # Idris (nc)
7371.1.1 = { holder=13169169 } # Faruk (nc)


