6340.1.1={
	law = cognatic_succession
}

7092.1.1 = { holder=300002 } # Bors (nc)
7127.1.1 = { holder=303002 } # Ryon (nc)
7155.1.1 = { holder=307002 } # Beldecar (nc)
7159.1.1 = { holder=308002 } # Timoth (nc)
7199.1.1 = { holder=309002 } # Gulian (nc)
7201.1.1 = { holder=315002 } # Caleotte (nc)
7250.1.1 = { holder=316002 } # Ryon (nc)
7260.1.1 = { holder=319002 } # Sylas (nc)
7288.1.1 = { holder=320002 } # Symon (nc)
7296.6.9 = { holder=324002 } # Garin (nc)
7344.1.1 = { holder=327002 } # Quentyn (nc)
7359.2.8 = { holder=3002 } # Alla (nc)
7380.2.4 = { holder=2 } # Symon (c)
