6700.1.1={
	liege="d_trident"
	law = succ_primogeniture
}
7088.1.1={
	holder=14131
}
7105.1.1={
	holder=13131
}
7112.1.1={
	holder=12131
}
7155.1.1={
	holder=11131
}
7164.1.1={
	holder=15131
}
7214.1.1={
	holder=8131
}
7222.1.1={
	holder=7131
}
7266.1.1={
	holder=6131
}
7281.1.1={
	holder=5131
}
7322.1.1={
	holder=4131
}
7371.1.1={
	holder=131
}
