1.1.1 = {
	law = succ_turkish_succession
	law = agnatic_succession
}
7080.1.1 = { holder=10559144 } # Bodger (nc)
7111.1.1 = { holder=11559144 } # Owen (nc)
7124.1.1 = { holder=12559144 } # Harlon (nc)
7150.1.1 = { holder=15559144 } # Mors (nc)
7179.1.1 = { holder=16559144 } # Dryn (nc)
7201.1.1 = { holder=21559144 } # Gorne (nc)
7223.1.1 = { holder=22559144 } # Harmond (nc)
7231.1.1 = { holder=23559144 } # Alfyn (nc)
7248.1.1 = { holder=29559144 } # Henk (nc)
7313.1.1={
	liege="k_beyond_wall"
}
7315.1.1 = { holder=30559144 } # Arson (nc)
7326.9.9={
	liege="0"
}
7328.1.1 = { holder=32559144 } # Jeor (nc)
7356.1.1 = { holder=33559144 } # Lenyl (nc)
7367.1.1 = { holder=36559144 } # Halleck (nc)
7398.1.1={
	liege="k_beyond_wall"
}
7400.1.1={
	holder=999000666
}
