6340.1.1={
	liege="d_ghosthills"
	law = cognatic_succession
}
6981.1.1 = { holder=6000010 } # Dalyn (nc)
7049.1.1 = { holder=6010010 } # Edric (nc)
7064.1.1 = { holder=6020010 } # Alyssa (nc)
7082.1.1 = { holder=60010 } # Mors (nc)
7105.1.1 = { holder=60110 } # Sylva (nc)
7138.1.1 = { holder=60210 } # Elinor (nc)
7158.1.1 = { holder=60310 } # Lythene (nc)
7186.1.1 = { holder=60610 } # Lythene (nc)
7196.1.1 = { holder=60910 } # Franklyn (nc)
7205.1.1 = { holder=61110 } # Mors (nc)
7206.1.1 = { holder=61210 } # Caleotte (nc)
7207.1.1 = { holder=61010 } # Elyana (nc)
7239.1.1 = { holder=61510 } # Dorea (nc)
7263.1.1 = { holder=61000810 } # Beldecar (nc)
7296.1.1 = { holder=61001010 } # Trebor (nc)
7311.1.1 = { holder=61001110 } # Harmen (nc)
7327.1.1 = { holder=61001510 } # Daeron (nc)
7362.1.1 = { holder=61001710 } # Cletus (nc)
