623.1.1={
	liege = d_tyria
}

7063.1.1 = { holder=11106022 } # Aegon (nc)
7095.1.1 = { holder=10006022 } # Maerys (nc)
7114.1.1 = { holder=10016022 } # Gaemon (nc)
7127.1.1 = { holder=10036022 } # Valarr (nc)
7163.1.1 = { holder=10056022 } # Aemond (nc)
7187.1.1 = { holder=10086022 } # Aemond (nc)
7204.1.1 = { holder=10106022 } # Aemond (nc)
7221.1.1 = { holder=10126022 } # Baelor (nc)
7275.1.1 = { holder=10166022 } # Aenys (nc)
7298.1.1 = { holder=10176022 } # Vaekar (nc)
7316.1.1 = { holder=10216022 } # Baelon (nc)
7343.1.1 = { holder=10226022 } # Orys (nc)
7386.1.1 = { holder=10286022 } # Aenys (nc)
7408.1.1 = { holder=10296022 } # Qoherys (nc)
7433.1.1 = { holder=10316022 } # Maelys (nc)


