623.1.1={
	liege="d_isle_of_cedars"
}

7095.1.1 = { holder=100069146 } # Alios (nc)
7136.1.1 = { holder=100169146 } # Bolquello (nc)
7137.1.1 = { holder=100569146 } # Rolloquo (nc)
7147.1.1 = { holder=101069146 } # Beqqo (nc)
7161.1.1 = { holder=101169146 } # Lotho (nc)
7205.1.1 = { holder=101369146 } # Belicho (nc)
7225.1.1 = { holder=101469146 } # Yorko (nc)
7243.1.1 = { holder=101569146 } # Malaquo (nc)
7298.1.1 = { holder=101769146 } # Alios (nc)
7302.1.1 = { holder=102369146 } # Malaquo (nc)
7309.1.1 = { holder=102569146 } # Bolquello (nc)
7337.1.1 = { holder=102969146 } # Parquello (nc)
7371.1.1 = { holder=103169146 } # Navaphos (nc)
