623.1.1={
	liege="d_volontherys"
}
7070.1.1 = { holder=100305605 } # Ordello (nc)
7111.1.1 = { holder=101305605 } # Bolquello (nc)
7125.1.1 = { holder=107305605 } # Bolquello (nc)
7162.1.1 = { holder=110305605 } # Colloquo (nc)
7209.1.1 = { holder=112305605 } # Gorys (nc)
7220.1.1 = { holder=114305605 } # Horonno (nc)
7244.1.1 = { holder=115305605 } # Allaquo (nc)
7259.1.1 = { holder=116305605 } # Lotho (nc)
7272.1.1 = { holder=117305605 } # Qarro (nc)
7275.1.1 = { holder=119305605 } # Bolquello (nc)
7310.1.1 = { holder=122305605 } # Alios (nc)
7332.1.1 = { holder=124305605 } # Gorys (nc)
7366.1.1 = { holder=127305605 } # Gorys (nc)
7382.1.1 = { holder=129305605 } # Horonno (nc)
