623.1.1={
	liege="k_myr"
}

7095.1.1 = { holder=100300705 } # Meralyn (nc)
7137.1.1 = { holder=104300705 } # Terro (nc)
7144.1.1 = { holder=107300705 } # Tycho (nc)
7161.1.1 = { holder=110300705 } # Roggo (nc)
7193.1.1 = { holder=115300705 } # Ternesio (nc)
7215.1.1 = { holder=117300705 } # Roro (nc)
7241.1.1 = { holder=119300705 } # Moredo (nc)
7272.1.1 = { holder=123300705 } # Tagganaro (nc)
7303.1.1 = { holder=126300705 } # Noho (nc)
7322.1.1 = { holder=127300705 } # Groleo (nc)
7369.1.1 = { holder=129300705 } # Byan (nc)
7397.1.1 = { holder=132300705 } # Ordello (nc)
