623.1.1={
	liege="d_astapor"
}
7090.1.1 = { holder=150360000 } # Marghaz (nc)
7115.1.1 = { holder=100360000 } # Barghaz (nc)
7142.1.1 = { holder=101360000 } # Grazdan (nc)
7162.1.1 = { holder=104360000 } # Marghaz (nc)
7200.1.1 = { holder=109360000 } # Zarraq (nc)
7235.1.1 = { holder=111360000 } # Gazdhor (nc)
7270.1.1 = { holder=115360000 } # Grazdan (nc)
7296.1.1 = { holder=116360000 } # Prendahl (nc)
7327.1.1 = { holder=123360000 } # Grazdhan (nc)
7337.1.1 = { holder=126360000 } # Yezzan (nc)
7353.1.1 = { holder=129360000 } # Marghaz (nc)
7389.1.1={
	holder=6571001 # Grazdan
}
7399.12.12={
	holder=0 # Dany happened !!
}
