623.1.1={
	liege="d_xin"
}
7095.1.1 = { holder=10069194 } # Is'mail (nc)
7141.1.1 = { holder=10269194 } # Fadil (nc)
7147.1.1 = { holder=10469194 } # Khalil (nc)
7172.1.1 = { holder=10569194 } # Qawurd (nc)
7198.1.1 = { holder=10869194 } # Youkhanna (nc)
7250.1.1 = { holder=11069194 } # Ramadan (nc)
7278.1.1 = { holder=11169194 } # Jaleel (nc)
7281.1.1 = { holder=11369194 } # Jalil (nc)
7305.1.1 = { holder=11769194 } # Jabir (nc)
7347.1.1 = { holder=11869194 } # Khaireddin (nc)
7380.1.1 = { holder=12469194 } # Isa (nc)



