#House Xhone
7080.1.1 = { 
	holder=100304036 
	liege=d_parrot_bay
	law = succ_seniority
	law = cognatic_succession
} # Tal (nc)
7117.1.1 = { holder=102304036 } # Xhal (nc)
7144.1.1 = { holder=104304036 } # Xhelimo (nc)
7163.1.1 = { holder=107304036 } # Jiradhar (nc)
7178.1.1 = { holder=108304036 } # Gatubhar (nc)
7180.1.1 = { holder=113304036 } # Chibundo (nc)
7224.1.1 = { holder=114304036 } # Anyim (nc)
7254.1.1 = { holder=118304036 } # Dubaku (nc)
7280.1.1 = { holder=120304036 } # Doshuru (nc)
7312.1.1 = { holder=124304036 } # Oluhuru (nc)
7351.1.1 = { holder=128304036 } # Gebhuya (nc)
7365.1.1 = { holder=129304036 } # Nyadundo (nc)
7373.1.1 = { holder=133304036 } # Kwasdo (nc)
