623.1.1={
	liege="d_yunkai"
}
7089.1.1 = { holder=150360017 } # Zarraq (nc)
7124.1.1 = { holder=100360017 } # Yurkhaz (nc)
7146.1.1 = { holder=101360017 } # Paezdhar (nc)
7187.1.1 = { holder=105360017 } # Maezon (nc)
7218.1.1 = { holder=109360017 } # Gazdhor (nc)
7244.1.1 = { holder=111360017 } # Grazdan (nc)
7250.1.1 = { holder=114360017 } # Sharkhaz (nc)
7286.1.1 = { holder=118360017 } # Grazdan (nc)
7300.1.1 = { holder=122360017 } # Paezdhar (nc)
7330.1.1 = { holder=128360017 } # Grazdhan (nc)
7350.1.1 = { holder=132360017 } # Skahaz (nc)
7358.1.1 = { holder=136360017 } # Hizdhar (nc)
7391.1.1={
	holder=6571011 # Maezon
}
