5440.1.1={
	liege="k_brimstoneTK"
	law = succ_primogeniture
	law = cognatic_succession
}

7095.1.1 = { holder=10006040 } # Daeron (nc)
7124.1.1 = { holder=10036040 } # Timeon (nc)
7146.1.1 = { holder=10066040 } # Manfrey (nc)
7171.1.1 = { holder=10096040 } # Allar (nc)
7210.1.1 = { holder=10126040 } # Armen (nc)
7247.1.1 = { holder=10146040 } # Dagos (nc)
7251.1.1 = { holder=10186040 } # Armen (nc)
7296.1.1 = { holder = 175013 } # Lucifer Dryland
7303.1.1 = { holder=10206040 } # Alaric (nc)
7337.1.1 = { holder=10226040 } # Doran (nc)
7353.1.1 = { holder=10246040 } # Timoth (nc)
7390.1.1 = { holder=10306040 } # Beldecar (nc)

