623.1.1={
	liege="e_iron_isles"
	law=succ_primogeniture 
	law=agnatic_succession
}
4337.1.1 = {
	holder = 500122
}
4376.1.1 = {
	holder = 501122
}
4393.1.1 = {
	holder = 0
}

7075.1.1 = { holder=300122 } # Ambrode (nc)

7098.2.1 = { holder=302122 } # Sigrin (nc)
7132.1.1 = { holder=308122 } # Cotter (nc)
7160.1.1 = { holder=310122 } # Tom (nc)
7190.1.1 = { holder=312122 } # Gormond (nc)
7215.1.1 = { holder=313122 } # Maron (nc)
7225.1.1 = { holder=316122 } # Kromm (nc)
7263.1.1 = {	
	holder=16122  #Theomore
}	
7301.1.1 = {	
	holder=14122  #Tristifer #(nc)
}
7334.1.1 = {	
	holder=6122  #Sigrin (nc)
}
7359.1.1 = {	
	holder=3122  #Sigfryd (nc)
}

7390.1.1 = {	
	holder=122 #Rodrik
}

