623.1.1={
	liege="k_yin"
}
1690.1.1 = { 
	holder=10065961
}
1778.1.1 = { holder=0 }

1837.1.1 = { 
	holder=10365961
}
1867.1.1 = { holder=0 }
6208.1.1 = {
	holder = 10065963 #Lo Han
}
6255.1.1 = {
	holder = 10165963 #Lo bu
}
6265.1.1 = {
	holder=  0
}

7095.1.1 = { holder=10069195 } # Ubayd (nc)
7136.1.1 = { holder=10169195 } # Ubayd (nc)
7148.1.1 = { holder=10369195 } # Jibril (nc)
7186.1.1 = { holder=10669195 } # Shamir (nc)
7204.1.1 = { holder=11169195 } # Nizam (nc)
7211.1.1 = { holder=11269195 } # Yahya (nc)
7243.1.1 = { holder=11869195 } # Yusuf (nc)
7277.1.1 = { holder=12169195 } # Isa (nc)
7314.1.1 = { holder=12469195 } # Abdul (nc)
7320.1.1 = { holder=12669195 } # Nizam (nc)
7354.1.1 = { holder=13169195 } # Yusuf (nc)
7379.1.1 = { holder=13469195 } # Is'mail (nc)



