623.1.1 = { 
	law=succ_primogeniture 
	law=cognatic_succession
}
7062.1.1 = { holder=100306009 } # Isingodo (nc)
7109.1.1 = { holder=108306009 } # Jalabhar (nc)
7144.1.1 = { holder=111306009 } # Olujondo (nc)
7167.1.1 = { holder=118306009 } # Qubhar (nc)
7189.1.1 = { holder=119306009 } # Jalahuru (nc)
7231.1.1 = { holder=121306009 } # Gatubhar (nc)
7237.1.1 = { holder=127306009 } # Delmabhar (nc)
7279.1.1 = { holder=130306009 } # Kwasdo (nc)
7299.1.1 = { holder=132306009 } # Xhakan (nc)
7341.1.1 = { holder=136306009 } # Xhoan (nc)
7360.1.1 = { holder=140306009 } # Makhan (nc)
7373.1.1 = { holder=142306009 } # Konde (nc)
