7055.1.1 = { 
	holder=100607302 
	historical_nomad = yes
} # Jawak (nc)
7101.1.1 = { holder=101607302 } # Faqar (nc)
7130.1.1 = { holder=105607302 } # Kahkazan (nc)
7146.1.1 = { holder=110607302 } # Zeba (nc)
7159.1.1 = { holder=113607302 } # Basir (nc)
7203.1.1 = { holder=114607302 } # Jaan (nc)
7247.1.1 = { holder=115607302 } # Yasen (nc)
7263.1.1 = { holder=116607302 } # Sabeir (nc)
7272.1.1 = { holder=118607302 } # Ramazan (nc)
7291.1.1 = { holder=120607302 } # Tamim (nc)

7295.1.1 = { 
	liege = e_jkhalasar
}

