#House Gowonu
7086.1.1 = { 
	holder=100304021 
	law = succ_seniority
	law = cognatic_succession
} # Mermesbhar (nc)
7112.1.1 = { holder=102304021 } # Chakoro (nc)
7145.1.1 = { holder=105304021 } # Xhelimo (nc)
7174.1.1 = { holder=109304021 } # Tapuhuru (nc)
7176.1.1 = { holder=110304021 } # Jiradhar (nc)
7202.1.1 = { holder=112304021 } # Simbhar (nc)
7225.1.1 = { holder=117304021 } # Paro (nc)
7285.1.1 = { holder=120304021 } # Lusaxharo (nc)
7300.1.1 = { holder=122304021 } # Thabo (nc)
7342.1.1 = { holder=125304021 } # Ujja (nc)
7351.1.1 = { holder=126304021 } # Simbhar (nc)
7366.1.1 = { holder=128304021 } # Xhelimo (nc)
7377.1.1 = { holder=129304021 } # Jiradhar (nc)
7394.1.1 = { holder=132304021 } # Paro (nc)

