623.1.1={
	liege = k_valyria
}

7095.1.1 = { holder=10000257 } # Maekar (nc)
7126.1.1 = { holder=10010257 } # Rhaegar (nc)
7133.1.1 = { holder=10040257 } # Baelor (nc)
7164.1.1 = { holder=10080257 } # Daegar (nc)
7196.1.1 = { holder=10130257 } # Otherys (nc)
7242.1.1 = { holder=10150257 } # Vaekar (nc)
7259.1.1 = { holder=10170257 } # Haegon (nc)
7298.1.1 = { holder=10200257 } # Viserys (nc)
7351.1.1 = { holder=10220257 } # Gaemon (nc)
7359.1.1 = { holder=10250257 } # Otherys (nc)
7388.1.1 = { holder=10270257 } # Daemon (nc)
