1.1.1 = { liege="e_stormlands" }


7090.1.1 = { holder=1000306 } # Lomas (nc)
7132.1.1 = { holder=1001306 } # Andrew (nc)
7162.1.1 = { holder=1003306 } # Hugh (nc)
7175.1.1 = { holder=1005306 } # Brus (nc)
7201.1.1 = { holder=1007306 } # Maric (nc)
7216.1.1 = { holder=1008306 } # Gowen (nc)
7254.1.1 = { holder=1011306 } # Thurgood (nc)
7293.1.1 = { holder=1013306 } # Bryce (nc)
7297.1.1 = { holder=1017306 } # Davos (nc)
7316.1.1 = { holder=1018306 } # Jon (nc)
7336.1.1 = { holder=1020306 } # Sebastion (nc)
7389.1.1 = { holder=1022306 } # Barristan (nc)
7410.1.1 = { holder=1023306 } # Allard (nc)
7448.1.1 = { holder=1024306 } # Steffon (nc)

