4500.1.1={
	#liege="k_sarnor"
	effect = {
		holder_scope = { 
			k_sarnor = {
				holder_scope = {
					make_tributary = { who = PREVPREV tributary_type = sarnori }
				}
			}
		}	
	}
	law = succ_primogeniture
}
7095.1.1 = { holder=10056817 } # Jash (nc)
7119.1.1 = { holder=10156817 } # Chanak (nc)
7161.1.1 = { holder=10656817 } # Shyam (nc)
7165.1.1 = { holder=10856817 } # Kedaar (nc)
7200.1.1 = { holder=10956817 } # Harith (nc)
7253.1.1 = { holder=11256817 } # Lokesh (nc)
7262.1.1 = { holder=11756817 } # Yogesh (nc)
7300.1.1 = { holder=11956817 } # Vishruth (nc)
7304.1.1 = { holder=12256817 } # Nishad (nc)
7348.1.1 = { holder=12456817 } # Manish (nc)
7383.1.1 = { holder=12556817 } # Shyam (nc)
7399.1.1 = { holder=12856817 } # Nishi (nc)
