623.1.1={
	liege="e_vale"
	law = succ_primogeniture
}
7080.1.1 = { holder=3000161 } # Alaric (nc)
7113.1.1 = { holder=3002161 } # Robin (nc)
7146.1.1 = { holder=3006161 } # Artys (nc)
7159.1.1 = { holder=3007161 } # Petyr (nc)

7184.1.1 = { holder=3011161 } # Benedar (nc)
7236.1.1 = { holder=3014161 } # Elys (nc)
7243.1.1 = { holder=3019161 } # Triston (nc)
7293.1.1 = { holder=3021161 } # Lyn (nc)
7298.1.1 = { holder=3024161 } # Lothor (nc)
7334.1.1={
	holder=94091
}
7379.1.1={
	holder=94028
}
