#House Qo
6516.1.1 = {
	holder=150304005  # Xanda
	law = succ_seniority
	law = cognatic_succession
} 
6558.1.1 = { holder=151304005 } # Chatana
6590.1.1 = { holder=0 }

7037.1.1 = { holder=153304005 } #
7079.1.1 = { holder=154304005 } #
7095.1.1 = { holder=100304005 } # Gatubhar (nc)
7157.1.1 = { holder=102304005 } # Thabo (nc)
7186.1.1 = { holder=105304005 } # Delmabhar (nc)
7190.1.1 = { holder=107304005 } # Xhonodo (nc)
7199.1.1 = { holder=108304005 } # Oluhuru (nc)
7252.1.1 = { holder=109304005 } # Xhoan (nc)
7255.1.1 = { holder=114304005 } # Xanda (C)
7278.1.1 = { holder=118304005 } # Isingodo (nc)
7303.1.1 = { holder=121304005 } # Thabo (nc)
7321.1.1 = { holder=122304005 } # Xhelimo (nc)
7335.1.1 = { holder=124304005 } # Jalahuru (nc)
7373.1.1 = { holder=125304005 } # Doshuru (nc)
