
3652.1.1 = {
	holder = 150054 #Edwyn Evenstar
	liege = k_tarthTK
}
3677.1.1 = {
	liege="e_stormlands" #married into Durrandons
}
3694.1.1 = {holder=0}
7044.1.1 = { holder=153054 } #Selwyn (nc)
7076.1.1 = { holder=60000054 } # Daven Tarth (nc)
7088.1.1 = { holder=300054 } # Selwyn Tarth (nc)
7139.1.1 = { holder=301054 } # Willem Tarth (nc)

7182.1.1 = {
	 holder=310054 # Selwyn Tarth (nc)
} 
7214.1.1 = { holder=315054 } # Willem Tarth (nc)
7246.1.1 = { holder=316054 } # Renly Tarth (nc)
7274.1.1 = { holder=322054 } # Endrew Tarth (nc)
7310.1.1 = { holder=200054 } # Quentyn Tarth (C)
7337.1.1 = { holder=326054 } # Terrence Tarth (nc)
7355.1.1 = { holder=331054 } # Willem Tarth (nc)
7379.1.1 = { holder=201054 } # Selwyn Tarth (C)

