623.1.1={
	law = succ_primogeniture
	law = agnatic_succession
}
7096.1.1 = { holder=1055939 } # Is'mail (nc)
7110.1.1 = { holder=1155939 } # Jibril (nc)
7140.1.1 = { holder=1355939 } # Isa (nc)
7148.1.1 = { holder=1855939 } # Aghlab (nc)
7179.1.1 = { holder=2355939 } # Burhanaddin (nc)
7228.1.1 = { holder=2655939 } # Ramadan (nc)
7232.1.1 = { holder=2955939 } # Abdullah (nc)
7287.1.1 = { holder=3155939 } # Aram (nc)
7309.1.1 = { holder=3355939 } # Mubarak (nc)
7323.1.1 = { holder=3555939 } # Jabir (nc)
7350.1.1 = { holder=3855939 } # Abdullah (nc)
7370.1.1 = { holder=51055939 } # Shaiban (nc)
7395.1.1 = { holder=52055939 } # Sadiq (nc)


