#House Jaluru
7060.1.1 = { 
	holder=100304023 
	law = succ_seniority
	law = cognatic_succession
} # Xhoan (nc)
7090.1.1 = { holder=101304023 } # Udo (nc)
7121.1.1 = { holder=106304023 } # Gatubhar (nc)
7130.1.1 = { holder=109304023 } # Chibundo (nc)
7144.1.1 = { holder=111304023 } # Bapato (nc)
7180.1.1 = { holder=116304023 } # Manahuru (nc)
7191.1.1 = { holder=118304023 } # Odingaxho (nc)
7201.1.1 = { holder=119304023 } # Koroxhar (nc)
7215.1.1 = { holder=125304023 } # Konde (nc)
7237.1.1 = { holder=127304023 } # Jalabhar (nc)
7300.1.1 = { holder=133304023 } # Doshuru (nc)
7304.1.1 = { holder=138304023 } # Mermesbhar (nc)
7330.1.1 = { holder=140304023 } # Thabo (nc)
7369.1.1 = { holder=142304023 } # Kwasdo (nc)
7390.1.1 = { holder=146304023 } # Xhelimo (nc)
