1101.1.1 = {
	law = slavery_2
	law = centralization_2
	law = first_night_0
	law = republic_law_oligarchy
	law = noble_oligarchy_elective
	law = cognatic_succession
	effect = { add_law = republic_law_oligarchy }
}

7095.1.1 = { holder=10006013 } # Daeron (nc)
7137.1.1 = { holder=10016013 } # Rhaegel (nc)
7156.1.1 = { holder=10066013 } # Daeron (nc)
7193.1.1 = { holder=10106013 } # Vaermon (nc)
7204.1.1 = { holder=10136013 } # Orys (nc)
7238.1.1 = { holder=10196013 } # Daegar (nc)
7260.1.1 = { holder=10216013 } # Maegor (nc)
7270.1.1 = { holder=10246013 } # Aemon (nc)
7278.1.1 = { holder=10266013 } # Vaekar (nc)
7323.1.1 = { holder=10336013 } # Rhaekar (nc)
7385.1.1 = { holder=10356013 } # Daeron (nc)
