1.1.1={
	law = succ_primogeniture
	law = cognatic_succession
	effect = {
		holder_scope = {
			set_special_character_title = shadowking_male
		}	
	}
}

7056.1.1 = { holder=6000364 } # Jarmen (nc)
7080.1.1 = { holder=6002364 } # Triston (nc)
7098.2.1={ holder=6007364 } # Steffon (nc)
7121.1.1 = { holder=6009364 } # Robin (nc)
7135.1.1 = { holder=6012364 } # Florian (nc)
7157.1.1 = { holder=6019364 } # Ulmer (nc)
7200.1.1 = { holder=6022364 } # Dale (nc)
7229.10.1 = { holder=6025364 } # Jaremy (nc)
7254.1.1 = { holder=6029364 } # Monford (nc)
7289.1.1 = { holder=6035364 } # Allar (nc)
7299.1.1 = { holder=6038364 } # Will (nc)
7308.1.1 = { holder=6044364 } # Lucifer (nc)
7355.1.1 = { holder=6045364 } # Alyn