knight_opinion;Knight Opinion;;;;;;;;;;;;;x
architect_opinion;Architect Opinion;;;;;;;;;;;;;x
cynical_opinion;Cynical Opinion;;;;;;;;;;;;;x
impaler_opinion;Torturer Opinion;;;;;;;;;;;;;x
ruthless_opinion;Ruthless Opinion;;;;;;;;;;;;;x
slave_opinion;Slave Opinion;;;;;;;;;;;;;x
former_slave_opinion;Freed Slave Opinion;;;;;;;;;;;;;x
slave_trader_opinion;Slave Trader Opinion;;;;;;;;;;;;;x
slave_owner_opinion;Slave Owner Opinion;;;;;;;;;;;;;x
shy_opinion;Shy Opinion;;;;;;;;;;;;;x
socializer_opinion;Socialiser Opinion;;;;;;;;;;;;;x
proud_opinion;Proud Opinion;;;;;;;;;;;;;x
greedy_opinion;Greedy Opinion;;;;;;;;;;;;;x
kind_opinion;Kind Opinion;;;;;;;;;;;;;x
emperor_yiti_opinion;Dedicated to the Emperor Opinion;;;;;;;;;;;;;x
nightswatch_opinion;Black Brother Opinion;;;;;;;;;;;;;x
tiger_opinion;Tiger Opinion;;;;;;;;;;;;;x
elephant_opinion;Elephant Opinion;;;;;;;;;;;;;x
honorable_opinion;Honorable Opinion;;;;;;;;;;;;;x
septon_opinion;Septon Opinion;;;;;;;;;;;;;x
sympathy_wildling_religion_opinion;Wildling Sympathiser Opinion;;;;;;;;;;;;;x
