####Duskendale
mbs_reclaim_riv_duskendale_dec;Press Claim to Duskendale;;;;;;;;;;;;;x
mbs_reclaim_riv_duskendale_dec_desc;When Aegon the Dragon conquered Westeros he carved out an area of land from the Reach, the Riverlands, and the Stormlands that would be sworn directly to him and his heirs in Kings Landing, calling them the Crownlands. But that was then. You do no fealty to the Iron Throne and rule the Riverlands as undisputed overlord of all the Trident. Perhaps now is the time to take back those lands that are part of your realm by right starting by asserting your claim to the High Lordship of Duskendale?;;;;;;;;;;;;;x
EVTtitlembs_crownlands.1;Reclaiming Duskendale;;;;;;;;;;;;;x
EVTDESCmbs_crownlands.1;You call your maester to you and order them to send ravens to all your vassals far and wide. After Aegon the Dragon broke Harren the Black he took Duskendale for his own to form part of the new "Crownlands." But you no longer bow to the King on the Iron Throne. You now rule the Trident as its undisputed master and you intend to retake the land that is rightly part of your realm. Let all know that you are the rightful master of Duskendale.;;;;;;;;;;;;;x
EVTtitlembs_crownlands.101;A Disgraceful Affront;;;;;;;;;;;;;x
EVTDESCmbs_crownlands.101;My [This.GetLordLady], outrageous news from [From.Capital.GetName]. It seems that [From.GetTitledFirstNameWithDynasty] has decided that as they owe no loyalty to the Iron Throne, they are no longer beholden to the proclamation by which Aegon the Conqueror established the Crownlands and made Duskendale a constituent part of them. Now [From.GetTitledFirstName] seeks to reunite the ancient Riverlands and has delared the High Lordship of Duskendale and all subordinate lands as rightfully part of the Trident.;;;;;;;;;;;;;x
EVTtitlembs_crownlands.102;A Concerning Proclamation;;;;;;;;;;;;;x
EVTDESCmbs_crownlands.102;My [This.GetLordLady], news from [From.Capital.GetName]. It seems that [From.GetTitledFirstNameWithDynasty] has decided that as they owe no loyalty to the Iron Throne, they are no longer beholden to the proclamation by which Aegon the Conqueror established the Crownlands and made Duskendale a constituent part of them. Now [From.GetTitledFirstName] seeks to reunite the ancient Riverlands and has delared the High Lordship of Duskendale and all subordinate lands as rightfully part of the Trident and that we, by rights, are their vassal.;;;;;;;;;;;;;x
####Hayford
mbs_reclaim_riv_hayford_dec;Press Claim to Hayford;;;;;;;;;;;;;x
mbs_reclaim_riv_hayford_dec_desc;When Aegon the Dragon conquered Westeros he carved out an area of land from the Reach, the Riverlands, and the Stormlands that would be sworn directly to him and his heirs in Kings Landing, calling them the Crownlands. But that was then. You do no fealty to the Iron Throne and rule the Riverlands as undisputed overlord of all the Trident. Perhaps now is the time to take back those lands that are part of your realm by right starting by asserting your claim to the High Lordship of Hayford?;;;;;;;;;;;;;x
EVTtitlembs_crownlands.2;Reclaiming Hayford;;;;;;;;;;;;;x
EVTDESCmbs_crownlands.2;You call your maester to you and order them to send ravens to all your vassals far and wide. After Aegon the Dragon broke Harren the Black he took Hayford for his own to form part of the new "Crownlands." But you no longer bow to the King on the Iron Throne. You now rule the Trident as its undisputed master and you intend to retake the land that is rightly part of your realm. Let all know that you are the rightful master of Hayford.;;;;;;;;;;;;;x
EVTtitlembs_crownlands.201;A Disgraceful Affront;;;;;;;;;;;;;x
EVTDESCmbs_crownlands.201;My [This.GetLordLady], outrageous news from [From.Capital.GetName]. It seems that [From.GetTitledFirstNameWithDynasty] has decided that as they owe no loyalty to the Iron Throne, they are no longer beholden to the proclamation by which Aegon the Conqueror established the Crownlands and made Hayford a constituent part of them. Now [From.GetTitledFirstName] seeks to reunite the ancient Riverlands and has delared the High Lordship of Hayford and all subordinate lands as rightfully part of the Trident.;;;;;;;;;;;;;x
EVTtitlembs_crownlands.202;A Concerning Proclamation;;;;;;;;;;;;;x
EVTDESCmbs_crownlands.202;My [This.GetLordLady], news from [From.Capital.GetName]. It seems that [From.GetTitledFirstNameWithDynasty] has decided that as they owe no loyalty to the Iron Throne, they are no longer beholden to the proclamation by which Aegon the Conqueror established the Crownlands and made Hayford a constituent part of them. Now [From.GetTitledFirstName] seeks to reunite the ancient Riverlands and has delared the High Lordship of Hayford and all subordinate lands as rightfully part of the Trident and that we, by rights, are their vassal.;;;;;;;;;;;;;x
####Rosby
mbs_reclaim_riv_rosby_dec;Press Claim to Rosby;;;;;;;;;;;;;x
mbs_reclaim_riv_rosby_dec_desc;When Aegon the Dragon conquered Westeros he carved out an area of land from the Reach, the Riverlands, and the Stormlands that would be sworn directly to him and his heirs in Kings Landing, calling them the Crownlands. But that was then. You do no fealty to the Iron Throne and rule the Riverlands as undisputed overlord of all the Trident. Perhaps now is the time to take back those lands that are part of your realm by right starting by asserting your claim to the High Lordship of Rosby?;;;;;;;;;;;;;x
EVTtitlembs_crownlands.3;Reclaiming Rosby;;;;;;;;;;;;;x
EVTDESCmbs_crownlands.3;You call your maester to you and order them to send ravens to all your vassals far and wide. After Aegon the Dragon broke Harren the Black he took Rosby for his own to form part of the new "Crownlands." But you no longer bow to the King on the Iron Throne. You now rule the Trident as its undisputed master and you intend to retake the land that is rightly part of your realm. Let all know that you are the rightful master of Rosby.;;;;;;;;;;;;;x
EVTtitlembs_crownlands.301;A Disgraceful Affront;;;;;;;;;;;;;x
EVTDESCmbs_crownlands.301;My [This.GetLordLady], outrageous news from [From.Capital.GetName]. It seems that [From.GetTitledFirstNameWithDynasty] has decided that as they owe no loyalty to the Iron Throne, they are no longer beholden to the proclamation by which Aegon the Conqueror established the Crownlands and made Rosby a constituent part of them. Now [From.GetTitledFirstName] seeks to reunite the ancient Riverlands and has delared the High Lordship of Rosby and all subordinate lands as rightfully part of the Trident.;;;;;;;;;;;;;x
EVTtitlembs_crownlands.302;A Concerning Proclamation;;;;;;;;;;;;;x
EVTDESCmbs_crownlands.302;My [This.GetLordLady], news from [From.Capital.GetName]. It seems that [From.GetTitledFirstNameWithDynasty] has decided that as they owe no loyalty to the Iron Throne, they are no longer beholden to the proclamation by which Aegon the Conqueror established the Crownlands and made Rosby a constituent part of them. Now [From.GetTitledFirstName] seeks to reunite the ancient Riverlands and has delared the High Lordship of Rosby and all subordinate lands as rightfully part of the Trident and that we, by rights, are their vassal.;;;;;;;;;;;;;x
####Stokeworth
mbs_reclaim_riv_stokeworth_dec;Press Claim to Stokeworth;;;;;;;;;;;;;x
mbs_reclaim_riv_stokeworth_dec_desc;When Aegon the Dragon conquered Westeros he carved out an area of land from the Reach, the Riverlands, and the Stormlands that would be sworn directly to him and his heirs in Kings Landing, calling them the Crownlands. But that was then. You do no fealty to the Iron Throne and rule the Riverlands as undisputed overlord of all the Trident. Perhaps now is the time to take back those lands that are part of your realm by right starting by asserting your claim to the High Lordship of Stokeworth?;;;;;;;;;;;;;x
EVTtitlembs_crownlands.4;Reclaiming Stokeworth;;;;;;;;;;;;;x
EVTDESCmbs_crownlands.4;You call your maester to you and order them to send ravens to all your vassals far and wide. After Aegon the Dragon broke Harren the Black he took Stokeworth for his own to form part of the new "Crownlands." But you no longer bow to the King on the Iron Throne. You now rule the Trident as its undisputed master and you intend to retake the land that is rightly part of your realm. Let all know that you are the rightful master of Stokeworth.;;;;;;;;;;;;;x
EVTtitlembs_crownlands.401;A Disgraceful Affront;;;;;;;;;;;;;x
EVTDESCmbs_crownlands.401;My [This.GetLordLady], outrageous news from [From.Capital.GetName]. It seems that [From.GetTitledFirstNameWithDynasty] has decided that as they owe no loyalty to the Iron Throne, they are no longer beholden to the proclamation by which Aegon the Conqueror established the Crownlands and made Stokeworth a constituent part of them. Now [From.GetTitledFirstName] seeks to reunite the ancient Riverlands and has delared the High Lordship of Stokeworth and all subordinate lands as rightfully part of the Trident.;;;;;;;;;;;;;x
EVTtitlembs_crownlands.402;A Concerning Proclamation;;;;;;;;;;;;;x
EVTDESCmbs_crownlands.402;My [This.GetLordLady], news from [From.Capital.GetName]. It seems that [From.GetTitledFirstNameWithDynasty] has decided that as they owe no loyalty to the Iron Throne, they are no longer beholden to the proclamation by which Aegon the Conqueror established the Crownlands and made Stokeworth a constituent part of them. Now [From.GetTitledFirstName] seeks to reunite the ancient Riverlands and has delared the High Lordship of Stokeworth and all subordinate lands as rightfully part of the Trident and that we, by rights, are their vassal.;;;;;;;;;;;;;x
####the Blackwater Rush
mbs_reclaim_riv_blackwater_rush_dec;Press Claim to the Blackwater Rush;;;;;;;;;;;;;x
mbs_reclaim_riv_blackwater_rush_dec_desc;When Aegon the Dragon conquered Westeros he carved out an area of land from the Reach, the Riverlands, and the Stormlands that would be sworn directly to him and his heirs in Kings Landing, calling them the Crownlands. But that was then. You do no fealty to the Iron Throne and rule the Riverlands as undisputed overlord of all the Trident. Perhaps now is the time to take back those lands that are part of your realm by right starting by asserting your claim to the High Lordship of the Blackwater Rush?;;;;;;;;;;;;;x
EVTtitlembs_crownlands.5;Reclaiming the Blackwater Rush;;;;;;;;;;;;;x
EVTDESCmbs_crownlands.5;You call your maester to you and order them to send ravens to all your vassals far and wide. After Aegon the Dragon broke Harren the Black he took the Blackwater Rush for his own to form part of the new "Crownlands." But you no longer bow to the King on the Iron Throne. You now rule the Trident as its undisputed master and you intend to retake the land that is rightly part of your realm. Let all know that you are the rightful master of the Blackwater Rush.;;;;;;;;;;;;;x
EVTtitlembs_crownlands.501;A Disgraceful Affront;;;;;;;;;;;;;x
EVTDESCmbs_crownlands.501;My [This.GetLordLady], outrageous news from [From.Capital.GetName]. It seems that [From.GetTitledFirstNameWithDynasty] has decided that as they owe no loyalty to the Iron Throne, they are no longer beholden to the proclamation by which Aegon the Conqueror established the Crownlands and made the Blackwater Rush a constituent part of them. Now [From.GetTitledFirstName] seeks to reunite the ancient Riverlands and has delared the High Lordship of the Blackwater Rush and all subordinate lands as rightfully part of the Trident.;;;;;;;;;;;;;x
EVTtitlembs_crownlands.502;A Concerning Proclamation;;;;;;;;;;;;;x
EVTDESCmbs_crownlands.502;My [This.GetLordLady], news from [From.Capital.GetName]. It seems that [From.GetTitledFirstNameWithDynasty] has decided that as they owe no loyalty to the Iron Throne, they are no longer beholden to the proclamation by which Aegon the Conqueror established the Crownlands and made the Blackwater Rush a constituent part of them. Now [From.GetTitledFirstName] seeks to reunite the ancient Riverlands and has delared the High Lordship of the Blackwater Rush and all subordinate lands as rightfully part of the Trident and that we, by rights, are their vassal.;;;;;;;;;;;;;x
####the Kingswood
mbs_reclaim_storm_kingswood_dec;Press Claim to the Kingswood;;;;;;;;;;;;;x
mbs_reclaim_storm_kingswood_dec_desc;When Aegon the Dragon conquered Westeros he carved out an area of land from the Reach, the Riverlands, and the Stormlands that would be sworn directly to him and his heirs in Kings Landing, calling them the Crownlands. But that was then. You do no fealty to the Iron Throne and rule the Stormlands as its undisputed overlord. Perhaps now is the time to take back those lands that are part of your realm by right starting by asserting your claim to the High Lordship of the Kingswood?;;;;;;;;;;;;;x
EVTtitlembs_crownlands.6;Reclaiming the Kingswood;;;;;;;;;;;;;x
EVTDESCmbs_crownlands.6;You call your maester to you and order them to send ravens to all your vassals far and wide. After Aegon the Dragon broke Argilac the Arrogant he took the Kingswood for his own to form part of the new "Crownlands." But you no longer bow to the King on the Iron Throne. You now rule the Stormlands as its undisputed master and you intend to retake the land that is rightly part of your realm. Let all know that you are the rightful master of the Kingswood.;;;;;;;;;;;;;x
EVTtitlembs_crownlands.601;A Disgraceful Affront;;;;;;;;;;;;;x
EVTDESCmbs_crownlands.601;My [This.GetLordLady], outrageous news from [From.Capital.GetName]. It seems that [From.GetTitledFirstNameWithDynasty] has decided that as they owe no loyalty to the Iron Throne, they are no longer beholden to the proclamation by which Aegon the Conqueror established the Crownlands and made the Kingswood a constituent part of them. Now [From.GetTitledFirstName] seeks to reunite the ancient Stormlands and has delared the High Lordship of the Kingswood and all subordinate lands as rightfully part of the Kingdom of the Stormlands.;;;;;;;;;;;;;x
EVTtitlembs_crownlands.602;A Concerning Proclamation;;;;;;;;;;;;;x
EVTDESCmbs_crownlands.602;My [This.GetLordLady], news from [From.Capital.GetName]. It seems that [From.GetTitledFirstNameWithDynasty] has decided that as they owe no loyalty to the Iron Throne, they are no longer beholden to the proclamation by which Aegon the Conqueror established the Crownlands and made the Kingswood a constituent part of them. Now [From.GetTitledFirstName] seeks to reunite the ancient Stormlands and has delared the High Lordship of the Kingswood and all subordinate lands as rightfully part of the Trident and that we, by rights, are their vassal.;;;;;;;;;;;;;x
####Massey's Hook
mbs_reclaim_storm_masseyshook_dec;Press Claim to Massey's Hook;;;;;;;;;;;;;x
mbs_reclaim_storm_masseyshook_dec_desc;When Aegon the Dragon conquered Westeros he carved out an area of land from the Reach, the Riverlands, and the Stormlands that would be sworn directly to him and his heirs in Kings Landing, calling them the Crownlands. But that was then. You do no fealty to the Iron Throne and rule the Stormlands as its undisputed overlord. Perhaps now is the time to take back those lands that are part of your realm by right starting by asserting your claim to the High Lordship of Massey's Hook?;;;;;;;;;;;;;x
EVTtitlembs_crownlands.7;Reclaiming Massey's Hook;;;;;;;;;;;;;x
EVTDESCmbs_crownlands.7;You call your maester to you and order them to send ravens to all your vassals far and wide. After Aegon the Dragon broke Argilac the Arrogant he took Massey's Hook for his own to form part of the new "Crownlands." But you no longer bow to the King on the Iron Throne. You now rule the Stormlands as its undisputed master and you intend to retake the land that is rightly part of your realm. Let all know that you are the rightful master of Massey's Hook.;;;;;;;;;;;;;x
EVTtitlembs_crownlands.701;A Disgraceful Affront;;;;;;;;;;;;;x
EVTDESCmbs_crownlands.701;My [This.GetLordLady], outrageous news from [From.Capital.GetName]. It seems that [From.GetTitledFirstNameWithDynasty] has decided that as they owe no loyalty to the Iron Throne, they are no longer beholden to the proclamation by which Aegon the Conqueror established the Crownlands and made Massey's Hook a constituent part of them. Now [From.GetTitledFirstName] seeks to reunite the ancient Stormlands and has delared the High Lordship of Massey's Hook and all subordinate lands as rightfully part of the Kingdom of the Stormlands.;;;;;;;;;;;;;x
EVTtitlembs_crownlands.702;A Concerning Proclamation;;;;;;;;;;;;;x
EVTDESCmbs_crownlands.702;My [This.GetLordLady], news from [From.Capital.GetName]. It seems that [From.GetTitledFirstNameWithDynasty] has decided that as they owe no loyalty to the Iron Throne, they are no longer beholden to the proclamation by which Aegon the Conqueror established the Crownlands and made Massey's Hook a constituent part of them. Now [From.GetTitledFirstName] seeks to reunite the ancient Stormlands and has delared the High Lordship of Massey's Hook and all subordinate lands as rightfully part of the Trident and that we, by rights, are their vassal.;;;;;;;;;;;;;x
#######Crownlands Reclamation
####Duskendale
mbs_reclaim_crown_duskendale_dec;Press Claim to Duskendale;;;;;;;;;;;;;x
mbs_reclaim_crown_duskendale_dec_desc;When Aegon the Dragon conquered Westeros he carved out an area of land from the Reach, the Riverlands, and the Stormlands that would be sworn directly to him and his heirs in Kings Landing, calling them the Crownlands. But the traitorous Riverlords have broken away from your rule and divided your rightful demesne. Perhaps now is the time to take back those lands that are part of your realm by right starting by asserting your claim to the High Lordship of Duskendale?;;;;;;;;;;;;;x
EVTtitlembs_crownlands.10;Reclaiming Duskendale;;;;;;;;;;;;;x
EVTDESCmbs_crownlands.10;You call your maester to you and order them to send ravens to all your vassals far and wide. After Aegon the Dragon broke Harren the Black he took Duskendale for his own to form part of the new "Crownlands." But rebels and traitors have taken your rightful lands from you, and you intend to retake the land that is rightly part of your realm. Let all know that you are the rightful master of Duskendale.;;;;;;;;;;;;;x
EVTtitlembs_crownlands.1001;A Disgraceful Affront;;;;;;;;;;;;;x
EVTDESCmbs_crownlands.1001;My [This.GetLordLady], outrageous news from [From.Capital.GetName]. It seems that [From.GetTitledFirstNameWithDynasty] has decided that as they rule the Iron Throne, they will restore the Crownlands to the borders established by Aegon the Conqueror. Now [From.GetTitledFirstName] seeks to reunite their supposed demesne and has delared the High Lordship of Duskendale and all subordinate lands as rightfully part of the Trident.;;;;;;;;;;;;;x
EVTtitlembs_crownlands.1002;A Concerning Proclamation;;;;;;;;;;;;;x
EVTDESCmbs_crownlands.1002;My [This.GetLordLady], news from [From.Capital.GetName]. It seems that [From.GetTitledFirstNameWithDynasty] has decided that as they rule the Iron Throne, they will restore the Crownlands to the borders established by Aegon the Conqueror. Now [From.GetTitledFirstName] seeks to reunite their supposed demesne and has delared the High Lordship of Duskendale and all subordinate lands as rightfully part of the Trident and that we, by rights, are their vassal.;;;;;;;;;;;;;x
####Hayford
mbs_reclaim_crown_hayford_dec;Press Claim to Hayford;;;;;;;;;;;;;x
mbs_reclaim_crown_hayford_dec_desc;When Aegon the Dragon conquered Westeros he carved out an area of land from the Reach, the Riverlands, and the Stormlands that would be sworn directly to him and his heirs in Kings Landing, calling them the Crownlands. But the traitorous Riverlords have broken away from your rule and divided your rightful demesne. Perhaps now is the time to take back those lands that are part of your realm by right starting by asserting your claim to the High Lordship of Hayford?;;;;;;;;;;;;;x
EVTtitlembs_crownlands.11;Reclaiming Hayford;;;;;;;;;;;;;x
EVTDESCmbs_crownlands.11;You call your maester to you and order them to send ravens to all your vassals far and wide. After Aegon the Dragon broke Harren the Black he took Hayford for his own to form part of the new "Crownlands." But rebels and traitors have taken your rightful lands from you, and you intend to retake the land that is rightly part of your realm. Let all know that you are the rightful master of Hayford.;;;;;;;;;;;;;x
EVTtitlembs_crownlands.1101;A Disgraceful Affront;;;;;;;;;;;;;x
EVTDESCmbs_crownlands.1101;My [This.GetLordLady], outrageous news from [From.Capital.GetName]. It seems that [From.GetTitledFirstNameWithDynasty] has decided that as they rule the Iron Throne, they will restore the Crownlands to the borders established by Aegon the Conqueror. Now [From.GetTitledFirstName] seeks to reunite their supposed demesne and has delared the High Lordship of Hayford and all subordinate lands as rightfully part of the Trident.;;;;;;;;;;;;;x
EVTtitlembs_crownlands.1102;A Concerning Proclamation;;;;;;;;;;;;;x
EVTDESCmbs_crownlands.1102;My [This.GetLordLady], news from [From.Capital.GetName]. It seems that [From.GetTitledFirstNameWithDynasty] has decided that as they rule the Iron Throne, they will restore the Crownlands to the borders established by Aegon the Conqueror. Now [From.GetTitledFirstName] seeks to reunite their supposed demesne and has delared the High Lordship of Hayford and all subordinate lands as rightfully part of the Trident and that we, by rights, are their vassal.;;;;;;;;;;;;;x
####Rosby
mbs_reclaim_crown_rosby_dec;Press Claim to Rosby;;;;;;;;;;;;;x
mbs_reclaim_crown_rosby_dec_desc;When Aegon the Dragon conquered Westeros he carved out an area of land from the Reach, the Riverlands, and the Stormlands that would be sworn directly to him and his heirs in Kings Landing, calling them the Crownlands. But the traitorous Riverlords have broken away from your rule and divided your rightful demesne. Perhaps now is the time to take back those lands that are part of your realm by right starting by asserting your claim to the High Lordship of Rosby?;;;;;;;;;;;;;x
EVTtitlembs_crownlands.12;Reclaiming Rosby;;;;;;;;;;;;;x
EVTDESCmbs_crownlands.12;You call your maester to you and order them to send ravens to all your vassals far and wide. After Aegon the Dragon broke Harren the Black he took Rosby for his own to form part of the new "Crownlands." But rebels and traitors have taken your rightful lands from you, and you intend to retake the land that is rightly part of your realm. Let all know that you are the rightful master of Rosby.;;;;;;;;;;;;;x
EVTtitlembs_crownlands.1201;A Disgraceful Affront;;;;;;;;;;;;;x
EVTDESCmbs_crownlands.1201;My [This.GetLordLady], outrageous news from [From.Capital.GetName]. It seems that [From.GetTitledFirstNameWithDynasty] has decided that as they rule the Iron Throne, they will restore the Crownlands to the borders established by Aegon the Conqueror. Now [From.GetTitledFirstName] seeks to reunite their supposed demesne and has delared the High Lordship of Rosby and all subordinate lands as rightfully part of the Trident.;;;;;;;;;;;;;x
EVTtitlembs_crownlands.1202;A Concerning Proclamation;;;;;;;;;;;;;x
EVTDESCmbs_crownlands.1202;My [This.GetLordLady], news from [From.Capital.GetName]. It seems that [From.GetTitledFirstNameWithDynasty] has decided that as they rule the Iron Throne, they will restore the Crownlands to the borders established by Aegon the Conqueror. Now [From.GetTitledFirstName] seeks to reunite their supposed demesne and has delared the High Lordship of Rosby and all subordinate lands as rightfully part of the Trident and that we, by rights, are their vassal.;;;;;;;;;;;;;x
####Stokeworth
mbs_reclaim_crown_stokeworth_dec;Press Claim to Stokeworth;;;;;;;;;;;;;x
mbs_reclaim_crown_stokeworth_dec_desc;When Aegon the Dragon conquered Westeros he carved out an area of land from the Reach, the Riverlands, and the Stormlands that would be sworn directly to him and his heirs in Kings Landing, calling them the Crownlands. But the traitorous Riverlords have broken away from your rule and divided your rightful demesne. Perhaps now is the time to take back those lands that are part of your realm by right starting by asserting your claim to the High Lordship of Stokeworth?;;;;;;;;;;;;;x
EVTtitlembs_crownlands.13;Reclaiming Stokeworth;;;;;;;;;;;;;x
EVTDESCmbs_crownlands.13;You call your maester to you and order them to send ravens to all your vassals far and wide. After Aegon the Dragon broke Harren the Black he took Stokeworth for his own to form part of the new "Crownlands." But rebels and traitors have taken your rightful lands from you, and you intend to retake the land that is rightly part of your realm. Let all know that you are the rightful master of Stokeworth.;;;;;;;;;;;;;x
EVTtitlembs_crownlands.1301;A Disgraceful Affront;;;;;;;;;;;;;x
EVTDESCmbs_crownlands.1301;My [This.GetLordLady], outrageous news from [From.Capital.GetName]. It seems that [From.GetTitledFirstNameWithDynasty] has decided that as they rule the Iron Throne, they will restore the Crownlands to the borders established by Aegon the Conqueror. Now [From.GetTitledFirstName] seeks to reunite their supposed demesne and has delared the High Lordship of Stokeworth and all subordinate lands as rightfully part of the Trident.;;;;;;;;;;;;;x
EVTtitlembs_crownlands.1302;A Concerning Proclamation;;;;;;;;;;;;;x
EVTDESCmbs_crownlands.1302;My [This.GetLordLady], news from [From.Capital.GetName]. It seems that [From.GetTitledFirstNameWithDynasty] has decided that as they rule the Iron Throne, they will restore the Crownlands to the borders established by Aegon the Conqueror. Now [From.GetTitledFirstName] seeks to reunite their supposed demesne and has delared the High Lordship of Stokeworth and all subordinate lands as rightfully part of the Trident and that we, by rights, are their vassal.;;;;;;;;;;;;;x
####the Blackwater Rush
mbs_reclaim_crown_blackwater_rush_dec;Press Claim to the Blackwater Rush;;;;;;;;;;;;;x
mbs_reclaim_crown_blackwater_rush_dec_desc;When Aegon the Dragon conquered Westeros he carved out an area of land from the Reach, the Riverlands, and the Stormlands that would be sworn directly to him and his heirs in Kings Landing, calling them the Crownlands. But the traitorous Riverlords have broken away from your rule and divided your rightful demesne. Perhaps now is the time to take back those lands that are part of your realm by right starting by asserting your claim to the High Lordship of the Blackwater Rush?;;;;;;;;;;;;;x
EVTtitlembs_crownlands.14;Reclaiming the Blackwater Rush;;;;;;;;;;;;;x
EVTDESCmbs_crownlands.14;You call your maester to you and order them to send ravens to all your vassals far and wide. After Aegon the Dragon broke Harren the Black he took the Blackwater Rush for his own to form part of the new "Crownlands." But rebels and traitors have taken your rightful lands from you, and you intend to retake the land that is rightly part of your realm. Let all know that you are the rightful master of the Blackwater Rush.;;;;;;;;;;;;;x
EVTtitlembs_crownlands.1401;A Disgraceful Affront;;;;;;;;;;;;;x
EVTDESCmbs_crownlands.1401;My [This.GetLordLady], outrageous news from [From.Capital.GetName]. It seems that [From.GetTitledFirstNameWithDynasty] has decided that as they rule the Iron Throne, they will restore the Crownlands to the borders established by Aegon the Conqueror. Now [From.GetTitledFirstName] seeks to reunite their supposed demesne and has delared the High Lordship of the Blackwater Rush and all subordinate lands as rightfully part of the Trident.;;;;;;;;;;;;;x
EVTtitlembs_crownlands.1402;A Concerning Proclamation;;;;;;;;;;;;;x
EVTDESCmbs_crownlands.1402;My [This.GetLordLady], news from [From.Capital.GetName]. It seems that [From.GetTitledFirstNameWithDynasty] has decided that as they rule the Iron Throne, they will restore the Crownlands to the borders established by Aegon the Conqueror. Now [From.GetTitledFirstName] seeks to reunite their supposed demesne and has delared the High Lordship of the Blackwater Rush and all subordinate lands as rightfully part of the Trident and that we, by rights, are their vassal.;;;;;;;;;;;;;x
####the Kingswood
mbs_reclaim_crown_kingswood_dec;Press Claim to the Kingswood;;;;;;;;;;;;;x
mbs_reclaim_crown_kingswood_dec_desc;When Aegon the Dragon conquered Westeros he carved out an area of land from the Reach, the Riverlands, and the Stormlands that would be sworn directly to him and his heirs in Kings Landing, calling them the Crownlands. But the traitorous Stormlord have broken away from your rule and divided your rightful demesne. Perhaps now is the time to take back those lands that are part of your realm by right starting by asserting your claim to the High Lordship of the Kingswood?;;;;;;;;;;;;;x
EVTtitlembs_crownlands.15;Reclaiming the Kingswood;;;;;;;;;;;;;x
EVTDESCmbs_crownlands.15;You call your maester to you and order them to send ravens to all your vassals far and wide. After Aegon the Dragon broke Argilac the Arrogant he took the Kingswood for his own to form part of the new "Crownlands." But rebels and traitors have taken your rightful lands from you, and you intend to retake the land that is rightly part of your realm. Let all know that you are the rightful master of the Kingswood.;;;;;;;;;;;;;x
EVTtitlembs_crownlands.1501;A Disgraceful Affront;;;;;;;;;;;;;x
EVTDESCmbs_crownlands.1501;My [This.GetLordLady], outrageous news from [From.Capital.GetName]. It seems that [From.GetTitledFirstNameWithDynasty] has decided that as they rule the Iron Throne, they will restore the Crownlands to the borders established by Aegon the Conqueror. Now [From.GetTitledFirstName] seeks to reunite their supposed demesne and has delared the High Lordship of the Kingswood and all subordinate lands as rightfully part of the Kingdom of the Stormlands.;;;;;;;;;;;;;x
EVTtitlembs_crownlands.1502;A Concerning Proclamation;;;;;;;;;;;;;x
EVTDESCmbs_crownlands.1502;My [This.GetLordLady], news from [From.Capital.GetName]. It seems that [From.GetTitledFirstNameWithDynasty] has decided that as they rule the Iron Throne, they will restore the Crownlands to the borders established by Aegon the Conqueror. Now [From.GetTitledFirstName] seeks to reunite their supposed demesne and has delared the High Lordship of the Kingswood and all subordinate lands as rightfully part of the Trident and that we, by rights, are their vassal.;;;;;;;;;;;;;x
####Massey's Hook
mbs_reclaim_crown_masseyshook_dec;Press Claim to Massey's Hook;;;;;;;;;;;;;x
mbs_reclaim_crown_masseyshook_dec_desc;When Aegon the Dragon conquered Westeros he carved out an area of land from the Reach, the Riverlands, and the Stormlands that would be sworn directly to him and his heirs in Kings Landing, calling them the Crownlands. But the traitorous Stormlords have broken away from your rule and divided your rightful demesne. Perhaps now is the time to take back those lands that are part of your realm by right starting by asserting your claim to the High Lordship of Massey's Hook?;;;;;;;;;;;;;x
EVTtitlembs_crownlands.16;Reclaiming Massey's Hook;;;;;;;;;;;;;x
EVTDESCmbs_crownlands.16;You call your maester to you and order them to send ravens to all your vassals far and wide. After Aegon the Dragon broke Argilac the Arrogant he took Massey's Hook for his own to form part of the new "Crownlands." But rebels and traitors have taken your rightful lands from you, and you intend to retake the land that is rightly part of your realm. Let all know that you are the rightful master of Massey's Hook.;;;;;;;;;;;;;x
EVTtitlembs_crownlands.1601;A Disgraceful Affront;;;;;;;;;;;;;x
EVTDESCmbs_crownlands.1601;My [This.GetLordLady], outrageous news from [From.Capital.GetName]. It seems that [From.GetTitledFirstNameWithDynasty] has decided that as they rule the Iron Throne, they will restore the Crownlands to the borders established by Aegon the Conqueror. Now [From.GetTitledFirstName] seeks to reunite their supposed demesne and has delared the High Lordship of Massey's Hook and all subordinate lands as rightfully part of the Kingdom of the Stormlands.;;;;;;;;;;;;;x
EVTtitlembs_crownlands.1602;A Concerning Proclamation;;;;;;;;;;;;;x
EVTDESCmbs_crownlands.1602;My [This.GetLordLady], news from [From.Capital.GetName]. It seems that [From.GetTitledFirstNameWithDynasty] has decided that as they rule the Iron Throne, they will restore the Crownlands to the borders established by Aegon the Conqueror. Now [From.GetTitledFirstName] seeks to reunite their supposed demesne and has delared the High Lordship of Massey's Hook and all subordinate lands as rightfully part of the Trident and that we, by rights, are their vassal.;;;;;;;;;;;;;x
