#CODE;ENGLISH;FRENCH;GERMAN;;SPANISH;;;;;;;;;x
BM_SCOURING_LORATH;Scouring of Lorath;;;;;;;;;;;;;x
BM_SCOURING_LORATH_DESC;Having solidified his hold over Andalos, High King Qarlon the Great has set his sights on conquering the Free City of Norvos.;;;;;;;;;;;;;x
BM_BATTLE_SEVEN_STARS;Battle of Seven Stars;;;;;;;;;;;;;x
BM_BATTLE_SEVEN_STARS_DESC;United under King Robar Royce, the First Men of the Vale rally to make one last stand against the Andal invaders. The Andals have also united behind Ser Artys Arryn a young warrior known as the Falcon Knight.;;;;;;;;;;;;;x
BM_HUNGRY_WOLF;The Hungry Wolf;;;;;;;;;;;;;x
BM_HUNGRY_WOLF_DESC;King Theon Stark rules the North at a time when it is beset on all sides.  Ironborn raid the west coasts, Andals emboldened by their victories in the south have been known to make landfall on the east coasts and the threat of the Wildlings beyond the Wall can never be discounted.  Elsewhere in Westeros the First Men continue to struggle against the seemingly endless tide of Andal invaders.;;;;;;;;;;;;;x
BM_HAMMER_JUSTICE;The Hammer of Justice;;;;;;;;;;;;;x
BM_HAMMER_JUSTICE_DESC;As Andals continue to invade Westeros, King Trister Mudd of the Riverlands establishes himself as the greatest defender of the First Men.  Known as the Hammer of Justice, he has won 99 battles against the inavders.  Having recently defeated an invasion from King Roland Arryn, The Hammer of Justice now finds himself beset by a powerful Andal warlord Armistead Vance.;;;;;;;;;;;;;x
BM_LIGHT_SEVEN;Light of the Seven;;;;;;;;;;;;;x
BM_LIGHT_SEVEN_DESC;With the fighting largely over and the greatest heroes all defeated, the wisest of the First Men realised that resisting the tide of invaders was not possible.  Many of them also saw their way to adopting the worship of the Andal's seven gods.  What will the future hold for Westeros in this new age?;;;;;;;;;;;;;x
ERA_CHAR_NAME_901174999;King Qarlon the Great;;;;;;;;;;;;;x
ERA_CHAR_NAME_900178;Ser Artys Arryn;;;;;;;;;;;;;x
ERA_CHAR_NAME_557187;King Robar Royce;;;;;;;;;;;;;x
ERA_CHAR_NAME_1911544;King Erich the Unready;;;;;;;;;;;;;x
ERA_CHAR_NAME_550176;Corwyn Corbray;;;;;;;;;;;;;x
ERA_CHAR_NAME_815058;King Jon Stark;;;;;;;;;;;;;x
ERA_CHAR_NAME_1941544;King Qarlton the Conqueror;;;;;;;;;;;;;x
ERA_CHAR_NAME_687015243;King Gwayne Gardner;;;;;;;;;;;;;x
ERA_CHAR_NAME_559178;King Hugo Arryn;;;;;;;;;;;;;x
ERA_CHAR_NAME_80401190;King Gerrold Lannister;;;;;;;;;;;;;x
ERA_CHAR_INFO_901174999;King Qarlon the Great.  After 20 years and as many wars, Qarlon the Great has proclaimed himself High King of All Andals.  Bolstered by his victories, he has lead his host against the Free City of Norvos.  The Norvoshi however are allied with the Dragonlords of Valyria who are wont to come to the aid of their distant daughter.  Can Qarlong the Great's seemingly endless victories continue against such odds?;;;;;;;;;;;;;x
ERA_CHAR_INFO_900178;Ser Artys Arryn, a third generation Andal warrior born in the Vale.  Chosen by all the Andal kings and warlords in the Vale to lead their final battle against the First Men.;;;;;;;;;;;;;x
ERA_CHAR_INFO_557187;King Robar Royce the first High King of the Vale.  As their defeat seemed certain, the remaining First Men kings of the Vale set aside their crowns and swore themselves to Robar Royce in a last ditch effort to turn the tide.  Already having won a series of victories agianst the Hammer of the Hills and the Corbray Kings of the Fingers, it would appear as though the First Men may retake their lands afterall.;;;;;;;;;;;;;x
ERA_CHAR_INFO_1911544;King Erich Durrandon, known to history ever after as 'the unready' because he ignored the threat of the Andal landings.  Embroiled in a war with the pirate king Justin Massey to the north and suffering raids from Olyvar Yronwood to the south, can Erich Durrandon prevail?;;;;;;;;;;;;;x
ERA_CHAR_INFO_550176;Corwyn Corbray, the earliest known Andal adventurer to land in Westeros.  Landing on a small strip of land in the Fingers, Corwyn finds himself surrouned on either side by houses Shell and Brightstone and the many petty kings of the Vale can this brave adevnturer claim this savage land for the Seven Gods?;;;;;;;;;;;;;x
ERA_CHAR_INFO_815058;King Jon Stark the King of Winter.  After many thousands of years house Stark has claimed dominion over most of the North with only the Bolton Red Kings of the Dreafort remaining to oppose them.  King Jon Stark is determined to defeat the Red Kings and make them bend the knee.;;;;;;;;;;;;;x
ERA_CHAR_INFO_1941544;King Qarlton Durrandon known as the Conqueror.  Strong and fierce, this young Storm King seeks to end generation of warfare by completeing the conquest of Massey's Hook. ;;;;;;;;;;;;;x
ERA_CHAR_INFO_687015243;King Gwayne Gardner a wise and cunning king of the Reach.  Gwayne Gardner understands that peace is better than war and like his father and grandfather before him has adopted a policy of accord and assimilation with the Andal arrivals in the Reach.;;;;;;;;;;;;;x
ERA_CHAR_INFO_559178;King Hugo Arryn called 'the Hopeful'.  Despite centuries of Arryn rule, the Vale is not yet completely united.  Hugo is a king that seeks to unite the remaining independents, although unlike some of his more aggressive forebears he favors more diplomatic means.;;;;;;;;;;;;;x
ERA_CHAR_INFO_80401190;King Gerrold Lannister.  Just as in the Reach, the Lannister Kings of the Rock have adopted a policy of accord and assimilation with the Andal arrivals.;;;;;;;;;;;;;x
BM_FALL_OF_THE_GREYIRONS;Fall of the Greyirons;;;;;;;;;;;;;x
BM_FALL_OF_THE_GREYIRONS_DESC;A thousand years after their landing on the Fingers, the Andals have turned their attention to the Iron Islands. As the Andals invaded and settled in the riverlands, westerlands, and the Reach, they began constructing new settlements and stout castles. These stronger defenses, combined with the Andals' sailing ability, have weakened the grip of the ironborn on the Sunset Sea. The Andals have begun to invade the Iron Islands in waves, often with the support of rival ironborn lords. Now Rognar II Greyiron, King of the Iron Islands, must face an alliance of Andals with Houses Drumm, Greyjoy, Hoare, and Orkwood.;;;;;;;;;;;;;x
BM_GHISCAR_3;Third Ghiscari War;;;;;;;;;;;;;x
BM_GHISCAR_3_DESC;The third of the great wars between Valyria and Old Ghis;;;;;;;;;;;;;x
BM_GHISCAR_4;Fourth Ghiscari War;;;;;;;;;;;;;x
BM_GHISCAR_4_DESC;The fourth of the great wars between Vaylria and Old Ghis.;;;;;;;;;;;;;x
ERA_CHAR_NAME_10006013;Archon of Valyria;;;;;;;;;;;;;x
ERA_CHAR_NAME_150360025;Emperor of Ghiscar;;;;;;;;;;;;;x
ERA_CHAR_NAME_10266013;Archon of Valyria;;;;;;;;;;;;;x
ERA_CHAR_NAME_122360025;Emperor of Ghiscar;;;;;;;;;;;;;x
BM_TURTLE_WAR;The First Turtle War;;;;;;;;;;;;;x
BM_TURTLE_WAR_DESC;The Rhoynar and the Valyrian colonists along the Rhoyne have long had a difficult relationship. This conflict was escalated when the Volantenes captured and butchered one of the giant turtles which dwell in the Rhoyne. These great beasts are held as sacred by the Rhoynar.;;;;;;;;;;;;;x
BM_TEN_THOUSAND_SHIPS;The Ten Thousand Ships;;;;;;;;;;;;;x
BM_TEN_THOUSAND_SHIPS_DESC;With the destruction of Sarhoy, the Rhoynar peoples have united under Prince Garin of Chroyane, known as the Great. Prince Garin vows to crush the Volantenes for their actions.  Not all of the Rhoynar however share Garin's sentiment. Princess Nymeria of Ny Sar has counseled that they can not win such a fight.;;;;;;;;;;;;;x
BM_NYMERIA;Nymeria's Landing;;;;;;;;;;;;;x
BM_NYMERIA_DESC;After long years of wandering the seas, Princess Nymeria has brought what remained of her fleet to Dorne. There she was welcomed and wed by Lord Mors Martell. Styling himself in the Rhoynish tradion of Prince, Mors Martell has proclaimed his dominion over all of Dorne, with his newfound Rhoynar allies he seeks to conquer the various petty kings.;;;;;;;;;;;;;x
ERA_CHAR_NAME_100086003;Prince of Sarhoy;;;;;;;;;;;;;x
ERA_CHAR_NAME_6000001;Prince Garin the Great;;;;;;;;;;;;;x
ERA_CHAR_NAME_2000001;Princess Nymeria;;;;;;;;;;;;;x
ERA_CHAR_NAME_2100001;Prince Mors Martell;;;;;;;;;;;;;x
ERA_CHAR_NAME_152016;King Vorian Dayne;;;;;;;;;;;;;x
ERA_CHAR_NAME_158012;King Yorwick Yronwwod;;;;;;;;;;;;;x
ERA_CHAR_NAME_100174373;Triarch of Volantis;;;;;;;;;;;;;x
ERA_CHAR_NAME_110086017;Prince of Chroyane;;;;;;;;;;;;;x
BM_SARHOY;Sacking of Sarhoy;;;;;;;;;;;;;x
BM_SARHOY_DESC;The Second Spice War has broken out at the mouth of the Rhoyne between the Rhoynish city of Sarhoy and the Free City of Volantis.;;;;;;;;;;;;;x
ERA_CHAR_INFO_6000001;Prince Garin the Great of Chroyane.  Angered over the Volantene's sacking of the port city of Sarhoy, Prince Garin has managed to unite the various Princes and Princesses of the Rhoynar into a great host gathered along the Rhoyne.  Determined to finally put a stop the Volantene incursions on the Rhoyne, Garin and his army march south with the certainty that Mother Rhoyne is watching over them.;;;;;;;;;;;;;x
ERA_CHAR_INFO_2000001;Princess Nymeria of Ny Sar.  A fierce leader in the tradition of the Rhoynar, Princess Nymeria spoke out unsuccessfully against Prince Garin's calls for war with Volantis.  Now as the armies of the Rhoynar gather up and down the mighty river's banks, Princess Nymeria must decide how best to proceed in order to save her people.;;;;;;;;;;;;;x
ERA_CHAR_INFO_2100001;Prince Mors Martell.  A cunning and shrewd ruler like all rulers of house Martell.  Mors was quick to see the potential of the Rhoynish arrivals.  Wedding Princess Nymeria and taking the Rhoynar title of Prince rather than King, Mors has united the Rhoynish peoples with his own.  Now with Nymeria at his side, he claims dominion over all of Dorne and sets out to subjugate the various squabbling petty kings and lords.;;;;;;;;;;;;;x
ERA_CHAR_INFO_152016;King Vorian Dayne known as the Sword of the Evening.  The King of the Torrentine and one of the most powerful of the kings in Dorne.;;;;;;;;;;;;;x
ERA_CHAR_INFO_158012;King Yorwick Yronwwod.  Of all the petty kings in Dorne, the Yronwoods have always been the most powerful.  As Mors Martell and his foriegn allies begin their conquest of the country, Yorwick Yronwood refuses to bend the knee to these upstarts.;;;;;;;;;;;;;x
ERA_CHAR_INFO_100086003;Prince of Sarhoy.  Sarhoy is one of the greatest of the Rhoynar cities.  Sitting at the mouth of the Rhoyne, the city has grown rich on the trade that flows down the river.  However tensions have been building with the nearby Valyrian colony city of Volantis.;;;;;;;;;;;;;x
ERA_CHAR_INFO_100174373;Triarch of Volantis.  Tensions between the Volantenes and the Rhoynar have been steadily building over the centuries.  Now open war has broken out after the Volantenes caught and butchered one of the giant turtles which live in the Rhoyne and the Rhoynar hold as sacred.;;;;;;;;;;;;;x
ERA_CHAR_INFO_110086017;Prince of Chroyane.  Chroyane the Festival City, the most splendid of the Rhoynish cities.;;;;;;;;;;;;;x
ERA_CHAR_NAME_615174432;King Bernarr II Justman;;;;;;;;;;;;;x
ERA_CHAR_NAME_358066;Iron King Qhored 'the Cruel';;;;;;;;;;;;;x
ERA_CHAR_INFO_615174432;Bernarr II Justman was the last King of the Trident from the line of House Justman. Bernarr's three sons were taken as hostages after the river lords were defeated by Qhored Hoare, King of the Iron Islands. Three years later Qhored murdered Bernarr's sons, whilst they were held captive in Pyke, because Bernarr was slow to pay tribute. Qhored's ironborn crushed Bernarr's hopeless war for vengeance, and Bernarr was drowned as a sacrifice to the Drowned God. The fall of the Justmans led the riverlands into a century of anarchy.;;;;;;;;;;;;;x
ERA_CHAR_INFO_358066;Qhored I Hoare, known as Qhored the Cruel, was one of the greatest High Kings of the Iron Islands. When he was thirty, Qhored defeated King Bernarr II Justman and took his three sons as hostages. Three years later he murdered the boys in the Bloody Keep of Pyke, crushed Bernarr's vengeful army, and drowned the river king as a sacrifice to the Drowned God, putting an end to House Justman. During the reign of King Qhored, the ironborn could rightfully claim that his writ ran 'wherever men can smell salt water or hear the crash of waves.' The ironborn were at their peak of expansion, ruling territory along the Sunset Sea from the Arbor to Bear Island. King Qhored died at the age of ninety, having ruled for seventy five years. Qhored's conquests were gradually lost by his successors and descendents, however.;;;;;;;;;;;;;x
BM_FOUNDING_DRAGONSTONE;Founding of Dragonstone;;;;;;;;;;;;;x
BM_FOUNDING_DRAGONSTONE_DESC;Secure in their domination of Essos, the Valyrians established a small colony on a rocky island in Blackwater Bay.;;;;;;;;;;;;;x
BM_UNCLOAKING;Uncloaking of Braavos;;;;;;;;;;;;;x
BM_UNCLOAKING_DESC;After 100 years, Braavos the Hidden City has chosen this moment to reveal it's existence to the world.;;;;;;;;;;;;;x
BM_BEFORE_DOOM;Before the Doom;;;;;;;;;;;;;x
BM_BEFORE_DOOM_DESC;The world as it was before the Doom came to Valyria.;;;;;;;;;;;;;x
BM_ARLAN;Fall of House Teague;;;;;;;;;;;;;x
BM_ARLAN_DESC;For cenuturies the river lords have chafted under House Teague.  Now a coalition led by Roderick Blackwood had gained the support of the Durrandon's to overthrew the Teagues.;;;;;;;;;;;;;x
BM_SHRIKE;The Shrike's War;;;;;;;;;;;;;x
BM_SHRIKE_DESC;On the orders of the drowned priest the Shrike, Queen Lelia Lannister was mutilated and sent back to the Rock in chains.  Now her furious nephew has launched a war on the Ironborn in retaliation.;;;;;;;;;;;;;x
ERA_CHAR_NAME_369066;King Harmund Hoare;;;;;;;;;;;;;x
ERA_CHAR_NAME_8001190;King Lancel Lannister;;;;;;;;;;;;;x
ERA_CHAR_NAME_80420190;King Loreon Lannister;;;;;;;;;;;;;x
ERA_CHAR_NAME_812059;King Edrick Stark;;;;;;;;;;;;;x
ERA_CHAR_NAME_3501544;King Arlan Durrandon;;;;;;;;;;;;;x
ERA_CHAR_NAME_10266013;High Archon of Valyria;;;;;;;;;;;;;x
ERA_CHAR_NAME_806059;King Eyron Stark;;;;;;;;;;;;;x
ERA_CHAR_NAME_700515;Sealord of Braavos;;;;;;;;;;;;;x
ERA_CHAR_INFO_369066;King Harmund Hoare;;;;;;;;;;;;;x
ERA_CHAR_INFO_8001190;King Lancel Lannister;;;;;;;;;;;;;x
ERA_CHAR_INFO_80420190;King Loreon Lannister;;;;;;;;;;;;;x
ERA_CHAR_INFO_812059;King Edrick Stark;;;;;;;;;;;;;x
ERA_CHAR_INFO_3501544;King Arlan Durrandon.;;;;;;;;;;;;;x
ERA_CHAR_INFO_10266013;High Archon of Valyria;;;;;;;;;;;;;x
ERA_CHAR_INFO_806059;King Eyron Stark;;;;;;;;;;;;;x
ERA_CHAR_INFO_700515;Sealord of Braavos;;;;;;;;;;;;;x
