#Targaryen Islands
colonise_province_targ;Colonise;;;;;;;;;;;;;x
colonise_province_targ_desc;[Root.GetName] is an unoccupied ruin, which can be colonised under the right conditions.;Cette province est en ruines et inoccupée, elle peut être colonisée sous certaines conditions.;;;[Root.GetName] es una ruina deshabitada, puede ser colonizada bajo las condiciones adecuadas.;;;;;;;;;x

#Storm God
convert_to_storm_god_religion; Convert to the Storm God religion;;;;;;;;;;;;;x
convert_to_storm_god_religion_desc;You control Storm's End, the ancient seat of the Storm Kings of old and have Durrandon blood flowing through your veins. Now is the time to revive the religion of the Storm God and take back all that was stolen!;;;;;;;;;;;;;x