#CODE;ENGLISH;;;;;;;;;;;;;x
# Search  ###REWRITE for sections to finish...
##############################################################################################
#### Decisions ####
tt_visit_with;Initiate an Intimate Visit...;;;;;;;;;;;;;x
tt_visit_with_desc;Visit your love and spend some intimate time together.;;;;;;;;;;;;;x
### Tooltips related to Decisions ###
tt_visit_recovery;10-day Visit cooldown...;;;;;;;;;;;;;x
##############################################################################################
### Sex Related Modifiers ###
tt_good_sex;After Sex Glow.;;;;;;;;;;;;;x
tt_still_wanting_more;Sexually Frustrated.;;;;;;;;;;;;;x
##############################################################################################
### VISIT Events Title ###
tt_spending_time_with_target;Spending time with [tt_visit_target.GetFullName];;;;;;;;;;;;;x
### VISIT Event Descriptions ###
TTVisits110;Finally the chance you've waited for has arrived, you embrace [tt_visit_target.GetFirstName] passionately.  With a deep breath you take in his familiar scent. \n \n The two of you begin to explore each others bodies, your hand shakes slightly and he looks into your eyes. He smiles, and you melt into the beautiful chaos of lovemaking...;;;;;;;;;;;;;x
TTVisits120;Time isn't wasted when you see [tt_visit_target.GetFirstName]. You kiss her passionately as you pull her out of her clothing. Her soft lips brush your neck as your hands trace her body. You feel goosebumps appear on your neck as she exhales into your ear. \n \n You gently guide her down to the bed and run your hands down her body. [tt_visit_target.GetFirstName] lets out a slight moan as your hand finds her moist pussy.;;;;;;;;;;;;;x
TTVisits121;Her body is so beautiful and while your fingers play with her pussy you admire the way she arches her back. \n \n [tt_visit_target.GetFirstName] lets out a slow moan as you push your fingers in deeper.  Slowly pushing toward that place where you can incite her passions further. You are wet with anticpation and you realize that her own wetness is starting to drip down your hand. Your mouth salivates in anticipation, you let your mind wander for a moment as you contemplate clamping your mouth onto that gorgeous pussy. \n \n Oh such delight as this!;;;;;;;;;;;;;x
TTVisits122;It takes almost no time for passions to build. [tt_visit_target.GetFirstName] moves first and soon your prize is right in front of your face. You feel [tt_visit_target.GetFirstName] push your thighs apart as her head sinks in. Pleasure. \n \n You gaze at the pussy in your face and you slowly lick the slit a few times. The engorged lips are easy to separate with your tongue. Her taste is musky and wonderful and familiar, everything you wanted it to be. Your tongue searches her slit expertly, seeking out the place that you know will bring her to the edge. [tt_visit_target.GetFirstName] lightly grinds her hips into your face as you get closer. \n \n It goes on like this. Bodies intwined together in a ball of human passion, moans echo through the dimly lit room...;;;;;;;;;;;;;x
TTVisits130;You wait for [tt_visit_target.GetFirstName] in your chamber. Already naked, she comes into the room and lies down next to you. Her warm skin touching your own as her hand brushes against your cock. No effort is spent to bring about an erection, you are ready for this. \n \n [tt_visit_target.GetFirstName] whispers in your ear. "How do you want me, my love?";;;;;;;;;;;;;x
TTVisits131;Her question inspires you to action as you climb between her legs, your mouth is salivating and her thighs open readily as you lower your face to her pussy. A quick lip up her slit and you feel [tt_visit_target.GetFirstName] shiver with anticipation and pleasure. You slowly begin to probe her with your tongue. Her taste, musky, wonderful, and everything you wanted it to be. She lightly lifts her hips towards your face and your bring your hands up to her buttocks. You open your eyes and you can see she is already lost to the moment.;;;;;;;;;;;;;x
TTVisits132;You keep a strong hold of her body as you rock back onto your knees.  Her legs fall to either side of your head. She squeals in delight. \n \n You set about your task with discipline as you play her body like an instrument. Every move of your tongue coinciding with your fingers as you rub and massage her clit. Her panting increases with your efforts. \n \n [tt_visit_target.GetFirstName] moans softly...;;;;;;;;;;;;;x 
TTVisits133;She's ready for you, release her from your grasp.  Her juices dripping down your chin.  [tt_visit_target.GetFirstName] adjusts herself before you and smiles coyly.  \n \n You reach forward towards her hips...;;;;;;;;;;;;;x
TTVisits134;Your cock sinks into [tt_visit_target.GetFirstName] with ease. Her body shakes slightly in your hands as you enter her. Using her feet to hook behind you [tt_visit_target.GetFirstName] pulls you in to the hilt. Your hands explore her body as her hands wrap around you and she encourages you forward. The movements of your body rhytmically pushing in and out of her. A hand snakes up to your head and she pulls your face down to hears. [tt_visit_target.GetFirstName] kisses you passionately, biting your bottom lip as you press into her again.;;;;;;;;;;;;;x 
TTVisits135;[tt_visit_target.GetFirstName] nods at you, seemingly knowing what you're thinking. As soon as you pull out she gets on to all fours and presents herself to you like a dog in heat. \n \n "I have been wanting this so much!" [tt_visit_target.GetFirstName] says playfully. \n \n You position yourself behind her, grasp her hips in your hands, and she pushes back into you impaling herself on your cock. Every thrust you make finds her thrusting her hips back in to you. The sounds of flesh striking flesh echo through the room as you loose yourself to passion.;;;;;;;;;;;;;x
TTVisits136;You thrust into her again. Gentleness has given way to more baser instincts. From [tt_visit_target.GetFirstName]'s moans it is clear she doesn't mind a bit. Your hands on her hips feel her start to shiver, her panting because noticeable as you realize she has found what she sought.  You are almost there yourself. The tension builds as you throw your headback. You stop thrusting as you realize [tt_visit_target.GetFirstName]'s pushing back into you is enough to bring you to completion. She rocks back and forth against you, milking your manhood.;;;;;;;;;;;;;x
TTVisits140;You wait for [tt_visit_target.GetFirstName] in your chamber. Already naked, he comes into the room and lies down next to you. His warm skin touching your own as you move your hand to brush against his cock. No effort is spent to bring about an erection, he is ready for this. The dampness between your thighs assures you that you are as well. \n \n [tt_visit_target.GetFirstName] whispers in your ear. "How do you want me, my love?";;;;;;;;;;;;;x
TTVisits141;With a smile you place a hand on the side of his head, give him a passionate kiss and then push him down. \n \n [tt_visit_target.GetFirstName] laughs softly as he lowers himself and climbs between your thighs. [tt_visit_target.GetFirstName] isn't one to waste time. The warmth from his mouth is present almost immediately as you feel him probe you with his tongue. You take a free hand and grasp the back of his head. Men are enthusiastic but they all need to be directed by a good woman if they're to succeed in any endeavor.;;;;;;;;;;;;;x
TTVisits142;You squeal with delight as he rocks back onto his knees, pulling your hips into the air. Your legs fall to either side of his head as he earnestly sets into his task. His tongue is expert and his hands are deft and careful as he begins to play you like an instrument. \n \n "Oh my..." you whisper. \n \n Your hands fall to either side of your head, and you bite your bottom lip. He has learned your body well indeed!;;;;;;;;;;;;;x
TTVisits143;Without a word you feel his mouth removed from your pussy. The vacancy he leaves irritates you slightly at first, until he sets your hips back down to the bed and you realize what you're really in for. ;;;;;;;;;;;;;x
TTVisits144;He sinks his cock into you as you pull him in with your legs. The fullness you feel is so divine that you can't help but whimper slightly. [tt_visit_target.GetFirstName] takes that as his cue and he begins to move. The first thrust is just what you needed and you reach your hands around to his buttocks to egg him on.  As he pulls out your dig your nails into his buttocks forcing him to grunt in suprise and thrust with more vigor than before.  You flash him a mischievous grin. \n \n "Is that the way it shall be?" [tt_visit_target.GetFirstName] asks with a laugh.  "Very well!" he says and his eyes flash with desire.;;;;;;;;;;;;;x
TTVisits145;[tt_visit_target.GetFirstName] pulls you into his arms and deposits you onto the bed on all fours. You look back over your shoulder with a smile. He is so easy to manipulate. [tt_visit_target.GetFirstName] pushes his cock into you with suprising vigor. His hands on your hips as you moan.  He doesn't slow down, his gentleness has given way to more baser instincts. Which is exactly what you wanted. You begin to push back into him with each thrust. The sounds of flesh striking flesh echo through the room as your passion builds. \n \n You bite your bottom lip, trying to hold back the tide that's building within you.;;;;;;;;;;;;;x
TTVisits146;Your feet bounce behind you in time with [tt_visit_target.GetFirstName]'s thrusts. With every thrust he makes he pulls your hips back into him with force. It's over for you, the pleasure of the moment washes over you as your thighs gently quiver. [tt_visit_target.GetFirstName] seems oblivious as he continues his pace. You have just enough clarity to encourage him one way or the other.;;;;;;;;;;;;;x
### VISIT Event Options ###
TTVisits110A;[tt_visit_target.GetFirstName] had just what I needed.;;;;;;;;;;;;;x
TTVisits120A;[tt_visit_target.GetFirstName] is just what I needed...;;;;;;;;;;;;;x
TTVisits121A;Tonight I dine on you my dear.;;;;;;;;;;;;;x
TTVisits122A;[tt_visit_target.GetFirstName] and I climax together...;;;;;;;;;;;;;x
TTVisits130A;Lets do this right.;;;;;;;;;;;;;x
TTVisits130B;Procreation is all thats important!;;;;;;;;;;;;;x
TTVisits131A;She'll enjoy this...;;;;;;;;;;;;;x
TTVisits132A;[tt_visit_target.GetFirstName]'s free hand taps your arm.;;;;;;;;;;;;;x
TTVisits133A;Pull [tt_visit_target.GetFirstName] in towards you.;;;;;;;;;;;;;x
TTVisits134A;Time to change this up.;;;;;;;;;;;;;x
TTVisits135A;[tt_visit_target.GetFirstName] certainly knows how to please.;;;;;;;;;;;;;x
TTVisits136A;Ejaculate inside her.;;;;;;;;;;;;;x
TTVisits136B;Pull out and cum on her.;;;;;;;;;;;;;x
TTVisits140A;Lets do this right.;;;;;;;;;;;;;x
TTVisits140B;Procreation is all thats important!;;;;;;;;;;;;;x
TTVisits141A;He pulls your hips into the air...;;;;;;;;;;;;;x 
TTVisits142A;But I long for cock.;;;;;;;;;;;;;x 
TTVisits143A;You use your legs to pull [tt_visit_target.GetFirstName] forward.;;;;;;;;;;;;;x 
TTVisits144A;I may have stirred a hornets nest there.;;;;;;;;;;;;;x 
TTVisits145A;Words and thoughts elude you...;;;;;;;;;;;;;x 
TTVisits146A;[tt_visit_target.GetFirstName] unloads his seed inside of you...;;;;;;;;;;;;;x 
TTVisits146B;[tt_visit_target.GetFirstName] pulls out and cums on you.;;;;;;;;;;;;;x 
##############################################################################################
##### Rainy Day Hunter Encounter Title #####
RainyDayhunter;Hunting the Hunter.;;;;;;;;;;;;;x
RainyDayhunter2;Hunting the Hunteress.;;;;;;;;;;;;;x
##### Rainy Day Hunter Encounter Descriptions #####
TTNaughtyextra200;You have ranged far from home on this hunting trip. The rain streams down your face making it difficult to see. You pull your hood up over your head and look around.  There is an Inn nearby, and this hunting trip is quite obviously going to have to wait. A dry bed, and a warm meal are the most important things at this moment.;;;;;;;;;;;;;x
TTNaughtyextra201;As you burst through the doors and into the firelight the warmth of the hearth washes over you. \n \n "Long way from home indeed." you mutter under your breath. \n \n You motion to the Inn keeper and he quickly brings you what you ask for and gives you a room for the night. He doesn't know who you are, but he knows you have coin and that appears to be all he needs to know.;;;;;;;;;;;;;x
TTNaughtyextra202;The only other tenant of the Inn tonight is another hunter. He sits across the room looking tired, and... handsome.  He has no right to be that good looking when you are this tired.;;;;;;;;;;;;;x
TTNaughtyextra203;Your persuasive charms won out. You flirted, smiled, and talked to the lonely hunter. He seemed taken aback that you showed interest. Handsome as he is, it's obvious he doesn't get out much. \n \n In your room you he sheds his clothing so fast one might think he was in a race. But you know the tricks to slow a man down. You know how to make this a night to remember.;;;;;;;;;;;;;x
TTNaughtyextra204;You roll onto your back and he eagerly positions himself between your thighs. \n \n "Have you ever fucked a [Root.GetTitle] before?" you ask. \n \n He laughs and smiles. "Never have, and never will." he says as he pushes his cock into you.;;;;;;;;;;;;;x
TTNaughtyextra205;He sinks into you deeply, and your eyes lock. You were so needing this after such a long Hunting Trip. Now to have bagged this hunk? Thats a successful hunt. \n \n You have no time to finish though thoughts as the Hunter leans in and kisses your neck.;;;;;;;;;;;;;x
TTNaughtyextra206;The bite gives him a bit of a shock, just enough time for you to take the initiative and roll yourself over on top of him. You grind your hips down into him, a state of lust washes over you. The feeling of his cock filling you is all that occupies your thoughts.;;;;;;;;;;;;;x
TTNaughtyextra207;Passions escalate as you both give yourselves over to them. One body moves in tandem with the other. A sensual dance of pleasure as both partners strive toward nirvana.;;;;;;;;;;;;;x
TTNaughtyextra208;The Hunter gives in to his passions, he's taking you from behind now.  Rough and wild... Sensual and dirty... Not every [Root.GetTitle] can let herself go like this, but oh if only they would. \n \n Your back arches as you brace yourself, pleasure washing over you. The Hunter moans.;;;;;;;;;;;;;x
TTNaughtyextra220;You have ranged far from home on this hunting trip. The rain streams down your face making it difficult to see. You pull your hood up over your head and look around.  There is an Inn nearby, and this hunting trip is quite obviously going to have to wait. A dry bed, and a warm meal are the most important things at this moment.;;;;;;;;;;;;;x
TTNaughtyextra221;As you burst through the doors and into the firelight the warmth of the hearth washes over you. \n \n "Long way from home indeed." you mutter under your breath. \n \n You motion to the Inn keeper and he quickly brings you what you ask for and gives you a room for the night. He doesn't know who you are, but he knows you have coin and that appears to be all he needs to know.;;;;;;;;;;;;;x
TTNaughtyextra222;The only other tenant of the Inn tonight is another hunter. She sits across the room casting glances at you periodically. She has no right to be that pretty when you are this tired.;;;;;;;;;;;;;x
TTNaughtyextra223;You make your move, and it doesn't take long before you realize you have become the prey. She wants company just as much as you.  Before long you are stretched out on the bed next to her slender body.;;;;;;;;;;;;;x
TTNaughtyextra224;You roll her onto her back and position yourself between her legs. Her skin is soft, and its apparent that she is ready for you. \n \n "Have you ever fucked a [Root.GetTitle] before?" you ask. \n \n She laughs at you shaking her head. She doesn't need to believe you though.;;;;;;;;;;;;;x
TTNaughtyextra225;Without effort your cock slides in to the base. The Huntress moans beneath you. She slides her hand down to her pussy, rubbing it as you push your cock in and out. Biting her bottom lip she keeps her legs in the air before you.  They make good leverage as you take ahold of them an proceed to show her what you're made of.;;;;;;;;;;;;;x
TTNaughtyextra226;In a flash she hooks a leg on your shoulder and uses the leverage to roll you onto your back with her on top. Her nimbleness suprises you, but she isn't waiting for that shock to wear off. She grinds herself down onto you. Your cock buried deep within her she bites her bottom lip and runs her hands through her hair. The site of such a beautiful creature pleasuring herself on your cock is almost too much.;;;;;;;;;;;;;x
TTNaughtyextra227;Passions escalate as you both give yourselves over to them. One body moves in tandem with the other. A sensual dance of pleasure as both partners strive forward toward completion.;;;;;;;;;;;;;x
TTNaughtyextra228;You don't hesitate to take the lead, you take her ass in your hands and take her from behind. Every thrust brings a moan from the nimble body beneath you and before long she is quivering and panting. You feel the pressure building... ;;;;;;;;;;;;;x
##### Rainy Day Hunter Encounter Options #####
TTNaughtyextra200A;I should seek shelter...;;;;;;;;;;;;;x
TTNaughtyextra201A;Warm food!;;;;;;;;;;;;;x
TTNaughtyextra202A;Seduce the handsome hunter.;;;;;;;;;;;;;x
TTNaughtyextra202B;Go to bed alone and lock the door behind you.;;;;;;;;;;;;;x
TTNaughtyextra203A;Time for some fun.;;;;;;;;;;;;;x
TTNaughtyextra204A;Oh YES!;;;;;;;;;;;;;x
TTNaughtyextra205A;Bite his ear.;;;;;;;;;;;;;x
TTNaughtyextra205B;Bite his neck..;;;;;;;;;;;;;x
TTNaughtyextra206A;Grind into him harder.;;;;;;;;;;;;;x
TTNaughtyextra207A;Countinue...;;;;;;;;;;;;;x
TTNaughtyextra208A;Have him pull out!;;;;;;;;;;;;;x
TTNaughtyextra208B;Let him cum deep inside you.;;;;;;;;;;;;;x
TTNaughtyextra220A;I should seek shelter...;;;;;;;;;;;;;x 
TTNaughtyextra221A;Warm food!;;;;;;;;;;;;;x
TTNaughtyextra222A;Seduce the beautiful hunter.;;;;;;;;;;;;;x
TTNaughtyextra222B;Go to bed alone and lock the door behind you.;;;;;;;;;;;;;x
TTNaughtyextra223A;Just what a tired man needs.;;;;;;;;;;;;;x
TTNaughtyextra224A;Push your cock inside.;;;;;;;;;;;;;x
TTNaughtyextra225A;Continue...;;;;;;;;;;;;;x
TTNaughtyextra226A;Must hold on!;;;;;;;;;;;;;x
TTNaughtyextra227A;I should take the lead.;;;;;;;;;;;;;x 
TTNaughtyextra228A;You unload your seed deep inside her.;;;;;;;;;;;;;x
TTNaughtyextra228B;Pull out and cum on her back.;;;;;;;;;;;;;x
##############################################################################################


#### Rough text length for using narrative events ###############################################################################################################################################################################################################################################################################################################################################################################################################################################################################################################################################################################################################################################################################################################################################################################################################################,,,



