#CODE;ENGLISH;FRENCH;GERMAN;;SPANISH;;;;;;;;;x
opinion_stole_egg;Stole my egg;;;;;;;;;;;;;x
demand_egg;Seize Dragon Egg;;;;;;;;;;;;;x
demand_egg_desc;Seize dragon egg from your courtier;;;;;;;;;;;;;x
EVTDESCdragon_egg_steal.1;Your liege, [FromFrom.GetTitledFirstNameWithDynasty], has seized [FromFromFrom.GetName] from you!;;;;;;;;;;;;;x
EVTOPTAdragon_egg_steal.1;This is an outrage!;;;;;;;;;;;;;x