EVTOPT250286_19;Ashbringer;;;;;;;;;;;;;x
EVTOPT250286_20;Avarice;;;;;;;;;;;;;x
EVTOPT250286_21;Avenger;;;;;;;;;;;;;x
EVTOPT250286_22;Bloodbloom;;;;;;;;;;;;;x
EVTOPT250286_23;Calibur;;;;;;;;;;;;;x
EVTOPT250286_24;Cataclysm;;;;;;;;;;;;;x
EVTOPT250286_25;Desolation;;;;;;;;;;;;;x
EVTOPT250286_26;Destiny;;;;;;;;;;;;;x
EVTOPT250286_27;Dread;;;;;;;;;;;;;x
EVTOPT250286_28;Dusk;;;;;;;;;;;;;x
EVTOPT250286_29;Dustcloud;;;;;;;;;;;;;x
EVTOPT250286_30;Emancipate;;;;;;;;;;;;;x
EVTOPT250286_31;Eternity;;;;;;;;;;;;;x
EVTOPT250286_32;Exile;;;;;;;;;;;;;x
EVTOPT250286_33;Extinction;;;;;;;;;;;;;x
EVTOPT250286_34;Fate;;;;;;;;;;;;;x
EVTOPT250286_35;Fornicator;;;;;;;;;;;;;x
EVTOPT250286_36;Futility;;;;;;;;;;;;;x
EVTOPT250286_37;Harbinger;;;;;;;;;;;;;x
EVTOPT250286_38;Headsman's Herald;;;;;;;;;;;;;x
EVTOPT250286_39;Hound's Breath;;;;;;;;;;;;;x
EVTOPT250286_40;Judgement;;;;;;;;;;;;;x
EVTOPT250286_41;Lionheart;;;;;;;;;;;;;x
EVTOPT250286_42;Miser's Folly;;;;;;;;;;;;;x
EVTOPT250286_43;Oblivion;;;;;;;;;;;;;x
EVTOPT250286_44;Prophecy;;;;;;;;;;;;;x
EVTOPT250286_45;Raging Storm;;;;;;;;;;;;;x
EVTOPT250286_46;Ravenwing;;;;;;;;;;;;;x
EVTOPT250286_47;Red Menace;;;;;;;;;;;;;x
EVTOPT250286_48;Redeemer;;;;;;;;;;;;;x
EVTOPT250286_49;Remorse;;;;;;;;;;;;;x
EVTOPT250286_50;Ruinsword;;;;;;;;;;;;;x
EVTOPT250286_51;Shadow's Fall;;;;;;;;;;;;;x
EVTOPT250286_52;Sovereign;;;;;;;;;;;;;x
EVTOPT250286_53;Spiderbite;;;;;;;;;;;;;x
EVTOPT250286_54;Stormblade;;;;;;;;;;;;;x
EVTOPT250286_55;Unbound;;;;;;;;;;;;;x
EVTOPT250286_56;Vainglory;;;;;;;;;;;;;x
EVTOPT250286_57;Valor;;;;;;;;;;;;;x
EVTOPT250286_58;Vendetta;;;;;;;;;;;;;x
EVTOPT250286_59;Whiplash;;;;;;;;;;;;;x
EVTOPT250286_60;White Menace;;;;;;;;;;;;;x
