EVTtitlembs_finding.1;Family Found?;;;;;;;;;;;;;x
EVTDESCmbs_finding.1;You are going about your business in [Root.Capital.GetName] when you are stopped by a stranger. They ask you a number of questions about your birth and your mother. At the end of the conversation they reveal themselves to be a member of House Stark, and lift their hood revealing that their features strongly resemble your own. They then tell you that they believe that you are a bastard child of Lord Brandon Stark, firstborn son of Rickard, Lord of Winterfell and Warden of the North. They then ask you to return with them to their keep as an acknowledged member of House Stark..;;;;;;;;;;;;;x
EVTOPTAmbs_finding.1;My father is Brandon Stark??;;;;;;;;;;;;;x
EVTtitlembs_finding.2;Brandon's Snowflake;;;;;;;;;;;;;x
EVTOPTAmbs_finding.2;A new member of House Stark!;;;;;;;;;;;;;x
EVTDESCmbs_finding.2A;You are going about your business in [From.Capital.GetName] when you happen across a stranger who made you stop in your tracks. The [From.GetBoyGirl] bore the unmistakable grey eyes and brown hair of a Stark. You accost them and take them to a tavern where you ask a number of questions about them and their birth. They admit that they are a bastard who never knew their father and that their mother, a lowly crofter's daughter, knew only that he was a young lordling with a fine horse. Asking about their age you form a clearer and clearer picture. When they finish you lift your hood and, with tears in your eyes you explain that they are your [From.GetRootRelation] and that their father was Lord Brandon Stark, your firstborn son, now sadly buried in the crypt beneath Winterfell. You ask [From.GetHerHim] to accompany you to [Root.Capital.GetName] where [From.GetSheHe] will be acknowledged as a member of House Stark.;;;;;;;;;;;;;x
EVTDESCmbs_finding.2B;You are going about your business in [From.Capital.GetName] when you happen across a stranger who made you stop in your tracks. The [From.GetBoyGirl] bore the unmistakable grey eyes and brown hair of a Stark. You accost them and take them to a tavern where you ask a number of questions about them and their birth. They admit that they are a bastard who never knew their father and that their mother, a lowly crofter's daughter, knew only that he was a young lordling with a fine horse. Asking about their age you form a clearer and clearer picture. When they finish you lift your hood and, with tears in your eyes you explain that they are your [From.GetRootRelation] and that their father was Lord Brandon Stark, your elder brother, now sadly buried in the crypt beneath Winterfell. You ask [From.GetHerHim] to accompany you to [Root.Capital.GetName] where [From.GetSheHe] will be acknowledged as a member of House Stark.;;;;;;;;;;;;;x
EVTDESCmbs_finding.2C;You are going about your business in [From.Capital.GetName] when you happen across a stranger who made you stop in your tracks. The [From.GetBoyGirl] bore the unmistakable grey eyes and brown hair of a Stark. You accost them and take them to a tavern where you ask a number of questions about them and their birth. They admit that they are a bastard who never knew their father and that their mother, a lowly crofter's daughter, knew only that he was a young lordling with a fine horse. Asking about their age you form a clearer and clearer picture. Lifting your hood you explain that their description matches stories you heard growing up match your uncle Brandon, firstborn son of of Rickard, Lord of Winterfell and Warden of the North and that you believe that they are Brandon's child, your cousin. You ask [From.GetHerHim] to accompany you to [Root.Capital.GetName] where [From.GetSheHe] will be acknowledged as a member of House Stark.;;;;;;;;;;;;;x
EVTDESCmbs_finding.2D;You are going about your business in [From.Capital.GetName] when you happen across a stranger who made you stop in your tracks. The [From.GetBoyGirl] bore the unmistakable grey eyes and brown hair of a Stark. You accost them and take them to a tavern where you ask a number of questions about them and their birth. They admit that they are a bastard who never knew their father and that their mother, a lowly crofter's daughter, knew only that he was a young lordling with a fine horse. Asking about their age you form a clearer and clearer picture. Lifting your hood you explain that their description matches stories you heard growing up match your uncle Brandon, firstborn son of of Rickard, Lord of Winterfell and Warden of the North and that you believe that they are Brandon's child, your cousin. You ask [From.GetHerHim] to accompany you to [Root.Capital.GetName] where [From.GetSheHe] will be acknowledged as a member of House Stark.;;;;;;;;;;;;;x
EVTDESCmbs_finding.2E;You are going about your business in [From.Capital.GetName] when you happen across a stranger who made you stop in your tracks. The [From.GetBoyGirl] bore the unmistakable grey eyes and brown hair of a Stark. You accost them and take them to a tavern where you ask a number of questions about them and their birth. They admit that they are a bastard who never knew their father and that their mother, a lowly crofter's daughter, knew only that he was a young lordling with a fine horse. Asking about their age you form a clearer and clearer picture. Lifting your hood you explain that their description matches your own father Brandon Stark, firstborn son of of Rickard, Lord of Winterfell and Warden of the North and that you believe that they are Brandon's child, your sibling. You ask [From.GetHerHim] to accompany you to [Root.Capital.GetName] where [From.GetSheHe] will be acknowledged as a member of House Stark.;;;;;;;;;;;;;x
EVTDESCmbs_finding.2F;You are going about your business in [From.Capital.GetName] when you happen across a stranger who made you stop in your tracks. The [From.GetBoyGirl] bore the unmistakable grey eyes and brown hair of a Stark. You accost them and take them to a tavern where you ask a number of questions about them and their birth. They admit that they are a bastard who never knew their father and that their mother, a lowly crofter's daughter, knew only that he was a young lordling with a fine horse. Asking about their age you form a clearer and clearer picture. Lifting your hood you explain that you are Brandon Stark of Winterfell, and they are your own child, fathered a number of years ago in a night of passion. You ask [From.GetHerHim] to accompany you to [Root.Capital.GetName] where [From.GetSheHe] will be acknowledged as a member of House Stark.;;;;;;;;;;;;;x
EVTDESCmbs_finding.2G;You are going about your business in [From.Capital.GetName] when you happen across a stranger who made you stop in your tracks. The [From.GetBoyGirl] bore the unmistakable grey eyes and brown hair of a Stark. You accost them and take them to a tavern where you ask a number of questions about them and their birth. They admit that they are a bastard who never knew their father and that their mother, a lowly crofter's daughter, knew only that he was a young lordling with a fine horse. Asking about their age you form a clearer and clearer picture. Lifting your hood you explain that their description matches stories you heard growing up match your kinsman Brandon, firstborn son of of Rickard, Lord of Winterfell and Warden of the North and that you believe that they are Brandon's child, your cousin. You ask [From.GetHerHim] to accompany you to [Root.Capital.GetName] where [From.GetSheHe] will be acknowledged as a member of House Stark.;;;;;;;;;;;;;x

