ca_peasant_commune_1;Peasant Community;;;;;;;;;;;;;x
ca_peasant_commune_1_desc;The Emperor has decreed a series of land reforms to guarantee the property of the peasantry in this province from the nobility, and to begin the construction of ditches and irrigation systems. This has enabled the creation of a small, but productive community of independent peasants, farming the land, free from the labour demands of the nobility.;;;;;;;;;;;;;x
ca_peasant_commune_2;Growing Peasant Community;;;;;;;;;;;;;x
ca_peasant_commune_2_desc;With the expansion of the irrigation systems and a strengthening of the rights of the peasants, the peasant community has grown larger, supporting more households and becoming more productive.;;;;;;;;;;;;;x
ca_peasant_commune_3;Large Peasant Community;;;;;;;;;;;;;x
ca_peasant_commune_3_desc;Now a large and stable community, in its own right, the peasants here are very numerous and productive, and have started to create a bustling marketplace to sell their wares and are forming trade links with nearby towns.;;;;;;;;;;;;;x
ca_peasant_commune_4;Small Farming Town;;;;;;;;;;;;;x
ca_peasant_commune_4_desc;Now a town in its own right, the peasant community is very productive and continues to grow under the protection of the Emperor and his land reforms.;;;;;;;;;;;;;x
ca_peasant_commune_5;Large Farming Town;;;;;;;;;;;;;x
ca_peasant_commune_5_desc;Now a town in its own right, the peasant community is very productive and continues to grow under the protection of the Emperor and his land reforms. It is able to produce substantial tax revenues and support a large levy in times of war.;;;;;;;;;;;;;x
#
ca_bloodline_irigation_1;Irrigation System;;;;;;;;;;;;;x
ca_bloodline_irigation_1_desc;An extensive system of sluices, ditches, and dykes has been constructed, enabling the fields to be irrigated more effectively and enabling more peasants to farm the land.;;;;;;;;;;;;;x
ca_bloodline_irigation_2;Grand Irrigation System;;;;;;;;;;;;;x
ca_bloodline_irigation_2_desc;The irrigation is now very extensive, enabling the fields to be irrigated more effectively and enabling more peasants to farm the land.;;;;;;;;;;;;;x
#
ca_bloodline_school_1;Imperial School;;;;;;;;;;;;;x
ca_bloodline_school_1_desc;The Emperor has decreed an expansion to the Imperial Bureaucracy and has decided to found a new Imperial School to train bureaucrats to serve the Golden Empire of YiTi.;;;;;;;;;;;;;x
ca_bloodline_school_2;Imperial Academy;;;;;;;;;;;;;x
ca_bloodline_school_2_desc;As more and more scholars join the Imperial School it has swollen to become an Imperial Academy, producing more experience bureaucrats and even training some of its students in warfare.;;;;;;;;;;;;;x
ca_bloodline_school_3;Grand Imperial Academy;;;;;;;;;;;;;x
ca_bloodline_school_3_desc;Renowned throughout the Empire this Grand Imperial Academy produces bureaucrats of the highest standard, the officers, official and diplomats trained here serve the Empire with distinction and the military students are a redoubtable garrison.;;;;;;;;;;;;;x
#
ca_bloodline_embassy_1;Imperial Embassy;;;;;;;;;;;;;x
ca_bloodline_embassy_1_desc;The Emperor has sought fit to create a building to house the various ambassadors to their court, giving them and their entourage a degree of privacy to conduct their affairs.;;;;;;;;;;;;;x
ca_bloodline_embassy_2;Grand Imperial Embassy;;;;;;;;;;;;;x
ca_bloodline_embassy_2_desc;As more and more foreign dignitories come to pay their respects to the Emperor, their needs have also increased. As a result the building housing them has been expanded into a large complex, with designated areas given to each delegation.;;;;;;;;;;;;;x
ca_bloodline_embassy_3;Embassy Quarter;;;;;;;;;;;;;x
ca_bloodline_embassy_3_desc;The number of ambassadors and dignitaries from other lands has grown yet further, and a whole quarter of the city has been given over to them and their guards, servants, and secretaries.;;;;;;;;;;;;;x
ca_bloodline_merchant_q_1;Foreign Merchant Post;;;;;;;;;;;;;x
ca_bloodline_merchant_q_1_desc;A small group of foreign merchants, plying their wares under the auspices of the God-Emperor.;;;;;;;;;;;;;x
ca_bloodline_merchant_q_2;Foreign Merchant Commune;;;;;;;;;;;;;x
ca_bloodline_merchant_q_2_desc;The foreigners have clustered together into a not inconsiderable group of trade posts, shops, and warehouses, creating a valuable economic resource.;;;;;;;;;;;;;x
ca_bloodline_merchant_q_3;Foreign Merchant Quarter;;;;;;;;;;;;;x
ca_bloodline_merchant_q_3_desc;The foreigners now make up an entire city district. It is abuzz with merchants hawking their wares in a variety of tongues, all under the benevolent protection of the God-Emperor of the Golden Empire. Some do mutter that the Empire might be better off without such foreigners polluting its streets, however.;;;;;;;;;;;;;x
#
ca_bloodline_zorse_pens_1;Small Zorse Pens;;;;;;;;;;;;;x
ca_bloodline_zorse_pens_1_desc;Though the Emperor rules over YiTi they maintain a strong bond with the plains of the Jogos Nhai, and have established a small settlement for Jogos Nhai and their zorses, it is able to field a range of skirmishers and zorse riders to fight for the Emperor in times of war..;;;;;;;;;;;;;x
ca_bloodline_zorse_pens_2;Zorse Pens;;;;;;;;;;;;;x
ca_bloodline_zorse_pens_2_desc;Though the Emperor rules over YiTi they maintain a strong bond with the plains of the Jogos Nhai, and have established asettlement for Jogos Nhai and their zorses, it is able to field a range of skirmishers and zorse riders to fight for the Emperor in times of war.;;;;;;;;;;;;;x
ca_bloodline_zorse_pens_3;Zorse Stables;;;;;;;;;;;;;x
ca_bloodline_zorse_pens_3_desc;Though the Emperor rules over YiTi they maintain a strong bond with the plains of the Jogos Nhai, and have established a large settlement for Jogos Nhai and breeding stables their zorses. The complex is able to field a considerable force of skirmishers and zorse riders to fight for the Emperor in times of war.;;;;;;;;;;;;;x



