1.1.1={ 
	liege="k_tyrosh"
	holding_dynasty = 300543 # Adarys
}
6448.1.1 = { holder=150300543 } # Belicho (nc)
6506.1.1 = { holder=100300543 } # Mallaquo (nc)
6542.1.1 = { holder=103300543 } # Roggo (nc)
6576.1.1 = { holder=108300543 } # Mero (nc)
6594.1.1 = { holder=109300543 } # Lotho (nc)
6632.1.1 = { holder=113300543 } # Meralyn (nc)
6642.1.1 = { holder=117300543 } # Areo (nc)
6681.1.1 = { holder=120300543 } # Byan (nc)
6723.1.1 = { holder=122300543 } # Tregar (nc)
6736.1.1 = { holder=123300543 } # Yorko (nc)
# 6737.1.1={ liege="d_tyrosh" } #Ninepenny king
# 6737.12.31 = { liege="k_tyrosh" } 
6754.1.1 = { holder=125300543 } # Luco (nc)





