1.1.1={ 
	liege="c_pyke"
	law = succ_primogeniture
	law = agnatic_succession
}

6258.1.1 = { holder=151174419 } # Cadron (nc)
6281.1.1 = { holder=136174419 } # Harlon (nc)
6338.1.1 = { holder=137174419 } # Ygon (nc)
6354.1.1 = { holder=138174419 } # Hilmar (nc)
6397.1.1 = { holder=143174419 } # Dagmer (nc)
6426.1.1 = { holder=149174419 } # Todric (nc)
6448.1.1 = { holder=150174419 } # Cadron (nc)
6473.1.1 = { holder=100174419 } # Cadwyl (nc)
6496.1.1 = { holder=104174419 } # Hagen (nc)
6539.1.1 = { holder=106174419 } # Manfryd (nc)
6557.1.1 = { holder=108174419 } # Romny (nc)
6574.1.1 = { holder=110174419 } # Gyles (nc)
6629.1.1 = { holder=113174419 } # Sargon (nc)
6639.1.1 = { holder=114174419 } # Harlon (nc)
6660.1.1 = { holder=115174419 } # Erik (nc)
6672.1.1 = { holder=116174419 } # Sawane (nc)
6698.1.1 = { holder=120174419 } # Alyn (nc)
6744.1.1 = { holder=126174419 } # Andrik (nc)
6752.1.1 = { holder=128174419 } # Qalen (nc)




