1.1.1={ 
	liege="c_norvos"
	law = succ_appointment	
	effect = {
		set_title_flag = military_command
		holder_scope = {
			if = {
				limit = { primary_title = { title = PREVPREV } }
				set_government_type = military_command_government_city 
				PREV = { succession = appointment }
				recalc_succession = yes
			}
		}
	}
}
# 6447.1.1 = { holder=100300562 } # Cossomo (nc)
# 6488.1.1 = { holder=101300562 } # Ordello (nc)
# 6501.1.1 = { holder=103300562 } # Beqqo (nc)
# 6517.1.1 = { holder=106300562 } # Areo (nc)
# 6540.1.1 = { holder=107300562 } # Narbo (nc)
# 6569.1.1 = { holder=110300562 } # Allaquo (nc)
# 6575.1.1 = { holder=112300562 } # Syrio (nc)
# 6584.1.1 = { holder=113300562 } # Collio (nc)
# 6604.1.1 = { holder=117300562 } # Cossomo (nc)
# 6624.1.1 = { holder=118300562 } # Daario (nc)
# 6665.1.1 = { holder=120300562 } # Luco (nc)
# 6666.1.1 = { holder=123300562 } # Yorko (nc)
# 6672.1.1 = { holder=126300562 } # Illyrio (nc)
# 6713.1.1 = { holder=128300562 } # Illyrio (nc)
# 6729.1.1 = { holder=129300562 } # Myrmello (nc)
# 6746.1.1 = { holder=133300562 } # Moreo (nc)
# 6759.1.1 = { holder=137300562 } # Byan (nc)



