# 1.1.1={ 
	# liege="k_ibben"
	# holding_dynasty = 55927
# }
# 6468.1.1 = { holder=1055927 } # Togg (nc)
# 6500.1.1 = { holder=1155927 } # Togg (nc)
# 6518.1.1 = { holder=1655927 } # Groo (nc)
# 6520.1.1 = { holder=1755927 } # Caloth (nc)
# 6559.1.1 = { holder=1955927 } # Tugg (nc)
# 6605.1.1 = { holder=2155927 } # Galt (nc)
# 6624.1.1 = { holder=2255927 } # Galt (nc)
# 6637.1.1 = { holder=2555927 } # Slugg (nc)
# 6707.1.1 = { holder=2855927 } # Togg (nc)
# 6733.1.1 = { holder=3255927 } # Krull (nc)
# 6741.1.1 = { holder=3355927 } # Durr (nc)
# 6774.1.1 = { holder=3755927 } # Holger (nc)
