1.1.1={ 
	liege="c_yunkai"
}
6473.1.1 = { holder=150360022 } # Rhaezdhar (nc)
6503.1.1 = { holder=100360022 } # Maezon (nc)
6528.1.1 = { holder=102360022 } # Grazdan (nc)
6578.1.1 = { holder=106360022 } # Morghaz (nc)
6583.1.1 = { holder=109360022 } # Mizlak (nc)
6620.1.1 = { holder=112360022 } # Skahaz (nc)
6637.1.1 = { holder=113360022 } # Zaraq (nc)
6676.1.1 = { holder=117360022 } # Lazhak (nc)
6696.1.1 = { holder=121360022 } # Grazdan (nc)
6721.1.1 = { holder=124360022 } # Azzak (nc)
6735.1.1 = { holder=131360022 } # Maezon (nc)
6760.1.1={
	holder=6571005 # Paezhar
}


