6428.1.1 = { 
	liege=k_volantis
	holding_dynasty=174396
} 
6438.1.1 = { holder=100174396 } # Horonno (c)
6474.12.16 = { holder=103174396 } # Aenar (nc)
6521.1.1 = { holder=105174396 } # Belicho (nc)
6528.1.1 = { holder=108174396 } # Belicho (nc)
6546.1.1 = { holder=109174396 } # Alios (nc)
6561.1.1 = { holder=110174396 } # Aenar (nc)
6588.1.1 = { holder=113174396 } # Methyso (nc)
6626.1.1 = { holder=115174396 } # Gorys (nc)
6645.1.1 = { holder=120174396 } # Colloquo (nc)
6647.1.1 = { holder=122174396 } # Vaeron (nc)
6666.1.1 = { holder=127174396 } # Matarys (nc)
6728.1.1 = { holder=131174396 } # Benerro (nc)
6734.1.1 = { holder=135174396 } # Benerro (nc)
6739.1.1 = { holder=136174396 } # Colloquo (nc)
6773.1.1 = { holder=138174396 } # Vogarro (nc)
