1.1.1={ law=succ_primogeniture law=cognatic_succession
	liege="c_highgarden"
}
6378.1.1 = { holder=10001874 } # Elyas (nc)
6458.1.1 = { holder=10011874 } # Buford (nc)
6463.1.1 = { holder=10031874 } # Osbert (nc)
6497.1.1 = { holder=10041874 } # Hobber (nc)
6522.1.1 = { holder=10071874 } # Igon (nc)
6531.1.1 = { holder=10091874 } # Medwick (nc)
6551.1.1 = { holder=10111874 } # Normund (nc)
6587.1.1 = { holder=10141874 } # Lia (nc)
6612.1.1 = { holder=10151874 } # Alyn (nc)
6623.1.1 = { holder=10161874 } # Jon (nc)
6630.1.1 = { holder=10191874 } # Byren (nc)
6657.1.1 = { holder=10201874 } # Falia (nc)
6697.1.1 = { holder=10221874 } # Ryam (nc)
6722.1.1 = { holder=10231874 } # Byren (nc)
6740.1.1 = { holder=10271874 } # Wendell (nc)
