1.1.1={ 
	liege="k_tyrosh"
	holding_dynasty = 300533 # Ryndoon
}

6448.1.1 = { holder=150300533 } # Illyrio (nc)
6493.1.1 = { holder=100300533 } # Groleo (nc)
6529.1.1 = { holder=102300533 } # Ferrego (nc)
6540.1.1 = { holder=104300533 } # Meralyn (nc)
6584.1.1 = { holder=108300533 } ##### Racallio Ryndoon
6612.1.1 = { holder=109300533 } # Areo (nc)
6632.1.1 = { holder=114300533 } # Denyo (nc)
6637.1.1 = { holder=118300533 } # Byan (nc)
6696.1.1 = { holder=122300533 } # Illyrio (nc)
6706.1.1 = { holder=123300533 } # Roggo (nc)
6734.1.1 = { holder=127300533 } # Ollo (nc)
# 6737.1.1={ liege="d_tyrosh" } #Ninepenny king
# 6737.12.31 = { liege="k_tyrosh" }




