1.1.1={ 
	liege="k_myr"
	holding_dynasty = 300525 # Trellos
}

6448.1.1 = { holder=150300525 } # Moredo (nc)
6501.1.1 = { holder=100300525 } # Gylono (nc)
6520.1.1 = { holder=101300525 } # Pynto (nc)
6560.1.1 = { holder=102300525 } # Pynto (nc)
6565.1.1 = { holder=104300525 } # Rogga (nc)
6611.1.1 = { holder=108300525 } # Syrio (nc)
6631.1.1 = { holder=110300525 } # Ordello (nc)
6674.1.1 = { holder=115300525 } # Lanna (nc)
6689.1.1 = { holder=117300525 } # Mero (nc)
6729.1.1 = { holder=120300525 } # Gyloro (nc)
6763.1.1 = { holder=121300525 } # Terro (nc)






