6464.1.1 = { 
	holder=100607301
	liege = d_west_plains
} # Barialy (nc)
6506.1.1 = { holder=101607301 } # Kahkazan (nc)
6512.1.1 = { holder=103607301 } # Laimah (nc)
6566.1.1 = { holder=106607301 } # Sadaf (nc)
6578.1.1 = { holder=107607301 } # Zaid (nc)
6589.1.1 = { holder=111607301 } # Naim (nc)
6605.1.1 = { holder=115607301 } # Jakar (nc)
6641.1.1 = { holder=117607301 } # Abagull (nc)

6690.1.1 = { 
	holder = 101607399 #Zhea
}