1.1.1={
	liege="d_asabhad"
}

6473.1.1 = { holder=100069165 } # Abdullah (nc)
6510.1.1 = { holder=100169165 } # Ghalib (nc)
6519.1.1 = { holder=100269165 } # Fadl (nc)
6531.1.1 = { holder=100869165 } # Is'mail (nc)
6590.1.1 = { holder=100969165 } # Youkhanna (nc)
6608.1.1 = { holder=101269165 } # Khaireddin (nc)
6623.1.1 = { holder=101369165 } # Muslihiddin (nc)
6653.1.1 = { holder=101669165 } # Jibril (nc)
6671.1.1 = { holder=101769165 } # Gafur (nc)
6729.1.1 = { holder=101869165 } # Yahya (nc)
6750.1.1 = { holder=102069165 } # Muzaffaraddin (nc)
6769.1.1 = { holder=102469165 } # Yusuf (nc)

