#c_banefort
1.1.1={	
	liege="k_banefortTK"
}

240.1.1 = { holder = 152200 } #King Morgon (C)
260.1.1 = { holder = 0 liege="e_westerlands" }

6404.1.1 = { holder = 154200 }
6450.1.1 = { holder = 155200 }
6468.1.1 = { holder=325200 } # Sebaston (nc)
6478.6.6 = { holder=321200 } # Sarya (nc)
6545.1.1 = { holder=318200 } # Willem (nc)
6566.1.1 = { holder=314200 } # Sebaston (nc)
6582.1.1 = { holder=313200 } # Gareth (nc)
6604.1.1 = { holder=310200 } # Quenten (nc)
6607.1.1 = { holder=306200 } # Jaime (nc)
6659.1.1 = { holder=305200 } # Quenten (nc)
6674.1.1 = { holder=301200 } # Jaime (nc)
6681.1.1 = { holder=327200 } # Gerion (nc)
6699.1.1 = { holder=331200 } # Sebaston (nc)
6738.1.1 = { holder=12200 } # Symond (nc)
6754.1.1 = { holder=200 } # Quenten (c)
