

6463.1.1 = { holder=1001639 } # Syrio (nc)
6501.1.1 = { holder=1011639 } # Mero (nc)
6510.1.1 = { holder=1071639 } # Moredo (nc)
6559.1.1 = { holder=1081639 } # Yorko (nc)


6594.1.1={
	holder=1081639
}

6607.1.1 = { holder=1101639 } # Meralyn (nc)
6609.1.1 = { holder=1111639 } # Areo (nc)

6631.1.1 = { holder=1141639 } # Beqqo (nc)


6637.1.1 = {
	holder=1141639
}

6663.1.1 = { holder=1151639 } # Moreo (nc)
6695.1.1 = { holder=1171639 } # Denyo (nc)
6700.1.1 = { holder=1191639 } # Illyrio (nc)

