3478.1.1={
	law = succ_primogeniture
	liege = d_sweetwater
}
6458.1.1 = { holder=100174915 } # Osmund (nc)
6499.1.1 = { holder=102174915 } # Symond (nc)
6516.1.1 = { holder=104174915 } # Horton (nc)
6547.1.1 = { holder=106174915 } # Royce (nc)
6555.1.1 = { holder=107174915 } # Rolley (nc)
6571.1.1 = { holder=112174915 } # Robar (nc)
6593.1.1 = { holder=114174915 } # Morton (nc)
6606.1.1 = { holder=116174915 } # Pate (nc)
6608.1.1 = { holder=119174915 } # Osfryd (nc)
6665.1.1 = { holder=123174915 } # Edmund (nc)
6723.1.1 = { holder=126174915 } # Elys (nc)
6741.1.1 = { holder=128174915 } # Wyl (nc)
6767.1.1 = { holder=133174915 } # Eon (nc)