1.1.1={
	liege = d_dalos
}

6473.1.1 = { holder=100000111 } # Orys (nc)
6514.1.1 = { holder=100100111 } # Belicho (nc)
6519.1.1 = { holder=100200111 } # Vogarro (nc)
6556.1.1 = { holder=100400111 } # Aenar (nc)
6608.1.1 = { holder=100900111 } # Colloquo (nc)
6615.1.1 = { holder=101100111 } # Vaeron (nc)
6639.1.1 = { holder=101300111 } # Orys (nc)
6655.1.1 = { holder=101600111 } # Aelix (nc)
6715.1.1 = { holder=102100111 } # Haerys (nc)
6720.1.1 = { holder=102400111 } # Aenar (nc)
6761.1.1 = { holder=102900111 } # Vaekar (nc)
6798.1.1 = { holder=103400111 } # Aenar (nc)

