1.1.1={
	liege="k_volantis"
}

6473.1.1 = { holder=100069142 } # Lotho (nc)
6510.1.1 = { holder=100369142 } # Benerro (nc)
6525.1.1 = { holder=100469142 } # Colloquo (nc)
6544.1.1 = { holder=100669142 } # Moqorro (nc)
6587.1.1 = { holder=100769142 } # Vysarro (nc)
6595.1.1 = { holder=100969142 } # Rolloquo (nc)
6612.1.1 = { holder=101469142 } # Malaquo (nc)
6646.1.1 = { holder=101769142 } # Colloquo (nc)
6668.1.1 = { holder=101869142 } # Malaquo (nc)
6724.1.1 = { holder=101969142 } # Parquello (nc)
6741.1.1 = { holder=102569142 } # Alios (nc)
6755.1.1 = { holder=102769142 } # Beqqo (nc)
6775.1.1 = { holder=102969142 } # Parquello (nc)
