4478.1.1={
	liege="d_wolfswood"
	law = succ_primogeniture
}

6457.1.1={
	holder=18062
}
6487.1.1={
	holder=17062
}
6503.1.1={
	holder=16062
}
6523.1.1={
	holder=15062
}
6555.1.1={
	holder=14062
}
6569.1.1={
	holder=13062
}
6586.1.1={
	holder=12062
}
6623.1.1={
	holder=10062
}
6656.1.1={
	holder=9062
}
6670.1.1={
	holder=8062
}
6700.1.1={
	holder=7062
}
6727.1.1={
	holder=5062
}
6759.1.1={
	holder=62
}
