#House Dako
6467.1.1 = { 
	holder=100304017 
	liege=d_sweet_lotus_vale
	law = succ_seniority
	law = cognatic_succession
} # Delmabhar (nc)
6484.1.1 = { holder=101304017 } # Xhakan (nc)
6507.1.1 = { holder=103304017 } # Rudo (nc)
6524.1.1 = { holder=106304017 } # Bujiba (nc)
6552.1.1 = { holder=108304017 } # Thabo (nc)
6579.1.1 = { holder=110304017 } # Xhal (nc)
6600.1.1 = { holder=113304017 } # Oluhuru (nc)
6636.1.1 = { holder=118304017 } # Gatubhar (nc)
6680.1.1 = { holder=119304017 } # Koroxhar (nc)
6692.1.1 = { holder=124304017 } # Gwalahuru (nc)
6718.1.1 = { holder=126304017 } # Jalahuru (nc)
6730.1.1 = { holder=129304017 } # Xhakan (nc)
6758.1.1 = { holder=131304017 } # Makhan (nc)



