#NOTE: The holder of this title has the House Estermont dynasty tracker set in roberts_rebellion_events
1.1.1 = { liege="e_stormlands" }

6566.1.1 = { 
	holder=304330 # Gunthor Estermont (nc)
	liege="d_cape_wrath"
} 
6583.1.1 = { holder=305330 } # Lomas Estermont (nc)
6639.1.1 = { holder=306330 } # Davos Estermont (nc)
6650.1.1 = { holder=307330 } # Herbert Estermont (nc)
6674.1.1 = { holder=200330 } # Gunthor Estermont (C)
6722.1.1 = { holder=330 } # Tancred Estermont (nc)
6778.1.4 = { holder=2330 } # Eldon Estermont (C)
