6465.1.1 = { holder=10559255 } # Direwolf (nc)
6501.1.1 = { holder=11559255 } # Donkey (nc)
6512.1.1 = { holder=12559255 } # Fox (nc)
6543.1.1 = { holder=13559255 } # Eel (nc)
6559.1.1 = { holder=14559255 } # Snowbear (nc)
6595.1.1 = { holder=15559255 } # Whale (nc)
6608.1.1 = { holder=16559255 } # Goat (nc)
6630.1.1 = { holder=17559255 } # Giant (nc)
6676.1.1 = { holder=20559255 } # Donkey (nc)
6691.1.1={
	liege="k_beyond_wall"
}
6704.9.9={
	liege="0"
}
6708.1.1 = { holder=21559255 } # Bat (nc)
6744.1.1 = { holder=22559255 } # Cat (nc)

6760.1.1={
	holder=174404
}
6776.1.1={
	liege="k_beyond_wall"
}
6778.1.1={
	holder=999000666
}
