#House Biabaku
6448.1.1 = { 
	holder=100304015 
	liege=d_golden_head
	law = succ_seniority
	law = cognatic_succession
} # Doshuru (nc)
6486.1.1 = { holder=103304015 } # Oluhuru (nc)
6513.1.1 = { holder=106304015 } # Udo (nc)
6550.1.1 = { holder=114304015 } # Xhal (nc)
6595.1.1 = { holder=115304015 } # Oluhuru (nc)
6633.1.1 = { holder=117304015 } # Isingodo (nc)
6646.1.1 = { holder=118304015 } # Odingaxho (nc)
6674.1.1 = { holder=120304015 } # Tal (nc)
6681.1.1 = { holder=121304015 } # Orengo (nc)
6691.1.1 = { holder=127304015 } # Xhondo (nc)
6725.1.1 = { holder=129304015 } # Bapato (nc)
6752.1.1 = { holder=132304015 } # Tal (nc)
6762.1.1 = { holder=134304015 } # Chibundo (nc)

