#c_greenmont
1.1.1={
	liege="e_westerlands"
}
6423.1.1 = { holder=152222 } # Polliver (nc)
6453.1.1 = { holder=153222 } # Damon (nc)
6474.1.1 = { holder=300222 } # Manford (nc)
6517.1.1 = { holder=303222 } # Gerion (nc)
6536.1.1 = { holder=307222 } # Garrison (nc)
6572.1.1 = { holder=311222 } # Quenton (nc)
6610.1.1 = { holder=313222 } # Genna (nc)
6639.1.1 = { holder=315222 } # Lewys (nc)
6648.1.1 = { holder=316222 } # Ormond (nc)
6664.1.1 = { holder=319222 } # Manfryd (nc)
6711.1.1 = { holder=321222 } # Roland (nc)	
