2478.1.1={
	liege="d_redmountains"
	law=succ_primogeniture
	law = cognatic_succession
}
4751.1.1 = {
	holder = 150016 #Samwell
}
4798.1.1 = {
	holder = 0
}

6413.1.1 = { holder=60016 } # Arthur (nc)
6455.1.1 = { holder=60316 } # Edric (nc)
6462.1.1 = { holder=60416 } # Gerris (nc) # First High Hermitage branch
6466.1.1 = {holder=60000016} # Gerold (nc)
6470.1.1 = {holder=60100016} # Lyreon (nc)
6479.2.5= {holder=25017} # Arron (nc) Back to Starfall Branch through cousin-marriage
6536.1.1= {
holder=22017
}
6554.1.1= {
holder=21017
}
6576.1.1= {
holder=20017
}
6590.1.1= {
holder=18017
}
6610.1.1= {
holder=17017
}
6633.1.1= {
holder=19017
}
6636.8.4= {
holder=13017
}
6674.1.1 = { holder=61517 } # Edric (nc)
6688.1.1 = { holder=61617 } # Ronnel (nc)
6737.1.1 = { holder=10017 } # Annara (nc) Second High Hermitage branch.
6763.1.1 = {holder=17} # Alyster (nc) Husband of Annara. Starfall/Hermitage branch.
6770.1.1={holder=8016} # Gerold Darkstar (C)
