
6440.1.1 = { holder=10559257 } # Fox (nc)
6487.1.1 = { holder=11559257 } # Lion (nc)
6493.1.1 = { holder=15559257 } # Direwolf (nc)
6509.1.1 = { holder=17559257 } # Lion (nc)
6544.1.1 = { holder=19559257 } # Cat (nc)
6567.1.1 = { holder=20559257 } # Eagle (nc)
6592.1.1 = { holder=22559257 } # Snowbear (nc)
6615.1.1 = { holder=24559257 } # Anteater (nc)
6617.1.1 = { holder=27559257 } # Mammoth (nc)
6652.1.1 = { holder=26559257 } # Giant (nc)
6684.1.1 = { holder=30559257 } # Seal (nc)
6691.1.1={
	liege="k_beyond_wall"
}
6698.1.1 = { holder=35559257 } # Elk (nc)
6704.9.9={
	liege="0"
}
6723.1.1 = { holder=37559257 } # Bear (nc)
6739.1.1 = { holder=38559257 } # Donkey (nc)
6767.1.1 = { holder=40559257 } # Beetle (nc)
6749.1.1 = { holder=41559257 } # Deer (nc)
#6768.1.1 = { holder=40559257 } # Unicorn (nc)

6760.1.1={
	holder=157002
}
6776.1.1={
	liege="k_beyond_wall"
	holder=157002
}
6778.1.1={
	holder=999000666
}
