1.1.1={
	liege="d_yin"
}
6473.1.1 = { holder=10069195 } # Ubayd (nc)
6514.1.1 = { holder=10169195 } # Ubayd (nc)
6526.1.1 = { holder=10369195 } # Jibril (nc)
6564.1.1 = { holder=10669195 } # Shamir (nc)
6582.1.1 = { holder=11169195 } # Nizam (nc)
6589.1.1 = { holder=11269195 } # Yahya (nc)
6621.1.1 = { holder=11869195 } # Yusuf (nc)
6655.1.1 = { holder=12169195 } # Isa (nc)
6692.1.1 = { holder=12469195 } # Abdul (nc)
6698.1.1 = { holder=12669195 } # Nizam (nc)
6732.1.1 = { holder=13169195 } # Yusuf (nc)
6757.1.1 = { holder=13469195 } # Is'mail (nc)

