#House Umaru
6474.1.1 = { 
	holder=100304034 
	liege=d_red_flower_vale
	law = succ_seniority
	law = cognatic_succession
} # Xhakan (nc)
6523.1.1 = { holder=101304034 } # Tal (nc)
6528.1.1 = { holder=104304034 } # Makhan (nc)
6565.1.1 = { holder=110304034 } # Qaro (nc)
6582.1.1 = { holder=113304034 } # Xhonodo (nc)
6616.1.1 = { holder=119304034 } # Tapuhuru (nc)
6680.1.1 = { holder=120304034 } # Simbhar (nc)
6686.1.1 = { holder=121304034 } # Gwalahuru (nc)
6691.1.1 = { holder=123304034 } # Sango (nc)
6723.1.1 = { holder=129304034 } # Konde (nc)
6748.1.1 = { holder=130304034 } # Anyim (nc)
6764.1.1 = { holder=132304034 } # Manahuru (nc)
