#c_kayce
1.1.1={
	liege="e_westerlands"
}
5335.1.1 = {
	holder = 150195 #Herrock Whoreson
}
5365.1.1 = { holder = 0 }

6358.1.1 = { holder = 315195 } # Kenning of Kayce, fourth son of Harlaw.
6383.1.1 = { holder = 314195 } 
6423.1.1 = { holder = 313195 }
6453.1.1 = { holder = 312195 }
6460.1.1 = { holder = 311195 }
6476.6.6 = { holder = 310195 }
6514.1.1 = { holder = 309195 }
6518.1.1 = { holder = 308195 }
6571.1.1 = { holder = 307195 }
6594.1.1 = { holder = 306195 }
6607.4.9 = { holder = 305195 }
6651.1.1 = { holder = 304195 }
6674.5.5 = { holder = 303195 }
6714.1.1 = { holder = 302195 }
6739.1.1 = { holder = 300195 }	
6751.1.1 = { holder = 195  }
