#House Ubo
6464.1.1 = { 
	holder=100304033 
	liege=d_indigo_straits
	law = succ_seniority
	law = cognatic_succession
} # Adeyemu (nc)
6501.1.1 = { holder=105304033 } # Chakoro (nc)
6554.1.1 = { holder=107304033 } # Xhonodo (nc)
6573.1.1 = { holder=112304033 } # Sango (nc)
6580.1.1 = { holder=113304033 } # Qaro (nc)
6615.1.1 = { holder=116304033 } # Kwasdo (nc)
6629.1.1 = { holder=117304033 } # Gatubhar (nc)
6640.1.1 = { holder=119304033 } # Arkamun (nc)
6643.1.1 = { holder=120304033 } # Abrafo (nc)
6699.1.1 = { holder=125304033 } # Tal (nc)
6732.1.1 = { holder=129304033 } # Jalabhar (nc)
6766.1.1 = { holder=131304033 } # Oluhuru (nc)
6773.1.1 = { holder=135304033 } # Dubaku (nc)

