5478.1.1={
	liege="e_north"
	law = succ_primogeniture
}
6439.1.1={
	holder=13104
}
6484.1.1={
	holder=12104
}
6493.1.1={
	holder=11104
}
6503.1.1={
	holder=10104
}
6537.1.1={
	holder=9104
}
6580.1.1={
	holder=8104
}
6589.1.1={
	holder=7104
}
6639.1.1={
	holder=6104
}
6672.1.1={
	holder=5104
}
6683.1.1={
	holder=4104
}
6717.1.1={
	holder=3104
}
6760.1.1={
	holder=104
}
