1.1.1={
	liege="k_myr"
}

6473.1.1 = { holder=100300708 } # Ternesio (nc)
6521.1.1 = { holder=101300708 } # Narbo (nc)
6537.1.1 = { holder=104300708 } # Tregar (nc)
6559.1.1 = { holder=105300708 } # Morosh (nc)
6569.1.1 = { holder=107300708 } # Groleo (nc)
6597.1.1 = { holder=110300708 } # Collio (nc)
6631.1.1 = { holder=112300708 } # Ferrego (nc)
6642.1.1 = { holder=116300708 } # Ferrego (nc)
6692.1.1 = { holder=121300708 } # Ferrego (nc)
6726.1.1 = { holder=124300708 } # Ternesio (nc)
6744.1.1 = { holder=128300708 } # Yorko (nc)
6745.1.1 = { holder=129300708 } # Narbo (nc)
