1.1.1={ law=succ_primogeniture law=cognatic_succession
	liege="e_reach"
}

6608.1.1 = { holder=6011299 } # Luthor (nc)
6614.1.1 = { holder=6015299 } # Moryn (nc)
6661.1.1 = { holder=6017299 } # Florian (nc)
6678.1.1 = { holder=6018299 } # Elyas (nc)

6702.1.1={
	holder=88276
}
6728.1.1={
	holder=88277
}
6751.1.1={
	holder=88278
}






