1.1.1={
	liege="d_lhazosh"
	law = succ_ultimogeniture
}
6463.1.1 = { holder=10055916 } # Jommo (nc)
6496.1.1 = { holder=10355916 } # Fogo (nc)
6513.1.1 = { holder=10655916 } # Zollo (nc)
6565.1.1 = { holder=10855916 } # Aggo (nc)
6572.1.1 = { holder=11155916 } # Iggo (nc)
6616.1.1 = { holder=11755916 } # Ogo (nc)
6654.1.1 = { holder=12155916 } # Zollo (nc)
6663.1.1 = { holder=12655916 } # Bharbo (nc)
6676.1.1 = { holder=12955916 } # Haggo (nc)
6717.1.1 = { holder=13455916 } # Cohollo (nc)
6744.1.1 = { holder=13655916 } # Pono (nc)
6747.1.1 = { holder=14055916 } # Rakharo (nc)
