4678.1.1={
	liege="d_the_sisters"
	law = succ_primogeniture
}
6472.1.1 = { holder=3000166 } # Petyr (nc)
6481.1.1 = { holder=3001166 } # Robar (nc)
6519.1.1 = { holder=3005166 } # Eon (nc)
6563.1.1 = { holder=3009166 } # Lyn (nc)
6569.1.1 = { holder=3011166 } # Vardis (nc)
6580.1.1 = { holder=3014166 } # Morton (nc)
6634.1.1 = { holder=3016166 } # Nestor (nc)
6656.1.1 = { holder=3017166 } # Alesandor (nc)
6667.1.1 = { holder=3019166 } # Andar (nc)
6697.1.1 = { holder=3023166 } # Gwayne (nc)
6716.1.1 = { holder=3026166 } # Jasper (nc)
6732.1.1 = { holder=3029166 } # Lyn (nc)

6758.1.1={
	holder=94037
}
