1.1.1={
	liege="k_pentos"
}

6473.1.1 = { holder=100069125 } # Tregar (nc)
6505.1.1 = { holder=100269125 } # Narbo (nc)
6507.1.1 = { holder=100569125 } # Gyleno (nc)
6523.1.1 = { holder=100769125 } # Denyo (nc)
6560.1.1 = { holder=100969125 } # Yorko (nc)
6575.1.1 = { holder=101369125 } # Groleo (nc)
6635.1.1 = { holder=101869125 } # Yorko (nc)
6657.1.1 = { holder=101969125 } # Tregar (nc)
6670.1.1 = { holder=102269125 } # Areo (nc)
6692.1.1 = { holder=102469125 } # Roro (nc)
6715.1.1 = { holder=102869125 } # Pynto (nc)
6760.1.1 = { holder=103169125 } # Myrmello (nc)
