#c_lotus_port
#House Xhaxos
6438.1.1 = { 
	holder=100304008 
	liege=d_walano
	law = succ_seniority
	law = cognatic_succession
} # Adeyemu (nc)
6481.1.1 = { holder=101304008 } # Odingaxho (nc)
6498.1.1 = { holder=103304008 } # Bapato (nc)
6520.1.1 = { holder=107304008 } # Doshuru (nc)
6580.1.1 = { holder=108304008 } # Rudo (nc)
6595.1.1 = { holder=112304008 } # Odingaxho (nc)
6622.1.1 = { holder=114304008 } # Quhura (nc)

6636.1.1 = { holder=114304005 } # Xanda (C)
6656.1.1 = { holder=118304005 } # Isingodo (nc)
6681.1.1 = { holder=121304005 } # Thabo (nc)
6699.1.1 = { holder=122304005 } # Xhelimo (nc)
6713.1.1 = { holder=124304005 } # Jalahuru (nc)

#House Xho usurps the Islands
6736.1.1 = { holder=122304000 } # Udo (nc)
6765.1.1 = { holder=126304000 } # Qubhar (nc)

6767.6.1 = { holder=127304005 } #Usurped by House Ko
