
4478.1.1={
	liege="d_bayofclaws"
	law = succ_primogeniture
}
6451.1.1={
	holder=501138 #Florian I
}
6488.1.1 = {
	holder=502138 #Florian II
}
6505.1.1 = {
	holder=503138 #Florian III
}
6527.1.1 = {
	holder=504138 #Florian IV
}
6538.1.1 = {
	holder=505138 #Florian V
}
6540.1.1 = {
	holder=507138 #Humfrey
}

6550.1.1={
	holder=20138 # Ryger Mooton
}
6592.1.1={
    holder=560138 # Walys Mooton (C)
}
6607.5.1={
   holder=570138 # Manfryd Mooton (C)
 }  
6612.5.8 = {
	holder=18138 # Gaston Mooton
}
6645.1.1={
	holder=17138 # Bryar Mooton
}
6654.1.1={
	holder=14138 # Edmure Mooton
}
6718.1.1={
	holder=12138
}
6741.1.1={
	holder=11138
}
6753.1.1={
	holder=138
}	


