1.1.1={
	liege="d_trader_town"
}
6473.1.1 = { holder=10069167 } # Qawurd (nc)
6504.1.1 = { holder=10369167 } # Mirza (nc)
6524.1.1 = { holder=10469167 } # Jabir (nc)
6554.1.1 = { holder=10769167 } # Yusuf (nc)
6591.1.1 = { holder=11169167 } # Gafur (nc)
6641.1.1 = { holder=11469167 } # Nizam (nc)
6651.1.1 = { holder=11569167 } # Mansur (nc)
6679.1.1 = { holder=11769167 } # Aghlab (nc)
6719.1.1 = { holder=12069167 } # Husam (nc)
6728.1.1 = { holder=12169167 } # Najib (nc)
6754.1.1 = { holder=12369167 } # Mubarak (nc)



