1.1.1={ law=succ_primogeniture law=cognatic_succession
	liege="d_west_marches"
}
6608.1.1 = { holder=3014241 } # Leo (nc)
6650.1.1 = { holder=3015241 } # Petyr (nc)
6651.1.1 = { holder=3018241 } # Gormon (nc)
6688.1.1 = { holder=3022241 } # Garrett (nc)
6730.1.1 = { holder=3023241 } # Imry (nc)


