3478.1.1={
	law = succ_primogeniture
	liege = d_east_braavosiancoastlands
}
6455.1.1 = { holder=100174909 } # Lothor (nc)
6493.1.1 = { holder=101174909 } # Ballabar (nc)
6513.1.1 = { holder=105174909 } # Vardis (nc)
6538.1.1 = { holder=112174909 } # Ballabar (nc)
6596.1.1 = { holder=117174909 } # Serwyn (nc)
6605.1.1 = { holder=120174909 } # Umfred (nc)
6612.1.1 = { holder=127174909 } # Serwyn (nc)
6645.1.1 = { holder=128174909 } # Royce (nc)
6677.1.1 = { holder=133174909 } # Tim (nc)
6746.1.1 = { holder=136174909 } # Donnel (nc)
6760.1.1 = { holder=138174909 } # Donnel (nc)

