#House Jallone
6433.1.1 = { 
	holder=100304039 
	liege=d_omburu
	law = succ_seniority
	law = cognatic_succession
} # Koroxhar (nc)
6468.1.1 = { holder=101304039 } # Dubaku (nc)
6479.1.1 = { holder=104304039 } # Bapato (nc)
6508.1.1 = { holder=105304039 } # Anyim (nc)
6509.1.1 = { holder=108304039 } # Lusaxharo (nc)
6530.1.1 = { holder=111304039 } # Chibundo (nc)
6580.1.1 = { holder=115304039 } # Eskender (nc)
6610.1.1 = { holder=116304039 } # Gwalahuru (nc)
6653.1.1 = { holder=119304039 } # Dubaku (nc)
6677.1.1 = { holder=121304039 } # Odingaxho (nc)
6678.1.1 = { holder=123304039 } # Quhuru (nc)
6713.1.1 = { holder=126304039 } # Anyim (nc)
6747.1.1 = { holder=130304039 } # Siboxhoan (nc)


