5478.1.1 = {
	liege = k_norvos
}

6473.1.1 = { holder=10069116 } # Moreo (nc)
6505.1.1 = { holder=10269116 } # Myrmello (nc)
6517.1.1 = { holder=10469116 } # Moredo (nc)
6531.1.1 = { holder=10569116 } # Joss (nc)
6540.1.1 = { holder=11169116 } # Terro (nc)
6562.1.1 = { holder=11369116 } # Myrmello (nc)
6586.1.1 = { holder=11469116 } # Beqqo (nc)
6614.1.1 = { holder=11969116 } # Daario (nc)
6624.1.1 = { holder=12069116 } # Cossoma (nc)
6662.1.1 = { holder=12169116 } # Narba (nc)
6703.1.1 = { holder=12269116 } # Gyleno (nc)
6738.1.1 = { holder=12569116 } # Izembara (nc)
6757.1.1 = { holder=12869116 } # Beqqo (nc)
6772.1.1 = { holder=12969116 } # Moredea (nc)
