1.1.1={
	liege="d_meereen"
}
6473.1.1 = { holder=150360004 } # Phaezdhar (nc)
6498.1.1 = { holder=100360004 } # Grazdan (nc)
6531.1.1 = { holder=101360004 } # Miklaz (nc)
6556.1.1 = { holder=103360004 } # Grazdan (nc)
6583.1.1 = { holder=107360004 } # Azzak (nc)
6596.1.1 = { holder=112360004 } # Marghaz (nc)
6644.1.1 = { holder=116360004 } # Gorzhak (nc)
6657.1.1 = { holder=119360004 } # Dhazak (nc)
6678.1.1 = { holder=123360004 } # Paezhar (nc)
6707.1.1 = { holder=127360004 } # Grazdan (nc)
6721.1.1 = { holder=128360004 } # Gorzhak (nc)
6765.1.1={
	holder=16571015 # Grazdan
}
