1.1.1={
	liege = k_valyria
}

6473.1.1 = { holder=1000496 } # Jaehaerys (nc)
6509.1.1 = { holder=1001496 } # Aelix (nc)
6539.1.1 = { holder=1003496 } # Orys (nc)
6555.1.1 = { holder=1007496 } # Aenys (nc)
6588.1.1 = { holder=1008496 } # Orys (nc)
6594.1.1 = { holder=1012496 } # Maekar (nc)
6613.1.1 = { holder=1015496 } # Vaekar (nc)
6648.1.1 = { holder=1016496 } # Aenar (nc)
6662.1.1 = { holder=1018496 } # Aegor (nc)
6695.1.1 = { holder=1023496 } # Jaehaerys (nc)
6702.1.1 = { holder=1025496 } # Baelor (nc)
6737.1.1 = { holder=1026496 } # Baelon (nc)
6779.1.1 = { holder=1029496 } # Qoherys (nc)

