1.1.1={ 
	liege="d_great_wyk"
	law=succ_primogeniture 
	law = agnatic_succession
}
3487.1.1 = { holder = 355066 } #Harrag  Hoare
3519.1.1 = { holder = 357066 } #Erich II Hoare
3545.1.1 = { holder = 0 }

3670.1.1 = { holder = 358066 } #Qhored  Hoare
3745.1.1 = { holder = 0 }

6464.1.1 = { holder = 100066 }
6494.1.1 = { holder = 100166 }
6527.1.1 = { holder = 100566 }
6553.1.1 = { holder = 100766 }

6577.1.1 = { holder = 359066 } #Harras  Hoare
6605.1.1 = { holder = 360066 } #Wulfgar  Hoare
6639.1.1 = { holder = 361066 } #Harrag Hoare (NC)
6648.1.1 = { holder = 362066 } #Euron II Hoare (NC)
6671.1.1 = { holder = 363066 } #Horgan  Hoare
6692.1.1 = { holder = 3163066 } #Balon VIII Hoare (NC)



