
6473.1.1 = { holder=10001802 } # Brenett (nc)
6501.1.1 = { holder=10011802 } # Daryn (nc)
6546.1.1 = { holder=10041802 } # Walder (nc)
6567.1.1 = { holder=10061802 } # Torghen (nc)
6592.1.1 = { holder=10101802 } # Jonos (nc)
6622.1.1 = { holder=10121802 } # Galbart (nc)
6631.1.1 = { holder=10161802 } # Edwyle (nc)

6641.1.1 = { holder=155001 } # Morgan Martell
6692.1.1 = { holder=102710 } # Byron (nc)
6698.1.1 = { holder=103210 } # Hugh (nc)
6747.1.1 = { holder=103310 } # Durran (nc)
6785.1.1 = { holder=103410 } # Jonquil (nc)
