1.1.1={
	liege = d_perzyria
}

6473.1.1 = { holder=10006011 } # Aemon (nc)
6510.1.1 = { holder=10016011 } # Daegar (nc)
6532.1.1 = { holder=10046011 } # Aenar (nc)
6556.1.1 = { holder=10076011 } # Matarys (nc)
6583.1.1 = { holder=10096011 } # Gaemon (nc)
6617.1.1 = { holder=10136011 } # Daemon (nc)
6638.1.1 = { holder=10166011 } # Matarys (nc)
6644.1.1 = { holder=10186011 } # Haegon (nc)
6683.1.1 = { holder=10196011 } # Maegon (nc)
6735.1.1 = { holder=10246011 } # Aemon (nc)
6763.1.1 = { holder=10256011 } # Rhaegel (nc)
6768.1.1 = { holder=10296011 } # Jaehaerys (nc)
6809.1.1 = { holder=10306011 } # Vaeron (nc)
6827.1.1 = { holder=10316011 } # Gaemon (nc)



