1418.1.1={
	liege="d_princespass"
	law=succ_primogeniture
	law = cognatic_succession
	name = d_wide_way
	effect = { location = { set_name = d_wide_way } }
}

6395.1.1 = { holder = 154014 }
6438.1.1 = { holder = 155014 }
6466.1.1 = { holder=60014 } # Aron (nc)
6490.1.1 = { holder=60114 } # Cassana (nc)
6510.1.1 = { holder=60414 } # Franklyn (nc)
6558.1.1 = { holder=60714 } # Marya (nc)
6580.1.1 = { holder=60914 } # Gerold (nc)
6583.1.1 = { holder=61114 } # Trystane (nc)
6600.1.1 = { holder=61314 } # Dorea (nc)
6640.1.1 = { holder=61714 } # Symon (nc)
6673.1.1 = { holder=61814 } # Franklyn (nc)
6702.1.1 = { holder=62114 } # Aron (nc)
6715.1.1 = { holder=62214 } # Garin (nc)
6732.1.1 = { holder=63014 } # Gerold (nc)
6739.1.1 = { holder=14 } # Franklyn (C)
