1.1.1={
	liege="d_qal"
}
6433.1.1 = { holder=10035002 } # Pyat (nc)
6482.1.1 = { holder=10435002 } # Nyessos (nc)
6522.1.1 = { holder=10635002 } # Doniphos (nc)
6548.1.1 = { holder=10835002 } # Mathos (nc)
6560.1.1 = { holder=11235002 } # Semython (nc)
6599.1.1 = { holder=11535002 } # Navathos (nc)
6625.1.1 = { holder=11635002 } # Egon (nc)
6658.1.1 = { holder=11735002 } # Doniphos (nc)
6663.1.1 = { holder=11835002 } # Meralyn (nc)
6688.1.1 = { holder=12135002 } # Wendello (nc)
6697.1.1 = { holder=12435002 } # Sallor (nc)
6728.1.1 = { holder=13035002 } # Vogarro (nc)
6748.1.1 = { holder=13135002 } # Mathos (nc)


