4478.1.1={
	liege="d_redfort"
	law = succ_primogeniture
}
6468.1.1 = { holder=3000183 } # Humfrey (nc)
6500.1.1 = { holder=3003183 } # Danwell (nc)
6523.1.1 = { holder=3006183 } # Narbert (nc)
6542.1.1 = { holder=3007183 } # Andrey (nc)
6578.1.1 = { holder=3008183 } # Aethelmure (nc)
6622.1.1 = { holder=3010183 } # Clement (nc)
6624.1.1 = { holder=3012183 } # Lothar (nc)
6646.1.1 = { holder=3015183 } # Marq (nc)
6699.1.1 = { holder=3018183 } # Malwyn (nc)

6720.1.1={
	holder=94058
}
