6473.1.1 = { 
	liege = d_rhaesh_jim
	holder=100600202 # Jhaquo (nc)
} 
6492.1.1 = { holder=102600202 } # Jhaquo (nc)
6533.1.1 = { holder=104600202 } # Qotho (nc)
6551.1.1 = { holder=107600202 } # Mago (nc)
6580.1.1 = { holder=111600202 } # Bharbo (nc)
6582.1.1 = { holder=114600202 } # Bharbo (nc)
6618.1.1 = { holder=117600202 } # Fogo (nc)
6622.1.1 = { holder=118600202 } # Qotho (nc)
6658.1.1 = { holder=119600202 } # Aggo (nc)
6671.1.1 = { holder=120600202 } # Bharbo (nc)
6680.1.1 = { holder=122600202 } # Temmo (nc)
6721.1.1 = { holder=127600202 } # Drogo (nc)
6738.1.1 = { holder=130600202 } # Zollo (nc)
