#NOTE: The holder of this title has the House Varner dynasty tracker set in roberts_rebellion_events
1.1.1={ law=succ_primogeniture law=cognatic_succession
	liege="e_reach"
}

6605.1.1 = { holder=6010258 } # Olymer (nc)
6633.1.1 = { holder=6016258 } # Martyn (nc)
6657.1.1 = { holder=6017258 } # Eustace (nc)
6661.1.1 = { holder=6018258 } # Runceford (nc)
6709.1.1 = { holder=6020258 } # Lucas (nc)
6724.1.1 = { holder=6022258 } # Lucas (nc)







