1.1.1={
	liege="k_pentos"
}

6473.1.1 = { holder=100069123 } # Ordello (nc)
6510.1.1 = { holder=100169123 } # Lotho (nc)
6520.1.1 = { holder=100269123 } # Tormo (nc)
6541.1.1 = { holder=100469123 } # Groleo (nc)
6547.1.1 = { holder=100769123 } # Moredo (nc)
6581.1.1 = { holder=100969123 } # Joss (nc)
6624.1.1 = { holder=101069123 } # Byan (nc)
6650.1.1 = { holder=101169123 } # Terro (nc)
6672.1.1 = { holder=101569123 } # Oro (nc)
6704.1.1 = { holder=101969123 } # Collio (nc)
6724.1.1 = { holder=102169123 } # Ternesio (nc)
