1.1.1={
	liege="d_samyriana"
	law = succ_seniority
	law = agnatic_succession
}
6423.1.1 = { holder=10055950 } # Sami (nc)
6481.1.1 = { holder=10155950 } # Najib (nc)
6497.1.1 = { holder=10455950 } # Alim (nc)
6510.1.1 = { holder=10755950 } # Alim (nc)
6559.1.1 = { holder=10955950 } # Qawurd (nc)
6560.1.1 = { holder=11355950 } # Isa (nc)
6607.1.1 = { holder=11655950 } # Mukhtar (nc)
6623.1.1 = { holder=11955950 } # Isa (nc)
6625.1.1 = { holder=12355950 } # Mirza (nc)
6641.1.1 = { holder=12755950 } # Jaleel (nc)
6665.1.1 = { holder=13055950 } # Shamir (nc)
6697.1.1 = { holder=13255950 } # Jalil (nc)
6753.1.1 = { holder=13555950 } # Mahdi (nc)
6763.1.1 = { holder=13655950 } # Abdul (nc)
