1.1.1={
	liege="d_bayasabhad"
	law = succ_seniority
	law = agnatic_succession
}
6423.1.1 = { holder=10055953 } # Alim (nc)
6481.1.1 = { holder=10155953 } # Nizam (nc)
6497.1.1 = { holder=10455953 } # Azam (nc)
6510.1.1 = { holder=10755953 } # Jalil (nc)
6559.1.1 = { holder=10955953 } # Nasr (nc)
6560.1.1 = { holder=11355953 } # Abdullah (nc)
6607.1.1 = { holder=11655953 } # Ali_Ali (nc)
6623.1.1 = { holder=11955953 } # Hussayn (nc)
6625.1.1 = { holder=12355953 } # Youkhanna (nc)
6641.1.1 = { holder=12755953 } # Jaleel (nc)
6665.1.1 = { holder=13055953 } # Youkhanna (nc)
6697.1.1 = { holder=13255953 } # Mukhtar (nc)
6753.1.1 = { holder=13555953 } # Murad (nc)
6763.1.1 = { holder=13655953 } # Shaiban (nc)
