3878.1.1={
	liege="d_sathar"
	law = succ_primogeniture
}
6473.1.1 = { holder=10056817 } # Jash (nc)
6497.1.1 = { holder=10156817 } # Chanak (nc)
6539.1.1 = { holder=10656817 } # Shyam (nc)
6543.1.1 = { holder=10856817 } # Kedaar (nc)
6578.1.1 = { holder=10956817 } # Harith (nc)
6631.1.1 = { holder=11256817 } # Lokesh (nc)
6640.1.1 = { holder=11756817 } # Yogesh (nc)
6678.1.1 = { holder=11956817 } # Vishruth (nc)
6682.1.1 = { holder=12256817 } # Nishad (nc)
6726.1.1 = { holder=12456817 } # Manish (nc)
6761.1.1 = { holder=12556817 } # Shyam (nc)
6777.1.1 = { holder=12856817 } # Nishi (nc)
