1.1.1={
	liege="d_great_wyk"
}
6451.1.1 = { holder=3000114 } # Ragnor (nc)
6484.1.1 = { holder=3003114 } # Drennan (nc)
6510.1.1 = { holder=3006114 } # Falia (nc)
6548.1.1 = { holder=3007114 } # Bennarion (nc)
6558.1.1 = { holder=3011114 } # Brella (nc)
6613.1.1 = { holder=3012114 } # Aeron (nc)
6626.1.1 = { holder=3014114 } # Tristifer (nc)
6667.1.1 = { holder=3016114 } # Denys (nc)
6689.1.1 = { holder=3017114 } # Ulf (nc)
6717.1.1 = { holder=3024114 } # Harl (nc)
6735.1.1 = { holder=3025114 } # Eerl (nc)
6751.1.1 = { holder=114 } # Triston (c)
