1.1.1={
	liege="d_leng_ma"
	law = succ_primogeniture
}
6463.1.1 = { holder=10065977 } # Minh (nc)
6518.1.1 = { holder=10265977 } # Xun (nc)
6535.1.1 = { holder=10665977 } # Xhe (nc)
6579.1.1 = { holder=10765977 } # Phuc (nc)
6591.1.1 = { holder=10965977 } # Thao (nc)
6604.1.1 = { holder=11065977 } # Hieu (nc)
6638.1.1 = { holder=11565977 } # Xuan (nc)
6654.1.1 = { holder=12065977 } # Quan (nc)
6687.1.1 = { holder=12265977 } # Thao (nc)
6714.1.1 = { holder=12465977 } # Van (nc)
6745.1.1 = { holder=12865977 } # An (nc)


