5778.1.1={	
	law = succ_primogeniture
	de_jure_liege = d_masseys_hook
	liege = d_masseys_hook
}
6546.1.1 = {
	holder = 150049 #Togarion Bar Emmon
}
6558.1.1 = { holder=3009049 } # Rorge Bar Emmon (nc)
6587.1.1 = { holder=3012049 } # Osmund Bar Emmon (nc)
6602.1.1 = { holder=3014049 } # Clarence Bar Emmon (nc)
6666.1.1 = { holder=3016049 } # Leonette Bar Emmon (nc)
6678.1.1 = { holder=3019049 } # Robin Bar Emmon (nc)
6713.1.1 = { holder=3021049 } # Ardrian Bar Emmon (nc)
6747.1.1 = { holder=3027049 } # Devan Bar Emmon (nc)
6755.1.1 = { holder=3028049 } # Guncer Bar Emmon (nc)
