1.1.1 = {
	law = succ_turkish_succession
	law = agnatic_succession
}
6460.1.1 = { holder=101559122 } # Hareth (nc)
6491.1.1 = { holder=103559122 } # Dywen (nc)
6529.1.1 = { holder=105559122 } # Dormund (nc)
6543.1.1 = { holder=107559122 } # Lenn (nc)
6571.1.1={
	holder=109559122 # Ryk (nc)
}
6608.1.1 = { holder=112559122 } # Mikken (nc)
6610.1.1={
	liege = d_haunted_forest
}
6626.1.1={
	liege = 0
}
6669.1.1 = { holder=114559122 } # Torwynd (nc)

6708.1.1 = { holder=116559122 } # Gerrick (nc)
6731.1.1 = { holder=119559122 } # Arthor (nc)
6758.1.1 = {
	holder=120559122
}


