1.1.1={
	law = succ_turkish_succession
	law = agnatic_succession
}
6473.1.1 = { holder=100982367 } 
6502.1.1 = { holder=101982367 } # Denyo (nc)
6524.1.1 = { holder=104982367 } # Yorko (nc)
6567.1.1 = { holder=105982367 } # Ternesio (nc)



6615.1.1 = { holder=109982367 } # Allaquo (nc)

6622.1.1 = { holder=112982367 } # Tycho (nc)

6638.1.1 = { holder=113982367 } # Ordello (nc)

6653.1.1 = { holder=114982367 } # Sallodhor (nc)
6680.1.1 = { holder=115982367 } # Meralyn (nc)
6712.1.1 = { holder=116982367 } # Daario (nc)
6732.1.1 = { holder=117982367 } # Tormo (nc)

