1.1.1={
	liege="k_pentos"
}

6473.1.1 = { holder=100300015 } # Allaquo (nc)
6514.1.1 = { holder=104300015 } # Moredo (nc)
6518.1.1 = { holder=107300015 } # Yorko (nc)
6532.1.1 = { holder=109300015 } # Joss (nc)
6584.1.1 = { holder=111300015 } # Areo (nc)
6595.1.1 = { holder=114300015 } # Ordello (nc)
6657.1.1 = { holder=115300015 } # Jaqen (nc)
6680.1.1 = { holder=116300015 } # Byan (nc)
6697.1.1 = { holder=118300015 } # Moreo (nc)
6719.1.1 = { holder=120300015 } # Roro (nc)
6732.1.1 = { holder=122300015 } # Gyleno (nc)
