4678.1.1={
	liege="d_the_sisters"
	law = succ_primogeniture
}
6472.1.1 = { holder=3000165 } # Wyl (nc)
6503.1.1 = { holder=3001165 } # Humfrey (nc)
6541.1.1 = { holder=3004165 } # Oswell (nc)
6554.1.1 = { holder=3006165 } # Morgarth (nc)
6607.1.1 = { holder=3008165 } # Umfred (nc)
6649.1.1 = { holder=3012165 } # Wallace (nc)
6666.1.1 = { holder=3014165 } # Kyle (nc)
6696.1.1 = { holder=3017165 } # Elbert (nc)
6724.1.1 = { holder=3019165 } # Umfred (nc)

6736.1.1={
	holder=94035
}
6768.1.1={
	holder=94036
}
