6472.1.1={
	law = succ_turkish_succession
	law = agnatic_succession
	effect = {
		c_thenn = {
			holder_scope = {
				if = {
					limit = { NOT = { culture = white_walker } }
					c_thenn_rel = {
						grant_title = PREV
						copy_title_history = c_thenn
						copy_title_laws = c_thenn
					}
				}
			}
		}
	}
}
6778.1.1={
	holder=274344
}

