1.1.1 = {
	law = succ_turkish_succession
	law = agnatic_succession
}
6458.1.1 = { holder=10559144 } # Bodger (nc)
6489.1.1 = { holder=11559144 } # Owen (nc)
6502.1.1 = { holder=12559144 } # Harlon (nc)
6528.1.1 = { holder=15559144 } # Mors (nc)
6557.1.1 = { holder=16559144 } # Dryn (nc)
6579.1.1 = { holder=21559144 } # Gorne (nc)
6601.1.1 = { holder=22559144 } # Harmond (nc)
6609.1.1 = { holder=23559144 } # Alfyn (nc)
6626.1.1 = { holder=29559144 } # Henk (nc)
6691.1.1={
	liege="k_beyond_wall"
}
6693.1.1 = { holder=30559144 } # Arson (nc)
6704.9.9={
	liege="0"
}
6706.1.1 = { holder=32559144 } # Jeor (nc)
6734.1.1 = { holder=33559144 } # Lenyl (nc)
6745.1.1 = { holder=36559144 } # Halleck (nc)
6776.1.1={
	liege="k_beyond_wall"
}
6778.1.1={
	holder=999000666
}
