1.1.1={
	liege="d_tolos"
}
6427.1.1 = { holder=100570101 } # Jaekar (nc)
6460.1.1 = { holder=102570101 } # Horonno (nc)
6482.1.1 = { holder=104570101 } # Aenar (nc)
6500.1.1 = { holder=111570101 } # Vaeron (nc)
6568.1.1 = { holder=112570101 } # Parquello (nc)
6601.1.1 = { holder=116570101 } # Belicho (nc)
6622.1.1 = { holder=119570101 } # Horonno (nc)
6668.1.1 = { holder=121570101 } # Orys (nc)
6723.1.1 = { holder=125570101 } # Colloquo (nc)
6731.1.1 = { holder=128570101 } # Orys (nc)
6748.1.1 = { holder=131570101 } # Benerro (nc)
6773.1.1 = { holder=132570101 } # Methyso (nc)
