1.1.1={
	liege="k_leng"
}

6473.1.1 = { holder=100055962 } # Yusuf (nc)
6516.1.1 = { holder=100155962 } # Mirza (nc)
6531.1.1 = { holder=100655962 } # Mukhtar (nc)
6554.1.1 = { holder=100955962 } # Husam (nc)
6595.1.1 = { holder=101255962 } # Yusuf (nc)
6596.1.1 = { holder=101355962 } # Youkhanna (nc)
6645.1.1 = { holder=101555962 } # Najib (nc)
6655.1.1 = { holder=101855962 } # Uways (nc)
6657.1.1 = { holder=102155962 } # Uways (nc)
6700.1.1 = { holder=102455962 } # Sami (nc)
6754.1.1 = { holder=102955962 } # Alim (nc)
6766.1.1 = { holder=103255962 } # Jaleel (nc)


