1.1.1 = { 
	liege = d_essaria
	law=succ_primogeniture 
	law=cognatic_succession
} 
6473.1.1 = { holder=10002902 } # Vaermon (nc)
6517.1.1 = { holder=10012902 } # Qavo (nc)
6543.1.1 = { holder=10022902 } # Parquello (nc)
6591.1.1 = { holder=10042902 } # Malaquo (nc)
6594.1.1 = { holder=10082902 } # Methyso (nc)
6620.1.1 = { holder=10112902 } # Vaermon (nc)
6635.1.1 = { holder=10162902 } # Malaquo (nc)
6663.1.1 = { holder=10172902 } # Vaekar (nc)
6709.1.1 = { holder=10222902 } # Vogarro (nc)
6716.1.1 = { holder=10242902 } # Qoherys (nc)

