1.1.1={
	liege="k_pentos"
}

6473.1.1 = { holder=100300013 } # Gyloro (nc)
6520.1.1 = { holder=102300013 } # Cossomo (nc)
6538.1.1 = { holder=103300013 } # Ordello (nc)
6563.1.1 = { holder=108300013 } # Myrmello (nc)
6572.1.1 = { holder=109300013 } # Syrio (nc)
6593.1.1 = { holder=113300013 } # Qarro (nc)
6601.1.1 = { holder=118300013 } # Illyrio (nc)
6643.1.1 = { holder=119300013 } # Moredo (nc)
6678.1.1 = { holder=122300013 } # Moreo (nc)
6704.1.1 = { holder=127300013 } # Pynto (nc)
6736.1.1 = { holder=130300013 } # Byan (nc)
6749.1.1 = { holder=133300013 } # Pynto (nc)
6755.1.1 = { holder=135300013 } # Daario (nc)
