6442.1.1 = { holder=10033914 } # Samuqan (nc)
6487.1.1 = { holder=10133914 } # La'um (nc)
6514.1.1 = { holder=10333914 } # Humbab (nc)
6532.1.1 = { holder=11333914 } # Naqir (nc)
6586.1.1 = { holder=11733914 } # Shulpae (nc)
6610.1.1 = { holder=12133914 } # Sidu (nc)
6617.1.1 = { holder=12333914 } # Warad (nc)
6649.1.1 = { holder=12533914 } # Palusum (nc)
6694.1.1 = { holder=12633914 } # Enlil (nc)
6705.1.1 = { holder=12933914 } # Damuzi (nc)
6739.1.1 = { holder=13133914 } # Dadanum (nc)
6740.1.1 = { holder=13233914 } # Limer (nc)


