6473.1.1 = { holder=10056821 } # Ordello (nc)
6502.1.1 = { holder=10156821 } # Moreo (nc)
6535.1.1 = { holder=10456821 } # Moredo (nc)
6544.1.1 = { holder=10856821 } # Jaqen (nc)

6580.1.1 = { holder=10956821 } # Terro (nc)
6584.1.1 = { holder=11156821 } # Narbo (nc)


6627.1.1 = { holder=600000062 } # Vaario (c)

6637.1.1 = { 
	holder=11656821 # Noho (nc)
}
6656.1.1 = { holder=11856821 } # Ferrego (nc)
6696.1.1 = { holder=12256821 } # Meralyn (nc)
6709.1.1 = { holder=12556821 } # Roro (nc)

6743.1.1 = { holder=12756821 } # Khorane (nc)
