4678.1.1={
	law = succ_primogeniture
}
6457.1.1 = { holder=550881800 } # Dywen Shell
6479.6.6={ 
	liege = d_the_fingers 
	holder = 550176 #Corwyn Corbray
}
6492.1.1 = { holder = 5551176 } #Gawayne Corbray
6523.1.1 = { holder = 551176 } #Qyle Corbray
6538.6.6 = { holder=552176 } # Jaimie
6539.1.1={
	liege="e_vale"
}
6570.1.1 = { holder=211176 } # Eon (nc)
6623.1.1 = { holder=212176 } # Donnel (nc)
6632.1.1 = { holder=214176 } # Elys (nc)
6670.1.1 = { holder=218176 } # Elbert (nc)
6682.1.1 = { holder=220176 } # Walace (nc)
6705.1.1 = { holder=221176 } # Lyn (nc)
6730.1.1={
	holder=94048
}


