1.1.1={
	liege = e_new_valyria
	law = succ_primogeniture
	law = agnatic_succession
}
6463.1.1 = { holder=100570110 } # Doniphos (nc)
6504.1.1 = { holder=101570110 } # Aelix (nc)
6508.1.1 = { holder=102570110 } # Alios (nc)
6540.1.1 = { holder=106570110 } # Matarys (nc)
6565.1.1 = { holder=110570110 } # Vaeron (nc)
6587.1.1 = { holder=113570110 } # Aenar (nc)
6609.1.1 = { holder=114570110 } # Daegar (nc)
6635.1.1 = { holder=116570110 } # Qoherys (nc)
6682.1.1 = { holder=120570110 } # Vaekar (nc)
6704.1.1 = { holder=126570110 } # Parquello (nc)
6738.1.1 = { holder=127570110 } # Qavo (nc)
