#d_peckledon

6660.1.1 = { 
	holder=314198  # Polliver (nc)
	liege = "e_westerlands"
}
6667.1.1 = { holder=319198 } # Dunsen (nc)
6702.1.1 = { holder=321198 } # Lester (nc)
6741.1.1 = { holder=323198 } # Tyford (nc)
