1.1.1={
	liege="k_yin"
}
6380.1.1 = { 
	holder=10065961 #Lo Tho, twenty-second of the scarlet emperors
}
6429.1.1 = { holder=0 }

6468.1.1 = { 
	holder=10005961  # Chao (nc)
}
6506.1.1 = { holder=10365961 } # Lo Doq canon 34th scarlet emperor
6520.1.1 = { holder=110055961 } # Huu (nc)
6550.1.1 = { holder=100065961 } # Tu (nc)
6560.1.1 = { holder=10085961 } # Phong (nc)
6580.1.1 = { holder=10105961 } # Quen (nc)
6619.1.1 = { holder=10135961 } # Tu (nc)
6661.1.1 = { holder=110155961 } # Binh (nc)
6666.1.1 = { holder=10185961 } # Gai (nc)
6670.1.1 = { holder=10065963 } # Lo Han canon 42nd scarlet emperor
6698.1.1 = { holder=10165963 } # Lo Bu canon 43rd scarlet emperor





