1.1.1={
	liege="k_leng"
	law = succ_primogeniture
	law = enatic_succession
}

6473.1.1 = { holder=10055963 } # Shogofa (nc)
6509.1.1 = { holder=10255963 } # Nyawela (nc)
6517.1.1 = { holder=10655963 } # Simin (nc)
6553.1.1 = { holder=10755963 } # Alim (nc)
6574.1.1 = { holder=10855963 } # Rasa (nc)
6604.1.1 = { holder=11255963 } # Semeah (nc)
6625.1.1 = { holder=11655963 } # Reshawna (nc)
6655.1.1 = { holder=11855963 } # Shola (nc)
6675.1.1 = { holder=12055963 } # Layla (nc)
6699.1.1 = { holder=12255963 } # Paywand (nc)
6743.1.1 = { holder=12555963 } # Jahaira (nc)


