1.1.1={
	liege="k_linqi"
}
6473.1.1 = { holder=10069192 } # Sami (nc)
6512.1.1 = { holder=10169192 } # Uways (nc)
6529.1.1 = { holder=10569192 } # Samir (nc)
6532.1.1 = { holder=10869192 } # Jalil (nc)
6606.1.1 = { holder=10969192 } # Youkhanna (nc)
6620.1.1 = { holder=11169192 } # Qadir (nc)
6636.1.1 = { holder=11369192 } # Aarif (nc)
6654.1.1 = { holder=11769192 } # Isa (nc)
6685.1.1 = { holder=12069192 } # Ramadan (nc)
6706.1.1 = { holder=12469192 } # Azam (nc)
6713.1.1 = { holder=12769192 } # Sami (nc)
6770.1.1 = { holder=13069192 } # Murad (nc)

