6454.1.1 = { 
	holder=100600217 
	historical_nomad = yes
} # Rogo (nc)

6463.1.1 = { liege = k_essaria } #Khal temmo
6477.1.1 = { liege = 0 }

6488.1.1 = { holder=102600217 } # Ogo (nc)
6511.1.1 = { holder=107600217 } # Rhogoro (nc)
6548.1.1 = { holder=111600217 } # Mosko (nc)
6567.1.1 = { holder=112600217 } # Temmo (nc)
6571.1.1 = { holder=116600217 } # Cohollo (nc)
6599.1.1 = { holder=121600217 } # Pono (nc)
6603.1.1 = { holder=123600217 } # Zerqollo (nc)
6642.1.1 = { holder=127600217 } # Hezzo (nc)
6644.1.1 = { holder=131600217 } # Moro (nc)
6665.1.1 = { holder=135600217 } # Remekko (nc)
6715.1.1 = { holder=139600217 } # Rhogoro (nc)
6743.1.1 = { holder=142600217 } # Jasso (nc)
6768.1.1 = { liege = k_essaria } #Zekko Canon
6772.1.1 = { holder=147600217 } # Remekko (nc)

