#House Monye
6468.1.1 = { 
	holder=100304026 
	law = succ_seniority
	law = cognatic_succession
} # Nyadundo (nc)
6500.1.1 = { holder=103304026 } # Doshuru (nc)
6522.1.1 = { holder=106304026 } # Mermesbhar (nc)
6555.1.1 = { holder=111304026 } # Xhakan (nc)
6577.1.1 = { holder=116304026 } # Xhelimo (nc)
6597.1.1 = { holder=118304026 } # Jaramogo (nc)
6620.1.1 = { holder=119304026 } # Orengo (nc)
6644.1.1 = { holder=122304026 } # Tapuhuru (nc)
6703.1.1 = { holder=125304026 } # Xhelimo (nc)
6713.1.1 = { holder=130304026 } # Mermesbhar (nc)
6723.1.1 = { holder=131304026 } # Xhelimo (nc)
6749.1.1 = { holder=133304026 } # Jalabhar (nc)
6767.1.1 = { holder=137304026 } # Jarado (nc)
