6433.1.1 = { 
	holder=100607302 
	historical_nomad = yes
} # Jawak (nc)
6479.1.1 = { holder=101607302 } # Faqar (nc)
6508.1.1 = { holder=105607302 } # Kahkazan (nc)
6524.1.1 = { holder=110607302 } # Zeba (nc)
6537.1.1 = { holder=113607302 } # Basir (nc)
6581.1.1 = { holder=114607302 } # Jaan (nc)
6625.1.1 = { holder=115607302 } # Yasen (nc)
6641.1.1 = { holder=116607302 } # Sabeir (nc)
6650.1.1 = { holder=118607302 } # Ramazan (nc)
6669.1.1 = { holder=120607302 } # Tamim (nc)
6695.1.1 = { holder=125607302 } # Obiad (nc)
6699.1.1 = { holder=128607302 } # Zabi (nc)

6690.1.1 = { 
	liege = e_jkhalasar
}

