1.1.1={law=succ_primogeniture 
	law=cognatic_succession
	liege="e_reach"}
	
22.1.1={holder=60800237} # John the Oak (C)
75.1.1={holder=0}

6358.1.1={holder=60130237} # Alder (nc)
6385.1.1={holder=60120237} # Filbert (nc)
6466.1.1={holder=60110237} # Aspen (nc)
6466.2.1={holder=60000237} # Linden (nc)

6481.1.1={
	holder=24237
}
6490.8.1 = {
	holder=23237
}
6554.1.1={
	holder=21237
}
6580.1.1={
	holder=20237
}
6607.1.1={
	holder=16237
}
6642.1.1={
	holder=15237
}
6656.1.1={
	holder=14237
}
6674.1.1={
	holder=11237
}
6713.1.1={
	holder=10237
}





