#House Mo
6471.1.1 = { 
	holder=100304002 
	law = succ_seniority
	law = cognatic_succession
} # Adeyemu (nc)
6519.1.1 = { holder=105304002 } # Jalabhar (nc)
6524.1.1 = { holder=107304002 } # Kwasdo (nc)
6564.1.1 = { holder=110304002 } # Kwasdo (nc)
6581.1.1 = { holder=111304002 } # Chibundo (nc)
6608.1.1 = { holder=113304002 } # Kwasdo (nc)
6633.1.1 = { holder=116304002 } # Nyadundo (nc)
6675.1.1 = { holder=118304002 } # Siboxhoan (nc)
6690.1.1 = { holder=121304002 } # Xhal (nc)
6713.1.1 = { holder=126304002 } # Qaro (nc)
6746.1.1 = { holder=128304002 } # Jiradhar (nc)
6762.1.1 = { holder=131304002 } # Koroxhar (nc)

