3478.1.1={
	law = succ_primogeniture
	liege = k_upper_rhoyne
}
6442.1.1 = { holder=100174901 } # Morton (nc)
6479.1.1={
	liege = 0
}
6487.1.1 = { holder=106174901 } # Royce (nc)
6532.1.1 = { holder=107174901 } # Gilwood (nc)
6574.1.1 = { holder=112174901 } # Horton (nc)
6608.1.1 = { holder=115174901 } # Albar (nc)
6618.1.1 = { holder=117174901 } # Harlan (nc)
6643.1.1 = { holder=121174901 } # Randyll (nc)
6673.1.1 = { holder=122174901 } # Wallace (nc)
6694.1.1 = { holder=126174901 } # Gerold (nc)
6715.1.1 = { holder=129174901 } # Ronnel (nc)
6731.1.1 = { holder=130174901 } # Umfred (nc)
6757.1.1 = { holder=133174901 } # Yohn (nc)

