6078.1.1={
	liege="k_acornsridgeTK"
	law = succ_primogeniture
}
6454.1.1={
	holder=14157
}

6486.1.1={
	holder=13157
}
6515.1.1={
	holder=12157
}
6530.1.1={
	holder=11157
}
6573.1.1={
	holder=9157
}
6602.1.1={
	holder=8157
}
6608.5.8={
	holder=7157 # Willem (SC)
}
6656.1.1={
	holder=6157
}
6669.1.1={
	holder=5157
}
6692.1.1={
	holder=4157
}
6715.1.1={
	holder=3157
}
6744.1.1={
	holder=2157
}
6752.1.1={
	holder=157
}
