3368.1.1 = {
	liege = e_new_valyria
	law = slavery_2
	law = republic_law_oligarchy
	law = succ_feudal_elective
	law = agnatic_succession
	law = centralization_1
	effect = { add_law = republic_law_oligarchy }
}
6473.1.1 = { holder=1000208 } # Grazdhar (nc)
6508.1.1 = { holder=1001208 } # Yarkhaz (nc)
6560.1.1 = { holder=1002208 } # Morghaz (nc)
6587.1.1 = { holder=1005208 } # Reznak (nc)
6607.1.1 = { holder=1006208 } # Zaraq (nc)
6633.1.1 = { holder=1008208 } # Ghazdor (nc)
6671.1.1 = { holder=1009208 } # Grazdhar (nc)
6702.1.1 = { holder=1012208 } # Fendahl (nc)
6716.1.1 = { holder=1014208 } # Marghaz (nc)
6731.1.1 = { holder=1017208 } # Haznak (nc)
6761.1.1 = { holder=1021208 } # Skahaz (nc)
6794.1.1 = { holder=1023208 } # Fendahl (nc)


