1.1.1={ 
	liege="c_deepforest"
}
2973.1.1 = { holder=100300529 } # Ordello (nc)
3023.1.1 = { holder=101300529 } # Daario (nc)
3037.1.1 = { holder=103300529 } # Areo (nc)
3048.1.1 = { holder=110300529 } # Myrmello (nc)
3065.1.1 = { holder=112300529 } # Gyloro (nc)
3081.1.1 = { holder=113300529 } # Ternesio (nc)
3133.1.1 = { holder=114300529 } # Syrio (nc)
3136.1.1 = { holder=115300529 } # Areo (nc)
3149.1.1 = { holder=116300529 } # Vargo (nc)
3174.1.1 = { holder=120300529 } # Myrmello (nc)
3186.1.1 = { holder=123300529 } # Lotho (nc)
3202.1.1 = { holder=126300529 } # Syrio (nc)
3255.1.1 = { holder=128300529 } # Jaqen (nc)
3260.1.1 = { holder=129300529 } # Illyrio (nc)
3265.1.1 = { holder=133300529 } # Byan (nc)
3271.1.1 = { holder=136300529 } # Meralyn (nc)



