1.1.1={ 
	liege="c_dyrenohill"
}
2970.1.1 = { holder=150300546 } # Vaelar (nc)
3036.1.1 = { holder=100300546 } # Roro (nc)
3079.1.1 = { holder=105300546 } # Sallodhor (nc)
3106.1.1 = { holder=106300546 } # Cossoma (nc)
3129.1.1 = { holder=109300546 } # Syrio (nc)
3168.1.1 = { holder=112300546 } # Ordello (nc)
3196.1.1 = { holder=115300546 } # Illyrio (nc)
3205.1.1 = { holder=117300546 } # Ordello (nc)
3227.1.1 = { holder=118300546 } # Izembaro (nc)
3249.1.1 = { holder=122300546 } # Tycho (nc)
3259.1.1={ holder = 0 } #Ninepenny king
3259.12.31 = { holder = 122300546 } 
3274.1.1 = { holder=125300546 } # Gyleno (nc)


