1.1.1={ 
	liege="c_myr"
}

2970.1.1 = { holder=150300700 } # Lazaario (nc)
3023.1.1 = { holder=100300700 } # Izenbaro (nc)
3075.1.1 = { holder=102300700 } # Noho (nc)
3084.1.1 = { holder=103300700 } ####  Craghas Crabfeeder
3108.11.11 = { holder=104300700 } # Roro (nc)
3145.1.1 = { holder=108300700 } # Ezzelyno (nc)
3166.1.1 = { holder=111300700 } # Oro (nc)
3203.1.1 = { holder=115300700 } # Collio (nc)
3224.1.1 = { holder=118300700 } # Beqqo (nc)
3250.1.1 = { holder=123300700 } # Groleo (nc)
3280.1.1 = { holder=125300700 } # Roro (nc)
3293.1.1 = { holder=128300700 } # Narbo (nc)








