1.1.1={ 
	liege="c_myr"
}
2983.1.1 = { holder=150300516 } # Belequo (nc)
3023.1.1 = { holder=100300525 } # Gylono (nc)
3042.1.1 = { holder=101300525 } # Pynto (nc)
3082.1.1 = { holder=102300700 } # Noho (nc)
3084.1.1 = { holder=103300700 } #### Craghas Crabfeeder
3108.11.11 = { holder=106174355 } # Terro (nc)
3135.1.1 = { holder=113300534 } # Daario (nc)
3147.1.1 = { holder=108300700 } # Ezzelyno (nc)
3166.1.1 = { holder=110300525 } # Ordello (nc)
3196.1.1 = { holder=117300534 } # Ferrego (nc)
3207.1.1 = { holder=121300534 } # Pynto (nc)
3235.1.1 = { holder=121174355 } # Beqqo (nc)
3258.1.1 = { holder=120300525 } # Gyloro (nc)
3285.1.1 = { holder=125300700 } # Roro (nc)
3293.1.1 = { holder=121300525 } # Terro (nc)



