2000.1.1 = {
	liege = c_noyne
}
2955.1.1 = { holder=100300561 } # Gyloro (nc)
3003.1.1 = { holder=104300561 } # Myrmello (nc)
3030.1.1 = { holder=108300561 } # Meralyn (nc)
3060.1.1 = { holder=111300561 } # Syrio (nc)
3089.1.1 = { holder=113300561 } # Meralyn (nc)
3094.1.1 = { holder=114300561 } # Moredo (nc)
3130.1.1 = { holder=119300561 } # Lotho (nc)
3135.1.1 = { holder=123300561 } # Izembaro (nc)
3177.1.1 = { holder=124300561 } # Roggo (nc)
3200.1.1 = { holder=126300561 } # Ferrego (nc)
3225.1.1 = { holder=128300561 } # Izembaro (nc)
3243.1.1 = { holder=132300561 } # Pynto (nc)
3249.1.1 = { holder=133300561 } # Roggo (nc)
3268.1.1 = { holder=135300561 } # Tormo (nc)
3299.1.1 = { holder=138300561 } # Luco (nc)
