1.1.1={ 
	liege="c_norvos"
}
2955.1.1 = { holder=100300561 } # Gyloro (nc)
3003.1.1 = { holder=100300531 } # Ezzelyno (nc)
3018.1.1 = { holder=100300522 } # Roggo (nc)
3021.1.1 = { holder=104300561 } # Myrmello (nc)
3030.1.1 = { holder=108300561 } # Meralyn (nc)
3060.1.1 = { holder=111300561 } # Syrio (nc)
3089.1.1 = { holder=107300562 } # Narbo (nc)
3091.1.1 = { holder=110300562 } # Allaquo (nc)
3097.1.1 = { holder=113300531 } # Daario (nc)
3110.1.1 = { holder=116300531 } # Tagganaro (nc)
3129.1.1 = { holder=118300531 } # Yorko (nc)
3142.1.1 = { holder=122300531 } # Gyleno (nc)
3179.1.1 = { holder=124300563 } # Narbo (nc)
3191.1.1 = { holder=129300522 } # Myrmello (nc)
3231.1.1 = { holder=127300563 } # Orbelo (nc)
3244.1.1 = { holder=132300531 } # Cossomo (nc)
3274.1.1 = { holder=134300531 } # Gyloro (nc)
3297.1.1 = { holder=135300561 } # Tormo (nc)
3299.1.1 = { holder=138300561 } # Luco (nc)


