1.1.1={
	liege="c_qhoyne"
}
2984.1.1 = { holder=100300520 } # Joss (nc)
3023.1.1 = { holder=101300520 } # Beqqo (nc)
3049.1.1 = { holder=105300520 } # Luco (nc)
3078.1.1 = { holder=109300520 } # Byan (nc)
3110.1.1 = { holder=114300520 } # Areo (nc)
3123.1.1 = { holder=117300520 } # Beqqo (nc)
3153.1.1 = { holder=119300520 } # Moreo (nc)
3164.1.1 = { holder=122300520 } # Orbelo (nc)
3184.1.1 = { holder=125300520 } # Joss (nc)
3227.1.1 = { holder=128300520 } # Myrmello (nc)
3230.1.1 = { holder=130300520 } # Brusco (nc)
3241.1.1 = { holder=132300520 } # Collio (nc)
3275.1.1 = { holder=136300520 } # Mero (nc)
3286.1.1 = { holder=142300520 } # Allaquo (nc)
