1.1.1={ 
	liege="c_qohor"
}
2965.1.1 = { holder=100300567 } # Daario (nc)
3007.1.1 = { holder=100300564 } # Meralyn (nc)
3008.1.1 = { holder=101300564 } # Tagganaro (nc)
3046.1.1 = { holder=101300520 } # Beqqo (nc)
3049.1.1 = { holder=105300520 } # Luco (nc)
3078.1.1 = { holder=105300564 } # Collio (nc)
3082.1.1 = { holder=108300564 } # Tagganaro (nc)
3104.1.1 = { holder=109300520 } # Byan (nc)
3110.1.1 = { holder=113300529 } # Ternesio (nc)
3133.1.1 = { holder=117300520 } # Beqqo (nc)
3153.1.1 = { holder=119300520 } # Moreo (nc)
3164.1.1 = { holder=116300529 } # Vargo (nc)
3174.1.1 = { holder=124300565 } # Ordello (nc)
3185.1.1 = { holder=129300565 } # Moredo (nc)
3218.1.1 = { holder=131300565 } # Tobho (nc)
3224.1.1 = { holder=125300520 } # Joss (nc)
3227.1.1 = { holder=128300520 } # Myrmello (nc)
3230.1.1 = { holder=130300520 } # Brusco (nc)
3241.1.1 = { holder=132300520 } # Collio (nc)
3275.1.1 = { holder=133300564 } # Tagganaro (nc)
3294.1.1 = { holder=134300564 } # Groleo (nc)



