1.1.1={ 
	liege="c_selhorys"
}
2987.1.1 = { holder=100174601 } # Belicho (nc)
3035.1.1 = { holder=101174601 } # Nyessos (nc)
3058.1.1 = { holder=104174601 } # Aelix (nc)
3074.1.1 = { holder=105174601 } # Jaekar (nc)
3104.1.1 = { holder=110174601 } # Malaquo (nc)
3142.1.1 = { holder=111174601 } # Benerro (nc)
3167.1.1 = { holder=114174601 } # Horonno (nc)
3195.1.1 = { holder=116174601 } # Haerys (nc)
3219.1.1 = { holder=118174601 } # Aenar (nc)
3232.1.1 = { holder=121174601 } # Qavo (nc)
3236.1.1 = { holder=124174601 } # Matarys (nc)
3253.1.1 = { holder=129174601 } # Moqorro (nc)
3291.1.1 = { holder=133174601 } # Colloquo (nc)



