1.1.1={
	liege="c_qohor"
}
2982.1.1 = { holder=100300565 } # Mero (nc)
3025.1.1 = { holder=101300565 } # Tagganaro (nc)
3047.1.1 = { holder=103300565 } # Moreo (nc)
3055.1.1 = { holder=107300565 } # Ollo (nc)
3077.1.1 = { holder=105300565 } # Areo (nc)
3087.1.1 = { holder=114300565 } # Ezzelyno (nc)
3092.1.1 = { holder=117300565 } # Gyloro (nc)
3115.1.1 = { holder=121300565 } # Ezzelyno (nc)
3129.1.1 = { holder=122300565 } # Vargo (nc)
3151.1.1 = { holder=124300565 } # Ordello (nc)
3185.1.1 = { holder=129300565 } # Moredo (nc)
3218.1.1 = { holder=131300565 } # Tobho (nc)
3224.1.1 = { holder=134300565 } # Gyloro (nc)
3263.1.1 = { holder=135300565 } # Ferrego (nc)
3271.1.1 = { holder=140300565 } # Luco (nc)


