1.1.1={
	law = succ_seniority
	law = agnatic_succession
	liege = d_adakhakileki
}
2995.1.1 = { holder=1000418 } # Muslihiddin (nc)
3037.1.1 = { holder=1001418 } # Mirza (nc)
3052.1.1 = { holder=1005418 } # Azam (nc)
3104.1.1 = { holder=1007418 } # Shujah (nc)
3114.1.1 = { holder=1010418 } # Ali_Ali (nc)
3156.1.1 = { holder=1011418 } # Hafiz (nc)
3176.1.1 = { holder=1013418 } # Bakr (nc)
3204.1.1 = { holder=1017418 } # Najib (nc)
3214.1.1 = { holder=1020418 } # Hussayn (nc)
3255.1.1 = { holder=1021418 } # Shujah (nc)
3261.1.1 = { holder=1024418 } # Samir (nc)
3283.1.1 = { holder=1027418 } # Jaleel (nc)
3312.1.1 = { holder=1029418 } # Shokouh (nc)

