1.1.1={
	liege="d_bayasabhad"
	law = succ_seniority
	law = agnatic_succession
}
2945.1.1 = { holder=10055951 } # Qawurd (nc)
3003.1.1 = { holder=10155951 } # Abdullah (nc)
3019.1.1 = { holder=10455951 } # Husam (nc)
3032.1.1 = { holder=10755951 } # Sadiq (nc)
3081.1.1 = { holder=10955951 } # Mirza (nc)
3082.1.1 = { holder=11355951 } # Bakr (nc)
3129.1.1 = { holder=11655951 } # Nizam (nc)
3145.1.1 = { holder=11955951 } # Nizam (nc)
3147.1.1 = { holder=12355951 } # Hafiz (nc)
3163.1.1 = { holder=12755951 } # Abdul (nc)
3187.1.1 = { holder=13055951 } # Isa (nc)
3219.1.1 = { holder=13255951 } # Mirza (nc)
3275.1.1 = { holder=13555951 } # Shamir (nc)
3285.1.1 = { holder=13655951 } # Youkhanna (nc)
