2278.1.1 = {
	liege="k_blackmontTK"
	law = succ_primogeniture
	law = cognatic_succession
}
2931.1.1 = { holder = 152018 }
2952.1.1 = { holder = 153018 }
2994.1.1 = { holder=60018 } # Timeon (nc)
3019.1.1 = { holder=60218 } # Frynne (nc)
3043.1.1 = { holder=60818 } # Castos (nc)
3098.1.1 = { holder=61018 } # Willam (nc)
3127.1.1 = { holder=61318 } # Tremond (nc)
3128.1.1 = { holder=61618 } # Archibald (nc)
3129.1.1 = { holder=61418 } # Perros (nc)


3176.1.1 = { holder=62218 } # Allar (nc)


3213.6.19 = { holder=62718 } # Garin (nc)

3237.1.1 = { holder=62818 } # Emberlei (nc)
3249.1.1 = { holder=63018 } # Daemon (nc)
3272.4.2 = { holder=18 } # Larra (C)
