1.1.1={
	liege = d_tyria
}

2995.1.1 = { holder=10006043 } # Aemon (nc)
3054.1.1 = { holder=10026043 } # Daeoril (nc)
3056.1.1 = { holder=10056043 } # Vaermon (nc)
3068.1.1 = { holder=10076043 } # Rhaegel (nc)
3100.1.1 = { holder=10116043 } # Daeron (nc)
3152.1.1 = { holder=10156043 } # Daella (nc)
3153.1.1 = { holder=10176043 } # Haegon (nc)
3202.1.1 = { holder=10196043 } # Baelon (nc)
3217.1.1 = { holder=10206043 } # Orys (nc)
3272.1.1 = { holder=10246043 } # Aemon (nc)
3273.1.1 = { holder=10296043 } # Valarr (nc)
3293.1.1 = { holder=10356043 } # Jaehaerys (nc)
