1.1.1={
	liege="d_linqi"
}
2995.1.1 = { holder=10069196 } # Mahdi (nc)
3026.1.1 = { holder=10169196 } # Jibril (nc)
3051.1.1 = { holder=10569196 } # Akin (nc)
3083.1.1 = { holder=10969196 } # Talib (nc)
3097.1.1 = { holder=11369196 } # Bakr (nc)
3144.1.1 = { holder=11569196 } # Ali_Ali (nc)
3164.1.1 = { holder=11869196 } # Shaiban (nc)
3171.1.1 = { holder=12069196 } # Hasan_Hasan (nc)
3223.1.1 = { holder=12569196 } # Abdul (nc)
3237.1.1 = { holder=12969196 } # Mahdi (nc)
3259.1.1 = { holder=13169196 } # Najib (nc)
3282.1.1 = { holder=13369196 } # Shokouh (nc)



