1.1.1={
	law = succ_turkish_succession
	law = agnatic_succession
}
2995.1.1 = { holder=100982370 } # Lysono (nc)
3024.1.1 = { 
	holder=101982370 # Salassor
} 


3070.1.1 = { holder=105982370 } # Collio (nc)

3115.1.1 = { holder=106982370 } # Tregar (nc)



3138.1.1 = { holder=110982370 } # Sulleham (nc)

3155.1.1 = { holder=100513 } #Black Pearl of Braavos

3163.1.1 = { holder=110982370 } # Sulleham (nc)

3167.1.1 = { holder=111982370 } # Gyleno (nc)
3180.1.1 = { holder=112982370 } # Lysono (nc)
3219.1.1 = { holder=114982370 } # Noho (nc)
3250.1.1 = { holder=115982370 } # Ordello (nc)
3253.1.1 = { holder=118982370 } # Samarro Saan(C)

