1000.1.1={
	law = succ_primogeniture
}
2993.1.1={
	holder=16106
}
3011.1.1={
	holder=15106
}
3029.1.1={
	holder=14106
}
3051.1.1={
	holder=13106
}
3077.1.1={
	holder=12106
}
3095.1.1={
	holder=11106
}
3101.1.1={
	holder=10106
}
3145.1.1={
	holder=9106
}
3150.1.1={
	holder=8106
}
3194.1.1={
	holder=7106
}
3203.1.1={
	holder=6106
}
3223.1.1={
	holder=5106
}
3230.1.1={
	holder=4106
}
3272.1.5={
	holder=106
}
