1.1.1={
	liege="d_samyriana"
	law = succ_seniority
	law = agnatic_succession
}
2945.1.1 = { holder=10055949 } # Yahya (nc)
3003.1.1 = { holder=10155949 } # Is'mail (nc)
3019.1.1 = { holder=10455949 } # Jalil (nc)
3032.1.1 = { holder=10755949 } # Fadl (nc)
3081.1.1 = { holder=10955949 } # Akin (nc)
3082.1.1 = { holder=11355949 } # Samir (nc)
3129.1.1 = { holder=11655949 } # Yusuf (nc)
3145.1.1 = { holder=11955949 } # Jalil (nc)
3147.1.1 = { holder=12355949 } # Khalil (nc)
3163.1.1 = { holder=12755949 } # Akin (nc)
3187.1.1 = { holder=13055949 } # Samir (nc)
3219.1.1 = { holder=13255949 } # Halil (nc)
3275.1.1 = { holder=13555949 } # Qawurd (nc)
3285.1.1 = { holder=13655949 } # Sami (nc)
