1.1.1={
	liege="d_nefer"
}
2995.1.1 = { holder=10069206 } # Qawurd (nc)
3021.1.1 = { holder=10469206 } # Mahdi (nc)
3054.1.1 = { holder=10569206 } # Nasr (nc)
3079.1.1 = { holder=11069206 } # Is'mail (nc)
3103.1.1 = { holder=11169206 } # Nizam (nc)
3126.1.1 = { holder=11369206 } # Bakr (nc)
3152.1.1 = { holder=11669206 } # Ghalib (nc)
3193.1.1 = { holder=12069206 } # Aram (nc)
3197.1.1 = { holder=12169206 } # Aram (nc)
3235.1.1 = { holder=12469206 } # Yusuf (nc)
3259.1.1 = { holder=12769206 } # Nasr (nc)
3294.1.1 = { holder=12969206 } # Qawurd (nc)



