400.1.1={
	liege="d_sarnath"
	law = succ_primogeniture
}
2992.1.1 = { holder=10056813 } # Lokesh (nc)
3023.1.1 = { holder=10256813 } # Utkarsh (nc)
3058.1.1 = { holder=10556813 } # Lakshan (nc)
3070.1.1 = { holder=11056813 } # Harihar (nc)
3110.1.1 = { holder=11356813 } # Atharvan (nc)
3119.1.1 = { holder=11756813 } # Manaar (nc)
3152.1.1 = { holder=12156813 } # Palash (nc)
3170.1.1 = { holder=12456813 } # Ekavir (nc)
3192.1.1 = { holder=12656813 } # Sagar (nc)
3214.1.1 = { holder=12856813 } # Taresh (nc)
3239.1.1 = { holder=13056813 } # Onkar (nc)
3254.1.1 = { holder=13356813 } # Harith (nc)
3286.1.1 = { holder=13556813 } # Yogesh (nc)

