1.1.1={
	liege = d_gelios
}

2995.1.1 = { holder=10006050 } # Qoherys (nc)
3028.1.1 = { holder=10016050 } # Daegar (nc)
3056.1.1 = { holder=10026050 } # Valarr (nc)
3066.1.1 = { holder=10066050 } # Daemon (nc)
3086.1.1 = { holder=10086050 } # Maegon (nc)
3118.1.1 = { holder=10096050 } # Maegon (nc)
3168.1.1 = { holder=10126050 } # Jaehaerys (nc)
3171.1.1 = { holder=10166050 } # Rhaegar (nc)
3207.1.1 = { holder=10186050 } # Maekar (nc)
3222.1.1 = { holder=10216050 } # Valarr (nc)
3255.1.1 = { holder=10246050 } # Baelor (nc)
3287.1.1 = { holder=10256050 } # Viserys (nc)
3331.1.1 = { holder=10286050 } # Aenys (nc)

