2000.1.1={
	liege="k_brokenarmTK"
}
2995.1.1 = { holder=10001806 } # Martyn (nc)
3021.1.1 = { holder=10021806 } # Owen (nc)
3063.1.1 = { holder=10051806 } # Hareth (nc)
3080.1.1 = { holder=10081806 } # Helman (nc)
3098.1.1 = { holder=10131806 } # Jojen (nc)
3110.1.1 = { holder=10141806 } # Jory (nc)

3175.1.1 = { holder=10171806 } # Tomard (nc)
3178.1.1 = { holder=10221806 } # Morgan (nc)
3209.1.1 = { holder=10231806 } # Donnel (nc)
3221.1.1 = { holder=10241806 } # Vayon (nc)
3266.1.1 = { holder=10281806 } # Ned (nc)
3296.1.1 = { holder=10301806 } # Heward (nc)


