#House Ekwensu
2984.1.1 = { 
	holder=100304019 
	liege=d_west_jhala
	law = succ_seniority
	law = cognatic_succession
} # Anyim (nc)
3024.1.1 = { holder=101304019 } # Jalabhar (nc)
3045.1.1 = { holder=106304019 } # Chakoro (nc)
3047.1.1 = { holder=102304019 } # Jalahuru (nc)
3054.1.1 = { holder=108304019 } # Anyim (nc)
3092.1.1 = { holder=114304019 } # Tal (nc)
3103.1.1 = { holder=115304019 } # Adeyemu (nc)
3121.1.1 = { holder=116304019 } # Rudo (nc)
3122.1.1 = { holder=118304019 } # Olujondo (nc)
3129.1.1 = { holder=121304019 } # Simbhar (nc)
3159.1.1 = { holder=124304019 } # Siboxhoan (nc)
3186.1.1 = { holder=129304019 } # Xhondo (nc)
3205.1.1 = { holder=130304019 } # Xhal (nc)
3252.1.1 = { holder=132304019 } # Kwasya (nc)
3256.1.1 = { holder=134304019 } # Odingaxho (nc)
3271.1.1 = { holder=135304019 } # Xataya (nc)
3282.1.1 = { holder=136304019 } # Rudo (nc)

