1200.1.1={
	liege="d_gulltown"
	law = succ_primogeniture
}

2920.1.1 = { holder=106185 } # Triston (nc)
2955.1.1 = { holder=107185 } # Lyn (nc)
2997.1.1 = { holder=109185 } # Terrance (nc)
3015.1.1 = { holder=111185 } # Florian (nc)
3031.1.1 = { holder=114185 } # Randyll (nc)
3050.1.1 = { holder=118185 } # Uthor (nc)
3096.1.1 = { holder=122185 } # Waymar (nc)
3126.1.1 = { holder=126185 } # Horton (nc)
3136.1.1 = { holder=128185 } # Kyle (nc)
3164.1.1 = { holder=130185 } # Tim (nc)
3194.1.1 = { holder=132185 } # Elbert (nc)
3228.1.1 = { holder=134185 } # Yohn (nc)
3232.1.1 = { holder=136185 } # Alesandor (nc)
