400.1.1={
	liege="d_sarys"
	law = succ_primogeniture
}
2992.1.1 = { holder=10056806 } # Uttamesh (nc)
3046.1.1 = { holder=10156806 } # Nayan (nc)
3056.1.1 = { holder=10756806 } # Palash (nc)
3077.1.1 = { holder=11056806 } # Jash (nc)
3092.1.1 = { holder=11256806 } # Avilash (nc)
3136.1.1 = { holder=11456806 } # Sahasrad (nc)
3148.1.1 = { holder=11556806 } # Darshan (nc)
3181.1.1 = { holder=11756806 } # Ritesh (nc)
3200.1.1 = { holder=11956806 } # Palash (nc)
3225.1.1 = { holder=12056806 } # Avilash (nc)
3244.1.1 = { holder=12156806 } # Ganesh (nc)

