1.1.1={
	liege="d_redmountains"
	law=succ_primogeniture
	law = cognatic_succession
}
1273.1.1 = {
	holder = 150016 #Samwell
}
1320.1.1 = {
	holder = 0
}

2935.1.1 = { holder=60016 } # Arthur (nc)
2977.1.1 = { holder=60316 } # Edric (nc)
2984.1.1 = { holder=60416 } # Gerris (nc) # First High Hermitage branch
2988.1.1 = {holder=60000016} # Gerold (nc)
2992.1.1 = {holder=60100016} # Lyreon (nc)
3001.2.5= {holder=25017} # Arron (nc) Back to Starfall Branch through cousin-marriage
3058.1.1= {
holder=22017
}
3076.1.1= {
holder=21017
}
3098.1.1= {
holder=20017
}
3112.1.1= {
holder=18017
}
3132.1.1= {
holder=17017
}
3155.1.1= {
holder=19017
}
3158.8.4= {
holder=13017
}
3196.1.1 = { holder=61517 } # Edric (nc)
3210.1.1 = { holder=61617 } # Ronnel (nc)
3259.1.1 = { holder=10017 } # Annara (nc) Second High Hermitage branch.
3285.1.1 = {holder=17} # Alyster (nc) Husband of Annara. Starfall/Hermitage branch.
3292.1.1={holder=8016} # Gerold Darkstar (C)
