1.1.1={ law=succ_primogeniture law=cognatic_succession
	liege="e_reach"
}

42.1.1 = { holder=6000282 } # Ellyn Ever-sweet

75.1.1 = { holder=0 } 

2830.1.1 = { holder=6200282 } # Mason (nc)
2878.1.1 = { holder=6300282 } # Cavan (nc)
2882.1.1 = { holder=6500282 } # Oryon (nc)
2918.1.1 = { holder=6700282 } # Jaime (nc)
2939.1.1 = { holder=6110282 } # Mern (nc)
2971.1.1 = { holder=3000282 } # Dontos (nc)
3023.1.1 = { holder=3002282 } # Normund (nc)
3034.1.1 = { holder=3004282 } # Osbert (nc)
3074.1.1 = { holder=3005282 } # Horas (nc)
3076.1.1 = { holder=3008282 } # Lyman (C)
3129.5.3 = { holder=3011282 } # Alan (C)
3130.1.4 = { holder=3017282 } # Joslon (C)
3180.1.1 = { holder=3021282 } # Arros (C)
3218.1.1 = { holder=3027282 } # Igon (nc)
3258.1.1={
	holder=282
}





