#House Bado
2990.1.1 = { 
	holder=100304016 
	liege=d_walano
	law = succ_seniority
	law = cognatic_succession
} # Xhakan (nc)
3015.1.1 = { holder=101304016 } # Lusaxharo (nc)
3052.1.1 = { holder=103304016 } # Simbaya (nc)
3080.1.1 = { holder=106304016 } # Paro (nc)
3095.1.1 = { holder=107304016 } # Delmabhar (nc)
3097.1.1 = { holder=108304016 } # Udo (nc)
3116.1.1 = { holder=109304016 } # Bapato (nc)
3132.1.1 = { holder=111304016 } # Manahuru (nc)
3167.1.1 = { holder=114304016 } # Punuxharo (nc)
3200.1.1 = { holder=117304016 } # Odingaxho (nc)
3260.1.1 = { holder=119304016 } # Xhakan (nc)
3284.1.1 = { holder=121304016 } # Jalabhar (nc)
3295.1.1 = { holder=124304016 } # Jalahuru (nc)
