1.1.1={
	liege="k_qarth"
}

2995.1.1 = { holder=100069161 } # Sybassion (nc)
3036.1.1 = { holder=100169161 } # Urrathon (nc)
3037.1.1 = { holder=100569161 } # Semython (nc)
3077.1.1 = { holder=100769161 } # Ordello (nc)
3078.1.1 = { holder=101069161 } # Pyat (nc)
3111.1.1 = { holder=101369161 } # Wendello (nc)
3129.1.1 = { holder=101769161 } # Navathos (nc)
3153.1.1 = { holder=101969161 } # Vogarro (nc)
3166.1.1 = { holder=102169161 } # Navathos (nc)
3197.1.1 = { holder=102469161 } # Wendello (nc)
3233.1.1 = { holder=102769161 } # Egon (nc)
3241.1.1 = { holder=103269161 } # Lotho (nc)
3271.1.1 = { holder=103469161 } # Nyessos (nc)
