1.1.1={
	liege="d_yiti_delta"
}
2995.1.1 = { holder=10069104 } # Aram (nc)
3038.1.1 = { holder=10469104 } # Isa (nc)
3045.1.1 = { holder=10669104 } # Aram (nc)
3073.1.1 = { holder=10869104 } # Isa (nc)
3123.1.1 = { holder=11169104 } # Bakr (nc)
3132.1.1 = { holder=11669104 } # Hafiz (nc)
3151.1.1 = { holder=11969104 } # Shaiban (nc)
3184.1.1 = { holder=12069104 } # Jabir (nc)
3211.1.1 = { holder=12369104 } # Uways (nc)
3252.1.1 = { holder=12769104 } # Sadiq (nc)
3255.1.1 = { holder=12869104 } # Abdul (nc)
3288.1.1 = { holder=13169104 } # Mansur (nc)

