400.1.1={
	liege="d_kasath"
	law = succ_primogeniture
}
2995.1.1 = { holder=10056815 } # Nitish (nc)
3026.1.1 = { holder=10156815 } # Paarth (nc)
3046.1.1 = { holder=10456815 } # Onkar (nc)
3086.1.1 = { holder=10756815 } # Kushal (nc)
3112.1.1 = { holder=11056815 } # Chitresh (nc)
3153.1.1 = { holder=11456815 } # Atharvan (nc)
3173.1.1 = { holder=11756815 } # Mukesh (nc)
3191.1.1 = { holder=11856815 } # Ganesh (nc)
3212.1.1 = { holder=12056815 } # Tarakesh (nc)
3249.1.1 = { holder=12556815 } # Dinesh (nc)
3276.1.1 = { holder=12956815 } # Shyam (nc)
