2980.1.1 = { 
	holder=100607303 
	liege = d_central_plains
} # Zaid (nc)
3019.1.1 = { holder=101607303 } # Edrees (nc)
3035.1.1 = { holder=106607303 } # Qader (nc)
3048.1.1 = { holder=107607303 } # Sabeir (nc)
3079.1.1 = { holder=109607303 } # Taj (nc)
3099.1.1 = { holder=110607303 } # Kahkazan (nc)
3155.1.1 = { holder=113607303 } # Usma (nc)
3176.1.1 = { holder=114607303 } # Naim (nc)
3178.1.1 = { holder=115607303 } # Faqar (nc)
3195.1.1 = { holder=117607303 } # Aarak (nc)
3226.1.1 = { holder=119607303 } # Ehsan (nc)
3252.1.1 = { holder=122607303 } # Parviz (nc)
3293.1.1 = { holder=126607303 } # Ramazan (nc)

