2000.1.1={
	law = succ_primogeniture
}
2961.1.1={
	holder=13104
}
3006.1.1={
	holder=12104
}
3015.1.1={
	holder=11104
}
3025.1.1={
	holder=10104
}
3059.1.1={
	holder=9104
}
3102.1.1={
	holder=8104
}
3111.1.1={
	holder=7104
}
3161.1.1={
	holder=6104
}
3194.1.1={
	holder=5104
}

3205.1.1={
	holder=4104
}
3239.1.1={
	holder=3104
}
3282.1.1={
	holder=104
}
