1.1.1={
	liege="d_xin"
}
2995.1.1 = { holder=10069105 } # Mahdi (nc)
3029.1.1 = { holder=10169105 } # Mukhtar (nc)
3046.1.1 = { holder=10669105 } # Ubayd (nc)
3059.1.1 = { holder=10769105 } # Muzaffaraddin (nc)
3090.1.1 = { holder=11269105 } # Youkhanna (nc)
3098.1.1 = { holder=11469105 } # Idris (nc)
3125.1.1 = { holder=11569105 } # Faruk (nc)
3168.1.1 = { holder=11969105 } # Nizam (nc)
3177.1.1 = { holder=12469105 } # Bakr (nc)
3221.1.1 = { holder=12569105 } # Qadir (nc)
3233.1.1 = { holder=12969105 } # Yahya (nc)
3292.1.1 = { holder=13169105 } # Yusuf (nc)



