#House Kano
2980.1.1 = { 
	holder=100304024 
	liege=d_tall_trees_valley
	law = succ_seniority
	law = cognatic_succession
} # Adeyemu (nc)
3002.1.1 = { holder=101304024 } # Jaramogo (nc)
3020.1.1 = { holder=102304024 } # Lusala (nc)
3067.1.1 = { holder=104304024 } # Xhelimo (nc)
3084.1.1 = { holder=106304024 } # Xhonodo (nc)
3116.1.1 = { holder=107304024 } # Arkamun (nc)
3125.1.1 = { holder=109304024 } # Manahuru (nc)
3142.1.1 = { holder=112304024 } # Xhelimo (nc)
3171.1.1 = { holder=115304024 } # Mermesbhar (nc)
3205.1.1 = { holder=120304024 } # Dubaku (nc)
3206.1.1 = { holder=121304024 } # Isodo (nc)
3235.1.1 = { holder=122304024 } # Quhuru (nc)
3252.1.1 = { holder=124304024 } # Qubhar (nc)
3273.1.1 = { holder=127304024 } # Xhal (nc)
