2974.1.1 = { 
	holder=100607304 
	liege = d_east_plains
} # Ehsan (nc)
3005.1.1 = { holder=101607304 } # Qader (nc)
3027.1.1 = { holder=103607304 } # Qudratu (nc)
3039.1.1 = { holder=106607304 } # Jakan (nc)
3083.1.1 = { holder=109607304 } # Rasoul (nc)
3109.1.1 = { holder=112607304 } # Tarakai (nc)
3149.1.1 = { holder=115607304 } # Ramez (nc)
3177.1.1 = { holder=118607304 } # Aarak (nc)
3179.1.1 = { holder=120607304 } # Tarakai (nc)
3224.1.1 = { holder=122607304 } # Inzir (nc)
3250.1.1 = { holder=123607304 } # Jakan (nc)
3275.1.1 = { holder=124607304 } # Sadaf (nc)
3291.1.1 = { holder=126607304 } # Janan (nc)
