1.1.1={
	liege="k_leng"
}
2996.1.1 = { holder=10055960 } # Najib (nc)
3031.1.1 = { holder=10255960 } # Husam (nc)
3055.1.1 = { holder=10555960 } # Azam (nc)
3070.1.1 = { holder=10855960 } # Samir (nc)
3091.1.1 = { holder=11155960 } # Mansur (nc)
3125.1.1 = { holder=11355960 } # Muslihiddin (nc)
3131.1.1 = { holder=11855960 } # Isa (nc)
3142.1.1 = { holder=12055960 } # Hussayn (nc)
3182.1.1 = { holder=12255960 } # Muzaffaraddin (nc)
3235.1.1 = { holder=12755960 } # Mirza (nc)
3238.1.1 = { holder=12955960 } # Ali_Ali (nc)
3262.1.1 = { holder=13655960 } # Idris (nc)
3277.1.1 = { holder=13355960 } # Youkhanna (nc)
3286.1.1 = { holder=13755960 } # Burhanaddin (nc)
3313.1.1 = { holder=13955960 } # Akin (nc)


