1200.1.1={
	liege="d_the_sisters"
	law = succ_primogeniture
}
2994.1.1 = { holder=3000166 } # Petyr (nc)
3003.1.1 = { holder=3001166 } # Robar (nc)
3041.1.1 = { holder=3005166 } # Eon (nc)
3085.1.1 = { holder=3009166 } # Lyn (nc)
3091.1.1 = { holder=3011166 } # Vardis (nc)
3102.1.1 = { holder=3014166 } # Morton (nc)
3156.1.1 = { holder=3016166 } # Nestor (nc)
3178.1.1 = { holder=3017166 } # Alesandor (nc)
3189.1.1 = { holder=3019166 } # Andar (nc)
3219.1.1 = { holder=3023166 } # Gwayne (nc)
3238.1.1 = { holder=3026166 } # Jasper (nc)
3254.1.1 = { holder=3029166 } # Lyn (nc)

3280.1.1={
	holder=94037
}
