1.1.1={
	law = succ_primogeniture
	law = cognatic_succession
	law = centralization_1
	law = investiture_law_2
	law = first_night_1
	liege = e_reach
}
80.1.1 = { holder=65000260 } 
98.1.1 = { holder=0 }


2900.1.1 = { holder=60000260 } # Codan (nc) # House Ball
2955.1.1 = { holder=61000260 } # Grydion (nc)
2957.1.1 = { holder=62000260 } # Rucan (nc)
2980.1.1 = { holder=62001260 } # Codan (nc)
3014.1.1 = { holder=62003260 } # Byren (nc)
3028.1.1 = { holder=62009260 } # Gwayne (nc)
3042.1.1 = { holder=62010260 } # Garth (nc)
3083.1.1 = { holder=62013260 } # Glendon (nc)
3128.1.1 = { holder=62014260 } # Grydion (nc)
3154.1.1 = { holder=62015260 } # Merle (nc)
3181.1.1 = { holder=1000260 } # Lyonel (nc)
3192.1.1 = { holder=1002260 } # Hobber (nc)
3231.1.1 = { holder=1004260 } # Edwyn (nc)
3245.1.1 = { holder=1007260 } # Leyton (nc)
3276.1.1 = { holder=1010260 } # Mark (nc)
3305.1.1 = { holder=1014260 } # Rickard (nc)
3314.1.1 = { holder=1016260 } # Bertram (nc)



