1.1.1={ law=succ_primogeniture law=cognatic_succession
	liege="d_west_marches"
}
3130.1.1 = { holder=3014241 } # Leo (nc)
3172.1.1 = { holder=3015241 } # Petyr (nc)
3173.1.1 = { holder=3018241 } # Gormon (nc)
3210.1.1 = { holder=3022241 } # Garrett (nc)
3252.1.1 = { holder=3023241 } # Imry (nc)


