1.1.1={
	law = succ_primogeniture
	liege = d_east_braavosiancoastlands
}
2977.1.1 = { holder=100174909 } # Lothor (nc)
3015.1.1 = { holder=101174909 } # Ballabar (nc)
3035.1.1 = { holder=105174909 } # Vardis (nc)
3060.1.1 = { holder=112174909 } # Ballabar (nc)
3118.1.1 = { holder=117174909 } # Serwyn (nc)
3127.1.1 = { holder=120174909 } # Umfred (nc)
3134.1.1 = { holder=127174909 } # Serwyn (nc)
3167.1.1 = { holder=128174909 } # Royce (nc)
3199.1.1 = { holder=133174909 } # Tim (nc)
3268.1.1 = { holder=136174909 } # Donnel (nc)
3282.1.1 = { holder=138174909 } # Donnel (nc)

