1.1.1={
	liege = d_valyria
}

2995.1.1 = { holder=10006048 } # Orys (nc)
3032.1.1 = { holder=10026048 } # Aegor (nc)
3047.1.1 = { holder=10066048 } # Aemon (nc)
3087.1.1 = { holder=10106048 } # Aemon (nc)
3094.1.1 = { holder=10146048 } # Aemond (nc)
3141.1.1 = { holder=10176048 } # Otherys (nc)
3161.1.1 = { holder=10186048 } # Valarr (nc)
3189.1.1 = { holder=10206048 } # Maegon (nc)
3203.1.1 = { holder=10216048 } # Vaekar (nc)
3236.1.1 = { holder=10236048 } # Aenar (nc)
3261.1.1 = { holder=10266048 } # Rhaegel (nc)
3277.1.1 = { holder=10286048 } # Aelix (nc)
3293.1.1 = { holder=10316048 } # Rhaegel (nc)
