2600.1.1={
	#liege="e_stormlands"
	law = succ_primogeniture
}
2920.1.1={
	#liege="e_iron_isles"
}
2968.1.1 = { holder=312174410 } # Davos (nc)
3011.1.1 = { holder=313174410 } # Guncer (nc)
3027.1.1 = { holder=311174410 } # Humfrey (nc)
3052.1.1 = { holder=310174410 } # Allar (nc)
3076.1.1 = { holder=308174410 } # Dale (nc)
3097.1.1 = { holder=307174410 } # Triston (nc)
3123.1.1 = { holder=306174410 } # Perkin (nc)
3152.1.1 = { holder=305174410 } # Symon (nc)
3176.1.1 = { holder=304174410 } # Florian (nc)
3196.1.1 = { holder=303174410 } # Mortimer  (Whitewalls Tourney in 212)
3215.1.1 = { holder=302174410 } # Denys (nc)
3254.1.1 = { holder=300174410 } # Eustace (nc)
3260.1.1 = { holder=301174410 } # Perkin (nc)
