1.1.1={
	liege="d_trader_town"
}
2995.1.1 = { holder=10069168 } # Murad (nc)
3023.1.1 = { holder=10269168 } # Mahdi (nc)
3076.1.1 = { holder=10569168 } # Wahab (nc)
3099.1.1 = { holder=10769168 } # Hafiz (nc)
3119.1.1 = { holder=10869168 } # Azam (nc)
3137.1.1 = { holder=11269168 } # Mukhtar (nc)
3162.1.1 = { holder=11669168 } # Abdul (nc)
3175.1.1 = { holder=11869168 } # Mukhtar (nc)
3230.1.1 = { holder=12269168 } # Fadil (nc)
3249.1.1 = { holder=12369168 } # Wahab (nc)
3264.1.1 = { holder=12569168 } # Sadiq (nc)
3294.1.1 = { holder=13169168 } # Hussayn (nc)



