2955.1.1 = { 
	holder=88000500 # Areo (nc)
	law = slavery_2
	law = centralization_2 
} 
3025.1.1 = { holder=88000501 } # Ferrego (nc)
3031.1.1 = { holder=88000502 } # Luco (nc)
3045.1.1 = { holder=88000503 } # Beqqo (nc)
3100.1.1 = { holder=88000504 } # Areo (nc)
3125.1.1 = { holder=88000505 } # Lotho (nc)
3163.1.1 = { holder=88000506 } # Moredo (nc)
3193.1.1 = { holder=88000507 } # Luco (nc)
3221.1.1 = { holder=88000508 } # Meralyn (nc)
3240.1.1 = { holder=88000509 } # Groleo (nc)
3253.1.1 = { holder=88000510 } # Ordello (nc)
3285.1.1 = { holder=88000511 } # Allaquo (nc)
