1.1.1={
	liege="d_mantarys"
}
2995.1.1 = { holder=10070116 } # Malaquo (nc)
3027.1.1 = { holder=10470116 } # Doniphos (nc)
3060.1.1 = { holder=10670116 } # Haerys (nc)
3079.1.1 = { holder=10770116 } # Methyso (nc)
3108.1.1 = { holder=11170116 } # Jaekar (nc)
3128.1.1 = { holder=11370116 } # Nyessos (nc)
3139.1.1 = { holder=11570116 } # Parquello (nc)
3181.1.1 = { holder=11670116 } # Orys (nc)
3213.1.1 = { holder=12070116 } # Belicho (nc)
3225.1.1 = { holder=12270116 } # Matarys (nc)
3274.1.1 = { holder=12770116 } # Colloquo (nc)
3293.1.1 = { holder=12970116 } # Malaquo (nc)
