1.1.1={
	liege="d_pentos"
}
2985.1.1 = { holder=1004926 } # Randyll (nc)
3022.1.1 = { holder=1024926 } # Raymar (nc)
3023.1.1 = { holder=1044926 } # Andar (nc)
3070.1.1 = { holder=1054926 } # Othor (nc)
3135.1.1 = { holder=1064926 } # Gwayne (nc)
3148.1.1 = { holder=1074926 } # Triston (nc)
3166.1.1 = { holder=1094926 } # Morton (nc)
3211.1.1 = { holder=1144926 } # Vardis (nc)
3216.1.1 = { holder=1174926 } # Ronnel (nc)
3230.1.1 = { holder=1204926 } # Donnel (nc)
3263.1.1 = { holder=1244926 } # Mychel (nc)
3270.1.1 = { holder=1304926 } # Byron (nc)

