1.1.1={ 
	liege="d_great_wyk"
	law=succ_primogeniture 
	law = agnatic_succession
}
2995.1.1 = { holder=100066 } # Quellon (nc)
3016.1.1 = { holder=100166 } # Joseran (nc)
3049.1.1 = { holder=100566 } # Quellon (nc)
3075.1.1 = { holder=100766 } # Urrigon (nc)
3099.1.1 = { holder=101066 } # Drennan (nc)
3128.1.1 = { holder=101366 } # Urek (nc)
3163.1.1 = { holder=101466 } # Emmond (nc)
3183.1.1 = { holder=101866 } # Cragorn (nc)
3198.1.1 = { holder=102166 } # Dagon (nc)
3223.1.1 = { holder=102366 } # Gran (nc)
3242.1.1 = { holder=102666 } # Qhored (nc)
3270.1.1 = { holder=103066 } # Harwyn (nc)
3286.1.1 = { holder=103466 } # Emmond (nc)
3331.1.1 = { holder=103566 } # Aggar (nc)




