1000.1.1={
	law = succ_primogeniture
}
2996.1.1={
	holder=13097
}
3012.1.1={
	holder=12097
}
3037.1.1={
	holder=11097
}
3078.1.1={
	holder=10097
}
3092.1.1={
	holder=9097
}
3142.1.1={
	holder=8097
}
3176.1.1={
	holder=7097
}
3187.1.1={
	holder=6097
}
3224.1.1={
	holder=5097
}
3267.1.1={
	holder=4097
}
3282.1.5={
	holder=97
}
