#House Xho
2980.7.6 = {
	holder=100304000 # Udo (nc)
	liege=d_red_flower_vale
	law = succ_seniority
	law = cognatic_succession
}
3025.1.1 = { holder=102304000 } # Jalabhar (nc)
3044.1.1 = { holder=105304000 } # Quhuru (nc)
3083.1.1 = { holder=106304000 } # Udo (nc)
3120.1.1 = { holder=112304000 } # Jalabhar (nc)
3142.1.1 = { holder=113304000 } # Dubaku (nc)
3150.1.1 = { holder=116304000 } # Tatenda (nc)
3179.1.1 = { holder=117304000 } # Udo (nc)
3214.1.1 = { holder=118304000 } # Dubaku (nc)
3230.1.1 = { holder=120304000 } # Gwalahuru (nc)
3253.1.1 = { holder=122304000 } # Udo (nc)
3284.1.1 = { 
	holder=125304000 # Jalabhar Xho
} 
3289.6.1 = { 
	holder=134304029 # Dubaku the Bastard
} 
