1.1.1={
	liege = d_drakaria
}

2995.1.1 = { holder=10006020 } # Vaeron (nc)
3030.1.1 = { holder=10016020 } # Daemon (nc)
3045.1.1 = { holder=10026020 } # Daegar (nc)
3062.1.1 = { holder=10066020 } # Aegon (nc)
3104.1.1 = { holder=10106020 } # Daegar (nc)
3121.1.1 = { holder=10116020 } # Maekar (nc)
3165.1.1 = { holder=10136020 } # Daeron (nc)
3180.1.1 = { holder=10156020 } # Aegor (nc)
3205.1.1 = { holder=10186020 } # Maegon (nc)
3246.1.1 = { holder=10216020 } # Baelon (nc)
3265.1.1 = { holder=10236020 } # Rhaekar (nc)
3279.1.1 = { holder=10266020 } # Aenar (nc)
3325.1.1 = { holder=10296020 } # Vaekar (nc)
3338.1.1 = { holder=10316020 } # Daemon (nc)


