400.1.1={
	liege="d_sathar"
	law = succ_primogeniture
}
2995.1.1 = { holder=10056817 } # Jash (nc)
3019.1.1 = { holder=10156817 } # Chanak (nc)
3061.1.1 = { holder=10656817 } # Shyam (nc)
3065.1.1 = { holder=10856817 } # Kedaar (nc)
3100.1.1 = { holder=10956817 } # Harith (nc)
3153.1.1 = { holder=11256817 } # Lokesh (nc)
3162.1.1 = { holder=11756817 } # Yogesh (nc)
3200.1.1 = { holder=11956817 } # Vishruth (nc)
3204.1.1 = { holder=12256817 } # Nishad (nc)
3248.1.1 = { holder=12456817 } # Manish (nc)
3283.1.1 = { holder=12556817 } # Shyam (nc)
3299.1.1 = { holder=12856817 } # Nishi (nc)
