#House Xhurabo
2980.1.1 = { 
	holder=100304035 
	liege=d_indigo_straits
	law = succ_seniority
	law = cognatic_succession
} # Simbhar (nc)
3024.1.1 = { holder=101304035 } # Xhelimo (nc)
3053.1.1 = { holder=105304035 } # Gwalahuru (nc)
3080.1.1 = { holder=107304035 } # Kwasdo (nc)
3113.1.1 = { holder=109304035 } # Jiradhar (nc)
3118.1.1 = { holder=110304035 } # Abrafo (nc)
3131.1.1 = { holder=113304035 } # Udo (nc)
3153.1.1 = { holder=116304035 } # Odingaxho (nc)
3156.1.1 = { holder=117304035 } # Koraxha (nc)
3183.1.1 = { holder=118304035 } # Makhan (nc)
3215.1.1 = { holder=120304035 } # Xhelimo (nc)
3262.1.1 = { holder=124304035 } # Udo (nc)
3288.1.1 = { holder=126304035 } # Orengo (nc)

