1.1.1={
	liege="d_leng_ma"
	law = succ_primogeniture
}
2985.1.1 = { holder=10065977 } # Minh (nc)
3040.1.1 = { holder=10265977 } # Xun (nc)
3057.1.1 = { holder=10665977 } # Xhe (nc)
3101.1.1 = { holder=10765977 } # Phuc (nc)
3113.1.1 = { holder=10965977 } # Thao (nc)
3126.1.1 = { holder=11065977 } # Hieu (nc)
3160.1.1 = { holder=11565977 } # Xuan (nc)
3176.1.1 = { holder=12065977 } # Quan (nc)
3209.1.1 = { holder=12265977 } # Thao (nc)
3236.1.1 = { holder=12465977 } # Van (nc)
3267.1.1 = { holder=12865977 } # An (nc)


