1.1.1={
	liege="d_yin"
}
2995.1.1 = { holder=10069111 } # Aarif (nc)
3031.1.1 = { holder=10369111 } # Jabir (nc)
3064.1.1 = { holder=10669111 } # Khalil (nc)
3076.1.1 = { holder=10869111 } # Aram (nc)
3097.1.1 = { holder=11169111 } # Shamir (nc)
3128.1.1 = { holder=11369111 } # Khaireddin (nc)
3130.1.1 = { holder=11869111 } # Abdul (nc)
3179.1.1 = { holder=12169111 } # Is'mail (nc)
3207.1.1 = { holder=12369111 } # Ali_Ali (nc)
3228.1.1 = { holder=12669111 } # Talib (nc)
3264.1.1 = { holder=12769111 } # Shaiban (nc)
3283.1.1 = { holder=13269111 } # Ali_Ali (nc)


