1000.1.1={
	liege="d_southstone"
}

2897.1.1={holder=60400149} # Gerold Bracken
2916.8.1={holder=60300149} # Lothar Bracken (C)
2933.6.1 = {holder=60200149} # Otho Bracken
2952.1.1={holder=60000149} # Jonos Bracken
2986.1.1={holder=22149} # Addam Bracken

3013.1.1={
	holder=21149
}
3049.1.1={
	holder=19149
}
3073.1.1={
	holder=18149
}
3102.1.1={
	holder=17149
}
3117.1.1={
	holder=16149
}
3163.1.1={
	holder=15149
}
3178.6.1={
	holder=11149
}
3199.1.1={
	holder=10149
}
3214.1.1={
	holder=9149
}
3243.1.1={
	holder=8149
}
3278.1.1={
	holder=149
}
