1000.1.1={
	liege="d_acornsridge"
	law = succ_primogeniture
}
2976.1.1={
	holder=14157
}
3008.1.1={
	holder=13157
}
3037.1.1={
	holder=12157
}
3052.1.1={
	holder=11157
}
3095.1.1={
	holder=9157
}
3124.1.1={
	holder=8157
}
3137.1.1={
	holder=7157
}
3178.1.1={
	holder=6157
}
3191.1.1={
	holder=5157
}
3214.1.1={
	holder=4157
}
3237.1.1={
	holder=3157
}
3266.1.1={
	holder=2157
}
3274.1.1={
	holder=157
}
