
1.1.1 = {
	effect = {
		b_speartower = {
			ROOT = {
				holder_scope = {
					capital = PREVPREV
				}
			}
		}
	}
}
2000.1.1={
	liege="k_brokenarmTK"
}
2995.1.1 = { holder=10001803 } # Quent (nc)
3034.1.1 = { holder=10011803 } # Gawen (nc)
3052.1.1 = { holder=10021803 } # Aethan (nc)
3074.1.1 = { holder=10041803 } # Torghen (nc)
3119.1.1 = { holder=10091803 } # Hullen (nc)
3142.1.1 = { holder=10111803 } # Donnis (nc)

3163.1.1 = { holder=10131803 } # Martyn (nc)
3186.1.1 = { holder=10141803 } # Hugo (nc)
3205.1.1 = { holder=10181803 } # Tomard (nc)
3223.1.1 = { holder=10191803 } # Theon (nc)
3280.1.1 = { holder=10251803 } # Marlon (nc)
3291.1.1 = { holder=10261803 } # Beron (nc)




