1.1.1={
	liege="d_masseys_hook"
	holder = 0
}

3066.1.1 = { holder=30751 } # Jarmen (nc)
3086.1.1 = { holder=30851 } # Gyles (nc)
3114.1.1 = { holder=31151 } # Bennard (nc)
3137.1.1 = { holder=31451 } # Allar (nc)
3157.1.1 = { holder=31651 } # Sefton (nc)
3184.1.1 = { holder=31951 } # Aegon (nc)
3214.1.1 = { holder=32151 } # Serenei (nc)
3236.1.1 = { holder=32251 } # Monford (nc)
