1.1.1={
	liege="d_hyrkoon"
	law = succ_seniority
	law = agnatic_succession
}
2985.1.1 = { holder=10000435 } # Wahab (nc)
3017.1.1 = { holder=10040435 } # Alim (nc)
3040.1.1 = { holder=10050435 } # Abdul (nc)
3062.1.1 = { holder=10060435 } # Ali_Ali (nc)
3083.1.1 = { holder=10140435 } # Husam (nc)
3128.1.1 = { holder=10150435 } # Qadir (nc)
3162.1.1 = { holder=10180435 } # Najib (nc)
3188.1.1 = { holder=10220435 } # Aarif (nc)
3217.1.1 = { holder=10250435 } # Halil (nc)
3229.1.1 = { holder=10280435 } # Najib (nc)
3241.1.1 = { holder=10320435 } # Abdul (nc)
3273.1.1 = { holder=10330435 } # Yahya (nc)
3315.1.1 = { holder=10370435 } # Bakr (nc)
3316.1.1 = { holder=10380435 } # Faghira (nc)


