#House Jho
2992.1.1 = { 
	holder=100304041 
	liege=d_the_three_exiles
	law = succ_seniority
	law = cognatic_succession
} # Abrafo (nc)
3037.1.1 = { holder=102304041 } # Chakoro (nc)
3052.1.1 = { holder=104304041 } # Arkamun (nc)
3072.1.1 = { holder=106304041 } # Xhakan (nc)
3078.1.1 = { holder=107304041 } # Jalabhar (nc)
3097.1.1 = { holder=111304041 } # Qubhar (nc)
3112.1.1 = { holder=112304041 } # Anyim (nc)
3122.1.1 = { holder=114304041 } # Koroxhar (nc)
3134.1.1 = { holder=116304041 } # Doshuru (nc)
3200.1.1 = { holder=119304041 } # Gatubhar (nc)
3238.1.1 = { holder=121304041 } # Chakoro (nc)
3250.1.1 = { holder=123304041 } # Orengo (nc)
3273.1.1 = { holder=127304041 } # Makhan (nc)


