2986.1.1 = { holder=10559121 } # Yoren (nc)
3024.1.1 = { holder=12559121 } # Wallen (nc)
3052.1.1 = { holder=13559121 } # Dormund (nc)
3096.1.1 = { holder=14559121 } # Cregan (nc)
3137.1.1 = { holder=15559121 } # Henk (nc)
3148.1.1 = { holder=17559121 } # Briar (nc)
3184.1.1 = { holder=18559121 } # Joramun (nc)
3206.1.1 = { holder=19559121 } # Halleck (nc)
3210.1.1 = { holder=22559121 } # Gendel (nc)
3213.1.1={
	liege="k_beyond_wall"
}
3226.9.9={
	liege="0"
}
3235.1.1 = { holder=23559121 } # Ondrew (nc)
3239.1.1 = { holder=25559121 } # Dan (nc)
3270.1.1 = { holder=26559121 } # Lenn (nc)
#3294.1.1 = { holder=28559121 } # Walton (nc)

3280.1.1={
	holder=174345
}
3298.1.1={
	liege="k_beyond_wall"
}
3300.1.1={
	liege="d_lower_frostfangs"
}
