1.1.1 = { 
	liege = k_stonewayTK
	law = succ_primogeniture
	law = cognatic_succession
}
3162.1.1 = { 
	holder=61000810 # Beldecar (nc)
	liege="d_ghosthills"
} 
3196.1.1 = { holder=61001010 } # Trebor (nc)
3211.1.1 = { holder=61001110 } # Harmen (nc)
3227.1.1 = { holder=61001510 } # Daeron (nc)
3262.1.1 = { holder=61001710 } # Cletus (nc)
