1.1.1={
	liege="d_tolos"
}
2949.1.1 = { holder=100570101 } # Jaekar (nc)
2982.1.1 = { holder=102570101 } # Horonno (nc)
3004.1.1 = { holder=104570101 } # Aenar (nc)
3022.1.1 = { holder=111570101 } # Vaeron (nc)
3090.1.1 = { holder=112570101 } # Parquello (nc)
3123.1.1 = { holder=116570101 } # Belicho (nc)
3144.1.1 = { holder=119570101 } # Horonno (nc)
3190.1.1 = { holder=121570101 } # Orys (nc)
3245.1.1 = { holder=125570101 } # Colloquo (nc)
3253.1.1 = { holder=128570101 } # Orys (nc)
3270.1.1 = { holder=131570101 } # Benerro (nc)
3295.1.1 = { holder=132570101 } # Methyso (nc)
