1.1.1={
	liege = d_valyria
}

2995.1.1 = { holder=10006013 } # Daeron (nc)
3037.1.1 = { holder=10016013 } # Rhaegel (nc)
3056.1.1 = { holder=10066013 } # Daeron (nc)
3093.1.1 = { holder=10106013 } # Vaermon (nc)
3104.1.1 = { holder=10136013 } # Orys (nc)
3138.1.1 = { holder=10196013 } # Daegar (nc)
3160.1.1 = { holder=10216013 } # Maegor (nc)
3170.1.1 = { holder=10246013 } # Aemon (nc)
3178.1.1 = { holder=10266013 } # Vaekar (nc)
3223.1.1 = { holder=10336013 } # Rhaekar (nc)
3285.1.1 = { holder=10356013 } # Daeron (nc)
