2985.1.1 = { holder=100600211 liege = d_krazaaj_zasque} # Zirqo (nc)
3022.1.1 = { holder=101600211 } # Fogo (nc)
3058.1.1 = { holder=102600211 } # Hezzo (nc)
3066.1.1 = { holder=104600211 } # Jarbo (nc)
3067.1.1 = { holder=106600211 } # Zirqo (nc)
3098.1.1 = { holder=111600211 } # Scoro (nc)
3113.1.1 = { holder=112600211 } # Zollo (nc)
3122.1.1 = { holder=115600211 } # Tihho (nc)
3169.1.1 = { holder=118600211 } # Lanno (nc)
3193.1.1 = { holder=121600211 } # Marro (nc)
3203.1.1 = { holder=123600211 } # Mosko (nc)
3247.1.1 = { holder=128600211 } # Jasso (nc)
3256.1.1 = { holder=130600211 } # Rhogoro (nc)

