1004.1.1={
	liege="d_wayfarersrest"
}
2998.1.1={
	holder=24155
}
3008.1.1={
	holder=23155
}
3013.1.1={
	holder=22155
}
3031.1.1={
	holder=21155
}
3079.1.1={
	holder=25155
}
3115.1.1={
	holder=19155
}
3121.1.1={
	holder=18155
}
3141.1.1={
	holder=17155
}
3155.1.1={
	holder=16155
}

#Vance
3167.1.1 = {
    holder=650153 #Armistead (C)
}
3197.1.1={
	holder=12154
}
3214.1.1={
	holder=11154
}
3266.1.1={
	holder=22154
}
 
