1.1.1={
	liege="k_skahazadhan"
	law=succ_primogeniture 
	law=cognatic_succession
}
2995.1.1 = { holder=1000213 } # Miklaz (nc)
3023.1.1 = { holder=1001213 } # Skahaz (nc)
3043.1.1 = { holder=1007213 } # Maezon (nc)
3057.1.1 = { holder=1010213 } # Hizdhar (nc)
3109.1.1 = { holder=1011213 } # Fendahl (nc)
3112.1.1 = { holder=1015213 } # Morghaz (nc)
3137.1.1 = { holder=1017213 } # Paezhar (nc)
3184.1.1 = { holder=1021213 } # Mazdhan (nc)
3198.1.1 = { holder=1022213 } # Faezdhar (nc)
3231.1.1 = { holder=1023213 } # Kraznys (nc)
3267.1.1 = { holder=1029213 } # Ghazdor (nc)
3272.1.1 = { holder=1031213 } # Paezhar (nc)
3289.1.1 = { holder=1033213 } # Skahaz (nc)
3324.1.1 = { holder=1036213 } # Reznak (nc)

