1200.1.1={
	law = succ_primogeniture
}

2985.1.1 = { holder=10001800 } # Hoarfrost (nc)
3027.1.1 = { holder=10011800 } # Ethan (nc)
3040.1.1 = { holder=10031800 } # Eddard (nc)
3075.1.1 = { holder=10041800 } # Eyron (nc)
3094.1.1 = { holder=10071800 } # Danny (nc)
3141.1.1 = { holder=10091800 } # Benfred (nc)
3153.1.1 = { holder=10131800 } # Tomard (nc)
3199.1.1 = { holder=10141800 } # Bowen (nc)
3208.1.1 = { holder=10181800 } # Hoarfrost (nc)
3277.1.1 = { holder=10191800 } # Benfred (nc)
3280.1.1 = { holder=10241800 } # Cellador (nc)
3311.1.1 = { holder=10281800 } # Tomard (nc)


