1.1.1={
	liege="d_xin"
}
2995.1.1 = { holder=10069194 } # Is'mail (nc)
3041.1.1 = { holder=10269194 } # Fadil (nc)
3047.1.1 = { holder=10469194 } # Khalil (nc)
3072.1.1 = { holder=10569194 } # Qawurd (nc)
3098.1.1 = { holder=10869194 } # Youkhanna (nc)
3150.1.1 = { holder=11069194 } # Ramadan (nc)
3178.1.1 = { holder=11169194 } # Jaleel (nc)
3181.1.1 = { holder=11369194 } # Jalil (nc)
3205.1.1 = { holder=11769194 } # Jabir (nc)
3247.1.1 = { holder=11869194 } # Khaireddin (nc)
3280.1.1 = { holder=12469194 } # Isa (nc)



