1.1.1={
	law = succ_primogeniture
}
2985.1.1 = { holder=100174900 } # Marwyn (nc)
3023.1.1 = { holder=101174900 } # Uthor (nc)
3065.1.1 = { holder=105174900 } # Pate (nc)
3076.1.1 = { holder=107174900 } # Symond (nc)
3097.1.1 = { holder=108174900 } # Osgood (nc)
3101.1.1 = { holder=109174900 } # Robar (nc)
3118.1.1 = { holder=110174900 } # Denys (nc)
3126.1.1 = { holder=111174900 } # Benedar (nc)
3172.1.1 = { holder=119174900 } # Robar (nc)
3194.1.1 = { holder=120174900 } # Lothor (nc)
3217.1.1 = { holder=123174900 } # Elys (nc)
3241.1.1 = { holder=124174900 } # Jasper (nc)
3289.1.1 = { holder=131174900 } # Ballabar (nc)
