1.1.1={
	liege="k_asabhad"
	law = succ_primogeniture
	law = agnatic_succession
}
2996.1.1 = { holder=10055942 } # Wahab (nc)
3026.1.1 = { holder=10355942 } # Jabir (nc)
3052.1.1 = { holder=10455942 } # Ghalib (nc)
3067.1.1 = { holder=10855942 } # Ramadan (nc)
3094.1.1 = { holder=11155942 } # Wahab (nc)
3101.1.1 = { holder=11455942 } # Qawurd (nc)
3128.1.1 = { holder=11655942 } # Hafiz (nc)
3159.1.1 = { holder=12255942 } # Abdullah (nc)
3190.1.1 = { holder=12755942 } # Ali_Ali (nc)
3215.1.1 = { holder=12955942 } # Alim (nc)
3256.1.1 = { holder=13155942 } # Shamir (nc)
3273.1.1 = { holder=13555942 } # Shamir (nc)


