1.1.1={
	liege="e_ghiscar"
}

2983.1.1 = { holder=150360002 } # Grazdan (nc)
3023.1.1 = { holder=100360002 } # Grazdhan (nc)
3046.1.1 = { holder=101360002 } # Grazdhor (nc)
3099.1.1 = { holder=105360002 } # Skahaz (nc)
3113.1.1 = { holder=107360002 } # Gorkhaz (nc)
3118.1.1 = { holder=109360002 } # Barkhaz (nc)
3154.1.1 = { holder=112360002 } # Grazdan (nc)
3205.1.1 = { holder=114360002 } # Kraznys (nc)
3235.1.1 = { holder=116360002 } # Grazdan (nc)
3260.1.1 = { holder=119360002 } # Marghaz (nc)
3272.1.1={
	holder=6571002 # Grazdan
}
