#d_crakehall
1.1.1={
	liege="e_westerlands"
}


50.1.1 = { holder=3990227} # Crake (C)
101.1.1 = { holder=0} 
2820.1.1 = { holder=396227 } # Tymeon (nc)
2840.1.1 = { holder=397227 } # Harys (nc)
2871.1.1 = { holder=398227 } # Ryland (nc)
2888.1.1 = { holder=390227 } # Cragon (nc)
2935.1.1 = { holder=392227 } # Loreon (nc)
2961.1.1 = { holder=394227 } # Roland (nc)
2980.1.1 = { holder=395227 } # Sumner (nc)
2982.1.1 = { holder=31227 } # Lyle (c)
3045.1.1 = {holder=29227}
3056.1.1 = {holder=28227}
3088.1.1 = {holder=27227}
3100.1.1 = {holder=26227} # Jonos Crakehall
3167.1.1 = {holder=510227} # Burton Crakehall
3175.1.1 = {holder=23227} # Garen Crakehall
3188.1.1 = {holder=22227}
3196.3.1 = {holder=20227}

