1.1.1={
	liege="e_iron_isles"
	law=succ_primogeniture 
	law=agnatic_succession
}
859.1.1 = {
	holder = 500122
}
898.1.1 = {
	holder = 501122
}
915.1.1 = {
	holder = 0
}

2975.1.1 = { holder=300122 } # Ambrode (nc)

2998.2.1 = { holder=302122 } # Sigrin (nc)
3032.1.1 = { holder=308122 } # Cotter (nc)
3060.1.1 = { holder=310122 } # Tom (nc)
3090.1.1 = { holder=312122 } # Gormond (nc)
3115.1.1 = { holder=313122 } # Maron (nc)
3125.1.1 = { holder=316122 } # Kromm (nc)
3163.1.1 = {	
	holder=16122  #Theomore
}	
3201.1.1 = {	
	holder=14122  #Tristifer #(nc)
}
3234.1.1 = {	
	holder=6122  #Sigrin (nc)
}
3259.1.1 = {	
	holder=3122  #Sigfryd (nc)
}

3290.1.1 = {	
	holder=122 #Rodrik
}

