1.1.1={
	liege="k_jinqi"
	law = succ_ultimogeniture
}
2995.1.1 = { holder=10069191 } # Murad (nc)
3031.1.1 = { holder=10569191 } # Idris (nc)
3059.1.1 = { holder=10769191 } # Husam (nc)
3065.1.1 = { holder=11069191 } # Wahab (nc)
3122.1.1 = { holder=11869191 } # Qawurd (nc)
3134.1.1 = { holder=11969191 } # Is'mail (nc)
3167.1.1 = { holder=12369191 } # Aarif (nc)
3201.1.1 = { holder=12569191 } # Burhanaddin (nc)
3213.1.1 = { holder=13169191 } # Sadiq (nc)
3254.1.1 = { holder=13369191 } # Jibril (nc)
3259.1.1 = { holder=13769191 } # Shujah (nc)
3289.1.1 = { holder=13969191 } # Alim (nc)


