2945.1.1 = { 
	holder=100600213 
	historical_nomad = yes
	liege = k_ifeqevron
} # Remekko (nc)
2977.1.1 = { holder=101600213 } # Drogo (nc)
2998.1.1 = { 
	holder=102600213 
	liege = 0
} # Loso (nc)
3012.1.1 = { holder=103600213 } # Moro (nc)
3028.1.1 = { holder=108600213 } # Jhaquo (nc)
3046.1.1 = { holder=112600213 } # Kovarro (nc)
3102.1.1 = { holder=114600213 } # Moro (nc)
3109.1.1 = { holder=117600213 } # Azho (nc)
3136.1.1 = { holder=121600213 } # Bharbo (nc)
3145.1.1 = { holder=123600213 } # Rovo (nc)
3159.1.1 = { holder=125600213 } # Rakharo (nc)
3195.1.1 = { holder=129600213 } # Kovarro (nc)
3255.1.1 = { holder=132600213 } # Hezzo (nc)
3266.1.1 = { holder=134600213 } # Qano (nc)
3274.1.1 = { holder=137600213 } # Najaho (nc)
