#House Mo
2993.1.1 = { 
	holder=100304002 
	law = succ_seniority
	law = cognatic_succession
} # Adeyemu (nc)
3041.1.1 = { holder=105304002 } # Jalabhar (nc)
3046.1.1 = { holder=107304002 } # Kwasdo (nc)
3086.1.1 = { holder=110304002 } # Kwasdo (nc)
3103.1.1 = { holder=111304002 } # Chibundo (nc)
3130.1.1 = { holder=113304002 } # Kwasdo (nc)
3155.1.1 = { holder=116304002 } # Nyadundo (nc)
3197.1.1 = { holder=118304002 } # Siboxhoan (nc)
3212.1.1 = { holder=121304002 } # Xhal (nc)
3235.1.1 = { holder=126304002 } # Qaro (nc)
3268.1.1 = { holder=128304002 } # Jiradhar (nc)
3284.1.1 = { holder=131304002 } # Koroxhar (nc)

