1.1.1={
	liege="k_piqui"
}
2995.1.1 = { holder=10069101 } # Aghlab (nc)
3032.1.1 = { holder=10269101 } # Abdullah (nc)
3055.1.1 = { holder=10669101 } # Nizam (nc)
3074.1.1 = { holder=10869101 } # Bahir (nc)
3112.1.1 = { holder=11069101 } # Hafiz (nc)
3150.1.1 = { holder=11169101 } # Husam (nc)
3186.1.1 = { holder=11469101 } # Azam (nc)
3194.1.1 = { holder=11769101 } # Yusuf (nc)
3206.1.1 = { holder=12169101 } # Qawurd (nc)
3240.1.1 = { holder=12469101 } # Bahir (nc)
3242.1.1 = { holder=12869101 } # Uways (nc)
3270.1.1 = { holder=12969101 } # Ghalib (nc)



