1.1.1={
	liege="k_qarth"
}
 2991.1.1 = { holder=150350005 } # Sybassion (nc)
 3025.1.1 = { holder=100350005 } # Mallor (nc)
 3049.1.1 = { holder=101350005 } # Pyat (nc)
 3090.1.1 = { holder=108350005 } # Egon (nc)
 3109.1.1 = { holder=110350005 } # Nyessos (nc)
 3135.1.1 = { holder=111350005 } # Vogarro (nc)
 3174.1.1 = { holder=115350005 } # Horonno (nc)
 3194.1.1 = { holder=117350005 } # Belicho (nc)
 3202.1.1 = { holder=122350005 } # Navaphos (nc)
 3227.1.1 = { holder=129350005 } # Xaro Xhoan (nc)
 3265.1.1 = { holder=132350005 } # Pyat (nc)
 3268.1.1 = { holder=135350005 } # Ordello (nc)
 3294.1.1 = { holder=139350005 } # Methyso (nc)
