1.1.1={
	liege="e_iron_isles"
}
100.1.1 = {
	holder=500107 #Loron the Old Kraken	
}
154.1.1 = {
	holder=501107
}
160.1.1 = {
	holder=502107
}
192.1.1 = { holder=0 }

752.1.1 = {
	holder = 503107
}
760.1.1 = { holder = 0 }

809.1.1 = {
	holder = 504107
}
825.1.1 = {
	holder = 505107
}
859.1.1 = { holder = 0 }

1500.1.1 = {
	holder = 506107
}
1536.1.1 = { holder = 0 }

2944.1.1={holder=66000107}
2988.9.1={holder=66100107}
2993.9.1={holder=26107}

3033.1.1 = {
	holder=25107 #Goren
}
3052.1.1={
	holder=24107 #Maron
}
3070.1.1={
	holder=23107 #Balon
}
3102.1.1={
	holder=22107 #Aeron
}
3124.3.7={
	holder=21107 #Vickon
}
3128.8.2={
	holder=20107 #Dalton, the Red Kraken
}
3130.1.1 = {
	holder=36107 #Veron
}
3172.1.1 = {
	holder=19107 #Alton
}
3206.1.1={
	holder=18107 #Dagon
}
3216.1.1={
	holder=299107 #Loron
}
3225.1.1 = {
	holder=17107 #Torwyn
}
3250.1.1 = {
	holder=107 #Quellon
}	
3283.1.1 = {
	holder=1107 #Balon
}


3299.11.3 = {
	holder=2107 #Euron
}
