400.1.1={
	liege="k_sarnor"
	law = succ_primogeniture
}
2995.1.1 = { holder=10056800 } # Onkar (nc)
3021.1.1 = { holder=10156800 } # Bhagesh (nc)
3053.1.1 = { holder=10656800 } # Harith (nc)
3076.1.1 = { holder=10756800 } # Jash (nc)
3106.1.1 = { holder=11056800 } # Darshan (nc)
3136.1.1 = { holder=11456800 } # Girivar (nc)
3152.1.1 = { holder=11756800 } # Nitish (nc)
3177.1.1 = { holder=11956800 } # Nayan (nc)
3187.1.1 = { holder=12456800 } # Ganesh (nc)
3230.1.1 = { holder=12856800 } # Manish (nc)
3256.1.1 = { holder=13256800 } # Vyomesh (nc)
3266.1.1 = { holder=13456800 } # Harihar (nc)
