#d_silverhill

3182.1.1 = { 
	holder=319221 # Peter (nc)
	liege = "e_westerlands"
} 
3194.1.1 = { holder=324221 } # Cersei (nc)

3213.1.1 = { holder=329221 } # Tywin (nc)
3239.1.1 = { holder=333221 } # Chiswyck (nc)
