1.1.1 = {
	liege = k_tarthTK
}

2944.1.1 = { holder=153054 } #Selwyn (nc)
2976.1.1 = { holder=60000054 } # Daven Tarth (nc)
2988.1.1 = { holder=300054 } # Selwyn Tarth (nc)

3039.1.1 = { holder=150054 } # Edwyn canon married daughter to Storm King

3055.1.1 = {
	liege="e_stormlands" #married into Durrandons
}

3072.1.1 = {
	 holder=310054 # Selwyn Tarth (nc)
} 
3114.1.1 = { holder=315054 } # Willem Tarth (nc)
3146.1.1 = { holder=316054 } # Renly Tarth (nc)
3174.1.1 = { holder=322054 } # Endrew Tarth (nc)
3210.1.1 = { holder=200054 } # Quentyn Tarth (C)
3237.1.1 = { holder=326054 } # Terrence Tarth (nc)
3255.1.1 = { holder=331054 } # Willem Tarth (nc)
3279.1.1 = { holder=201054 } # Selwyn Tarth (C)

