1.1.1={
	liege="k_qarth"
}
2965.1.1 = { holder=88000600 } # Sybassion (nc)
3022.1.1 = { holder=88000601 } # Wullon (nc)
3045.1.1 = { holder=88000602 } # Ognos (nc)
3062.1.1 = { holder=88000603 } # Methyso (nc)
3103.1.1 = { holder=88000604 } # Wullon (nc)
3125.1.1 = { holder=88000605 } # Mundello (nc)
3157.1.1 = { holder=88000606 } # Zathor (nc)
3199.1.1 = { holder=88000607 } # Ognos (nc)
3235.1.1 = { holder=88000608 } # Urrathon (nc)
3252.1.1 = { holder=88000609 } # Wendello (nc)
3264.1.1 = { holder=88000610 } # Regon (nc)
3282.1.1={
	holder=600000063 # Pyatt Pree
}
