1.1.1={
	law = succ_primogeniture
	law = agnatic_succession
}
2995.1.1 = { holder=1055936 } # Abdullah (nc)
3019.1.1 = { holder=1355936 } # Mubarak (nc)
3053.1.1 = { holder=1655936 } # Sadiq (nc)
3056.1.1 = { holder=1955936 } # Nizam (nc)
3078.1.1 = { holder=2055936 } # Jabir (nc)
3105.1.1 = { holder=2455936 } # Mubarak (nc)
3129.1.1 = { holder=2855936 } # Hafiz (nc)
3161.1.1 = { holder=2955936 } # Isa (nc)
3170.1.1 = { holder=3055936 } # Azam (nc)
3203.1.1 = { holder=3455936 } # Aarif (nc)
3213.1.1 = { holder=4055936 } # Alim (nc)
3270.1.1 = { holder=4255936 } # Hafiz (nc)
3290.1.1 = { holder=5055936 } # Aghlab (nc)


