1.1.1={
	law = succ_primogeniture
	law = true_cognatic_succession
}
2995.1.1 = { holder=100186004 } # Ryon (nc)
3022.1.1 = { holder=101186004 } # Aryen (nc)
3061.1.1 = { holder=10586004 } # Alleras (nc)
3067.1.1 = { holder=10786004 } # Aron (nc)
3075.1.1 = { holder=11386004 } # Daeron (nc)
3110.1.1 = { holder=11486004 } # Gasoyne (nc)
3156.1.1 = { holder=11686004 } # Rycas (nc)
3170.1.1 = { holder=12086004 } # Peyos (nc)
3189.1.1 = { holder=12286004 } # Allar (nc)
3245.1.1 = { holder=12686004 } # Allar (nc)
3247.1.1 = { holder=12786004 } # Trystane (nc)
3294.1.1 = { holder=13186004 } # Myria (nc)

