1.1.1={
	law = succ_primogeniture
	law = true_cognatic_succession
}
2995.1.1 = { holder=100174407 } # Rycas (nc)
3022.1.1 = { holder=102174407 } # Mors (nc)
3047.1.1 = { holder=106174407 } # Yandry (nc)
3076.1.1 = { holder=108174407 } # Quentyn (nc)
3100.1.1 = { holder=113174407 } # Mors (nc)
3125.1.1 = { holder=116174407 } # Alleras (nc)
3162.1.1 = { holder=117174407 } # Bors (nc)
3182.1.1 = { holder=118174407 } # Peyos (nc)
3224.1.1 = { holder=122174407 } # Yandry (nc)
3256.1.1 = { holder=125174407 } # Garyn (nc)
3273.1.1 = { holder=126174407 } # Aryen (nc)

