1.1.1={
	law = succ_primogeniture
	law = cognatic_succession
}

3014.1.1 = { holder = 5551176 } #Gawayne Corbray
3045.1.1 = { holder = 551176 } #Qyle Corbray
3060.6.6 = { holder=552176 } # Jaimie
3061.1.1={
	holder=0
}

