1.1.1={
	law = succ_primogeniture
	law = cognatic_succession
}

2990.1.1 = { holder=10004430 } # Heward (nc)
3032.1.1 = { holder=10014430 } # Torren (nc)
3068.1.1 = { holder=10034430 } # Donnis (nc)
3069.1.1 = { holder=10054430 } # Edwyle (nc)
3092.1.1 = { holder=10084430 } # Bartimus (nc)
3093.1.1 = { holder=10114430 } # Rodrik (nc)
3147.1.1 = { holder=10164430 } # Eyron (nc)
3157.1.1 = { holder=10214430 } # Harlon (nc)
3158.1.1 = { holder=10224430 } # Eddard (nc)
3210.1.1 = { holder=10244430 } # Torrhen (nc)
3250.1.1 = { holder=10274430 } # Aethan (nc)
3289.1.1 = { holder=10304430 } # Arnolf (nc)
3290.1.1 = { holder=10344430 } # Jojen (nc)
3341.1.1 = { holder=10394430 } # Leobald (nc)

