winter_soldier_mild_winter = {
	local_build_time_modifier = -0.25
	local_build_cost_modifier = -0.125
	castle_levy_size = 0.05
	city_levy_size = 0.05
	temple_levy_size = 0.05
	levy_reinforce_rate = 0.05
	population_growth = 0.05
	manpower_growth = 0.05
	local_movement_speed = 0.025
	icon = 86
}
winter_soldier_normal_winter = {
	local_build_time_modifier = -0.375
	local_build_cost_modifier = -0.25
	castle_levy_size = 0.125
	city_levy_size = 0.125
	temple_levy_size = 0.125
	levy_reinforce_rate = 0.075
	population_growth = 0.075
	manpower_growth = 0.075
	local_movement_speed = 0.05
	icon = 87
}
winter_soldier_harsh_winter = {
	local_build_time_modifier = -0.5
	local_build_cost_modifier = -0.375
	castle_levy_size = 0.25
	city_levy_size = 0.25
	temple_levy_size = 0.25
	levy_reinforce_rate = 0.125
	population_growth = 0.125
	manpower_growth = 0.125
	local_movement_speed = 0.1
	icon = 88
}
white_walker_mild_winter = {
	local_build_time_modifier = -0.5
	local_build_cost_modifier = -0.25
	castle_levy_size = 0.1
	city_levy_size = 0.1
	temple_levy_size = 0.1
	levy_reinforce_rate = 0.1
	population_growth = 0.1
	manpower_growth = 0.1
	local_movement_speed = 0.05
	icon = 86
}
white_walker_normal_winter = {
	local_build_time_modifier = -0.75
	local_build_cost_modifier = -0.50
	castle_levy_size = 0.25
	city_levy_size = 0.25
	temple_levy_size = 0.25
	levy_reinforce_rate = 0.15
	population_growth = 0.15
	manpower_growth = 0.15
	local_movement_speed = 0.1
	icon = 87
}
white_walker_harsh_winter = {
	local_build_time_modifier = -1
	local_build_cost_modifier = -0.75
	castle_levy_size = 0.50
	city_levy_size = 0.50
	temple_levy_size = 0.50
	levy_reinforce_rate = 0.25
	population_growth = 0.25
	manpower_growth = 0.25
	local_movement_speed = 0.2
	icon = 88
}