##Meereen
##House Kandaq

150360009 = {
	name="Marghaz"	# a lord
	dynasty=360009

	religion="harpy"
	culture="ghiscari"

	7053.1.1 = {birth="7053.1.1"}
	7080.1.1 = {add_spouse=250360009}
	7125.1.1 = {death="7125.1.1"}
}
250360009 = {
	name="Gallaza"
	female=yes

	religion="harpy"
	culture="ghiscari"

	7053.1.1 = {birth="7053.1.1"}
	7090.1.1 = {death="7090.1.1"}
}

100360009 = {
	name="Grazdan"	# a lord
	dynasty=360009

	religion="harpy"
	culture="ghiscari"

	father=150360009
	mother=250360009

	7089.1.1 = {birth="7089.1.1"}
	7116.1.1 = {add_trait=poor_warrior}
	7118.1.1 = {add_spouse=200360009}
	7148.1.1 = {death="7148.1.1"}
}
200360009 = {
	name="Ezzara"
	female=yes

	religion="harpy"
	culture="ghiscari"

	7100.1.1 = {birth="7100.1.1"}
	7148.1.1 = {death="7148.1.1"}
}
101360009 = {
	name="Kraznys"	# a lord
	dynasty=360009

	religion="harpy"
	culture="ghiscari"

	father=100360009
	mother=200360009

	7129.1.1 = {birth="7129.1.1"}
	7145.1.1 = {add_trait=trained_warrior}
	7147.1.1 = {add_spouse=201360009}
	7162.1.1 = {death="7162.1.1"}
}
201360009 = {
	name="Dhazza"
	female=yes

	religion="harpy"
	culture="ghiscari"

	7129.1.1 = {birth="7129.1.1"}
	7162.1.1 = {death="7162.1.1"}
}
102360009 = {
	name="Skahaz"	# not a lord
	dynasty=360009

	religion="harpy"
	culture="ghiscari"

	father=100360009
	mother=200360009

	7131.1.1 = {birth="7131.1.1"}
	7147.1.1 = {add_trait=poor_warrior}
	7207.1.1 = {death="7207.1.1"}
}
103360009 = {
	name="Hazak"	# not a lord
	dynasty=360009

	religion="harpy"
	culture="ghiscari"

	father=100360009
	mother=200360009

	7124.1.1 = {birth="7124.1.1"}
	7140.1.1 = {add_trait=trained_warrior}
	7173.1.1 = {death="7173.1.1"}
}
104360009 = {
	name="Grazdan"	# not a lord
	dynasty=360009

	religion="harpy"
	culture="ghiscari"

	father=100360009
	mother=200360009

	7127.1.1 = {birth="7127.1.1"}
	7143.1.1 = {add_trait=poor_warrior}
	7173.1.1 = {death="7173.1.1"}
}
105360009 = {
	name="Gallaza"	# not a lord
	female=yes
	dynasty=360009

	religion="harpy"
	culture="ghiscari"

	father=100360009
	mother=200360009

	7129.1.1 = {birth="7129.1.1"}
	7198.1.1 = {death="7198.1.1"}
}
106360009 = {
	name="Maezon"	# a lord
	dynasty=360009

	religion="harpy"
	culture="ghiscari"

	father=101360009
	mother=201360009

	7149.1.1 = {birth="7149.1.1"}
	7165.1.1 = {add_trait=trained_warrior}
	7167.1.1 = {add_spouse=206360009}
	7183.1.1 = {death="7183.1.1"}
}
206360009 = {
	name="Qezza"
	female=yes

	religion="harpy"
	culture="ghiscari"

	7149.1.1 = {birth="7149.1.1"}
	7183.1.1 = {death="7183.1.1"}
}
107360009 = {
	name="Morghaz"	# not a lord
	dynasty=360009

	religion="harpy"
	culture="ghiscari"

	father=101360009
	mother=201360009

	7151.1.1 = {birth="7151.1.1"}
	7167.1.1 = {add_trait=poor_warrior}
	7210.1.1 = {death = {death_reason = death_accident}}
}
108360009 = {
	name="Gallaza"	# not a lord
	female=yes
	dynasty=360009

	religion="harpy"
	culture="ghiscari"

	father=101360009
	mother=201360009

	7153.1.1 = {birth="7153.1.1"}
	7207.1.1 = {death="7207.1.1"}
}
109360009 = {
	name="Reznako"	# not a lord
	dynasty=360009

	religion="harpy"
	culture="ghiscari"

	father=101360009
	mother=201360009

	7154.1.1 = {birth="7154.1.1"}
	7170.1.1 = {add_trait=trained_warrior}
	7196.1.1 = {death="7196.1.1"}
}
110360009 = {
	name="Skahaz"	# a lord
	dynasty=360009

	religion="harpy"
	culture="ghiscari"

	father=106360009
	mother=206360009

	7173.1.1 = {birth="7173.1.1"}
	7189.1.1 = {add_trait=poor_warrior}
	7191.1.1 = {add_spouse=210360009}
	7225.1.1 = {death="7225.1.1"}
}
210360009 = {
	name="Jezhane"
	female=yes

	religion="harpy"
	culture="ghiscari"

	7173.1.1 = {birth="7173.1.1"}
	7225.1.1 = {death="7225.1.1"}
}
111360009 = {
	name="Dhazza"	# not a lord
	female=yes
	dynasty=360009

	religion="harpy"
	culture="ghiscari"

	father=106360009
	mother=206360009

	7174.1.1 = {birth="7174.1.1"}
	7196.1.1 = {death="7196.1.1"}
}
112360009 = {
	name="Azzadora"	# not a lord
	female=yes
	dynasty=360009

	religion="harpy"
	culture="ghiscari"

	father=110360009
	mother=210360009

	7193.1.1 = {birth="7193.1.1"}
	7246.1.1 = {death="7246.1.1"}
}
113360009 = {
	name="Qezzama"	# not a lord
	female=yes
	dynasty=360009

	religion="harpy"
	culture="ghiscari"

	father=110360009
	mother=210360009

	7194.1.1 = {birth="7194.1.1"}
	7239.1.1 = {death="7239.1.1"}
}
114360009 = {
	name="Hizdahr"	# a lord
	dynasty=360009

	religion="harpy"
	culture="ghiscari"

	father=110360009
	mother=210360009

	7196.1.1 = {birth="7196.1.1"}
	7212.1.1 = {add_trait=skilled_warrior}
	7214.1.1 = {add_spouse=214360009}
	7240.1.1 = {death="7240.1.1"}
}
214360009 = {
	name="Gallaza"
	female=yes

	religion="harpy"
	culture="ghiscari"

	7196.1.1 = {birth="7196.1.1"}
	7240.1.1 = {death="7240.1.1"}
}
115360009 = {
	name="Hazzea"	# not a lord
	female=yes
	dynasty=360009

	religion="harpy"
	culture="ghiscari"

	father=110360009
	mother=210360009

	7198.1.1 = {birth="7198.1.1"}
	7270.1.1 = {death="7270.1.1"}
}
116360009 = {
	name="Ezzere"	# not a lord
	female=yes
	dynasty=360009

	religion="harpy"
	culture="ghiscari"

	father=114360009
	mother=214360009

	7225.1.1 = {birth="7225.1.1"}
	7266.1.1 = {death="7266.1.1"}
}
117360009 = {
	name="Maezon"	# a lord
	dynasty=360009

	religion="harpy"
	culture="ghiscari"

	father=114360009
	mother=214360009

	7228.1.1 = {birth="7228.1.1"}
	7240.1.1 = {}
	7244.1.1 = {add_trait=skilled_warrior}
	7246.1.1 = {add_spouse=217360009}
	7301.1.1 = {death="7301.1.1"}
}
217360009 = {
	name="Dhazza"
	female=yes

	religion="harpy"
	culture="ghiscari"

	7228.1.1 = {birth="7228.1.1"}
	7301.1.1 = {death="7301.1.1"}
}
118360009 = {
	name="Grazdan"	# not a lord
	dynasty=360009

	religion="harpy"
	culture="ghiscari"

	father=114360009
	mother=214360009

	7230.1.1 = {birth="7230.1.1"}
	7246.1.1 = {add_trait=poor_warrior}
	7278.1.1 = {death="7278.1.1"}
}
119360009 = {
	name="Skahaz"	# not a lord
	dynasty=360009

	religion="harpy"
	culture="ghiscari"

	father=114360009
	mother=214360009

	7232.1.1 = {birth="7232.1.1"}
	7248.1.1 = {add_trait=skilled_warrior}
	7277.1.1 = {death="7277.1.1"}
}
120360009 = {
	name="Gorzhak"	# a lord
	dynasty=360009

	religion="harpy"
	culture="ghiscari"

	father=117360009
	mother=217360009

	7255.1.1 = {birth="7255.1.1"}
	7271.1.1 = {add_trait=trained_warrior}
	7273.1.1 = {add_spouse=220360009}
	7301.1.1 = {}
	7323.1.1 = {death="7323.1.1"}
}
220360009 = {
	name="Ezzara"
	female=yes

	religion="harpy"
	culture="ghiscari"

	7255.1.1 = {birth="7255.1.1"}
	7323.1.1 = {death="7323.1.1"}
}
121360009 = {
	name="Qezza"	# not a lord
	female=yes
	dynasty=360009

	religion="harpy"
	culture="ghiscari"

	father=117360009
	mother=217360009

	7256.1.1 = {birth="7256.1.1"}
	7310.1.1 = {death="7310.1.1"}
}
122360009 = {
	name="Gallaza"	# not a lord
	female=yes
	dynasty=360009

	religion="harpy"
	culture="ghiscari"

	father=117360009
	mother=217360009

	7258.1.1 = {birth="7258.1.1"}
	7313.1.1 = {death="7313.1.1"}
}
123360009 = {
	name="Kraznysmo"	# not a lord
	dynasty=360009

	religion="harpy"
	culture="ghiscari"

	father=117360009
	mother=217360009

	7260.1.1 = {birth="7260.1.1"}
	7276.1.1 = {add_trait=poor_warrior}
	7305.1.1 = {death="7305.1.1"}
}
124360009 = {
	name="Reznak"	# not a lord
	dynasty=360009

	religion="harpy"
	culture="ghiscari"

	father=117360009
	mother=217360009

	7261.1.1 = {birth="7261.1.1"}
	7277.1.1 = {add_trait=poor_warrior}
	7318.1.1 = {death="7318.1.1"}
}
125360009 = {
	name="Yezza"	# not a lord
	female=yes
	dynasty=360009

	religion="harpy"
	culture="ghiscari"

	father=120360009
	mother=220360009

	7281.1.1 = {birth="7281.1.1"}
	7339.1.1 = {death="7339.1.1"}
}
126360009 = {
	name="Grazdan"	# a lord
	dynasty=360009

	religion="harpy"
	culture="ghiscari"

	father=120360009
	mother=220360009

	7282.1.1 = {birth="7282.1.1"}
	7298.1.1 = {add_trait=skilled_warrior}
	7300.1.1 = {add_spouse=226360009}
	7323.1.1 = {}
	7345.1.1 = {death="7345.1.1"}
}
226360009 = {
	name="Ezzara"
	female=yes

	religion="harpy"
	culture="ghiscari"

	7282.1.1 = {birth="7282.1.1"}
	7345.1.1 = {death="7345.1.1"}
}
127360009 = {
	name="Harghaz"	# a lord
	dynasty=360009

	religion="harpy"
	culture="ghiscari"

	father=126360009
	mother=226360009

	7308.1.1 = {birth="7308.1.1"}
	7324.1.1 = {add_trait=poor_warrior}
	7326.1.1 = {add_spouse=227360009}
	7345.1.1 = {}
	7375.1.1 = {death="7375.1.1"}
}
227360009 = {
	name="Ezzara"
	female=yes

	religion="harpy"
	culture="ghiscari"

	7308.1.1 = {birth="7308.1.1"}
	7375.1.1 = {death="7375.1.1"}
}

16571011 = {
	name="Skahaz" ## THE Shavepate
	dynasty=360009
	martial = 5
	diplomacy = 6
	intrigue = 2
	stewardship = 9
	learning = 4
	culture = meereenese
	religion = harpy 

	father=127360009
	mother=227360009		
	
	add_trait="elusive_shadow"
	add_trait="quick"
	add_trait="diligent"
	add_trait="ruthless"
	add_trait="deceitful"
	add_trait="cynical"
	add_trait="ugly"
	
	7354.1.1 = {
		birth="7354.1.1"
	}
	7370.1.1 = {
		add_trait = trained_warrior
	}
	7383.1.1 = {
		add_spouse = 46571011
	}
	7400.1.1 = {
		effect = {
			liege = {
				reverse_opinion = {
					modifier = opinion_loyal_servant
					who = ROOT
				}
			}	
		}
	}
}
46571011 = {
	name="Selezzqa"
	female=yes

	religion="harpy"
	culture="ghiscari"

	7354.1.1 = {
		birth="7354.1.1"
	}
}
16571111 = {
	name="Hazzea" 
	female = yes
	dynasty=360009
	
	culture = meereenese
	religion = harpy 

	father=16571011
	mother=46571011	
	
	7384.1.1 = {
		birth="7384.1.1"
	}
}
16571211 = {
	name="Galazza" 
	female = yes
	dynasty=360009
	
	culture = meereenese
	religion = harpy 

	father=16571011
	mother=46571011	
	
	7386.1.1 = {
		birth="7386.1.1"
	}
}
##House Reznak

150360008 = {
	name="Skahaz"	# a lord
	dynasty=360008

	religion="harpy"
	culture="ghiscari"

	7060.1.1 = {birth="7060.1.1"}
	7079.1.1 = {add_spouse=250360008}
	7127.1.1 = {death="7127.1.1"}
}
250360008 = {
	name="Tezzara"
	female=yes

	religion="harpy"
	culture="ghiscari"

	7060.1.1 = {birth="7060.1.1"}
	7123.1.1 = {death="7123.1.1"}
}
100360008 = {
	name="Reznak"	# a lord
	dynasty=360008

	religion="harpy"
	culture="ghiscari"

	father=150360008
	mother=250360008

	7096.1.1 = {birth="7096.1.1"}
	7116.1.1 = {add_trait=poor_warrior}
	7118.1.1 = {add_spouse=200360008}
	7127.1.1 = {}
	7145.1.1 = {death="7145.1.1"}
}
200360008 = {
	name="Tezzara"
	female=yes

	religion="harpy"
	culture="ghiscari"

	7100.1.1 = {birth="7100.1.1"}
	7136.1.1 = {death="7136.1.1"}
}
101360008 = {
	name="Gorhaz"	# a lord
	dynasty=360008

	religion="harpy"
	culture="ghiscari"

	father=100360008
	mother=200360008

	7129.1.1 = {birth="7129.1.1"}
	7145.1.1 = {add_trait=master_warrior}
	7145.1.1 = {}
	7147.1.1 = {add_spouse=201360008}
	7187.1.1 = {death="7187.1.1"}
}
201360008 = {
	name="Ezzara"
	female=yes

	religion="harpy"
	culture="ghiscari"

	7129.1.1 = {birth="7129.1.1"}
	7187.1.1 = {death="7187.1.1"}
}
102360008 = {
	name="Qezza"	# not a lord
	female=yes
	dynasty=360008

	religion="harpy"
	culture="ghiscari"

	father=100360008
	mother=200360008

	7131.1.1 = {birth="7131.1.1"}
	7186.1.1 = {death="7186.1.1"}
}
103360008 = {
	name="Grazdan"	# not a lord
	dynasty=360008

	religion="harpy"
	culture="ghiscari"

	father=100360008
	mother=200360008

	7134.1.1 = {birth="7134.1.1"}
	7150.1.1 = {add_trait=trained_warrior}
	7196.1.1 = {death="7196.1.1"}
}
104360008 = {
	name="Gallaza"	# not a lord
	female=yes
	dynasty=360008

	religion="harpy"
	culture="ghiscari"

	father=101360008
	mother=201360008

	7161.1.1 = {birth="7161.1.1"}
	7203.1.1 = {death="7203.1.1"}
}
105360008 = {
	name="Grazdan"	# a lord
	dynasty=360008

	religion="harpy"
	culture="ghiscari"

	father=101360008
	mother=201360008

	7162.1.1 = {birth="7162.1.1"}
	7178.1.1 = {add_trait=poor_warrior}
	7180.1.1 = {add_spouse=205360008}
	7187.1.1 = {}
	7228.1.1 = {death="7228.1.1"}
}
205360008 = {
	name="Qezza"
	female=yes

	religion="harpy"
	culture="ghiscari"

	7162.1.1 = {birth="7162.1.1"}
	7228.1.1 = {death="7228.1.1"}
}
106360008 = {
	name="Yezza"	# not a lord
	female=yes
	dynasty=360008

	religion="harpy"
	culture="ghiscari"

	father=101360008
	mother=201360008

	7163.1.1 = {birth="7163.1.1"}
	7222.1.1 = {death="7222.1.1"}
}
107360008 = {
	name="Maezonno"	# not a lord
	dynasty=360008

	religion="harpy"
	culture="ghiscari"

	father=101360008
	mother=201360008

	7165.1.1 = {birth="7165.1.1"}
	7181.1.1 = {add_trait=trained_warrior}
	7207.1.1 = {death="7207.1.1"}
}
108360008 = {
	name="Ferrego"	# not a lord
	dynasty=360008

	religion="harpy"
	culture="ghiscari"

	father=105360008
	mother=205360008

	7194.1.1 = {birth="7194.1.1"}
	7205.1.1 = {death="7205.1.1"}
}
109360008 = {
	name="Reznak"	# a lord
	dynasty=360008

	religion="harpy"
	culture="ghiscari"

	father=105360008
	mother=205360008

	7195.1.1 = {birth="7195.1.1"}
	7211.1.1 = {add_trait=poor_warrior}
	7220.1.1 = {add_spouse=209360008}
	7228.1.1 = {}
	7245.1.1 = {death="7245.1.1"}
}
209360008 = {
	name="Mezzara"
	female=yes

	religion="harpy"
	culture="ghiscari"

	7195.1.1 = {birth="7195.1.1"}
	7245.1.1 = {death="7245.1.1"}
}
110360008 = {
	name="Azzara"	# not a lord
	female=yes
	dynasty=360008

	religion="harpy"
	culture="ghiscari"

	father=105360008
	mother=205360008

	7181.1.1 = {birth="7181.1.1"}
	7204.1.1 = {death="7204.1.1"}
}
111360008 = {
	name="Qezza"	# not a lord
	female=yes
	dynasty=360008

	religion="harpy"
	culture="ghiscari"

	father=105360008
	mother=205360008

	7184.1.1 = {birth="7184.1.1"}
	7249.1.1 = {death="7249.1.1"}
}
113360008 = {
	name="Grazdan"	# not a lord
	dynasty=360008

	religion="harpy"
	culture="ghiscari"

	father=105360008
	mother=205360008

	7188.1.1 = {birth="7188.1.1"}
	7204.1.1 = {add_trait=skilled_warrior}
	7245.1.1 = {death="7245.1.1"}
}
114360008 = {
	name="Ghazdor"	# not a lord
	dynasty=360008

	religion="harpy"
	culture="ghiscari"

	father=105360008
	mother=205360008

	7191.1.1 = {birth="7191.1.1"}
	7207.1.1 = {add_trait=poor_warrior}
	7247.1.1 = {death="7247.1.1"}
}
115360008 = {
	name="Ezzara"	# not a lord
	female=yes
	dynasty=360008

	religion="harpy"
	culture="ghiscari"

	father=109360008
	mother=209360008

	7220.1.1 = {birth="7220.1.1"}
	7253.1.1 = {death="7253.1.1"}
}
116360008 = {
	name="Gorzhak"	# a lord
	dynasty=360008

	religion="harpy"
	culture="ghiscari"

	father=109360008
	mother=209360008

	7222.1.1 = {birth="7222.1.1"}
	7238.1.1 = {add_trait=master_warrior}
	7240.1.1 = {add_spouse=216360008}
	7245.1.1 = {}
	7271.1.1 = {death="7271.1.1"}
}
216360008 = {
	name="Yezzara"
	female=yes

	religion="harpy"
	culture="ghiscari"

	7222.1.1 = {birth="7222.1.1"}
	7271.1.1 = {death="7271.1.1"}
}
117360008 = {
	name="Skahaz"	# not a lord
	dynasty=360008

	religion="harpy"
	culture="ghiscari"

	father=109360008
	mother=209360008

	7225.1.1 = {birth="7225.1.1"}
	7241.1.1 = {add_trait=trained_warrior}
	7279.1.1 = {death="7279.1.1"}
}
118360008 = {
	name="Hizdahr"	# not a lord
	dynasty=360008

	religion="harpy"
	culture="ghiscari"

	father=109360008
	mother=209360008

	7228.1.1 = {birth="7228.1.1"}
	7244.1.1 = {add_trait=skilled_warrior}
	7260.1.1 = {death = {death_reason = death_battle}}
}
119360008 = {
	name="Yorka"	# not a lord
	female=yes
	dynasty=360008

	religion="harpy"
	culture="ghiscari"

	father=116360008
	mother=216360008

	7246.1.1 = {birth="7246.1.1"}
	7297.1.1 = {death="7297.1.1"}
}
120360008 = {
	name="Haznak"	# a lord
	dynasty=360008

	religion="harpy"
	culture="ghiscari"

	father=116360008
	mother=216360008

	7247.1.1 = {birth="7247.1.1"}
	7263.1.1 = {add_trait=trained_warrior}
	7265.1.1 = {add_spouse=220360008}
	7271.1.1 = {}
	7304.1.1 = {death="7304.1.1"}
}
220360008 = {
	name="Ezzara"
	female=yes

	religion="harpy"
	culture="ghiscari"

	7247.1.1 = {birth="7247.1.1"}
	7304.1.1 = {death="7304.1.1"}
}
121360008 = {
	name="Qezza"	# not a lord
	female=yes
	dynasty=360008

	religion="harpy"
	culture="ghiscari"

	father=116360008
	mother=216360008

	7250.1.1 = {birth="7250.1.1"}
	7261.1.1 = {death="7261.1.1"}
}
122360008 = {
	name="Mallazara"	# not a lord
	female=yes
	dynasty=360008

	religion="harpy"
	culture="ghiscari"

	father=116360008
	mother=216360008

	7252.1.1 = {birth="7252.1.1"}
	7309.1.1 = {death="7309.1.1"}
}
123360008 = {
	name="Mazdhak"	# a lord
	dynasty=360008

	religion="harpy"
	culture="ghiscari"

	father=120360008
	mother=220360008

	7267.1.1 = {birth="7267.1.1"}
	7283.1.1 = {add_trait=poor_warrior}
	7287.1.1 = {add_spouse=223360008}
	7304.1.1 = {}
	7333.1.1 = {death="7333.1.1"}
}
223360008 = {
	name="Gallaza"
	female=yes

	religion="harpy"
	culture="ghiscari"

	7267.1.1 = {birth="7267.1.1"}
	7333.1.1 = {death="7333.1.1"}
}
124360008 = {
	name="Mellaza"	# not a lord
	female=yes
	dynasty=360008

	religion="harpy"
	culture="ghiscari"

	father=120360008
	mother=220360008

	7269.1.1 = {birth="7269.1.1"}
	7316.1.1 = {death="7316.1.1"}
}
125360008 = {
	name="Bellonara"	# not a lord
	female=yes
	dynasty=360008

	religion="harpy"
	culture="ghiscari"

	father=123360008
	mother=223360008

	7296.1.1 = {birth="7296.1.1"}
	7330.1.1 = {death="7330.1.1"}
}
126360008 = {
	name="Marghaz"	# a lord
	dynasty=360008

	religion="harpy"
	culture="ghiscari"

	father=123360008
	mother=223360008

	7291.1.1 = {birth="7291.1.1"}
	7307.1.1 = {add_trait=poor_warrior}
	7309.1.1 = {add_spouse=226360008}
	7333.1.1 = {}
	7349.1.1 = {death="7349.1.1"}
}
226360008 = {
	name="Qezza"
	female=yes

	religion="harpy"
	culture="ghiscari"

	7291.1.1 = {birth="7291.1.1"}
	7349.1.1 = {death="7349.1.1"}
}
127360008 = {
	name="Qezza"	# not a lord
	female=yes
	dynasty=360008

	religion="harpy"
	culture="ghiscari"

	father=123360008
	mother=223360008

	7292.1.1 = {birth="7292.1.1"}
	7361.1.1 = {death = {death_reason = death_murder}}
}
128360008 = {
	name="Gallaza"	# not a lord
	female=yes
	dynasty=360008

	religion="harpy"
	culture="ghiscari"

	father=123360008
	mother=223360008

	7293.1.1 = {birth="7293.1.1"}
	7359.1.1 = {death="7359.1.1"}
}
129360008 = {
	name="Grazdan"	# a lord
	dynasty=360008

	religion="harpy"
	culture="ghiscari"

	father=126360008
	mother=226360008

	7326.1.1 = {birth="7326.1.1"}
	7342.1.1 = {add_trait=poor_warrior}
	7344.1.1 = {add_spouse=229360008}
	7349.1.1 = {}
	7379.1.1 = {death="7379.1.1"}
}
229360008 = {
	name="Rezzala"
	female=yes

	religion="harpy"
	culture="ghiscari"

	7326.1.1 = {birth="7326.1.1"}
	7368.1.1 = {death="7368.1.1"}
}
130360008 = {
	name="Maezar"	# not a lord
	female=yes
	dynasty=360008

	religion="harpy"
	culture="ghiscari"

	father=126360008
	mother=226360008

	7327.1.1 = {birth="7327.1.1"}
	7368.1.1 = {death="7368.1.1"}
}
16571012 = {
	name="Reznak" 
	dynasty=360008
	diplomacy = 12
	intrigue = 16
	stewardship = 9
	learning = 8
	culture = meereenese
	religion = harpy 

	father=129360008
	mother=229360008		
	

	add_trait="diligent"
	add_trait="patient"
	add_trait="deceitful"
	add_trait="cynical"
	
	7350.1.1 = {
		birth="7350.1.1"
	}
	7379.1.1 = {}
}

##House Loraq


150360003 = {
	name="Zharaq"	# famous citizen
	dynasty=360003
	
	stewardship = 6
	martial = 3
	diplomacy = 5
	intrigue = 4
	learning = 4
	
	add_trait = grey_eminence
	add_trait = ambitious
	add_trait = diligent

	religion="harpy"
	culture="ghiscari"

	7060.1.1 = {birth="7060.1.1"}
	7083.1.1 = {add_spouse=250360003}
	7116.1.1 = {death="7116.1.1"}
}
250360003 = {
	name="Qezza"
	female=yes

	religion="harpy"
	culture="ghiscari"

	7065.1.1 = {birth="7065.1.1"}
	7112.1.1 = {death="7112.1.1"}
}
100360003 = {
	name="Hizdahr"	# a lord
	dynasty=360003

	religion="harpy"
	culture="ghiscari"

	father=150360003
	mother=250360003

	7087.1.1 = {birth="7087.1.1"}
	7116.1.1 = {add_trait=poor_warrior}
	7116.1.1 = {}
	7118.1.1 = {add_spouse=200360003}
	7147.1.1 = {death="7147.1.1"}
}
200360003 = {
	name="Qezza"
	female=yes

	religion="harpy"
	culture="ghiscari"

	7093.1.1 = {birth="7093.1.1"}
	7132.1.1 = {death="7132.1.1"}
}
101360003 = {
	name="Tezza"
	female=yes
	dynasty=360003

	religion="harpy"
	culture="ghiscari"

	father=100360003
	mother=200360003

	7124.1.1 = {birth="7124.1.1"}
	7166.1.1 = {death = {death_reason = death_accident}}
}
102360003 = {
	name="Hizdahr"	# a lord
	dynasty=360003

	religion="harpy"
	culture="ghiscari"

	father=100360003
	mother=200360003

	7125.1.1 = {birth="7125.1.1"}
	7141.1.1 = {add_trait=poor_warrior}
	7143.1.1 = {add_spouse=202360003}
	7147.1.1 = {}
	7190.1.1 = {death="7190.1.1"}
}
202360003 = {
	name="Mezza"
	female=yes

	religion="harpy"
	culture="ghiscari"

	7125.1.1 = {birth="7125.1.1"}
	7190.1.1 = {death="7190.1.1"}
}
103360003 = {
	name="Azzara"	# not a lord
	female=yes
	dynasty=360003

	religion="harpy"
	culture="ghiscari"

	father=100360003
	mother=200360003

	7127.1.1 = {birth="7127.1.1"}
	7206.1.1 = {death="7206.1.1"}
}
104360003 = {
	name="Grazdan"	# not a lord
	dynasty=360003

	religion="harpy"
	culture="ghiscari"

	father=100360003
	mother=200360003

	7130.1.1 = {birth="7130.1.1"}
	7134.1.1 = {death="7134.1.1"}
}
105360003 = {
	name="Grazdan"	# a lord
	dynasty=360003

	religion="harpy"
	culture="ghiscari"

	father=102360003
	mother=202360003

	7147.1.1 = {birth="7147.1.1"}
	7163.1.1 = {add_trait=skilled_warrior}
	7165.1.1 = {add_spouse=205360003}
	7190.1.1 = {}
	7206.1.1 = {death = {death_reason = death_accident}}
}
205360003 = {
	name="Sezza"
	female=yes

	religion="harpy"
	culture="ghiscari"

	7147.1.1 = {birth="7147.1.1"}
	7206.1.1 = {death="7206.1.1"}
}
106360003 = {
	name="Yezzara"	# not a lord
	female=yes
	dynasty=360003

	religion="harpy"
	culture="ghiscari"

	father=102360003
	mother=202360003

	7148.1.1 = {birth="7148.1.1"}
	7219.1.1 = {death="7219.1.1"}
}
107360003 = {
	name="Gallaza"	# not a lord
	female=yes
	dynasty=360003

	religion="harpy"
	culture="ghiscari"

	father=102360003
	mother=202360003

	7150.1.1 = {birth="7150.1.1"}
	7189.1.1 = {death="7189.1.1"}
}
108360003 = {
	name="Marghazn"	# not a lord
	dynasty=360003

	religion="harpy"
	culture="ghiscari"

	father=102360003
	mother=202360003

	7151.1.1 = {birth="7151.1.1"}
	7167.1.1 = {add_trait=trained_warrior}
	7205.1.1 = {death="7205.1.1"}
}
109360003 = {
	name="Maezon"	# not a lord
	dynasty=360003

	religion="harpy"
	culture="ghiscari"

	father=102360003
	mother=202360003

	7152.1.1 = {birth="7152.1.1"}
	7168.1.1 = {add_trait=poor_warrior}
	7183.1.1 = {death="7183.1.1"}
}
110360003 = {
	name="Mellaza"	# not a lord
	female=yes
	dynasty=360003

	religion="harpy"
	culture="ghiscari"

	father=105360003
	mother=205360003

	7169.1.1 = {birth="7169.1.1"}
	7228.1.1 = {death="7228.1.1"}
}
111360003 = {
	name="Mazdhan"	# famous citizen
	dynasty=360003
	
	stewardship = 5
	martial = 2
	diplomacy = 4
	intrigue = 3
	learning = 5
	
	add_trait = fortune_builder
	add_trait = ambitious
	add_trait = diligent

	religion="harpy"
	culture="ghiscari"

	father=105360003
	mother=205360003

	7170.1.1 = {birth="7170.1.1"}
	7186.1.1 = {add_trait=poor_warrior}
	7188.1.1 = {add_spouse=211360003}
	7206.1.1 = {}
	7224.1.1 = {death="7224.1.1"}
}
211360003 = {
	name="Azza"
	female=yes

	religion="harpy"
	culture="ghiscari"

	7170.1.1 = {birth="7170.1.1"}
	7224.1.1 = {death="7224.1.1"}
}
112360003 = {
	name="Serala"	# not a lord
	female=yes
	dynasty=360003

	religion="harpy"
	culture="ghiscari"

	father=111360003
	mother=211360003

	7188.1.1 = {birth="7188.1.1"}
	7224.1.1 = {death="7224.1.1"}
}
113360003 = {
	name="Ezzere"	# not a lord
	female=yes
	dynasty=360003

	religion="harpy"
	culture="ghiscari"

	father=111360003
	mother=211360003

	7191.1.1 = {birth="7191.1.1"}
	7241.1.1 = {death="7241.1.1"}
}
114360003 = {
	name="Hazrak"	# famous citizen
	dynasty=360003
	
	stewardship = 7
	martial = 3
	diplomacy = 6
	intrigue = 7
	learning = 6
	
	add_trait = midas_touched
	add_trait = ambitious
	add_trait = diligent
	
	religion="harpy"
	culture="ghiscari"

	father=111360003
	mother=211360003

	7194.1.1 = {birth="7194.1.1"}
	7210.1.1 = {add_trait=trained_warrior}
	7212.1.1 = {add_spouse=214360003}
	7224.1.1 = {}
	7260.1.1 = {death="7260.1.1"}
}
214360003 = {
	name="Qezza"
	female=yes

	religion="harpy"
	culture="ghiscari"

	7194.1.1 = {birth="7194.1.1"}
	7260.1.1 = {death="7260.1.1"}
}
115360003 = {
	name="Grazdhan"	# not a lord
	dynasty=360003

	religion="harpy"
	culture="ghiscari"

	father=111360003
	mother=211360003

	7195.1.1 = {birth="7195.1.1"}
	7201.1.1 = {death = {death_reason = death_accident}}
}
117360003 = {
	name="Izella"	# not a lord
	female=yes
	dynasty=360003

	religion="harpy"
	culture="ghiscari"

	father=114360003
	mother=214360003

	7220.1.1 = {birth="7220.1.1"}
	7262.1.1 = {death="7262.1.1"}
}
118360003 = {
	name="Kraznys"	# a lord
	dynasty=360003

	religion="harpy"
	culture="ghiscari"

	father=114360003
	mother=214360003

	7223.1.1 = {birth="7223.1.1"}
	7239.1.1 = {add_trait=poor_warrior}
	7241.1.1 = {add_spouse=218360003}
	7260.1.1 = {}
	7279.1.1 = {death="7279.1.1"}
}
218360003 = {
	name="Gallaza"
	female=yes

	religion="harpy"
	culture="ghiscari"

	7223.1.1 = {birth="7223.1.1"}
	7279.1.1 = {death="7279.1.1"}
}
119360003 = {
	name="Grazdan"	# not a lord
	dynasty=360003

	religion="harpy"
	culture="ghiscari"

	father=114360003
	mother=214360003

	7225.1.1 = {birth="7225.1.1"}
	7241.1.1 = {add_trait=poor_warrior}
	7267.1.1 = {death="7267.1.1"}
}
120360003 = {
	name="Hizdahr"	# a lord
	dynasty=360003

	religion="harpy"
	culture="ghiscari"

	father=118360003
	mother=218360003

	7254.1.1 = {birth="7254.1.1"}
	7270.1.1 = {add_trait=poor_warrior}
	7272.1.1 = {add_spouse=220360003}
	7279.1.1 = {}
	7312.1.1 = {death="7312.1.1"}
}
220360003 = {
	name="Mezzala"
	female=yes

	religion="harpy"
	culture="ghiscari"

	7254.1.1 = {birth="7254.1.1"}
	7312.1.1 = {death="7312.1.1"}
}
121360003 = {
	name="Grazdan"	# not a lord
	dynasty=360003

	religion="harpy"
	culture="ghiscari"

	father=120360003
	mother=220360003

	7276.1.1 = {birth="7276.1.1"}
	7287.1.1 = {death="7287.1.1"}
}
122360003 = {
	name="Hizdahrio"	# a lord
	dynasty=360003

	religion="harpy"
	culture="ghiscari"

	father=120360003
	mother=220360003

	7273.1.1 = {birth="7273.1.1"}
	7289.1.1 = {add_trait=poor_warrior}
	7291.1.1 = {add_spouse=222360003}
	7312.1.1 = {}
	7338.1.1 = {death="7338.1.1"}
}
222360003 = {
	name="Ezzala"
	female=yes

	religion="harpy"
	culture="ghiscari"

	7273.1.1 = {birth="7273.1.1"}
	7338.1.1 = {death="7338.1.1"}
}
123360003 = {
	name="Qezza"	# not a lord
	female=yes
	dynasty=360003

	religion="harpy"
	culture="ghiscari"

	father=120360003
	mother=220360003

	7274.1.1 = {birth="7274.1.1"}
	7317.1.1 = {death="7317.1.1"}
}
124360003 = {
	name="Moredo"	# a lord
	dynasty=360003

	religion="harpy"
	culture="ghiscari"

	father=122360003
	mother=222360003

	7308.1.1 = {birth="7308.1.1"}
	7324.1.1 = {add_trait=skilled_warrior}
	7326.1.1 = {add_spouse=224360003}
	7338.1.1 = {}
	7350.1.1 = {death="7350.1.1"}
}
224360003 = {
	name="Ezzara"
	female=yes

	religion="harpy"
	culture="ghiscari"

	7308.1.1 = {birth="7308.1.1"}
	7350.1.1 = {death="7350.1.1"}
}
125360003 = {
	name="Gallaza"	# not a lord
	female=yes
	dynasty=360003

	religion="harpy"
	culture="ghiscari"

	father=122360003
	mother=222360003

	7311.1.1 = {birth="7311.1.1"}
	7354.1.1 = {death="7354.1.1"}
}
126360003 = {
	name="Skahaznaro"	# not a lord
	dynasty=360003

	religion="harpy"
	culture="ghiscari"

	father=122360003
	mother=222360003

	7312.1.1 = {birth="7312.1.1"}
	7328.1.1 = {add_trait=poor_warrior}
	7347.1.1 = {death="7347.1.1"}
}
127360003 = {
	name="Maez"	# not a lord
	female=yes
	dynasty=360003

	religion="harpy"
	culture="ghiscari"

	father=122360003
	mother=222360003

	7313.1.1 = {birth="7313.1.1"}
	7369.1.1 = {death="7369.1.1"}
}
128360003 = {
	name="Ellara"	# not a lord
	female=yes
	dynasty=360003

	religion="harpy"
	culture="ghiscari"

	father=124360003
	mother=224360003

	7326.1.1 = {birth="7326.1.1"}
	7396.1.1 = {death="7396.1.1"}
}
129360003 = {
	name="Barkhaz"	# a lord
	dynasty=360003

	religion="harpy"
	culture="ghiscari"

	father=124360003
	mother=224360003

	7329.1.1 = {birth="7329.1.1"}
	7345.1.1 = {add_trait=poor_warrior}
	7347.1.1 = {add_spouse=229360003}
	7350.1.1 = {}
	7386.1.1 = {death="7386.1.1"}
}
229360003 = {
	name="Yezza"
	female=yes

	religion="harpy"
	culture="ghiscari"

	7329.1.1 = {birth="7329.1.1"}
	#7386.1.1 = {death="7386.1.1"} #she was alive in books
}
130360003 = {
	name="Qezzala"	# not a lord
	female=yes
	dynasty=360003

	religion="harpy"
	culture="ghiscari"

	father=124360003
	mother=224360003

	7332.1.1 = {birth="7332.1.1"}
	7380.1.1 = {death="7380.1.1"}
}
131360003 = {
	name="Grazdan"	# not a lord
	dynasty=360003

	religion="harpy"
	culture="ghiscari"

	father=124360003
	mother=224360003

	7335.1.1 = {birth="7335.1.1"}
	7351.1.1 = {add_trait=poor_warrior}
	7353.1.1 = {add_spouse=231360003}
	7384.1.1 = {death="7384.1.1"}
}
231360003 = {
	name="Telleza"
	female=yes

	religion="harpy"
	culture="ghiscari"

	7335.1.1 = {birth="7335.1.1"}
	7386.1.1 = {death="7386.1.1"}
}

16571013 = {
	name="Hizdahr"  ##Marries Dany
	dynasty=360003
	martial = 4
	diplomacy = 5
	intrigue = 2
	stewardship = 6
	culture = meereenese
	religion = harpy 

	father=129360003
	mother=229360003		
	
	add_trait="ambitious"
	add_trait="patient"
	add_trait="deceitful"
	add_trait="cynical"
	
	7366.1.1 = {
		birth="7366.1.1"
	}
	7386.1.1 = {}
	7398.10.10 = {  # Drogo's death
		effect = {
			if = {
				limit = { ai = yes }
				add_trait = forbid_marriage
			}
		}
	}
	7400.1.1 = { 
		effect = {
			b_meereen = { ROOT = { capital = PREV } }
		}
	}
}
132360003 = { #king hazoo had two bastards
	name="Oznak"
	dynasty=360003
	
	father=16571013
	culture = meereenese
	religion = harpy 
	add_trait=bastard
	
	7387.1.1 = { birth="7387.1.1" }
}
133360003 = { #king hazoo had two bastards
	name="Tezza"
	dynasty=360003
	female=yes
	
	father=16571013
	culture = meereenese
	religion = harpy 
	add_trait=bastard
	
	7389.1.1 = { birth="7389.1.1" }
}
134360003 = { #hizdahr has some sisters
	name="Yezza"
	dynasty=360003
	female=yes
	culture = meereenese
	religion = harpy 
	father=129360003
	mother=229360003
	
	7372.1.1 = {
		birth="7372.1.1"
	}
}
135360003 = { #hizdahr has some sisters
	name="Lazzala"
	dynasty=360003
	female=yes
	culture = meereenese
	religion = harpy 
	father=129360003
	mother=229360003
	
	7377.1.1 = {
		birth="7377.1.1"
	}
}
136360003 = { #some female cousing of Hizdahr was hostage
	name="Ezzara"
	dynasty=360003
	female=yes
	culture = meereenese
	religion = harpy 
	father=131360003
	mother=231360003	
	
	7365.1.1 = {
		birth="7365.1.1"
	}
}
137360003 = { #canon
	name="Bhakaz"
	dynasty=360003
	culture = meereenese
	religion = harpy 
	father=16571014 #he is too young to be son of other zo loraq
	mother=237360003
	7392.1.1 = {
		birth="7392.1.1"
	}
}
237360003 = { #mother to bhakaz wife of marghaz. uncanon but necessery to have bhakaz
	name="Qezza"
	female=yes
	dynasty=360030
	culture = meereenese
	religion = harpy 
	father=101360030
	mother=201360030
	
	7372.1.1 = {
		birth="7372.1.1"
	}
	7391.1.1 = { add_spouse=16571014 }
}

##House Galare

150360004 = {
	name="Phaezdhar"	# a lord
	dynasty=360004

	religion="harpy"
	culture="ghiscari"

	7064.1.1 = {birth="7064.1.1"}
	7082.1.1 = {add_spouse=250360004}
	7120.1.1 = {death="7120.1.1"}
}
250360004 = {
	name="Yezza"
	female=yes

	religion="harpy"
	culture="ghiscari"

	7063.1.1 = {birth="7063.1.1"}
	7115.1.1 = {death="7115.1.1"}
}

100360004 = {
	name="Grazdan"	# a lord
	dynasty=360004

	religion="harpy"
	culture="ghiscari"

	father=150360004
	mother=250360004

	7084.1.1 = {birth="7084.1.1"}
	7116.1.1 = {add_trait=poor_warrior}
	7118.1.1 = {add_spouse=200360004}
	7120.1.1 = {}
	7153.1.1 = {death="7153.1.1"}
}
200360004 = {
	name="Lazzala"
	female=yes

	religion="harpy"
	culture="ghiscari"

	7084.1.1 = {birth="7084.1.1"}
	7138.1.1 = {death="7138.1.1"}
}
101360004 = {
	name="Miklaz"	# a lord
	dynasty=360004

	religion="harpy"
	culture="ghiscari"

	father=100360004
	mother=200360004

	7129.1.1 = {birth="7129.1.1"}
	7145.1.1 = {add_trait=poor_warrior}
	7147.1.1 = {add_spouse=201360004}
	7153.1.1 = {}
	7178.1.1 = {death="7178.1.1"}
}
201360004 = {
	name="Qezza"
	female=yes

	religion="harpy"
	culture="ghiscari"

	7129.1.1 = {birth="7129.1.1"}
	7178.1.1 = {death="7178.1.1"}
}
102360004 = {
	name="Azza"	# not a lord
	female=yes
	dynasty=360004

	religion="harpy"
	culture="ghiscari"

	father=100360004
	mother=200360004

	7131.1.1 = {birth="7131.1.1"}
	7180.1.1 = {death="7180.1.1"}
}
103360004 = {
	name="Grazdan"	# a lord
	dynasty=360004

	religion="harpy"
	culture="ghiscari"

	father=101360004
	mother=201360004

	7150.1.1 = {birth="7150.1.1"}
	7166.1.1 = {add_trait=poor_warrior}
	7168.1.1 = {add_spouse=203360004}
	7178.1.1 = {}
	7205.1.1 = {death="7205.1.1"}
}
203360004 = {
	name="Ezzara"
	female=yes

	religion="harpy"
	culture="ghiscari"

	7150.1.1 = {birth="7150.1.1"}
	7205.1.1 = {death="7205.1.1"}
}
104360004 = {
	name="Maezor"	# not a lord
	dynasty=360004

	religion="harpy"
	culture="ghiscari"

	father=101360004
	mother=201360004

	7152.1.1 = {birth="7152.1.1"}
	7168.1.1 = {add_trait=skilled_warrior}
	7209.1.1 = {death="7209.1.1"}
}
105360004 = {
	name="Skahaz"	# not a lord
	dynasty=360004

	religion="harpy"
	culture="ghiscari"

	father=101360004
	mother=201360004

	7155.1.1 = {birth="7155.1.1"}
	7171.1.1 = {add_trait=skilled_warrior}
	7224.1.1 = {death="7224.1.1"}
}
106360004 = {
	name="Hazzea"	# not a lord
	female=yes
	dynasty=360004

	religion="harpy"
	culture="ghiscari"

	father=101360004
	mother=201360004

	7157.1.1 = {birth="7157.1.1"}
	7174.1.1 = {death="7174.1.1"}
}
107360004 = {
	name="Azzak"	# a lord
	dynasty=360004

	religion="harpy"
	culture="ghiscari"

	father=103360004
	mother=203360004

	7169.1.1 = {birth="7169.1.1"}
	7185.1.1 = {add_trait=trained_warrior}
	7187.1.1 = {add_spouse=207360004}
	7205.1.1 = {}
	7218.1.1 = {death="7218.1.1"}
}
207360004 = {
	name="Nazza"
	female=yes

	religion="harpy"
	culture="ghiscari"

	7169.1.1 = {birth="7169.1.1"}
	7218.1.1 = {death="7218.1.1"}
}
108360004 = {
	name="Grazdan"	# not a lord
	dynasty=360004

	religion="harpy"
	culture="ghiscari"

	father=103360004
	mother=203360004

	7170.1.1 = {birth="7170.1.1"}
	7186.1.1 = {add_trait=poor_warrior}
	7193.1.1 = {death="7193.1.1"}
}
109360004 = {
	name="Ezzala"	# not a lord
	female=yes
	dynasty=360004

	religion="harpy"
	culture="ghiscari"

	father=103360004
	mother=203360004

	7172.1.1 = {birth="7172.1.1"}
	7241.1.1 = {death="7241.1.1"}
}
110360004 = {
	name="Reznak"	# not a lord
	dynasty=360004

	religion="harpy"
	culture="ghiscari"

	father=103360004
	mother=203360004

	7173.1.1 = {birth="7173.1.1"}
	7189.1.1 = {add_trait=poor_warrior}
	7234.1.1 = {death="7234.1.1"}
}
111360004 = {
	name="Ulezza"	# not a lord
	female=yes
	dynasty=360004

	religion="harpy"
	culture="ghiscari"

	father=107360004
	mother=207360004

	7197.1.1 = {birth="7197.1.1"}
	7227.1.1 = {death="7227.1.1"}
}
112360004 = {
	name="Marghaz"	# a lord
	dynasty=360004

	religion="harpy"
	culture="ghiscari"

	father=107360004
	mother=207360004

	7199.1.1 = {birth="7199.1.1"}
	7215.1.1 = {add_trait=skilled_warrior}
	7217.1.1 = {add_spouse=212360004}
	7218.1.1 = {}
	7266.1.1 = {death="7266.1.1"}
}
212360004 = {
	name="Mezzara"
	female=yes

	religion="harpy"
	culture="ghiscari"

	7199.1.1 = {birth="7199.1.1"}
	7266.1.1 = {death="7266.1.1"}
}
113360004 = {
	name="Qezza"	# not a lord
	female=yes
	dynasty=360004

	religion="harpy"
	culture="ghiscari"

	father=107360004
	mother=207360004

	7201.1.1 = {birth="7201.1.1"}
	7230.1.1 = {death = {death_reason = death_accident}}
}
114360004 = {
	name="Yurkhazo"	# not a lord
	dynasty=360004

	religion="harpy"
	culture="ghiscari"

	father=107360004
	mother=207360004

	7203.1.1 = {birth="7203.1.1"}
	7219.1.1 = {add_trait=poor_warrior}
	7264.1.1 = {death="7264.1.1"}
}
115360004 = {
	name="Jaqea"	# not a lord
	female=yes
	dynasty=360004

	religion="harpy"
	culture="ghiscari"

	father=112360004
	mother=212360004

	7227.1.1 = {birth="7227.1.1"}
	7282.1.1 = {death="7282.1.1"}
}
116360004 = {
	name="Gorzhak"	# a lord
	dynasty=360004

	religion="harpy"
	culture="ghiscari"

	father=112360004
	mother=212360004

	7228.1.1 = {birth="7228.1.1"}
	7244.1.1 = {add_trait=poor_warrior}
	7246.1.1 = {add_spouse=216360004}
	7266.1.1 = {}
	7279.1.1 = {death="7279.1.1"}
}
216360004 = {
	name="Hazzea"
	female=yes

	religion="harpy"
	culture="ghiscari"

	7228.1.1 = {birth="7228.1.1"}
	7279.1.1 = {death="7279.1.1"}
}
117360004 = {
	name="Azlak"	# not a lord
	dynasty=360004

	religion="harpy"
	culture="ghiscari"

	father=112360004
	mother=212360004

	7229.1.1 = {birth="7229.1.1"}
	7245.1.1 = {add_trait=poor_warrior}
	7284.1.1 = {death="7284.1.1"}
}
118360004 = {
	name="Syrea"	# not a lord
	female=yes
	dynasty=360004

	religion="harpy"
	culture="ghiscari"

	father=116360004
	mother=216360004

	7257.1.1 = {birth="7257.1.1"}
	7290.1.1 = {death = {death_reason = death_execution}}
}
119360004 = {
	name="Dhazak"	# a lord
	dynasty=360004

	religion="harpy"
	culture="ghiscari"

	father=116360004
	mother=216360004

	7258.1.1 = {birth="7258.1.1"}
	7274.1.1 = {add_trait=trained_warrior}
	7276.1.1 = {add_spouse=219360004}
	7279.1.1 = {}
	7300.1.1 = {death="7300.1.1"}
}
219360004 = {
	name="Dalla"
	female=yes

	religion="harpy"
	culture="ghiscari"

	7258.1.1 = {birth="7258.1.1"}
	7300.1.1 = {death="7300.1.1"}
}
120360004 = {
	name="Skahaz"	# not a lord
	dynasty=360004

	religion="harpy"
	culture="ghiscari"

	father=116360004
	mother=216360004

	7261.1.1 = {birth="7261.1.1"}
	7277.1.1 = {add_trait=poor_warrior}
	7314.1.1 = {death="7314.1.1"}
}
121360004 = {
	name="Yurkhaz"	# not a lord
	dynasty=360004

	religion="harpy"
	culture="ghiscari"

	father=116360004
	mother=216360004

	7262.1.1 = {birth="7262.1.1"}
	7278.1.1 = {add_trait=poor_warrior}
	7298.1.1 = {death="7298.1.1"}
}
122360004 = {
	name="Marghazo"	# not a lord
	dynasty=360004

	religion="harpy"
	culture="ghiscari"

	father=116360004
	mother=216360004

	7263.1.1 = {birth="7263.1.1"}
	7279.1.1 = {add_trait=trained_warrior}
	7298.1.1 = {death = {death_reason = death_execution}}
}
123360004 = {
	name="Paezhar"	# a lord
	dynasty=360004

	religion="harpy"
	culture="ghiscari"

	father=119360004
	mother=219360004

	7280.1.1 = {birth="7280.1.1"}
	7299.1.1 = {add_spouse=223360004}
	7300.1.1 = {}
	7309.1.1 = {add_trait=skilled_warrior}
	7329.1.1 = {death="7329.1.1"}
}
223360004 = {
	name="Ezzara"
	female=yes

	religion="harpy"
	culture="ghiscari"

	7280.1.1 = {birth="7280.1.1"}
	7329.1.1 = {death="7329.1.1"}
}
124360004 = {
	name="Reznak"	# not a lord
	dynasty=360004

	religion="harpy"
	culture="ghiscari"

	father=119360004
	mother=219360004

	7295.1.1 = {birth="7295.1.1"}
	7311.1.1 = {add_trait=trained_warrior}
	7342.1.1 = {add_spouse=228360004}
	7364.1.1 = {death="7364.1.1"}
}
125360004 = {
	name="Mallaza"	# not a lord
	female=yes
	dynasty=360004

	religion="harpy"
	culture="ghiscari"

	father=119360004
	mother=219360004

	7296.1.1 = {birth="7296.1.1"}
	7363.1.1 = {death = {death_reason = death_accident}}
}
126360004 = {
	name="Bharkaz"	# not a lord
	dynasty=360004

	religion="harpy"
	culture="ghiscari"

	father=119360004
	mother=219360004

	7297.1.1 = {birth="7297.1.1"}
	7313.1.1 = {add_trait=trained_warrior}
	#7336.1.1 = {death="7336.1.1"} #not dead cause Galazza Galare have very young cousins
	7376.1.1 = { add_spouse = 226360004 }
	7390.1.1 = { death="7390.1.1" }	
}
130360004 = {
	name="Grazhar" #canon
	dynasty=360004
	
	religion="harpy"
	culture="ghiscari"
	
	add_trait=temperate
	add_trait=ambitious
	
	father=126360004
	mother=226360004
	
	7387.1.1 = { birth="7387.1.1" }
}
131360004 = {
	name="Qezza" #canon
	dynasty=360004
	female=yes
		
	religion="harpy"
	culture="ghiscari"
	
	father=126360004
	mother=226360004
	
	7389.1.1 = { birth="7389.1.1" }
}
127360004 = {
	name="Grazdan"	# a lord
	dynasty=360004

	religion="harpy"
	culture="ghiscari"

	father=123360004
	mother=223360004

	7303.1.1 = {birth="7303.1.1"}
	7329.1.1 = {}
	7338.1.1 = {add_trait=poor_warrior}
	7343.1.1 = {death = {death_reason = death_accident}}
}
151360004 = {
	name="Galazza"	# The green Grace
	female=yes
	dynasty=360004
	
	dna="dkclkolades"
	properties="mj0eak"
	
	martial = 1
	stewardship = 3
	learning = 11
	diplomacy = 13
	intrigue = 13
	
	add_trait = scholarly_theologian
	add_trait = honorable
	add_trait = kind
	add_trait = chaste
	add_trait = patient

	religion="harpy"
	culture="ghiscari"

	father=123360004
	mother=223360004
	
	7317.1.1 = {
		birth="7317.1.1"
		effect = { health = 4.5 }
	}
	7343.1.1 = {
		add_trait = grace
		effect = {
			if = {
				limit = { is_ruler = no }
				b_graces = { holder_scope = { ROOT = { move_character = PREV } } }
			}
		}	
	}
}
128360004 = {
	name="Gorzhak"	# a lord
	dynasty=360004

	religion="harpy"
	culture="ghiscari"

	father=123360004
	mother=223360004

	7325.1.1 = {birth="7325.1.1"}
	7341.1.1 = {add_trait=poor_warrior}
	#7342.1.1 = {add_spouse=228360004}
	7343.1.1 = {}
	7387.1.1 = {death="7387.1.1"}
}
228360004 = {
	name="Bellaza"
	female=yes

	religion="harpy"
	culture="ghiscari"

	7325.1.1 = {birth="7325.1.1"}
	7387.1.1 = {death="7387.1.1"}
}
129360004 = {
	name="Zaraq"	# not a lord
	dynasty=360004

	religion="harpy"
	culture="ghiscari"

	father=123360004
	mother=223360004

	7328.1.1 = {birth="7328.1.1"}
	7344.1.1 = {add_trait=trained_warrior}
	7364.1.1 = {death="7364.1.1"}
}

16571015 = {
	name="Grazdan"  ## Canon, brother of the Green Grace.
	dynasty=360004
	martial = 4
	diplomacy = 5
	intrigue = 2
	stewardship = 9
	culture = meereenese
	religion = harpy 

	father=124360004 #128360004 #he was cousin not nephew of Galazza
	mother=228360004		
	

	add_trait="diligent"
	add_trait="patient"
	add_trait="deceitful"
	add_trait="cynical"
	add_trait="greedy" #his former slaves case
	
	7360.1.1 = {
		birth="7360.1.1"
	}
	7387.1.1 = {}
}


####  House Pahl

150360007 = {
	name="Gorzhak"	# a lord
	dynasty=360007

	religion="harpy"
	culture="ghiscari"

	7067.1.1 = {birth="7067.1.1"}
	7085.1.1 = {add_spouse=250360007}
	7117.1.1 = {death="7117.1.1"}
}
250360007 = {
	name="Ezza"
	female=yes

	religion="harpy"
	culture="ghiscari"

	7069.1.1 = {birth="7069.1.1"}
	7122.1.1 = {death="7122.1.1"}
}

100360007 = {
	name="Marghaz"	# a lord
	dynasty=360007

	religion="harpy"
	culture="ghiscari"

	father=150360007
	mother=250360007

	7094.1.1 = {birth="7094.1.1"}
	7116.1.1 = {add_trait=poor_warrior}
	7117.1.1 = {}
	7118.1.1 = {add_spouse=200360007}
	7146.1.1 = {death="7146.1.1"}
}
200360007 = {
	name="Ezzara"
	female=yes

	religion="harpy"
	culture="ghiscari"

	7100.1.1 = {birth="7100.1.1"}
	7140.1.1 = {death="7140.1.1"}
}
101360007 = {
	name="Maezon"	# a lord
	dynasty=360007

	religion="harpy"
	culture="ghiscari"

	father=100360007
	mother=200360007

	7129.1.1 = {birth="7129.1.1"}
	7145.1.1 = {add_trait=trained_warrior}
	7146.1.1 = {}
	7147.1.1 = {add_spouse=201360007}
	7179.1.1 = {death="7179.1.1"}
}
201360007 = {
	name="Azza"
	female=yes

	religion="harpy"
	culture="ghiscari"

	7129.1.1 = {birth="7129.1.1"}
	7179.1.1 = {death="7179.1.1"}
}
102360007 = {
	name="Hizlak"	# not a lord
	dynasty=360007

	religion="harpy"
	culture="ghiscari"

	father=100360007
	mother=200360007

	7132.1.1 = {birth="7132.1.1"}
	7148.1.1 = {add_trait=skilled_warrior}
	7150.1.1 = {add_spouse=202360007}
	7181.1.1 = {death = {death_reason = death_accident}}
}
202360007 = {
	name="Yezza"
	female=yes

	religion="harpy"
	culture="ghiscari"

	7132.1.1 = {birth="7132.1.1"}
	7181.1.1 = {death="7181.1.1"}
}
103360007 = {
	name="Grazdan"	# not a lord
	dynasty=360007

	religion="harpy"
	culture="ghiscari"

	father=100360007
	mother=200360007

	7138.1.1 = {birth="7138.1.1"}
	7154.1.1 = {add_trait=poor_warrior}
	7182.1.1 = {death="7182.1.1"}
}
104360007 = {
	name="Hizdahr"	# a lord
	dynasty=360007

	religion="harpy"
	culture="ghiscari"

	father=101360007
	mother=201360007

	7153.1.1 = {birth="7153.1.1"}
	7169.1.1 = {add_trait=poor_warrior}
	7171.1.1 = {add_spouse=204360007}
	7179.1.1 = {}
	7212.1.1 = {death="7212.1.1"}
}
204360007 = {
	name="Tellara"
	female=yes

	religion="harpy"
	culture="ghiscari"

	7153.1.1 = {birth="7153.1.1"}
	7212.1.1 = {death="7212.1.1"}
}
105360007 = {
	name="Qezza"	# not a lord
	female=yes
	dynasty=360007

	religion="harpy"
	culture="ghiscari"

	father=104360007
	mother=204360007

	7181.1.1 = {birth="7181.1.1"}
	7249.1.1 = {death = {death_reason = death_accident}}
}
106360007 = {
	name="Gallaza"	# not a lord
	female=yes
	dynasty=360007

	religion="harpy"
	culture="ghiscari"

	father=104360007
	mother=204360007

	7183.1.1 = {birth="7183.1.1"}
	7233.1.1 = {death="7233.1.1"}
}
107360007 = {
	name="Grazdan"	# a lord
	dynasty=360007

	religion="harpy"
	culture="ghiscari"

	father=104360007
	mother=204360007

	7186.1.1 = {birth="7186.1.1"}
	7202.1.1 = {add_trait=poor_warrior}
	7204.1.1 = {add_spouse=207360007}
	7212.1.1 = {}
	7242.1.1 = {death="7242.1.1"}
}
207360007 = {
	name="Ezza"
	female=yes

	religion="harpy"
	culture="ghiscari"

	7186.1.1 = {birth="7186.1.1"}
	7220.1.1 = {death="7220.1.1"}
}
108360007 = {
	name="Marghaz"	# not a lord
	dynasty=360007

	religion="harpy"
	culture="ghiscari"

	father=104360007
	mother=204360007

	7189.1.1 = {birth="7189.1.1"}
	7205.1.1 = {add_trait=skilled_warrior}
	7207.1.1 = {add_spouse=208360007}
	7255.1.1 = {death="7255.1.1"}
}
208360007 = {
	name="Gallaza"
	female=yes

	religion="harpy"
	culture="ghiscari"

	7189.1.1 = {birth="7189.1.1"}
	7255.1.1 = {death="7255.1.1"}
}
109360007 = {
	name="Arraq"	# not a lord
	dynasty=360007

	religion="harpy"
	culture="ghiscari"

	father=104360007
	mother=204360007

	7192.1.1 = {birth="7192.1.1"}
	7208.1.1 = {add_trait=poor_warrior}
	7272.1.1 = {death="7272.1.1"}
}
110360007 = {
	name="Grazdan"	# a lord
	dynasty=360007

	religion="harpy"
	culture="ghiscari"

	father=107360007
	mother=207360007

	7209.1.1 = {birth="7209.1.1"}
	7225.1.1 = {add_trait=poor_warrior}
	7227.1.1 = {add_spouse=210360007}
	7242.1.1 = {}
	7286.1.1 = {death="7286.1.1"}
}
210360007 = {
	name="Sallara"
	female=yes

	religion="harpy"
	culture="ghiscari"

	7209.1.1 = {birth="7209.1.1"}
	7286.1.1 = {death="7286.1.1"}
}
111360007 = {
	name="Phaezdhar"	# not a lord
	dynasty=360007

	religion="harpy"
	culture="ghiscari"

	father=107360007
	mother=207360007

	7212.1.1 = {birth="7212.1.1"}
	7228.1.1 = {add_trait=master_warrior}
	7270.1.1 = {death="7270.1.1"}
}
112360007 = {
	name="Hazzea"	# not a lord
	female=yes
	dynasty=360007

	religion="harpy"
	culture="ghiscari"

	father=107360007
	mother=207360007

	7214.1.1 = {birth="7214.1.1"}
	7257.1.1 = {death = {death_reason = death_accident}}
}
113360007 = {
	name="Mezzara"	# not a lord
	female=yes
	dynasty=360007

	religion="harpy"
	culture="ghiscari"

	father=107360007
	mother=207360007

	7217.1.1 = {birth="7217.1.1"}
	7236.1.1 = {death="7236.1.1"}
}
114360007 = {
	name="Qezza"	# not a lord
	female=yes
	dynasty=360007

	religion="harpy"
	culture="ghiscari"

	father=110360007
	mother=210360007

	7238.1.1 = {birth="7238.1.1"}
	7273.1.1 = {death="7273.1.1"}
}
115360007 = {
	name="Ezzara"	# not a lord
	female=yes
	dynasty=360007

	religion="harpy"
	culture="ghiscari"

	father=110360007
	mother=210360007

	7240.1.1 = {birth="7240.1.1"}
	7296.1.1 = {death = {death_reason = death_murder}}
}
116360007 = {
	name="Haznak"	# a lord
	dynasty=360007

	religion="harpy"
	culture="ghiscari"

	father=110360007
	mother=210360007

	7243.1.1 = {birth="7243.1.1"}
	7259.1.1 = {add_trait=skilled_warrior}
	7261.1.1 = {add_spouse=216360007}
	7286.1.1 = {}
	7323.1.1 = {death="7323.1.1"}
}
216360007 = {
	name="Mezzala"
	female=yes

	religion="harpy"
	culture="ghiscari"

	7243.1.1 = {birth="7243.1.1"}
	7323.1.1 = {death="7323.1.1"}
}
117360007 = {
	name="Yezzara"	# not a lord
	female=yes
	dynasty=360007

	religion="harpy"
	culture="ghiscari"

	father=110360007
	mother=210360007

	7246.1.1 = {birth="7246.1.1"}
	7277.1.1 = {death="7277.1.1"}
}
118360007 = {
	name="Harghaz"	# not a lord
	dynasty=360007

	religion="harpy"
	culture="ghiscari"

	father=110360007
	mother=210360007

	7247.1.1 = {birth="7247.1.1"}
	7263.1.1 = {add_trait=skilled_warrior}
	7303.1.1 = {death="7303.1.1"}
}
119360007 = {
	name="Mazdhan"	# a lord
	dynasty=360007

	religion="harpy"
	culture="ghiscari"

	father=116360007
	mother=216360007

	7272.1.1 = {birth="7272.1.1"}
	7288.1.1 = {add_trait=trained_warrior}
	7290.1.1 = {add_spouse=219360007}
	7323.1.1 = {}
	7338.1.1 = {death="7338.1.1"}
}
219360007 = {
	name="Dellaza"
	female=yes

	religion="harpy"
	culture="ghiscari"

	7272.1.1 = {birth="7272.1.1"}
	7338.1.1 = {death="7338.1.1"}
}
120360007 = {
	name="Dezza"	# not a lord
	female=yes
	dynasty=360007

	religion="harpy"
	culture="ghiscari"

	father=116360007
	mother=216360007

	7274.1.1 = {birth="7274.1.1"}
	7320.1.1 = {death="7320.1.1"}
}
121360007 = {
	name="Ghazdor"	# a lord
	dynasty=360007

	religion="harpy"
	culture="ghiscari"

	father=119360007
	mother=219360007

	7304.1.1 = {birth="7304.1.1"}
	7320.1.1 = {add_trait=trained_warrior}
	7322.1.1 = {add_spouse=221360007}
	7338.1.1 = {}
	7367.1.1 = {death="7367.1.1"}
}
221360007 = {
	name="Qezza"
	female=yes

	religion="harpy"
	culture="ghiscari"

	7304.1.1 = {birth="7304.1.1"}
	7367.1.1 = {death="7367.1.1"}
}
122360007 = {
	name="Skahaz"	# a lord
	dynasty=360007

	religion="harpy"
	culture="ghiscari"

	father=121360007
	mother=221360007

	7329.1.1 = {birth="7329.1.1"}
	7345.1.1 = {add_trait=poor_warrior}
	7347.1.1 = {add_spouse=222360007}
	7367.1.1 = {}
	7398.1.1 = {death="7398.1.1"}
}
222360007 = {
	name="Mellara"
	female=yes

	religion="harpy"
	culture="ghiscari"

	7329.1.1 = {birth="7329.1.1"}
	7398.1.1 = {death="7398.1.1"}
}
123360007 = {
	name="Ezzara"	# not a lord
	female=yes
	dynasty=360007

	religion="harpy"
	culture="ghiscari"

	father=121360007
	mother=221360007

	7330.1.1 = {birth="7330.1.1"}
	7386.1.1 = {death="7386.1.1"}
}
124360007 = {
	name="Grazdan"	# not a lord
	dynasty=360007

	religion="harpy"
	culture="ghiscari"

	father=121360007
	mother=221360007

	7331.1.1 = {birth="7331.1.1"}
	7347.1.1 = {add_trait=master_warrior}
	7354.1.1 = {death="7354.1.1"}
}
125360007 = {
	name="Miklaz"	# a lord
	dynasty=360007

	religion="harpy"
	culture="ghiscari"

	father=122360007
	mother=222360007

	7354.1.1 = {birth="7354.1.1"}
	7363.1.1 = {add_trait=trained_warrior }
	7370.1.1 = { add_trait=midas_touched  } #brown ben plumm said that he was richest man in meereen.
	7374.1.1 = { add_spouse=225360007 }
	7398.1.1 = {}
}
225360007 = {
	name="Tellezzara"
	female=yes

	religion="harpy"
	culture="ghiscari"

	7360.1.1 = {birth="7360.1.1"}
	7390.1.1 = {
		death = {
			death_reason = death_accident
		}
	}
}
128360007 = {
	name="Yuznak" # commander of watch, father of Oznak zo Pahl
	dynasty=360007
	
	religion="harpy"
	culture="ghiscari"
	
	martial=8 #so he will be master-at-arms
	
	father=122360007
	mother=222360007
	
	7358.1.1 = {birth="7358.1.1"}
	7374.1.1 = { 
		add_trait = skilled_warrior
		add_trait = skilled_tactician #skills to be commander of city watch
	}
	7376.1.1 = { add_spouse=228360007 }
	7390.1.1 = { employer=16571013 } #master at arms in meereen
	7400.1.1 = {
		death = {death_reason = death_battle}
	}
}
129360007 = {
	name="Oznak" # champion of meereen. canon.
	dynasty=360007
	dna="cdbmeclcaae"
	properties="kj0dek00000"
	
	religion="harpy"
	culture="ghiscari"
	
	father=128360007
	mother=228360007
	
	add_trait = proud
	add_trait = rude #he insulted Dany
	add_trait = brave #some bravery he had...
	
	7377.1.1 = {birth="7377.1.1"}
	7390.1.1 = { employer=16571013 } #champion of meereen later
	7393.1.1 = {
		add_trait = trained_warrior
		add_trait = misguided_warrior 
		add_trait = duelist
	}
	7400.1.1 = {
		death = {
			death_reason = death_duel 
			killer = 12300101 
		}
	}
}
130360007 = {
	name="Daznak"
	dynasty=360007
	
	religion="harpy"
	culture="ghiscari"
	
	father=122360007
	mother=222360007
	
	7362.1.1 = {birth="7362.1.1"}
	7388.1.1 = {add_spouse=230360007}
}
131360007 = {
	name="Reznak"
	dynasty=360007
	
	religion="harpy"
	culture="ghiscari"
	
	father=122360007
	mother=222360007
	
	7367.1.1 = {birth="7367.1.1"} #old enough to be crucified, young enough to have no sons
}
132360007 = {
	name="Kezmya" #canon
	dynasty=360007
	female=yes
	dna="ajbgahafaan"
	properties="ck0cak00000"
	religion="harpy"
	culture="ghiscari"
	
	add_trait = proud
	add_trait = fair
	add_trait = fashionable
	
	father=130360007
	mother=230360007
	
	7390.1.1 = {birth="7390.1.1"} 
}
133360007 = {
	name="Selezzqa" #random daughter of zo pahls cause its no fully female house
	dynasty=360007
	female=yes
	
	religion="harpy"
	culture="ghiscari"
	
	father=125360007
	mother=225360007
	
	7375.1.1 = {birth="7375.1.1"}
	7400.1.1 = {
		effect = {
			k_meereen = {
				holder_scope = {
					ROOT = {
						opinion = {
							who = PREVPREV
							modifier = opinion_vengeance
							years = 2400
						}
					}
				}
			}
		}
	}
}
134360007 = {
	name="Ezzara" #random daughter of zo pahls cause its no fully female house
	dynasty=360007
	female=yes
	
	religion="harpy"
	culture="ghiscari"
	
	father=125360007
	mother=225360007
	
	7378.1.1 = {birth="7378.1.1"}
	7400.1.1 = {
		effect = {
			k_meereen = {
				holder_scope = {
					ROOT = {
						opinion = {
							who = PREVPREV
							modifier = opinion_vengeance
							years = 2400
						}
					}
				}
			}
		}
	}
}
135360007 = {
	name="Tezza"	# not a lord #Bitter old women with a taste for blood
	dynasty=360007
	female=yes
	
	religion="harpy"
	culture="ghiscari"

	father=121360007
	mother=221360007

	add_trait=ruthless
	add_trait=familyperson
	add_trait=cruel
	add_trait=envious
	add_trait=proud
	add_trait=wroth 
	
	7334.1.1 = {birth="7334.1.1"}
	7350.1.1 = { add_trait = intricate_webweaver }
	7400.1.1 = { #66 years old during crucification of whole family
		effect = {
			k_meereen = {
				holder_scope = {
					ROOT = {
						opinion = {
							who = PREVPREV
							modifier = opinion_vengeance
							years = 2400
						}
					}
				}
			}
		}
	}
	
}
126360007 = {
	name="Quella"	# not a lord
	female=yes
	dynasty=360007

	religion="harpy"
	culture="ghiscari"

	father=122360007
	mother=222360007

	7355.1.1 = {birth="7355.1.1"}
	7392.1.1 = {death="7392.1.1"}
}
127360007 = {
	name="Hazzea"	# not a lord #Bitter old women with a taste for blood
	female=yes
	dynasty=360007

	religion="harpy"
	culture="ghiscari"

	father=122360007
	mother=222360007

	add_trait=ruthless
	add_trait=cruel
	add_trait=familyperson
	add_trait=proud
	
	7357.1.1 = {birth="7357.1.1"} #43 years. So second in command in zo pahl familly
	7363.1.1 = { add_trait = intricate_webweaver }
	7400.1.1 = {
		effect = {
			k_meereen = {
				holder_scope = {
					ROOT = {
						opinion = {
							who = PREVPREV
							modifier = opinion_vengeance
							years = 2400
						}
					}
				}
			}
		}
	}
}


#### House Zhak

101360016 = {
	name="Hizdahr"
	
	dynasty=360016

	religion="harpy"
	culture="ghiscari"
	
	7310.1.1 = {birth="7310.1.1"}
	7329.1.1 = {add_spouse=201360016}
	7352.1.1 = {death="7352.1.1"}
	
}
201360016 = {
	name="Mezzara"
	female=yes
	
	religion="harpy"
	culture="ghiscari"
	
	7310.1.1 = { birth="7310.1.1"} #meereen is supposed to be filled with crones and grandpas
}
111360016 = {
	name="Azzea"
	female=yes
	
	dynasty=360016
	
	religion="harpy"
	culture="ghiscari"
	
	father=101360016
	mother=201360016
	
	7325.1.1 = { birth="7325.1.1"}
	7381.1.1 = { death="7381.1.1"}
}
102360016 = {
	name="Prendahl"
	
	dynasty=360016
	
	religion="harpy"
	culture="ghiscari"
	
	father=101360016
	mother=201360016
	employer = 101360016
	7332.1.1 = {birth="7332.1.1"}
	7352.1.1 = { employer = 102360016 }
	7354.1.1 = { add_spouse = 104360005 }
}
106360016 = {
	name="Zaraq"
	
	dynasty=360016
	
	father=102360016
	mother=104360005	
	
	religion="harpy"
	culture="ghiscari"
	employer = 102360016
	7356.1.1 = {birth="7356.1.1"}
	
	7380.1.1 = { add_spouse = 103360011 }
}
107360016 = {
	name="Draqaz" #hostage #1
	
	dynasty=360016
	
	father=106360016
	mother= 103360011

	religion="harpy"
	culture="ghiscari"
	employer = 102360016
	7388.1.1 = { birth="7388.1.1" }
	
}
109360016 = {
	name="Haznak"
	
	dynasty=360016
	
	father=102360016
	mother=104360005	
	
	religion="harpy"
	culture="ghiscari"
	employer = 102360016
	7366.1.1 = {birth="7366.1.1"}
	7396.1.1 = { add_spouse = 107360010 }
}
110360016 = {
	name="Marghaz" #the one accused of rape on his bedslave
	
	dynasty=360016
	
	father=102360016
	mother=104360005	
	
	add_trait = lustful 
	
	religion="harpy"
	culture="ghiscari"
	employer = 102360016
	7373.1.1 = {birth="7373.1.1"}
	7400.1.1 = { employer = 109360016 }
}
230360007 = {
	name="Azzea"
	dynasty=360016
	female=yes
	
	religion="harpy"
	culture="ghiscari"
	
	father=102360016
	mother=104360005	
	
	add_trait = fair #so Kezmya may be fair after someone
	
	7374.1.1 = {birth="7374.1.1"}
	7388.1.1 = {add_spouse=130360007}
	7400.1.1 = {
		effect = {
			k_meereen = {
				holder_scope = {
					ROOT = {
						opinion = {
							who = PREVPREV
							modifier = opinion_vengeance
							years = 2400
						}
					}
				}
			}
		}
	}
	
}
199360016 = {
	name = "Tezza"
	female=yes
	
	dynasty=360016
	father=109360016
	mother= 107360010

	religion="harpy"
	culture="ghiscari"
	
	7397.1.1 = { birth="7397.1.1" }
}
103360016 = {
	name="Fendahl"
	
	dynasty=360016
	
	religion="harpy"
	culture="ghiscari"
	
	father=101360016
	mother=201360016
	employer = 101360016
	7343.1.1 = {birth="7343.1.1"}
	
	7352.1.1 = { employer = 102360016 }
	7371.1.1 = { add_spouse = 203360016 }
}
203360016 = {
	name="Sezqa"
	female=yes
	
	religion="harpy"
	culture="ghiscari"
	
	7343.1.1 = {birth="7343.1.1"}
}
104360016 = { #There is supposed to be more than one alive Zhak
	name="Faezdhar"
	
	dynasty=360016
	
	religion="harpy"
	culture="ghiscari"
	
	father=101360016
	mother=201360016
	employer = 102360016 
	7352.1.1 = {birth="7352.1.1"}	
	7380.1.1 = {add_spouse=204360016}
	7400.1.1 = { employer = 109360016 }
}

105360016 = {
	name="Jezhane"
	female=yes
	
	dynasty=360016
	
	religion="harpy"
	culture="ghiscari"
	
	father=104360016
	mother=204360016
	
	7384.1.1 = {birth="7384.1.1"} 
	7398.1.1 = { add_spouse = 106360010 }
}
108360016 = {
	name="Gezzella"
	female=yes
	
	dynasty=360016
	
	religion="harpy"
	culture="ghiscari"
	
	father=104360016
	mother=204360016
	
	7392.1.1 = {birth="7392.1.1"} 
}
#### Merreq house

101360005 = {
	name="Merreq"
	
	dynasty=360005

	religion="harpy"
	culture="ghiscari"
	
	7311.1.1 = { birth="7311.1.1"}
	7344.1.1 = { add_spouse=111360016 }
	7365.1.1 = { death="7365.1.1"}
}
104360005 = {
	name="Jezhane"
	female=yes
	
	dynasty=360005
	
	father=101360005
	mother=111360016
	
	religion="harpy"
	culture="ghiscari"
	
	7340.1.1 = { birth="7340.1.1"}
}
	
102360005 = {
	name="Kraznys"
	
	dynasty=360005
	
	religion="harpy"
	culture="ghiscari"
	
	father=101360005
	mother=111360016
	employer = 101360005
	7345.1.1 = { birth="7345.1.1"}
	
	7359.1.1 = { add_spouse=202360005 }
	7365.1.1 = { employer = 102360005 }
}
202360005 = {
	name="Mellezzara"
	female=yes
	
	religion="harpy"
	culture="ghiscari"
	
	7343.1.1 = { birth="7343.1.1"}
	7392.1.1 = { death="7392.1.1"}
}
228360007 = {
	name="Sezqa" 
	female=yes
	
	dynasty=360005
	
	religion="harpy"
	culture="ghiscari"
	
	father=102360005
	mother=202360005
	
	7360.1.1 = {birth="7360.1.1"}
	7400.1.1 = {
		effect = {
			k_meereen = {
				holder_scope = {
					ROOT = {
						opinion = {
							who = PREVPREV
							modifier = opinion_vengeance
							years = 2400
						}
					}
				}
			}
		}
	}
}
103360005 = {
	name="Yarkhaz"
	dynasty=360005
	
	father=102360005
	mother=202360005
	
	religion="harpy"
	culture="ghiscari"
	employer = 101360005
	7364.1.1 = { birth="7364.1.1"}
	7365.1.1 = { employer = 102360005 }
}
105360005 = {
	name="Yurkhaz"
	dynasty=360005
	
	father=102360005
	mother=202360005
	
	religion="harpy"
	culture="ghiscari"
	employer = 102360005
	
	7374.1.1 = { birth="7374.1.1"}
	7392.1.1 = { add_spouse=105360010 }
	7400.1.1 = { employer = 105360005 }
}
106360005 = {
	name="Mezzara" #little hostage girl #canon 
	dynasty=360005
	female=yes
	
	add_trait=kind
	add_trait=shy
	
	religion="harpy"
	culture="ghiscari"
	
	father=105360005
	mother=105360010

	7393.1.1 = { birth="7393.1.1" }
}
107360005 = {
	name="Ghazdor" #little hostage boy
	dynasty=360005
	
	religion="harpy"
	culture="ghiscari"
	
	father=105360005
	mother=105360010
	employer = 102360005
	7394.1.1 = { birth="7394.1.1" }
}

### House Quazzar

101360010 = {
	name="Paezhar"
	dynasty=360010
	
	religion="harpy"
	culture="ghiscari"
	
	7320.1.1 = { birth="7320.1.1"}
	7350.1.1 = { add_spouse=135360007 }
	7386.1.1 = { death="7386.1.1"}
	
}
102360010 = {
	name="Azzak"
	dynasty=360010
	
	religion="harpy"
	culture="ghiscari"
	
	father=101360010
	mother=135360007
	employer=101360010
	7354.1.1 = { birth="7354.1.1"}
	
	7368.1.1 = { add_spouse=127360007 }	
	7386.1.1 = { employer=102360010 }
}
103360010 = {
	name="Yuznak"
	dynasty=360010
	
	religion="harpy"
	culture="ghiscari"
	
	father=102360010
	mother=127360007
	employer=101360010
	7370.1.1 = { birth="7370.1.1"}
	
	7386.1.1 = { employer=102360010 }
	
	7392.1.1 = { add_spouse = 203360010 }
}
203360010 = {
	name="Hazzea"
	female=yes
	
	religion="harpy"
	culture="ghiscari"
	
	7375.1.1 = { birth="7375.1.1"}
}
104360010 = {
	name="Miklaz" #canon but not specified which family is he member
	
	religion="harpy"
	culture="ghiscari"
	
	add_trait=slothful
	employer=102360010
	7370.1.1 = { birth="7370.1.1"}
	
}
105360010 = {
	name="Tellezzara"
	dynasty=360010
	female = yes
	
	religion="harpy"
	culture="ghiscari"
	
	father=102360010
	mother=127360007

	7373.1.1 = { birth="7373.1.1"}
}
106360010 = {
	name="Bharkaz"
	dynasty=360010
	
	religion="harpy"
	culture="ghiscari"
	
	father=102360010
	mother=127360007
	employer=101360010
	7377.1.1 = { birth="7377.1.1"}
	
	7386.1.1 = { employer=102360010 }
	7400.1.1 = { employer=109360010 }
}	
107360010 = {
	name="Sezza"
	female=yes
	dynasty=360010
	
	religion="harpy"
	culture="ghiscari"
	
	father=102360010
	mother=127360007

	7380.1.1 = { birth="7380.1.1"}
}	
109360010 = {
	name="Morghaz"
	dynasty=360010
	
	religion="harpy"
	culture="ghiscari"
	
	father=102360010
	mother=127360007
	employer=101360010
	7375.1.1 = { birth="7375.1.1"}
	7386.1.1 = { employer=102360010 }
	7394.1.1 = { add_spouse = 133360007 }
	7400.1.1 = { employer=109360010 }
}
108360010 = {
	name="Yezza"
	female=yes
	dynasty=360010
	
	religion="harpy"
	culture="ghiscari"
	
	father=102360010
	mother=127360007
	employer=102360010
	7391.1.1 = { birth="7391.1.1"}
	
}	

### House Hazkar

101360011 = {
	name="Hizdahr"
	dynasty=360011 
	
	religion="harpy"
	culture="ghiscari"
	
	7312.1.1 = { birth="7312.1.1"}
	7340.1.1 = { add_spouse=201360011 }
}
201360011 = {
	name="Mezzara"
	female=yes
	religion="harpy"
	culture="ghiscari"
	
	7323.1.1 = { birth="7323.1.1"}
	7371.1.1 = { death="7371.1.1"}
}
102360011 = {
	name="Fendahl"
	dynasty=360011
	
	religion="harpy"
	culture="ghiscari"
	
	father=101360011
	mother=201360011
	
	employer = 101360011
	
	7342.1.1 = { birth="7342.1.1"}
	7371.1.1 = { add_spouse=202360011 }
}
202360011 = {
	name="Ezzara"
	female=yes
	religion="harpy"
	culture="ghiscari"
	
	7342.1.1 = { birth="7342.1.1"}
}
104360011 = {
	name="Yarkhaz"
	dynasty=360011
	religion="harpy"
	culture="ghiscari"
	
	father=102360011
	mother=202360011
	employer = 101360011
	7372.1.1 = { birth="7372.1.1" }
	
}
105360011 = {
	name="Prendahl"
	dynasty=360011
	religion="harpy"
	culture="ghiscari"
	
	father=102360011
	mother=202360011
	
	employer = 101360011
	7386.1.1 = { birth="7386.1.1" }
	
}
106360011 = {
	name="Ellezzara"
	dynasty=360011
	female=yes
	religion="harpy"
	culture="ghiscari"
	
	father=102360011
	mother=202360011
	employer = 101360011
	7391.1.1 = { birth="7391.1.1" }
}
103360011 = {
	name="Hazzea"
	dynasty=360011
	female=yes
	religion="harpy"
	culture="ghiscari"
	
	father=101360011
	mother=201360011
	
	7359.1.1 = { birth="7359.1.1" }
}
204360016 = {
	name="Galazza"
	female=yes
	dynasty=360011
	father=101360011
	mother=201360011
	
	religion="harpy"
	culture="ghiscari"
	
	7364.1.1 = {birth="7364.1.1"} 
}
### House Rhazdar
101360014 = {
	name="Haznak"
	dynasty=360014
	
	religion="harpy"
	culture="ghiscari"
	
	7345.1.1 = { birth="7345.1.1" }
}
201360014 = {
	name="Azzara"
	female=yes
	dynasty=360030

	father=101360030
	mother=201360030

	religion="harpy"
	culture="ghiscari"
	7361.1.1 = { birth="7361.1.1" }
	7383.1.1 = { add_spouse=101360014 }
}
102360014 = {
	name="Kraznys"
	dynasty=360014
	
	religion="harpy"
	culture="ghiscari"
	
	father=101360014
	mother=201360014
	
	employer=101360014
	7384.1.1 = { birth="7384.1.1" }
}
103360014 = {
	name="Ghazdor"
	dynasty=360014
	
	religion="harpy"
	culture="ghiscari"
	
	father=101360014
	mother=201360014
	
	employer=101360014
	7390.1.1 = { birth="7390.1.1" }
}
104360014 = {
	name="Tezza"
	dynasty=360014
	female=yes
	
	religion="harpy"
	culture="ghiscari"
	
	father=101360014
	mother=201360014
	
	employer=101360014
	7391.1.1 = { birth="7391.1.1" }
}
### House Ghazeen

101360030 = {
	name="Azzak"
	dynasty=360030
	
	religion="harpy"
	culture="ghiscari"
	
	7338.1.1 = { birth="7338.1.1" }
	7360.1.1 = { add_spouse = 201360030 }
}
201360030 = {
	name="Azzea"
	female=yes
	
	religion="harpy"
	culture="ghiscari"
	
	7341.1.1 = { birth="7341.1.1" }
}

102360030 = {
	name="Miklaz"
	dynasty=360030
	
	father=101360030
	mother=201360030
	
	religion="harpy"
	culture="ghiscari"
	
	employer=101360030
	7370.1.1 = { birth="7370.1.1" }
}
202360030 = {
	name="Mezzala"
	dynasty=360006
	female=yes
	
	father=101360006
	mother=201360006
	
	
	religion="harpy"
	culture="ghiscari"
	
	employer=101360030
	7372.1.1 = { birth="7372.1.1" }
	7391.1.1 = { add_spouse=102360030 }
}
103360030 = {
	name="Azzak"
	dynasty=360030
	
	father=102360030
	mother=202360030
	
	religion="harpy"
	culture="ghiscari"
	employer=101360030
	7392.1.1 = { birth="7392.1.1" }
}
### house Yherizan
101360006 = {
	name="Mazdhan"
	dynasty=360006

	religion="harpy"
	culture="ghiscari"
	
	7332.1.1 = { birth="7332.1.1" }
}
201360006 = {
	name="Hazzaara"
	female=yes
	dynasty=360015
	
	religion="harpy"
	culture="ghiscari"
	
	father=101360015
	mother=201360015
	
	7346.1.1 = { birth="7346.1.1" }
	7370.1.1 = { add_spouse=101360006 }
}
102360006 = {
	name="Gezzella"
	female=yes
	dynasty=360006
	
	father=101360006
	mother=201360006
	
	religion="harpy"
	culture="ghiscari"
	employer=101360006
	7373.1.1 = { birth="7373.1.1" }
	7376.1.1 = { death="7376.1.1" }
}
103360006 = {
	name="Grazdhar"
	dynasty=360006
	
	father=101360006
	mother=201360006
	
	religion="harpy"
	culture="ghiscari"
	
	employer=101360006
	7375.1.1 = { birth="7375.1.1" }
}
104360006 = {
	name="Bharkaz"
	dynasty=360006
	
	father=101360006
	mother=201360006
	
	religion="harpy"
	culture="ghiscari"
	employer=101360006
	7377.1.1 = { birth="7377.1.1" }
}
105360006 = {
	name="Haznak"
	dynasty=360006
	
	father=104360006

	add_trait=bastard
	
	religion="harpy"
	culture="ghiscari"
	employer=101360006
	7391.1.1 = { birth="7391.1.1" }
}
106360006 = {
	name="Hizdahr"
	dynasty=360006
	
	father=101360006
	mother=201360006
	
	religion="harpy"
	culture="ghiscari"
	employer=101360006
	7390.1.1 = { birth="7390.1.1" }
}
107360006 = {
	name="Gorzhak"
	dynasty=360006
	
	father=101360006
	mother=201360006
	
	religion="harpy"
	culture="ghiscari"
	employer=101360006
	7385.1.1 = { birth="7385.1.1" }
	7387.1.1 = { death="7387.1.1" }
}
### house Uhlez

101360015 = {
	name="Miklaz"
	dynasty=360015 
	
	religion="harpy"
	culture="ghiscari"
	
	7304.1.1 = { birth="7304.1.1" }
	7381.1.1 = { death="7381.1.1" }
}
201360015 = {
	name="Jezhane"
	female=yes
	
	religion="harpy"
	culture="ghiscari"
	
	7315.1.1 = { birth="7315.1.1" }
	7332.1.1 = { add_spouse=101360015 }
	7372.1.1 = { death="7372.1.1" }
}
102360015 = {
	name="Skahaz"
	dynasty=360015
	
	religion="harpy"
	culture="ghiscari"
	
	father=101360015
	mother=201360015
	
	7335.1.1 = { birth="7335.1.1" }
	7369.1.1 = { add_spouse=102360012 }
}
226360004 = {
	name="Jezhane"
	dynasty=360015
	female=yes
	
	religion="harpy"
	culture="ghiscari"
	
	father=101360015
	mother=201360015
	
	7351.1.1 = { birth="7351.1.1" }
}
103360015 = {
	name="Zaraq"
	dynasty=360015
	
	religion="harpy"
	culture="ghiscari"
	
	father=102360015
	mother=102360012

	7371.1.1 = { birth="7371.1.1"}
}
104360015 = {
	name="Yezza"
	dynasty=360015
	female=yes
	
	religion="harpy"
	culture="ghiscari"
	
	father=103360015
	
	add_trait = bastard
	
	7392.1.1 = { birth="7392.1.1" }
}

### House Dhazak #mentioned ONCE in books. Confirmed at least one child

101360012 = {
	name="Dhazak" #Dhazak zo Dhazak sounds badass
	dynasty=360012 
	
	religion="harpy"
	culture="ghiscari"
	
	7322.1.1 = { birth="7322.1.1" }
}
201360012 = {
	name="Mellezzara"
	female=yes
	
	religion="harpy"
	culture="ghiscari"
	
	7331.1.1 = { birth="7331.1.1" }
	7350.1.1 = { add_spouse=101360012 }
	7391.1.1 = { death="7391.1.1" }
}
102360012 = {
	name="Gezzella"
	dynasty=360012
	female=yes
	
	father=101360012
	mother=201360012
	
	religion="harpy"
	culture="ghiscari"
	
	7352.1.1 = { birth="7352.1.1" }
	7394.1.1 = { death="7394.1.1" }
}
103360012 = {
	name="Mazdhan"
	dynasty=360012
	
	religion="harpy"
	culture="ghiscari"
	
	father=101360012
	mother=201360012
	
	7375.1.1 = { birth="7375.1.1" }
}
104360012 = {
	name="Dhazzar" #canon
	dynasty=360012
	
	religion="harpy"
	culture="ghiscari"
	
	father=101360012
	mother=201360012
	
	7391.1.1 = { birth="7391.1.1" }
}
109360029 = {
	name="Tommen"
	
	dna=bgaffuicgas
	properties=ai0cck000000
	
	religion="moonsingers"
	culture="braavosi"
	
	add_trait=trusting 
	add_trait=gluttonous
	add_trait=slow
	add_trait=proud 
	add_trait=wroth
	
	7379.1.1 = { birth="7379.1.1" }
	7395.1.1 = { add_trait=poor_warrior add_trait=indulgent_wastrel add_trait=depressed give_nickname=nick_the_new_one }
}
####PITFIGHTERS####

101360029 = {
	name="Khrazz" #canon
	
	religion="harpy"
	culture="ghiscari"
	dna="bekdjzlkaav"
	properties="kk0ebk00000"
			
	add_trait=strong
	add_trait=honorable
	add_trait=proud
	add_trait=honest
	
	7377.1.1 = {birth="7377.1.1" add_trait=slave }
	7377.1.1 = { 
		employer=16571013
		add_trait=slave
		effect = {
			b_loraq = {
				holder_scope = {
				ROOT = { move_character = PREV }
				reverse_opinion = { who = ROOT modifier = opinion_my_owner }
				reverse_opinion = { who = ROOT modifier = opinion_loyal_servant }
				opinion = { who = ROOT modifier = opinion_my_slave }
				}
			}
		}
	}
	7377.1.1 = { employer=16571013 } #i dont know if he was in his collection from very beggining but he was meereenese so its possible
	7387.1.1 = { add_trait=trained_warrior add_trait=brave }
	7390.1.1 = { remove_trait=trained_warrior add_trait=skilled_warrior add_trait=duelist }
	7393.1.1 = { add_trait=master_warrior remove_trait=skilled_warrior add_trait=misguided_warrior }
	7400.1.1 = { remove_trait=slave  add_trait=former_slave }
}
102360029 = {
	name="Goghor" #canon
	
	religion="harpy"
	culture="ghiscari"
	
	add_trait=strong
	add_trait=tall
	add_trait=proud
	add_trait=greedy
	
	7373.1.1 = { birth="7373.1.1" }
	7373.1.1 = {
		employer=16571013
		add_trait = slave
		effect = {
			b_loraq = {
				holder_scope = {
				ROOT = { move_character = PREV }
				reverse_opinion = { who = ROOT modifier = opinion_my_owner }
				opinion = { who = ROOT modifier = opinion_my_slave }
				}
			}
		}
	}
	7376.1.1 = { add_trait=poor_warrior }
	7379.1.1 = { remove_trait=poor_warrior add_trait=trained_warrior }
	7389.1.1 = { remove_trait=trained_warrior add_trait=skilled_warrior add_trait=misguided_warrior give_nickname=nick_the_giant add_trait=scarred } #to ensure that they have martial education
	7398.1.1 = { employer=16571013 }
	7400.1.1 = { remove_trait=slave  add_trait=former_slave }
}
103360029 = {
	name="Barsena" #canon
	female=yes
	
	dna="bldlgzffgfd"
	properties="cl0chk00000"
	
	add_trait=strong
	add_trait=brave
	
	religion="harpy"
	culture="qohorik"
	
	7370.1.1 = { birth="7370.1.1" }
	7370.1.1 = { effect = { culture="ghiscari" } }
	7370.1.1 = { 
		employer=16571013
		add_trait = slave
		add_trait = scarred
		effect = {
			b_loraq = {
				holder_scope = {
				ROOT = { move_character = PREV }
				reverse_opinion = { who = ROOT modifier = opinion_my_owner }
				opinion = { who = ROOT modifier = opinion_my_slave }
				}
			}
		}
	}
	7386.1.1 = { add_trait=skilled_warrior add_trait=misguided_warrior give_nickname=nick_blackhair } #ensure that she have martial education and not steward or diplomate
	7395.1.1 = { remove_trait=skilled_warrior add_trait=master_warrior }
	7398.1.1 = { employer=16571013 }
	7400.1.1 = { remove_trait=slave  add_trait=former_slave }
}
104360029 = {
	name="Camarron" #canon
	
	religion="harpy"
	culture="ghiscari"
	
	add_trait=deceitful
	add_trait=brave
	
	7375.1.1 = { birth="7375.1.1" }
	7375.1.1 = { 
		employer=16571013
		add_trait = slave
		effect = {
			b_loraq = {
				holder_scope = {
				ROOT = { move_character = PREV }
				reverse_opinion = { who = ROOT modifier = opinion_my_owner }
				opinion = { who = ROOT modifier = opinion_my_slave }
				}
			}
		}
	}
	7387.1.1 = { add_trait = trained_warrior give_nickname=nick_of_the_count }
	7391.1.1 = { remove_trait = trained_warrior add_trait = skilled_warrior add_trait = flamboyant_schemer } #he had plan to attack yunkaii from rear with stealing some boats...
	7398.1.1 = { employer=16571013 }
	7400.1.1 = { remove_trait=slave  add_trait=former_slave }
}
105360029 = {
	name="Ghazdor" #canon but name is uncanon
	
	religion="rhllor"
	culture="volantene" #tigers and other wild cats...
	
	add_trait=cruel
	add_trait=ruthless
	add_trait=brave
	
	7369.1.1 = { birth="7369.1.1" }
	7381.1.1 = { 
		employer=16571013
		add_trait = trained_warrior
		add_trait = slave
		effect = {
			religion="harpy"
			b_loraq = {
				holder_scope = {
				ROOT = { move_character = PREV }
				reverse_opinion = { who = ROOT modifier = opinion_my_owner }
				opinion = { who = ROOT modifier = opinion_my_slave }
				}
			}
		}
	}
	7385.1.1 = {
		remove_trait = trained_warrior
		add_trait = master_warrior
		give_nickname=nick_the_spotted_cat
	}
	7398.1.1 = { employer=16571013 }
	7400.1.1 = { remove_trait=slave  add_trait=former_slave }
}
106360029 = {
	name="Ithoke" #canon
	
	religion="lion_night" #not canon but Ithoke sounds so weird that i put him here
	culture="lengi"
	
	add_trait=brave
	
	7380.1.1 = { birth="7380.1.1" }
	7386.1.1 = {
		employer=16571013
		add_trait = trained_warrior
		add_trait = slave
		effect = {
			religion="harpy"
			b_loraq = {
				holder_scope = {
				ROOT = { move_character = PREV }
				reverse_opinion = { who = ROOT modifier = opinion_my_owner }
				opinion = { who = ROOT modifier = opinion_my_slave }
				}
			}
		}
	}
	7396.1.1 = {
		remove_trait = trained_warrior
		add_trait = skilled_warrior
		give_nickname=nick_the_fearless
	}
	7398.1.1 = { employer=16571013 }
	7400.1.1 = { remove_trait=slave  add_trait=former_slave }
}
107360029 = {
	name="Belaquo"
	
	dna="bcffhykbgbg"
	properties="cc0dik00000"
	
	religion="moonsingers"
	culture="braavosi"
	
	add_trait=strong
	add_trait=ruthless 
	
	7373.1.1 = { birth="7373.1.1" }
	7386.1.1 = {
		employer=16571013
		add_trait = trained_warrior
		add_trait = slave
		effect = {
			religion="harpy"
			b_loraq = {
				holder_scope = {
				ROOT = { move_character = PREV }
				reverse_opinion = { who = ROOT modifier = opinion_my_owner }
				opinion = { who = ROOT modifier = opinion_my_slave }
				}
			}
		}
	}
	7389.1.1 = {
		remove_trait = trained_warrior
		add_trait = master_warrior
		add_trait = duelist
		give_nickname=nick_bonebreaker
	}
	7398.1.1 = { employer=16571013 }
	7400.1.1 = { remove_trait=slave  add_trait=former_slave }
}
108360029 = {
	name="Vargo" #canon but name is uncanon. He was known as Steelskin
	
	religion="bearded_priests"
	culture="norvosi" #used longaxe... not so hard proof but they cant be all meereenese
	
	add_trait=tall
	
	7382.1.1 = { birth="7382.1.1" }
	7384.1.1 = {
		employer=16571013
		add_trait = slave
		effect = {
			culture="ghiscari"
			religion="harpy"
			b_loraq = {
				holder_scope = {
				ROOT = { move_character = PREV }
				reverse_opinion = { who = ROOT modifier = opinion_my_owner }
				reverse_opinion = { who = ROOT modifier = opinion_loyal_servant }
				opinion = { who = ROOT modifier = opinion_my_slave }
				}
			}
		}
	}
	7388.1.1 = {
		add_trait = trained_warrior
	}
	7398.1.1 = {
		remove_trait = trained_warrior
		add_trait = skilled_warrior
		add_trait = scarred
		give_nickname=nick_the_steelskin
	}
	7398.1.1 = { employer=16571013 }
	7400.1.1 = { remove_trait=slave  add_trait=former_slave }
}

	
