########################################
###Written by Ogaburan aka Ran Miller###
########################################

#################################
#########Misc Traits#############
namespace = misc_traits
#################################

############################
######Childhood Events######
############################
###Fashionable
#misc_traits.1 - Child likes dresses. (Fashionable)
#misc_traits.2 - My ward likes dresses. (Fashionable)
#misc_traits.3 - Child notification. (Got fashionable)
#misc_traits.4 - Child notification. (Didnt get fashionable)
###Authoritative
#misc_traits.5 - Child is authoritative. (Authoritative)
#misc_traits.6 - Child is being bossy. (Authoritative)
#misc_traits.7 - Child notification. (Got Authoritative)
#misc_traits.8 - Child notification. (Didnt get Authoritative)
###Rude
#misc_traits.9 - Child is rude. (Rude)
#misc_traits.10 - My ward is rude. (Rude)
#misc_traits.11 - Child notification. (Got rude)
#misc_traits.12 - Child notification. (Didnt get rude)
###Family Person
#misc_traits.13 - Children Napotism. (familyperson)
#misc_traits.14 - My ward likes nepotism. (familyperson)
#misc_traits.15 - Child notification. (Got familyperson)
#misc_traits.16 - Child notification. (Didnt get familyperson)
###Selfish
#misc_traits.17 - Child being selfish. (selfish)
#misc_traits.18 - My ward is selfish. (selfish)
#misc_traits.19 - Child notification. (Got selfish)
#misc_traits.20 - Child notification. (Didnt get selfish)
###Stubborn
#misc_traits.21 - Child is stubborn. (stubborn)
#misc_traits.22 - My ward is being stubborn. (stubborn)
#misc_traits.23 - Child notification. (Got stubborn)
#misc_traits.24 - Child notification. (Didnt get stubborn)

###	Ruthless/Honorable Choices
##	Ward Acting Ruthless
#misc_traits.25	Child Acting Ruthless - Inform Child
#misc_traits.26	Child Acting Ruthless - Inform Guardian
#misc_traits.27	Child Is Ruthless - Inform Child
#misc_traits.28	Child Is Not Ruthless - Inform Child
##	Ward Acting Honorable
#misc_traits.29	Child Acting Honorable - Inform Child
#misc_traits.30	Child Acting Honorable - Inform Guardian
#misc_traits.31	Child Is Honorable - Inform Child
#misc_traits.32	Child Is Not Honorable - Inform Child

###########################
######Mid-Life Events######
###########################
#on_five_year_pulse (10) <---I DONT KNOW IF THIS IS BALANCED might be too rare... needs testing!
###Fashionable
#misc_traits.33 - People are mocking the way you dress. (Fashionable)
#misc_traits.34 - Marhsal has new ideas, that contradicts your orders. (Authoritative)

#################################

#misc_traits.1 - Child likes dresses. (Fashionable)
#on_yearly_childhood_pulse (20)
character_event = {
	id = misc_traits.1
	desc = "EVTDESCmisc_traits.1"
	picture = "GFX_fashion"

	is_triggered_only = yes
	
	option = {
		name = "EVTOPTAmisc_traits.1"
		educator = {
			character_event = {
				id = misc_traits.2
				tooltip = "EVTOOLTIPmisc_traits.1" #Guardian will descide.
			}
		}
	}
}

#misc_traits.2 - My ward likes dresses. (Fashionable)
character_event = {
	id = misc_traits.2
	desc = "EVTDESCmisc_traits.2"
	picture = "GFX_fashion"
	
	is_triggered_only = yes
	
	option = {
		name = "EVTOPTAmisc_traits.2" #Encourage him.	
		ai_chance = {
			factor = 1
			modifier = {
				factor = 5
				has_fashionable_groomed_trigger = yes
			}
			modifier = {
				factor = 2
				trait = lustful
			}
			modifier = {
				factor = 2
				trait = poet
			}
			modifier = {
				factor = 2
				trait = gregarious
			}
			modifier = {
				factor = 2
				trait = kind
			}
			modifier = {
				factor = 2
				trait = patient
			}
		}	
		if = {
			limit = {
				OR = {
					trait = gregarious
					trait = lustful
					trait = poet
					has_fashionable_groomed_trigger = yes
					trait = hedonist
				}
			}
			random_list = {
				50 = { change_diplomacy = 1 }
				50 = { }
			}
		}
		FROM ={
			add_fashionable_groomed_effect = yes
			hidden_tooltip = {		
				character_event = {
					id = misc_traits.3
					tooltip = "EVTOOLTIPmisc_traits.3" #Ward gets fashionable.
				}
			}
		}
	}
	
	option = {
		name = "EVTOPTBmisc_traits.2" #Tell him to stop it!
		ai_chance = {
			factor = 1
			modifier = {
				factor = 5
				trait = uncouth
			}		
			modifier = {
				factor = 2
				trait = zealous
			}
			modifier = {
				factor = 2
				trait = chaste
			}
			modifier = {
				factor = 2
				trait = shy
			}
			modifier = {
				factor = 2
				trait = wroth
			}
			modifier = {
				factor = 2
				trait = celibate
			}
			modifier = {
				factor = 2
				trait = cruel
			}
		}
		FROM ={
			character_event = {
				id = misc_traits.4
				tooltip = "EVTOOLTIPmisc_traits.4" #Ward no gets fashionable.
			}
		}
	}
}

#misc_traits.3 - Child notification. (Got fashionable)
character_event = {
	id = misc_traits.3
	desc = "EVTDESCmisc_traits.3"
	picture = "GFX_sansa"
	
	is_triggered_only = yes
	
	option = {
		name = "OK"
		add_fashionable_groomed_effect = yes
	}
}

#misc_traits.4 - Child notification. (Didnt get fashionable)
character_event = {
	id = misc_traits.4
	desc = "EVTDESCmisc_traits.4"
	picture = "GFX_sad_aria"
	
	is_triggered_only = yes
	
	option = {name = "OK"}
}

#misc_traits.5 - Child is authoritative. (Authoritative)
#on_yearly_childhood_pulse (20)
character_event = {
	id = misc_traits.5
	desc = "EVTDESCmisc_traits.5"
	picture = "GFX_evt_child_talking"
	
	is_triggered_only = yes
	
	option = {
		name = "EVTOPTAmisc_traits.1"
		educator = {
			character_event = {
				id = misc_traits.6
				tooltip = "EVTOOLTIPmisc_traits.1" #Guardian will descide.
			}
		}
	}
}

#misc_traits.6 - Child is being bossy. (Authoritative)
character_event = {
	id = misc_traits.6
	desc = "EVTDESCmisc_traits.6"
	picture = "GFX_evt_child_talking"
	
	is_triggered_only = yes
	
	option = {
		name = "EVTOPTAmisc_traits.6" #Encourage.	
		ai_chance = {
			factor = 1
			modifier = {
				factor = 5
				trait = authoritative
			}
			modifier = {
				factor = 2
				trait = gregarious
			}
			modifier = {
				factor = 2
				trait = kind
			}
			modifier = {
				factor = 2
				trait = patient
			}
			modifier = {
				factor = 2
				trait = humble
			}
			modifier = {
				factor = 2
				trait = diligent
			}
			modifier = {
				factor = 2
				trait = honorable
			}
		}	
		FROM ={
			add_trait = authoritative
			hidden_tooltip = {
				character_event = {
					id = misc_traits.7
					tooltip = "EVTOOLTIPmisc_traits.7"
				}
			}	
		}
		random_list = {
			20 = {
				FROM = { 
					if = {
						limit = {
							NOT = { trait = wroth }
							NOT = { trait = patient }
						}
						add_trait = wroth 
						hidden_tooltip = {
							ROOT = { 
								character_event = {
									id = 38154
								}
							} 
							character_event = {
								id = 38254
							}
						}
					}	
					if = {
						limit = { trait = patient }
						remove_trait = patient
					}
				} 
			}
			20 = { 
				FROM = { 
					if = {
						limit = {
							NOT = { trait = proud }
							NOT = { trait = humble }
						}
						add_trait = proud 
						hidden_tooltip = {
							ROOT = { 
								character_event = {
									id = 38161
								}
							} 
							character_event = {
								id = 38261
							}
						}
					}
					if = {
						limit = { trait = humble }
						remove_trait = humble
					}					
				} 
			}
			60 = { }
		}
	}
	
	option = {
		name = "EVTOPTBmisc_traits.6" #Better not talk to me in that tone! (slap)
		ai_chance = {
			factor = 1
			modifier = {
				factor = 3
				trait = cruel
			}
			modifier = {
				factor = 3
				trait = wroth
			}
			modifier = {
				factor = 2
				trait = proud
			}
			modifier = {
				factor = 2
				trait = lunatic
			}
			modifier = {
				factor = 2
				trait = arbitrary
			}
		}
		FROM ={
			character_event = {
				id = misc_traits.8
				tooltip = "EVTOOLTIPmisc_traits.8" 
			}
			opinion = {
				modifier = opinion_angry
				who = ROOT
				years = 5
			}		
		}
		random_list = {
			20 = { 
				FROM = { 
					if = {
						limit = {
							NOT = { trait = shy }
							NOT = { trait = gregarious }
						}
						add_trait = shy
						hidden_tooltip = {
							ROOT = { 
								character_event = {
									id = 38263
								}
							} 
							character_event = {
								id = 38163
							}
						}
					}
					if = {
						limit = { trait = gregarious }
						remove_trait = gregarious
					}					
				} 
			}
			20 = { 
				FROM = { 
					if = {
						limit = {
							NOT = { trait = humble }
							NOT = { trait = proud }
						}
						add_trait = humble
						hidden_tooltip = {
							ROOT = { 
								character_event = {
									id = 38260
								}
							} 
							character_event = {
								id = 38160
							}
						}
					}	
					if = {
						limit = { trait = proud }
						remove_trait = proud
					}
				} 
			}
			60 = { }
		}
	}
}

#misc_traits.7 - Child notification. (Got Authoritative)
character_event = {
	id = misc_traits.7
	desc = "EVTDESCmisc_traits.7"
	picture = "GFX_oil_rik"
	
	is_triggered_only = yes
	
	option = {
		name = "OK"
		add_trait = authoritative
	}
}

#misc_traits.8 - Child notification. (Didnt get Authoritative)
character_event = {
	id = misc_traits.8
	desc = "EVTDESCmisc_traits.8"
	picture = "GFX_sad_aria"
	
	is_triggered_only = yes
	
	option = {name = "OK"}
}

#misc_traits.9 - Child is rude. (Rude)
#on_yearly_childhood_pulse (10)
character_event = {
	id = misc_traits.9
	desc = "EVTDESCmisc_traits.9"
	picture = "GFX_rude"
	
	is_triggered_only = yes
	
	option = {
		name = "EVTOPTAmisc_traits.1"
		educator = {
			character_event = {
				id = misc_traits.10
				tooltip = "EVTOOLTIPmisc_traits.1" #Guardian will descide.
			}
		}
	}
}

#misc_traits.10 - My ward is rude. (Rude)
character_event = {
	id = misc_traits.10
	desc = "EVTDESCmisc_traits.10"
	picture = "GFX_rude"
	
	is_triggered_only = yes
	
	option = {
		name = "EVTOPTAmisc_traits.10" #Yes	
		ai_chance = {
			factor = 1
			modifier = {
				factor = 5
				trait = rude
			}
			modifier = {
				factor = 2
				trait = cruel
			}
			modifier = {
				factor = 2
				trait = cynical
			}
			modifier = {
				factor = 2
				trait = arbitrary
			}
			modifier = {
				factor = 2
				trait = ruthless
			}
			modifier = {
				factor = 2
				trait = lunatic
			}
			modifier = {
				factor = 2
				trait = proud
			}
			modifier = {
				factor = 2
				trait = envious
			}
			modifier = {
				factor = 2
				trait = slothful
			}
		}
		FROM ={
			add_trait = rude
			hidden_tooltip = {
				character_event = {
					id = misc_traits.11
					tooltip = "EVTOOLTIPmisc_traits.11" #Ward gets rude.
				}
			}	
			opinion = {
				modifier = opinion_approves
				who = ROOT
				years = 5
			}
		}	
	}
	
	option = {
		name = "EVTOPTBmisc_traits.10" #Tell him to stop it! He is embarassing me!
		ai_chance = {
			factor = 1
			modifier = {
				factor = 2
				trait = kind
			}
			modifier = {
				factor = 2
				trait = zealous
			}
			modifier = {
				factor = 2
				trait = just
			}
			modifier = {
				factor = 2
				trait = honorable
			}
			modifier = {
				factor = 2
				trait = humble
			}
			modifier = {
				factor = 2
				trait = content
			}
			modifier = {
				factor = 2
				trait = diligent
			}
		}
		random_list = {
			40 = { }
			20 = { 
				FROM = { 
					if = {
						limit = {
							NOT = { trait = wroth }
							NOT = { trait = patient }
						}
						add_trait = wroth 
						hidden_tooltip = {
							ROOT = { 
								character_event = {
									id = 38254
								}
							} 
							character_event = {
								id = 38154
							}
						}
					}	
					if = {
						limit = { trait = patient }
						remove_trait = patient
					}
				}
			}
			40 = {
				FROM = {
					add_trait = rude	
					hidden_tooltip = {
						ROOT = { 
							character_event = {
								id = trait_notification.13
							}
						} 
						character_event = {
							id = trait_notification.204
						}
					}					
				}
			}
		}		
		FROM ={
			opinion = {
				modifier = opinion_disapprove
				who = ROOT
				years = 5
			}
			hidden_tooltip = { character_event = { id = misc_traits.12 } }
		}
	}
}

#misc_traits.11 - Child notification. (Got rude)
character_event = {
	id = misc_traits.11
	desc = "EVTDESCmisc_traits.11"
	picture = "GFX_rude"
	
	is_triggered_only = yes
	
	option = {
		name = "OK"
		add_trait = rude
		reverse_opinion = {
			modifier = opinion_approves
			who = FROM
			years = 5
		}
	}
}

#misc_traits.12 - Child notification. (Didnt get rude)
character_event = {
	id = misc_traits.12
	desc = "EVTDESCmisc_traits.12"
	picture = "GFX_rude"
	
	is_triggered_only = yes
	
	option = {
		name = "OK"
		reverse_opinion = {
			modifier = opinion_embarrassed
			who = FROM
			years = 5
		}
	}
}

#misc_traits.13 - Children Napotism. (familyperson)
#on_yearly_childhood_pulse (20)
character_event = {
	id = misc_traits.13
	desc = "EVTDESCmisc_traits.13"
	picture = "GFX_evt_child_bully"
	
	is_triggered_only = yes
	
	option = {
		name = "EVTOPTAmisc_traits.1"
		educator = {
			character_event = {
				id = misc_traits.14
				tooltip = "EVTOOLTIPmisc_traits.1" #Guardian will descide.
			}
		}
	}
}

#misc_traits.14 - My ward likes nepotism. (familyperson)
character_event = {
	id = misc_traits.14
	desc = "EVTDESCmisc_traits.14"
	picture = "GFX_evt_child_bully"
	
	is_triggered_only = yes
	
	option = {
		name = "EVTOPTAmisc_traits.14" #Encourage him.	
		ai_chance = {
			factor = 1
			modifier = {
				factor = 5
				trait = familyperson
			}
			modifier = {
				factor = 2
				trait = cruel
			}
			modifier = {
				factor = 2
				trait = ambitious
			}
			modifier = {
				factor = 2
				trait = arbitrary
			}
			modifier = {
				factor = 2
				trait = ruthless
			}
			modifier = {
				factor = 2
				trait = lunatic
			}
			modifier = {
				factor = 2
				trait = proud
			}
			modifier = {
				factor = 2
				trait = envious
			}
		}
		
		FROM ={
			add_trait = familyperson
			hidden_tooltip = {
				character_event = {
					id = misc_traits.15
					tooltip = "EVTOOLTIPmisc_traits.15" #Ward gets familyperson.
				}
			}	
		}
	}
	
	option = {
		name = "EVTOPTBmisc_traits.14" #Tell him to stop it!
		ai_chance = {
			factor = 1
			modifier = {
				factor = 2
				trait = kind
			}
			modifier = {
				factor = 2
				trait = humble
			}
			modifier = {
				factor = 2
				trait = charitable
			}
			modifier = {
				factor = 2
				trait = content
			}
			modifier = {
				factor = 2
				trait = honorable
			}
		}
		FROM ={
			character_event = {
				id = misc_traits.16
				tooltip = "EVTOOLTIPmisc_traits.16" #Ward no gets familyperson.
			}
		}
		random_list = {
			25 = { 
				FROM = {
					if = {
						limit = {
							NOT = { trait = charitable  }
							NOT = { trait = greedy }
						}
						add_trait = charitable 
						hidden_tooltip = {
							ROOT = { 
								character_event = {
									id = 38173
								}
							} 
							character_event = {
								id = 38273
							}
						}
					}
					if = {
						limit = { trait = greedy }
						remove_trait = greedy
					}					
				} 
			}
			25 = { 
				FROM = { 
					if = {
						limit = {
							NOT = { trait = humble }
							NOT = { trait = proud }
						}
						add_trait = humble
						hidden_tooltip = {
							ROOT = { 
								character_event = {
									id = 38260
								}
							} 
							character_event = {
								id = 38160 
							}
						}
					}
					if = {
						limit = { trait = proud }
						remove_trait = proud
					}					
				} 
			}
			25 = { }
		}
	}
}

#misc_traits.15 - Child notification. (Got familyperson)
character_event = {
	id = misc_traits.15
	desc = "EVTDESCmisc_traits.15"
	picture = "GFX_evt_child_bully"
	
	is_triggered_only = yes
	
	option = {
		name = "OK"
		add_trait = familyperson
	}
}

#misc_traits.16 - Child notification. (Didnt get familyperson)
character_event = {
	id = misc_traits.16
	desc = "EVTDESCmisc_traits.16"
	picture = "GFX_evt_child_bully"
	
	is_triggered_only = yes
	
	option = {name = "OK"}
}

#misc_traits.17 - Child being selfish. (Selfish)
#on_yearly_childhood_pulse (20)
character_event = {
	id = misc_traits.17
	desc = "EVTDESC420016"
	picture = "GFX_selfish"
	
	is_triggered_only = yes
		
	option = {
		name = "EVTOPTAmisc_traits.1"
		educator = {
			character_event = {
				id = misc_traits.18
				tooltip = "EVTOOLTIPmisc_traits.1" #Guardian will descide.
			}
		}
	}
}

#misc_traits.18 - My ward is selfish. (selfish)
character_event = {
	id = misc_traits.18
	desc = "EVTDESCmisc_traits.18"
	picture = "GFX_selfish"
	
	is_triggered_only = yes
	
	option = {
		name = "EVTOPTAmisc_traits.18" #Encourage him.
		ai_chance = {
			factor = 1
			modifier = {
				factor = 5
				trait = selfish
			}
			modifier = {
				factor = 2
				trait = slothful
			}
			modifier = {
				factor = 2
				trait = arbitrary
			}
			modifier = {
				factor = 2
				trait = cruel
			}
			modifier = {
				factor = 2
				trait = lunatic
			}
			modifier = {
				factor = 2
				trait = proud
			}
			modifier = {
				factor = 2
				trait = greedy
			}
			modifier = {
				factor = 2
				trait = rude
			}
		}
		FROM ={
			add_trait = selfish
			opinion = {
				modifier = opinion_approves
				who = ROOT
				years = 5
			}
			hidden_tooltip = {
				character_event = {
					id = misc_traits.19
					tooltip = "EVTOOLTIPmisc_traits.19" #Ward gets fashionable.
				}
			}	
		}
	}
	
	option = {
		name = "EVTOPTBmisc_traits.18" #Tell him to stop it!
		ai_chance = {
			factor = 1
			modifier = {
				factor = 2
				trait = familyperson
			}
			modifier = {
				factor = 2
				trait = just
			}
			modifier = {
				factor = 2
				trait = kind
			}
			modifier = {
				factor = 2
				trait = charitable
			}
			modifier = {
				factor = 2
				trait = honorable
			}
			modifier = {
				factor = 2
				trait = humble
			}
		}
		FROM ={
			character_event = {
				id = misc_traits.20
				tooltip = "EVTOOLTIPmisc_traits.20" #Ward no gets selfish
			}
			opinion = {
				modifier = opinion_disapprove
				who = ROOT
				years = 5
			}
		}
	}
}

#misc_traits.19 - Child notification. (Got selfish)
character_event = {
	id = misc_traits.19
	desc = "EVTDESCmisc_traits.19"
	picture = "GFX_selfish"
	
	is_triggered_only = yes
	
	option = {
		name = "OK"
		add_trait = selfish
	}
}

#misc_traits.20 - Child notification. (Didnt get selfish)
character_event = {
	id = misc_traits.20
	desc = "EVTDESCmisc_traits.16"
	picture = "GFX_selfish"
	
	is_triggered_only = yes
	
	option = {name = "OK"}
}

#misc_traits.21 - Child is stubborn. (stubborn)
#on_yearly_childhood_pulse (20)
character_event = {
	id = misc_traits.21
	desc = "EVTDESCmisc_traits.21"
	picture = "GFX_oil_rik"
	
	is_triggered_only = yes

	option = {
		name = "EVTOPTAmisc_traits.1"
		educator = {
			character_event = {
				id = misc_traits.22
				tooltip = "EVTOOLTIPmisc_traits.1" #Guardian will descide.
			}
		}
	}
}

#misc_traits.22 - My ward is being stubborn. (stubborn)
character_event = {
	id = misc_traits.22
	desc = "EVTDESCmisc_traits.22"
	picture = "GFX_oil_rik"
	
	is_triggered_only = yes
	
	option = {
		name = "EVTOPTAmisc_traits.22" #Encourage him.	
		ai_chance = {
			factor = 1
			modifier = {
				factor = 5
				trait = stubborn
			}
			modifier = {
				factor = 2
				trait = slothful
			}
			modifier = {
				factor = 2
				trait = arbitrary
			}
			modifier = {
				factor = 2
				trait = wroth
			}
			modifier = {
				factor = 2
				trait = proud
			}
			modifier = {
				factor = 2
				trait = ambitious
			}
			modifier = {
				factor = 2
				trait = rude
			}
		}		
		FROM ={
			add_trait = stubborn
			opinion = {
				modifier = opinion_approves
				who = ROOT
				years = 5
			}
			hidden_tooltip = {
				character_event = {
					id = misc_traits.23
					tooltip = "EVTOOLTIPmisc_traits.23"
				}
			}	
		}
	}
	
	option = {
		name = "EVTOPTBmisc_traits.22" #Tell him to stop it!
		ai_chance = {
			factor = 1
			modifier = {
				factor = 2
				trait = diligent
			}
			modifier = {
				factor = 2
				trait = just
			}
			modifier = {
				factor = 2
				trait = patient
			}
			modifier = {
				factor = 2
				trait = humble
			}
			modifier = {
				factor = 2
				trait = content
			}
			modifier = {
				factor = 2
				trait = gregarious
			}
		}
		FROM ={
			opinion = {
				modifier = opinion_disapprove
				who = ROOT
				years = 5
			}
			character_event = {
				id = misc_traits.24
				tooltip = "EVTOOLTIPmisc_traits.20"
			}
		}
	}
}

#misc_traits.23 - Child notification. (Got stubborn)
character_event = {
	id = misc_traits.23
	desc = "EVTDESCmisc_traits.23"
	picture = "GFX_oil_rik"
	
	is_triggered_only = yes
	
	option = {
		name = "OK"
		add_trait = stubborn
	}
}

#misc_traits.24 - Child notification. (Didnt get stubborn)
character_event = {
	id = misc_traits.24
	desc = "EVTDESCmisc_traits.24"
	picture = "GFX_oil_rik"
	
	is_triggered_only = yes
	
	option = {name = "OK"}
}

# Ruthless
character_event = {
	id = misc_traits.25
	desc = "EVTDESCmisc_traits.25"
	picture = GFX_evt_child_bully
	
	is_triggered_only = yes
	
	option = {
		name = "EVTOPTAmisc_traits.25"
		educator = { character_event = { id = misc_traits.26 tooltip = "EVTTOOLTIPmisc_traits.26" } }
	}
}

character_event = {
	id = misc_traits.26
	desc = "EVTDESCmisc_traits.26"
	picture = GFX_evt_child_bully
	is_triggered_only = yes
	
	option = {
		name = "EVTOPTAmisc_traits.26"
		FROM = {
			add_trait = ruthless
			hidden_tooltip = { character_event = { id = misc_traits.27 } }
		}
		ai_chance = {
			factor = 100
			modifier = {
				factor = 0
				trait = honorable
			}
			modifier = {
				factor = 2
				trait = ambitious
			}
			modifier = {
				factor = 2
				trait = proud
			}
			modifier = {
				factor = 1.5
				trait = cruel
			}
		}
	}
	
	option = {
		name = "EVTOPTBmisc_traits.26"
		FROM = {
			if = {
				limit = { opinion = { who = ROOT value = 0 } }
				random_list = {
					20 = { 
						add_trait = ruthless 
						hidden_tooltip = {
							ROOT = { 
								character_event = {
									id = trait_notification.201
								}
							} 
							character_event = {
								id = misc_traits.27
							}
						}
					}
					60 = { }
					20 = { 
						add_trait = honorable
						hidden_tooltip = {
							ROOT = { 
								character_event = {
									id = trait_notification.202
								}
							} 
							character_event = {
								id = trait_notification.8
							}
						}
					}
				}
			}
			if = {
				limit = { NOT = { opinion = { who = ROOT value = 0 } } }
				random_list = {
					40 = { 
						add_trait = ruthless 
						hidden_tooltip = {
							ROOT = { 
								character_event = {
									id = trait_notification.201
								}
							} 
							character_event = {
								id = misc_traits.27
							}
						}
					}
					60 = { }
				}
			}
			#hidden_tooltip = { character_event = { id = misc_traits.28 } }
		}
		ai_chance = {
			factor = 100
			modifier = {
				factor = 0
				trait = ruthless
			}
			modifier = {
				factor = 2
				trait = kind
			}
			modifier = {
				factor = 2
				trait = just
			}
			modifier = {
				factor = 2
				trait = humble
			}
		}
	}
}

character_event = {
	id = misc_traits.27
	desc = "EVTDESCmisc_traits.27"
	picture = GFX_evt_child_bully
	is_triggered_only = yes
	
	immediate = { remove_trait = ruthless }
	
	option = {
		name = "EVTOPTAmisc_traits.27"
		add_trait = ruthless
	}
}

# character_event = {
	# id = misc_traits.28
	# desc = "EVTDESCmisc_traits.28"
	# picture = GFX_evt_child_sword
	# is_triggered_only = yes
	
	# immediate = {
		# remove_trait = ruthless
		# remove_trait = honorable
	# }
	
	# option = {
		# name = "EVTOPTAmisc_traits.28"
		# if = {
			# limit = { opinion = { who = FROM value = 0 } }
			# random_list = {
				# 20 = { add_trait = ruthless }
				# 60 = { }
				# 20 = { add_trait = honorable }
			# }
		# }
		# if = {
			# limit = { NOT = { opinion = { who = FROM value = 0 } } }
			# random_list = {
				# 40 = { add_trait = ruthless }
				# 60 = { }
			# }
		# }
	# }
# }

character_event = {
	id = misc_traits.29
	desc = "EVTDESCmisc_traits.29"
	picture = GFX_evt_child_sword
	
	is_triggered_only = yes

	option = {
		name = "EVTOPTAmisc_traits.29"
		educator = { character_event = { id = misc_traits.30 tooltip = "EVTTOOLTIPmisc_traits.30" } }
	}
}

character_event = {
	id = misc_traits.30
	desc = "EVTDESCmisc_traits.30"
	picture = GFX_evt_child_sword
	
	is_triggered_only = yes
	
	option = {
		name = "EVTOPTAmisc_traits.30"
		ai_chance = {
			factor = 100
			modifier = {
				factor = 0
				trait = ruthless
			}
			modifier = {
				factor = 2
				trait = kind
			}
			modifier = {
				factor = 2
				trait = just
			}
			modifier = {
				factor = 2
				trait = humble
			}
		}
		FROM = {
			add_trait = honorable
			hidden_tooltip = { character_event = { id = trait_notification.8 } }
		}
	}
	
	option = {
		name = "EVTOPTBmisc_traits.30"
		ai_chance = {
			factor = 100
			modifier = {
				factor = 0
				trait = honorable
			}
			modifier = {
				factor = 2
				trait = ambitious
			}
			modifier = {
				factor = 2
				trait = proud
			}
			modifier = {
				factor = 1.5
				trait = cruel
			}
		}
		FROM = {
			if = {
				limit = { opinion = { who = ROOT value = 0 } }
				random_list = {
					20 = { 
						add_trait = honorable
						hidden_tooltip = {
							ROOT = { 
								character_event = {
									id = trait_notification.202
								}
							} 
							character_event = {
								id = trait_notification.8
							}
						}
					}
					60 = { }
					20 = { 
						add_trait = ruthless 
						hidden_tooltip = {
							ROOT = { 
								character_event = {
									id = trait_notification.201
								}
							} 
							character_event = {
								id = misc_traits.27
							}
						}
					}
				}
			}
			if = {
				limit = { NOT = { opinion = { who = ROOT value = 0 } } }
				random_list = {
					40 = { 
						add_trait = honorable
						hidden_tooltip = {
							ROOT = { 
								character_event = {
									id = trait_notification.202
								}
							} 
							character_event = {
								id = trait_notification.8
							}
						}
					}
					60 = { }
				}
			}
			#hidden_tooltip = { character_event = { id = misc_traits.32 } }
		}
	}
}

# character_event = {
	# id = misc_traits.31
	# desc = "EVTDESCmisc_traits.31"
	# picture = GFX_evt_child_bully
	# is_triggered_only = yes
	
	# option = {
		# name = "EVTOPTAmisc_traits.31"
		# add_trait = honorable
	# }
# }

# character_event = {
	# id = misc_traits.32
	# desc = "EVTDESCmisc_traits.32"
	# picture = GFX_evt_child_sword
	# is_triggered_only = yes
	
	# immediate = {
		# remove_trait = ruthless
		# remove_trait = honorable
	# }
	
	# option = {
		# name = "EVTOPTAmisc_traits.32"
		# if = {
			# limit = { opinion = { who = FROM value = 0 } }
			# random_list = {
				# 20 = { add_trait = ruthless }
				# 60 = { }
				# 20 = { add_trait = honorable }
			# }
		# }
		# if = {
			# limit = { NOT = { opinion = { who = FROM value = 0 } } }
			# random_list = {
				# 40 = { add_trait = ruthless }
				# 60 = { }
			# }
		# }
	# }
# }

#misc_traits.33 - People are mocking the way you dress. (Fashionable)
character_event = {
	id = misc_traits.33
	desc = "EVTDESCmisc_traits.33" #You hear rumours, that people are mocking the way you dress...
	picture = "GFX_fashion"
	
	min_age = 16
	prisoner = no
	only_men = yes
	capable_only = yes
	
	is_triggered_only = yes
	
	trigger = {
		has_fashionable_groomed_trigger = yes
	}
	
	weight_multiplier = {
		days = 1
		
		#Pro
		modifier = {
			factor = 2
			OR = {
				has_ugly_trait_trigger = yes
				trait = stutter
			}
		}
	
		#Con
		modifier = {
			factor = 0.5
			OR = {
				has_fair_trait_trigger = yes
				trait = kind
			}
		}
	}
	
	option = {
		name = "EVTOPTAmisc_traits.33" #You shrug it off.
		ai_chance = {
			factor = 10
			modifier = {
				factor = 3
				trait = proud
			}
			modifier = {
				factor = 3
				trait = gregarious
			}
			modifier = {
				factor = 3
				trait = brave
			}
			modifier = {
				factor = 3
				trait = authoritative
			}
			modifier = {
				factor = 2
				trait = cynical
			}
			modifier = {
				factor = 2
				trait = rude
			}
		}
		if = {
			limit = { NOT = { personality_traits = 6 } }
			random_list = {
				25 = {
					if = {
						limit = {
							NOT = { trait = brave }
							NOT = { trait = craven }
						}	
						add_trait=brave
						hidden_tooltip = {
							character_event = {
								id = 38270 #Notify Brave
							}
						}
					}	
				}
				50 = {
					if = {
						limit = {
							NOT = { trait = cynical }
							NOT = { trait = zealous }
						}	
						add_trait=cynical
						hidden_tooltip = {
							character_event = {
								id = 38258 #Notify cynical
							}
						}
					}
				}
				25 = {
					if = {
						limit = {
							NOT = { trait = rude }
							NOT = { trait = kind }
						}	
						add_trait=rude
						hidden_tooltip = {
							character_event = {
								id = trait_notification.13
							}
						}
					}
				}
			}
		}	
		random_courtier = {
			limit = {
				age = 16
				is_female = no
			}
			opinion = {
				modifier = opinion_disapprove
				who = ROOT
				years = 5
			}
		}
	}
	
	option = {
		name = "EVTOPTBmisc_traits.33" #You Chnage the way you dress.
		ai_chance = {
			factor = 10
			modifier = {
				factor = 3
				trait = humble
			}
			modifier = {
				factor = 3
				trait = shy
			}
			modifier = {
				factor = 3
				trait = craven
			}
			modifier = {
				factor = 3
				trait = kind
			}
		}
		if = {
			limit = {
				NOT = { trait = gregarious }
				NOT = { trait = shy }
				NOT = { personality_traits = 6 }
			}	
			random = {
				chance = 40
				add_trait=gregarious
				hidden_tooltip = {
					character_event = {
						id = 38265
					}
				}
			}	
		}
		random = {
			chance = 40
			if = { 
				limit = { trait = groomed }
				remove_trait = groomed
			}
			if = {
				limit = { 
					trait = fashionable
				}
				remove_trait = fashionable
			}
			hidden_tooltip = {
				character_event = {
					id = trait_notification.14
				}
			}
		}
	}
	
	option = {
		name = "EVTOPTCmisc_traits.33" #Confront the rumours	
		trigger = {
			OR = {
				trait = brave
				trait = duelist
				trait = gregarious
			}
		}	
		ai_chance = {
			factor = 30
		}
		prestige = 10
		random_courtier = {
			limit = {
				age = 16
				is_female = no
			}
			opinion = {
				modifier = opinion_disapprove
				who = ROOT
				years = 5
			}
		}
	}
}

#misc_traits.34 - Marhsal has new ideas, that contradicts your orders. (Authoritative)
character_event = {
	id = misc_traits.34
	desc = "EVTDESCmisc_traits.34" #Your marshall has new ideas that contradict previous orders.
	picture = "GFX_authoritative"
	
	only_rulers = yes
	min_age = 16
	prisoner = no
	capable_only = yes
	
	is_triggered_only = yes
	
	trigger = {
		trait = authoritative
	}
	
	weight_multiplier = {
		days = 1
		
		#Pro
		modifier = {
			factor = 2
			OR = {
				is_dumb_trigger = yes
				trait = imbecile
			}
		}
		modifier = {
			factor = 2
			NOT = { martial = 6 }
		}
		modifier = {
			factor = 2
			NOT = { martial = 3 }
		}
		modifier = {
			factor = 2
			war = yes
		}
	
		#Con
		modifier = {
			factor = 0.5
			is_smart_incl_genius_trigger = yes
		}
		modifier = {
			factor = 0.5
			martial = 12
		}
		modifier = {
			factor = 0.5
			martial = 15
		}
	}
	
	option = {
		name = "EVTOPTAmisc_traits.34" #How dares he!
		prestige = 20
		if = {
			limit = { NOT = { personality_traits = 6 } }
			random_list = {
				40 = {
					if = {
						limit = {
							NOT = { trait = stubborn }
						}	
						add_trait=stubborn
					}	
				}
				40 = {
					if = {
						limit = {
							NOT = { trait = wroth }
							NOT = { trait = patient }
						}	
						add_trait=wroth
						hidden_tooltip = {
							character_event = {
								id = 38254
							}
						}
					}
				}
				20 = {
				}
			}
		}	
		job_marshal = {
			opinion = {
				modifier = opinion_disapprove
				who = ROOT
				years = 5
			}
			reverse_opinion = {
				modifier = refused_money_request
				who = ROOT
				years = 5
			}		
		}
	}
	
	option = {
		name = "EVTOPTBmisc_traits.34" #You adopt them.		
		trigger = {
			NOT = { trait = wroth }
		}	
		prestige=-20
		job_marshal = {
			opinion = {
				modifier = opinion_approves
				who = ROOT
				years = 5
			}
		}
		random = {
			chance = 40
			remove_trait = authoritative
		}	
		if = {
			limit = { NOT = { personality_traits = 6 } }		
			random_list = {
				25 = {
					if = {
						limit = {
							NOT = { trait = arbitrary }
							NOT = { trait = just }
						}	
						add_trait=arbitrary
						hidden_tooltip = {
							character_event = {
								id = 38266
							}
						}
					}
				}
				25 = {
					if = {
						limit = {
							NOT = { trait = patient }
							NOT = { trait = wroth }
						}	
						add_trait=patient
						hidden_tooltip = {
							character_event = {
								id = 38264
							}
						}
					}
				}
				25 = {
					if = {
						limit = {
							NOT = { trait = diligent }
							NOT = { trait = slothful }
						}	
						add_trait=diligent
						hidden_tooltip = {
							character_event = {
								id = 38256
							}
						}
					}
				}
				25 = {}
			}
		}	
	}	
}