# Supported types: character
#
# Note: if 'chance' evaluates to 0, an AI character will also abandon the focus
#


#################
# FOCUSES		#
#################

focus_ch_pride = {
	type = character
	
	modifier_name = "CHILDHOOD_FOCUS_PRIDE"
	
	potential = {
		NOT = { age = 12 }
		NOT_mythical_creature_trigger = yes
	}
	
	allow = {
	}
	
	# AI Pick chance
	chance = {
		factor = 100
		
		modifier = {
			factor = 1.5
			is_primary_heir = yes
		}
		modifier = {
			factor = 0.1
			trait = slave
		}
		modifier = {
			factor = 0.25
			NOT = { is_close_relative = FROM }
			is_primary_heir = no
		}
		modifier = {
			factor = 2
			FROM = { trait = proud }
		}
		modifier = {
			factor = 1.5
			FROM = { trait = ruthless }
		}
		modifier = {
			factor = 1.5
			FROM = { trait = diligent }
		}
		modifier = {
			factor = 1.5
			FROM = { trait = cruel }
		}
	}
	
	# Focuses have no success conditions
	success = {
		always = no
	}
	
	abort = {
		age = 12
	}
	
	abort_effect = {
	}
	
	
	potential_traits = {
		haughty
		brooding
	}
}

focus_ch_humility = {
	type = character
	
	modifier_name = "CHILDHOOD_FOCUS_HUMILITY"
	
	potential = {
		NOT = { age = 12 }
		NOT_mythical_creature_trigger = yes
	}
	
	allow = {
	}
	
	# AI Pick chance
	chance = {
		factor = 100
		modifier = {
			factor = 2
			FROM = { trait = humble }
		}
		modifier = {
			factor = 1.5
			FROM = { trait = content }
		}
		modifier = {
			factor = 1.5
			FROM = { trait = kind }
		}
	}
	
	# Focuses have no success conditions
	success = {
		always = no
	}
	
	abort = {
		age = 12
	}
	
	abort_effect = {
	}
	
	potential_traits = {
		timid
		affectionate
	}
}

focus_ch_duty = {
	type = character
	
	modifier_name = "CHILDHOOD_FOCUS_DUTY"
	
	potential = {
		NOT = { age = 12 }
		NOT_mythical_creature_trigger = yes
	}
	
	allow = {
	}
	
	# AI Pick chance
	chance = {
		factor = 100
		modifier = {
			factor = 1.5
			FROM = { trait = just }
		}
		modifier = {
			factor = 1.5
			FROM = { trait = diligent }
		}
		modifier = {
			factor = 1.5
			FROM = { trait = honorable }
		}
	}
	
	# Focuses have no success conditions
	success = {
		always = no
	}
	
	abort = {
		age = 12
	}
	
	abort_effect = {
	}
	

	potential_traits = {
		conscientious
	}
}

focus_ch_etiquette = {
	type = character
	
	modifier_name = "CHILDHOOD_FOCUS_ETIQUETTE"
	
	potential = {
		NOT = { age = 12 }
		NOT_mythical_creature_trigger = yes
	}
	
	allow = {
	}
	
	# AI Pick chance
	chance = {
		factor = 100
		modifier = {
			factor = 1.5
			FROM = { trait = gregarious }
		}
		modifier = {
			factor = 1.5
			FROM = { trait = deceitful }
		}
		modifier = {
			factor = 1.5
			FROM = { trait = charitable }
		}
	}
	
	# Focuses have no success conditions
	success = {
		always = no
	}
	
	abort = {
		age = 12
	}
	
	abort_effect = {
	}
	

	potential_traits = {
		playful
		indolent
	}
}

focus_ch_thrift = {
	type = character
	
	modifier_name = "CHILDHOOD_FOCUS_THRIFT"
	
	potential = {
		NOT = { age = 12 }
		NOT_mythical_creature_trigger = yes
	}
	
	allow = {
	}
	
	# AI Pick chance
	chance = {
		factor = 100
		
		modifier = {
			factor = 1.5
			FROM = { is_patrician = yes }
		}
		modifier = {
			factor = 1.5
			FROM = { trait = diligent }
		}
		modifier = {
			factor = 1.5
			FROM = { trait = greedy }
		}
		modifier = {
			factor = 1.5
			FROM = { trait = patient }
		}
	}
	
	# Focuses have no success conditions
	success = {
		always = no
	}
	
	abort = {
		age = 12
	}
	
	abort_effect = {
	}
	

	potential_traits = {
		curious
		fussy
	}
}

focus_ch_faith = {
	type = character
	
	modifier_name = "CHILDHOOD_FOCUS_FAITH"
	
	potential = {
		NOT = { age = 12 }
		NOT_mythical_creature_trigger = yes
	}
	
	allow = {
	}
	
	# AI Pick chance
	chance = {
		factor = 100
		modifier = {
			factor = 0
			is_ruler = yes
		}
		modifier = {
			factor = 0
			liege = {
				religion = ROOT
			}
			FROM = { NOT = { trait = zealous } }
		}
		modifier = {
			factor = 0.1
			educator = { NOT = { religion = FROM } }
		}
		modifier = {
			factor = 0.1
			NOT = { religion = FROM }
		}
		modifier = {
			factor = 2
			FROM = { trait = zealous }
		}
		modifier = {
			factor = 0.5
			FROM = { trait = cynical }
		}
	}
	
	# Focuses have no success conditions
	success = {
		always = no
	}
	
	abort = {
		age = 12
	}
	
	abort_effect = {
	}
	
	
	potential_traits = {
		idolizer
	}
}

focus_ch_struggle = {
	type = character
	
	modifier_name = "CHILDHOOD_FOCUS_STRUGGLE"
	
	potential = {
		NOT = { age = 12 }
		NOT_mythical_creature_trigger = yes
	}
	
	allow = {
	}
	
	# AI Pick chance
	chance = {
		factor = 100
		modifier = {
			factor = 3
			is_nomadic = yes
		}
		modifier = {
			factor = 0.66
			is_primary_heir = yes
		}
		modifier = {
			factor = 2
			NOT = { is_close_relative = FROM }
			is_primary_heir = no
		}
		modifier = {
			factor = 1.5
			FROM = { trait = slothful }
		}
		modifier = {
			factor = 1.5
			FROM = { trait = kind }
		}
		modifier = {
			factor = 1.5
			FROM = { trait = humble }
		}
	}
	
	# Focuses have no success conditions
	success = {
		always = no
	}
	
	abort = {
		age = 12
	}
	
	abort_effect = {
	}
	

	potential_traits = {
		rowdy
		willful
	}
}

focus_ch_heritage = {
	type = character
	
	modifier_name = "CHILDHOOD_FOCUS_HERITAGE"
	
	potential = {
		NOT = { age = 12 }
		NOT_mythical_creature_trigger = yes	
	}
	
	allow = {
		educator = {
			show_scope_change = no
			OR = {
				AND = {
					ROOT = { NOT = { culture = PREV } }
					custom_tooltip = {
						text = TOOLTIPfocus_ch_heritage_A						
						OR = {
							employer = { culture = PREV }
							location = { culture = PREV }
						}
					}
					conditional_tooltip = {
						trigger = { 
							true_valyrian_culture_trigger = yes
							NOT = { has_game_rule = { name = high_valyrian_cull value = off } }
						}	
						custom_tooltip = {
							text = TOOLTIPfocus_ch_heritage_B					
							ROOT = {
								OR = {
									true_valyrian_culture_trigger = yes
									father_even_if_dead = { true_valyrian_culture_trigger = yes }
									mother_even_if_dead = { true_valyrian_culture_trigger = yes }
								}
							}
						}
					}				
				}
				AND = {
					ROOT = { NOT = { religion = PREV } }
					custom_tooltip = {
						text = TOOLTIPfocus_ch_heritage_C					
						OR = {
							employer = { religion = PREV }
							location = { religion = PREV }
						}
					}	
					ROOT = {
						show_scope_change = no
						educator = {
							NOT = { trait = maester }
							NOT = { trait = archmaester }
							NOT = { religion = pirate }
							NOT = { religion = corsair }
							NOT = { religion = lady_of_spears }
						}
					}	
				}	
			}
		}	
	}
	
	# AI Pick chance
	chance = {
		factor = 100
		
		modifier = {
			factor = 0
			is_ruler = yes
		}
		modifier = {
			factor = 0
			liege = {
				culture = ROOT
				religion = ROOT
			}
			FROM = { NOT = { trait = proud } }
		}
		modifier = {
			factor = 2
			FROM = { trait = ambitious }
		}
		modifier = {
			factor = 1.5
			FROM = { trait = proud }
		}
		modifier = {
			factor = 0.66
			FROM = { trait = humble }
		}
		modifier = {
			factor = 0.5
			FROM = { trait = content }
		}
		modifier = {
			factor = 1.5
			NOT = { religion = FROM }
			FROM = { trait = zealous }
		}
		modifier = {
			factor = 0.66
			NOT = { religion = FROM }
			FROM = { trait = cynical }
		}
	}
	
	# Focuses have no success conditions
	success = {
		always = no
	}
	
	abort = {
		age = 12
	}
	
	abort_effect = {
	}
	

}

focus_ch_dragon = { # To stop annoying pop up to educate dragons
	type = character
	
	modifier_name = "CHILDHOOD_FOCUS_DRAGON"
	
	potential = {
		NOT = { age = 12 }
		trait = dragon
	}
	
	allow = {
	}
	
	# AI Pick chance
	chance = {
		factor = 100
	}
	
	# Focuses have no success conditions
	success = {
		always = no
	}
	
	abort = {
		age = 12
	}
	
	abort_effect = {
	}
	

}
