800.1.1={
    liege="c_rosby"
       law = succ_primogeniture
}
7830.1.1={holder=651521}
7880.1.1={holder=641521}
7905.1.1={holder=631521}
7930.1.1={holder=621521}
7955.1.1={holder=611521}
7980.1.1 = { holder=601521 } # Alyn (nc)
8012.1.1 = { holder=431521 } # Arryk (nc)
8030.1.1 = { holder=461521 } # Jon (nc)
8073.1.1 = { holder=481521 } # Justyn (nc)
8099.1.1 = { holder=511521 } # Clement (nc)
8129.1.1 = { holder=501521 } # Rennifer (nc)
8131.1.1 = { holder=491521 } # Barent (SC)
8176.1.1 = { holder=741521 } # Erryk (nc)
8210.1.1 = { holder=771521 } # Lucos (nc)
8215.1.1 = { holder=791521 } # Arryk (nc) # Last of his line

#Rosby
8259.6.7 = { 
	holder = 2039 	#Rymond Rosby
}
8266.1.1={
	holder = 38	#Gyles Rosby
}