#House Plumm
7854.1.1 = { holder=344226 } # Harwyn (nc)
7880.1.1 = { holder=343226 } # Rayner (nc)
7903.1.1 = { holder=342226 } # Walderan (nc)
7934.1.1 = { holder=341226 } # Ethan (nc)
7977.1.1 = { holder=340226 } # Preston (nc)

7986.1.1 = { holder=312226 } # Othell (nc)
7998.6.6 = { holder=309226 } # Philip (nc)

8037.1.1 = { holder=308226 } # Ossifer (nc)
8054.1.1 = { holder=307226 } # Harwyn (nc)
8087.1.1 = { holder=306226 } # Willem (nc)
8115.1.1 = { holder=305226 } # Maynard (nc)
8121.1.1 = { holder=304226 } # Peter (nc)
8147.1.1 = { holder=203226 } # Ossifer (C)
8176.6.3 = { holder=202226 } # Viserys (C)
8231.1.1 = { holder=302226 } # Petyr (C)
8246.1.1 = { holder=301226 } # Othell (nc)

#House Reyne
8258.5.6 = {
	holder=197 # Taken from the Plumm's by the Reynes and Tarbecks
}

#House Plumm
8261.11.1 = { holder=301226 } # Othell (nc)
8267.1.1 = {
	holder=20266 # Philip Plumm (C)
}	

