#House Uffering
900.1.1={ law=succ_primogeniture law=cognatic_succession
	liege="c_fawn_crag"
}
7846.1.1 = { holder=3013241 } # Myles (nc)
7900.1.1 = { holder=3012241 }
7930.1.1 = { holder=3011241 }
7954.1.1 = { holder=3010241 }
7980.1.1 = { holder=3009241 }
7995.1.1 = { holder=3000241 } # Canther (nc)
8005.1.1 = { holder=3002241 } # Lucas (nc)
8019.1.1 = { holder=3005241 } # Arys (nc)
8070.1.1 = { holder=3006241 } # Morm (nc)
8092.1.1 = { holder=3007241 } # Gerold (nc)
8094.1.1 = { holder=3008241 } # Harrold (nc)
8123.1.1 = { holder=3014241 } # Leo (nc)
8177.1.1 = { holder=3015241 } # Petyr (nc)
8178.1.1 = { holder=3018241 } # Gormon (nc)
8215.1.1 = { holder=3022241 } # Garrett (nc)
8257.1.1 = { holder=3023241 } # Imry (nc)
8295.1.1 = { holder=3025241 } # Alekyne (nc)

