900.1.1={ 
	law=succ_primogeniture 
	liege="c_old_wyk"
	law=cognatic_succession
}
7883.1.1={holder=214112}
7920.1.1={holder=215112}
7945.1.1={holder=216112}
7970.1.1={holder=217112}
7995.1.1={holder=218112}
8020.1.1 = {
	holder=212112
}
8043.1.1 = {	
	holder=211112
}
8081.1.1 = {	
	holder=210112
}
8123.1.1 = {	
	holder=209112
}
8139.1.1 = {	
	holder=208112
}
8167.1.1 = {	
	holder=207112
}
8188.1.1 = {	
	holder=206112
}
8207.1.1 = {	
	holder=205112
}
8254.1.1 = {	
	holder=204112
}
8279.1.1 = {	
	holder=200112 
}




