#House Thelis
900.1.1={ 
	liege="k_pentos"
	effect = {
		set_title_flag = military_command
		holder_scope = {
			if = {
				limit = { primary_title = { title = PREVPREV } }
				set_government_type = military_command_government 
				PREV = { succession = appointment }
				recalc_succession = yes
			}
		}
	}
}
7866.1.1 = { holder=344300526 } # Pynto (nc)
7885.1.1 = { holder=343300526 } # Izembaro (nc)
7908.1.1 = { holder=342300526 } # Denyo (nc)
7939.1.1 = { holder=341300526 } # Gyloro (nc)
7966.1.1 = { holder=340300526 } # Roggo (nc)

7975.1.1 = { holder=100300526 } # Gyleno (nc)
8015.1.1 = { holder=101300526 } # Jaqen (nc)
8054.1.1 = { holder=108300526 } # Tregar (nc)
8060.1.1 = { holder=114300526 } # Narbo (nc)
8085.1.1 = { holder=115300526 } # Gyloro (nc)
8087.1.1 = { holder=116300526 } # Orbelo (nc)
8108.1.1 = { holder=119300526 } # Izembaro (nc)
8143.1.1 = { holder=123300526 } # Ternesio (nc)
8165.1.1 = { holder=125300526 } # Gyleno (nc)
8187.1.1 = { holder=128300526 } # Daario (nc)
8211.1.1 = { holder=130300526 } # Ordello (nc)
8220.1.1 = { holder=131300526 } # Luco (nc)
8228.1.1 = { holder=134300526 } # Terro (nc)
8237.1.1 = { holder=136300526 } # Syrio (nc)
8250.1.1 = { holder=140300526 } # Ternesio (nc)
8276.1.1 = { holder=141300526 } # Brusco (nc)
8277.1.1 = { holder=143300526 } # Ordello (nc)
8281.1.1 = { holder=145300526 } # Ordello(nc)
8299.6.1 = { holder=149300526 } # Tycho (nc)