90.1.1={
	liege="c_oxcross" 
}
#House Kyndall
7830.1.1={holder=144802042}
7880.1.1={holder=143802042}
7905.1.1={holder=142802042}
7930.1.1={holder=141802042}
7955.1.1={holder=140802042}
7990.1.1 = { holder=100802042 } # Gerold (nc)
8010.1.1 = { holder=101802042 } # Loren (nc)
8047.1.1 = { holder=105802042 } # Jaime (nc)
8066.1.1 = { holder=107802042 } # Reginald (nc)
8084.1.1 = { holder=110802042 } # Willem (nc)
8132.1.1 = { holder=114802042 } # Gawen (nc)
8148.1.1 = { holder=119802042 } # Donnel (nc)
8160.1.1 = { holder=123802042 } # Walder (nc)
8232.1.1 = { holder=127802042 } # Tommen (nc)
8258.1.1 = { holder=130802042 } # Damion (nc)
8285.1.1 = { holder=132802042 } # Kennos (nc)
