7000.1.1={
	liege = d_gogossos
	holding_dynasty = 723353
}
7880.1.1 = { holder=1000353 } # Jaekar (nc)
7914.1.1 = { holder=1003353 } # Colloquo (nc)
7937.1.1 = { holder=1007353 } # Moqorro (nc)

7950.1.1 = { holder=0 } # Red Death



