#House Qazzar
900.1.1={ 
	liege="c_meereen"
}
7849.1.1 = { holder=356360010 } # Qazzar (nc)
7862.1.1 = { holder=355360010 } # Grazdan (nc)
7888.1.1 = { holder=354360010 } # Miklaz (nc)
7901.1.1 = { holder=353360010 } # Qazzar (nc)
7922.1.1 = { holder=352360010 } # Grazdan (nc)
7949.1.1 = { holder=351360010 } # Qazzar (nc)
7967.1.1 = { holder=350360010 } # Gorghan (nc)
7997.1.1 = { holder=349360010 } # Haznak (nc)
8024.1.1 = { holder=348360010 } # Grazdan (nc)
8040.1.1 = { holder=347360010 } # Morghaz (nc)
8094.1.1 = { holder=346360010 } # Qazzar (nc)
8110.1.1 = { holder=345360010 } # Gadhaz (nc)
8137.1.1 = { holder=344360010 } # Daznak (nc)
8175.1.1 = { holder=343360010 } # Grazdan (nc)
8191.1.1 = { holder=342360010 } # Quazzar (nc)
8209.1.1 = { holder=341360010 } # Quazzar (nc)
8222.1.1 = { holder=340360010 } # Morghaz (nc)
8245.1.1 = { holder=101360010 } # Paezhar (nc) 
8286.1.1 = { holder=102360010 } # Azzak (nc)
8300.1.1 = { holder=109360010 } # Morghaz (nc)


