#House Marsiglio
600.1.1={
	liege="k_volantis"
}
7859.1.1 = { holder=34469141 } # Hybario (nc)
7883.1.1 = { holder=34369141 } # Coqorro (nc)
7899.1.1 = { holder=34269141 } # Thalaso (nc)
7930.1.1 = { holder=34169141 } # Nakaro (nc)
7958.1.1 = { holder=34069141 } # Draqano (nc)

7995.1.1 = { holder=100069141 } # Yorko (nc)
8034.1.1 = { holder=100269141 } # Methyso (nc)
8035.1.1 = { holder=100369141 } # Ordello (nc)
8090.1.1 = { holder=100669141 } # Meralyn (nc)
8094.1.1 = { holder=100769141 } # Nyessos (nc)
8145.1.1 = { holder=101269141 } # Meralyn (nc)
8158.1.1 = { holder=101369141 } # Ordello (nc)
8196.1.1 = { holder=101869141 } # Allaquo (nc)
8206.1.1 = { holder=101969141 } # Beqqo (nc)
8256.1.1 = { holder=102169141 } # Malaquo (nc)
8273.1.1 = { holder=102369141 } # Colloquo (nc)
8279.1.1 = { holder=102469141 } # Allaquo (nc)
8295.1.1 = { holder=102769141 } # Benerro (nc)
