7843.1.1 = { 
	liege = d_ibbish
	law = succ_primogeniture
	law = agnatic_succession
} 
7935.1.1 = { 
	holder = 100600209 #Khal Onqo (C)
	liege = d_vaes_leisi
} 
7959.1.1 = {
	holder = 102600209 #Khal Dhako (C)
} 
7998.1.1 = { 
	holder=100600214  # Haggo (nc)
	liege = d_northern_steppe
}
8017.1.1 = { holder=101600214 } # Iggo (nc)
8043.1.1 = { holder=104600214 } # Haro (nc)
8050.1.1 = { holder=108600214 } # Jommo (nc)
8105.1.1 = { holder=110600214 } # Kovarro (nc)
8119.1.1 = { holder=114600214 } # Zekko (nc)
8136.1.1 = { holder=115600214 } # Fogo (nc)
8147.1.1 = { holder=123600214 } # Zerqollo (nc)
8189.1.1 = { holder=125600214 } # Jarbo (nc)
8190.1.1 = { holder=131600214 } # Jommo (nc)
8191.1.1 = { holder=134600214 } # Haro (nc)
8251.1.1 = { holder=135600214 } # Rovo (nc)
8272.1.1 = { holder=138600214 } # Forzho (nc)