600.1.1={
	liege="d_asabhad"
}
7849.1.1 = { holder=34555942 } # Zuyen (nc)
7884.1.1 = { holder=34455942 } # Veikko (nc)
7902.1.1 = { holder=34355942 } # Pyrkoon (nc)
7930.1.1 = { holder=34255942 } # Kari (nc)
7951.1.1 = { holder=34155942 } # Duyen (nc)
7978.1.1 = { holder=34055942 } # Uljas (nc)

8000.1.1 = { holder=10055942 } # Wahab (nc)
8026.1.1 = { holder=10355942 } # Jabir (nc)
8052.1.1 = { holder=10455942 } # Ghalib (nc)
8067.1.1 = { holder=10855942 } # Ramadan (nc)
8094.1.1 = { holder=11155942 } # Wahab (nc)
8101.1.1 = { holder=11455942 } # Qawurd (nc)
8128.1.1 = { holder=11655942 } # Hafiz (nc)
8159.1.1 = { holder=12255942 } # Abdullah (nc)
8190.1.1 = { holder=12755942 } # Ali_Ali (nc)
8215.1.1 = { holder=12955942 } # Alim (nc)
8256.1.1 = { holder=13155942 } # Shamir (nc)
8273.1.1 = { holder=13555942 } # Shamir (nc)

