#House Banefort
100.1.1={	
	liege="k_banefortTK"
}

235.1.1 = { holder = 152200 } #King Morgon (C)
258.1.1 = { 
	holder = 0 
	liege="d_the_crag" 
}
7810.1.1 = { holder=340200 } # Forley (nc)
7850.1.1 = { holder=159200 } # Morgon (nc)
7878.1.1 = { holder=158200 } # Merlon (nc)
7900.1.1 = { holder=157200 } # Burton (nc)
7918.1.1 = { holder=156200 } # Benedict (nc)
7940.1.1 = { holder=154200 } # Josmyn (nc)
7972.1.1 = { holder=155200 } # Benedict (nc)
7990.1.1 = { holder=325200 } # Sebaston (nc)
8000.6.6 = { holder=321200 } # Sarya (nc)
8067.1.1 = { holder=318200 } # Willem (nc)
8088.1.1 = { holder=314200 } # Sebaston (nc)
8104.1.1 = { holder=313200 } # Gareth (nc)
8126.1.1 = { holder=310200 } # Quenten (nc)
8130.1.1 = { holder=307200 } # Qarlon (nc)
8140.1.1 = { holder=305200 } # Quentyn (nc)
8196.1.1 = { holder=301200 } # Jaime (nc)
8203.1.1 = { holder=327200 } # Gerion (nc)
8221.1.1 = { holder=331200 } # Sebaston (nc)
8260.1.1 = { holder=12200 } # Symond (nc)
8276.1.1 = { holder=200 } # Quenten (c)