6000.1.1={
	liege="d_barrowlands"
	law = succ_primogeniture
}
7835.1.1={
	holder=1057079
}
7879.1.1={
	holder=1056079
}
7916.1.1={
	holder=1055079
}
7937.1.1={
	holder=1054079
}
7960.1.1={
	holder=1052079
}
7979.1.1 = {
	holder=1053079
}
7994.1.1 = {
	holder=12079
}
8029.1.1={
	holder=11079
}
8034.1.1={
	holder=10079
}
8053.1.1={
	holder=9079
}
8077.1.1={
	holder=8079
}
8121.1.1={
	holder=7079
}
8130.5.1={
	holder=6079
}
8172.1.1={
	holder=5079
}
8179.1.1={
	holder=4079
}
8201.1.1={
	holder=3079
}
8229.1.1={
	holder=2079
}
8273.1.1={
	holder=1079
}
8281.1.1={
	holder=79
}
8284.1.1={
	holder=2068
}

