#House Staedmon
900.1.1 = {liege="d_wendwater"}
7849.1.1 = { holder=354323 } # Lester (nc)
7865.1.1 = { holder=353323 } # Gannos (nc)
7899.1.1 = { holder=352323 } # Theo (nc)
7933.1.1 = { holder=351323 } # Beren (nc)
7965.1.1 = { holder=350323 } # Quentyn (nc)

7970.1.1 = { holder=60100323} # Alaric (nc)
7997.2.2 = { holder=300323 } # Arrec (nc)
8000.2.27 = { holder=301323 } # Arstan (nc)
8005.1.1 = { holder=302323 } # Armond (nc)
8035.1.1 = { holder=306323 } # Arstan (nc)
8056.1.1 = { holder=310323 } # Addam (nc)
8095.1.1 = { holder=317323 } # Bryen (nc)
8103.1.1 = { holder=313323 } # Corenna (nc)
8142.1.1 = { holder=38323 } # Timmen (nc)
8157.11.1 = { holder=319323 } # Bonifer (nc)
8164.1.1 = { holder=326323 } # Arrec (nc)
8177.1.1 = { holder=327323 } # Mylenda (nc)
8189.1.1 = { holder=328323 } # Matriice (nc)
8213.1.1 = { holder=329323 } # Casper (nc)
8231.1.1 = { holder=330323 } # Criston (nc)
8262.1.1 = { holder=335323 } # Simon (nc)
8277.1.1 = { holder=200323 } # Alesander Staedmon (C)