6000.1.1={
	liege="d_riverrun"
}

#House Perryn
7840.1.1 = { holder=40178457 }
7899.1.1 = { holder=39178457 }
7908.1.1 = { holder=38178457 }
7941.1.1 = { holder=37178457 }
7968.1.1 = { holder=36178457 }
8013.1.1 = { holder=35178457 }
8025.1.1 = { holder=20178457 } #Garibald (nc)
8042.1.1 = { holder=21178457 } #Dafyn (nc)
8064.1.1 = { holder=23178457 } #Karyl (nc)
8082.1.1 = { holder=24178457 } #Eddyn (nc)
8125.1.1 = { holder=25178457 } #Bryan (nc)
8134.1.1 = { holder=26178457 } #Deremond (nc)
8160.1.1 = { holder=27178457 } #Halmon (nc)
8185.1.1 = { holder=28178457 } #Walton (nc)
8223.1.1 = { holder=29178457 } #Deremond (nc)
8226.1.1 = { holder=30178457 } #Edgar (nc)
8232.1.1 = { holder=32178457 } #Tristan (nc)
8239.1.1 = { holder=16178457 } #Garse (nc)
8262.1.1 = { holder=13178457 } #Edmyn (nc)
8284.1.1 = { holder=178457 } #Robin (nc)
