#House Byrch
800.1.1 = {liege="d_stokeworth"}
7865.1.1 = { holder=344039 } # Borros (nc)
7884.1.1 = { holder=343039 } # Bandon (nc)
7903.1.1 = { holder=342039 } # Larys (nc)
7932.1.1 = { holder=341039 } # Perkin (nc)
7954.1.1 = { holder=340039 } # Balon (nc)

7990.1.1 = { holder=3000039 } # Symon (nc)
7994.1.1 = { holder=3001039 } # Pate (nc)
8035.1.1 = { holder=3004039 } # Will (nc)
8072.1.1 = { holder=3008039 } # Gendry (nc)
8110.1.1 = { holder=3013039 } # Monford (nc)
8146.1.1 = { holder=3015039 } # Alaric (nc)
8170.1.1 = { holder=3018039 } # Triston (nc)
8196.1.1 = { holder=3019039 } # Monford (nc)
8204.1.1 = { holder=3021039 } # Matthos (nc)
8266.1.1 = { holder=3027039 } # Clayton (nc)
8287.1.1 = { holder=3032039 } # Devan (nc)