6000.1.1={
	liege="d_acornsridge"
	law = succ_primogeniture
}
7976.1.1={
	holder=70160
}
8010.1.1={
	holder=68160
}
8024.1.1={
	holder=67160
}
8054.1.1={
	holder=65160
}
8066.1.1={
	holder=64160
}
8094.1.1={
	holder=63160
}
8099.1.1={
	holder=62160
}
8113.1.1={
	holder=61160
}
8126.1.1={
	holder=60160
}
8153.1.1={
	holder=59160
}
8165.1.1={
	holder=57160
}
8189.1.1={
	holder=56160
}
8195.1.1={
	holder=55160
}
8200.1.1={
	holder=54160
}
8240.1.1={
	holder=42160
}
8272.1.1={
	holder=2160
}
8282.1.1={
	liege=0
}
8283.6.1={
	liege="d_acornsridge"
}
8284.1.1={
	holder=32160
}
8298.10.1={
	holder=22160
}

