900.1.1={
	liege="d_bayofclaws"
}
900.1.1={
	law = succ_primogeniture
	law = cognatic_succession
	holder=0
}

###House Fisher
3306.1.1 = { holder=600174430 } # Ryman (nc) # House Fisher
3323.1.1 = { holder=601174430 } # Patrek (nc)
3331.1.1 = { holder=605174430 } # Addan (nc)
3390.1.1 = { holder=612174430 } # Tristan (nc)
3408.1.1 = { holder=613174430 } # Eyman (nc)
3442.1.1 = { holder=614174430 } # Edmure (nc)
3456.1.1 = { holder=0 } 
###House Darry
6586.1.1 = { 
	holder=134137 
}
6634.1.1 = {
	holder=0
}
7804.1.1 = { 
	holder=132137 
}
7858.1.1 = { 
	holder=131137 
}
7890.1.1 = { 
	holder=130137 
}
7914.1.1 = { 
	holder=129137 
}
7942.1.1 = { 
	holder=128137 
}
7968.1.1 = { 
	holder=127137 
}
7980.1.1 = {
	holder=114137
}
8025.1.1 = {
	holder=113137
}
8040.1.1 = {
	holder=112137
}
8062.1.1 = {
	holder=111137
}
8085.1.1 = {
	holder=110137
}
8100.1.1 = {
	holder=109137
}
8119.1.1 = {
	holder=5500137 # Jonothor Darry
}
8129.7.1 = {
    holder=5510137 # Derrick Darry
}
8130.5.8={
	holder=107137 # Roland Darry
}
8131.1.1={
	holder=106137 # Desmond Darry
}
8158.8.1 = {
	holder=105137 # Jorin Darry
}
8193.1.1 = {
	holder=119137 # Deremond Darry
}
8196.3.1 = {
	holder=104137
}
8238.1.1 = {
	holder=103137
}
8263.1.1 = {
	holder=100137
}
8283.6.1={
	liege="k_riverlands"
}
8283.7.1={
	holder=137
}
8298.10.1={
	holder=1137
}
8299.5.1={
	holder=159
}
8299.10.15={
	holder=4159
}
8299.11.12 = {
	holder=8190 #Lancel
	liege="d_bayofclaws"
}
8300.4.1 = {
	holder=9190 #Martyn
}
