600.1.1={
	law = succ_turkish_succession
	law = agnatic_succession
}
7869.1.1 = { holder=345982370 } # Dynerro (nc)
7886.1.1 = { holder=344982370 } # Draqane (nc)
7905.1.1 = { holder=343982370 } # Lysandro (nc)
7931.1.1 = { holder=342982370 } # Silvario (nc)
7955.1.1 = { holder=341982370 } # Syrodos (nc)
7977.1.1 = { holder=340982370 } # Alassor (nc)

7995.1.1 = { holder=100982370 } # Sargoso (C)
8029.1.1 = { 
	liege = 0
}
8034.1.1 = { 
	holder=101982370 # Salassor
	liege="d_northern_stepstones"
} 

8070.1.1 = { holder=105982370 } # Collio (nc)
8096.6.1={
	liege="d_northern_stepstones"
}
8109.1.1={
	liege="k_stepstones"
}
8115.1.1 = { holder=106982370 } # Tregar (nc)
8116.1.1={
	liege="0"
}

8131.9.1 = {
	liege="k_stepstones"
}
8134.1.1 = {
	liege="0"
}

8138.1.1 = { holder=110982370 } # Sullehman (sc)
8155.1.1 = { holder=100513 } #Black Pearl of Braavos
8157.1.1={
	liege= "k_stepstones"
}
8160.11.11={
	liege="0"
}
8163.1.1 = { holder=110982370 } # Sullehman (sc)

8167.1.1 = { holder=111982370 } # Gyleno (nc)
8180.1.1 = { holder=112982370 } # Lysono (nc)
8219.1.1 = { holder=114982370 } # Noho (nc)
8250.1.1 = { holder=115982370 } # Ordello (nc)
8253.1.1 = { holder=118982370 } # Samarro Saan (C)
8258.1.1={
	liege = d_northern_stepstones
}
8260.1.1={
	liege="0"
}
8280.1.1 = { holder=119982370 } # Salladhor Saan (C)
8284.1.1 = { 
	liege = d_northern_stepstones
}
