#House Phassios
6700.1.1={
	law = succ_primogeniture
	liege = k_pentos
}
7849.1.1 = { holder=344300901 } # Yarrido (nc)
7878.1.1 = { holder=343300901 } # Aricho (nc)
7902.1.1 = { holder=342300901 } # Ryos (nc)
7935.1.1 = { holder=341300901 } # Daavino (nc)
7951.1.1 = { holder=340300901 } # Roro (nc)

7964.1.1 = { holder=100300901 } # Oro (nc)
8009.1.1 = { holder=106300901 } # Pydos (nc)
8054.1.1 = { holder=107300901 } # Salloro (nc)
8096.1.1 = { holder=112300901 } # Essalo (nc)
8130.1.1 = { holder=115300901 } # Draqoros (nc)
8140.1.1 = { holder=117300901 } # Malero (nc)
8165.1.1 = { holder=121300901 } # Byrios (nc)
8195.1.1 = { holder=122300901 } # Lothorio (nc)
8216.1.1 = { holder=126300901 } # Narapho (nc)
8237.1.1 = { holder=129300901 } # Aerano (nc)
8253.1.1 = { holder=130300901 } # Ayrio (nc)
8279.1.1 = { holder=133300901 } # Haronno (nc)
