#House Fell
202.1.1 = { liege="d_wendwater" }
7833.1.1 = { holder=344313 } # Beric (nc)
7853.1.1 = { holder=343313 } # Harbert (nc)
7901.1.1 = { holder=342313 } # Benjicot (nc)
7922.1.1 = { holder=341313 } # Richard (nc)
7950.1.1 = { holder=340313 } # Kyle (nc)

7969.1.1 = { holder=302313 } # Dickon (nc)
7991.1.1 = { holder=300313 } # Rickard Fell (C)
8012.1.1 = { holder=301313 } # Raymund (nc)
8037.1.1 = { holder=303313 } # Selwyn (nc)
8072.1.1 = { holder=304313 } # Cedric (nc)
8096.1.1 = { holder=306313 } # Alora 
8129.8.1 = { holder=307313 } # Jareth 
8131.1.1 = { holder=308313 } # Armaund 
8164.1.1 = { holder=309313 } # Aimery 
8200.1.1 = { holder=310313 } # Thurgood Fell (C)
8221.1.1 = { holder=311313 } # Selwyn (nc)
8251.1.1 = { holder=312313 } # Rickard (nc)
8277.1.1 = { holder=313 } # Lucas Fell (C)
8282.9.15 = { liege=0 } # RR
8283.1.1={
	liege="k_stormlands"
	holder=175313  # Michael (nc)
}
8283.6.1 = {
	liege="d_wendwater"
}
8295.1.1 = {
	holder=1313  # Harwood Fell (C)
}
8299.7.2 = { liege="k_stormlands" }