#House Trant
7000.1.1 = {liege="d_shipbreaker"}
7860.1.1 = { holder=353304 } # Marq (nc)
7867.1.1 = { holder=352304 } # Selwyn (nc)
7910.1.1 = { holder=351304 } # Elys (nc)
7939.1.1 = { holder=350304 } # Urston (nc)

7963.1.1 = { holder=300304 } # Florian (nc)
7994.1.1 = { holder=301304 } # Gulian (nc)
8029.1.1 = { holder=305304 } # Sebastion (nc)
8037.1.1 = { holder=311304 } # Pearse (nc)
8074.1.1 = { holder=312304 } # Florian (nc)
8089.1.1 = { holder=315304 } # Barristan (nc)
8124.1.1 = { holder=320304 } # Jon (nc)
8158.1.1 = { holder=324304 } # Rickard (nc)
8190.1.1 = { holder=327304 } # Bonifer (nc)
8215.1.1 = { holder=328304 } # Raymund (nc)
8251.1.1 = { holder=332304 } # Eldon (nc)
8277.1.1 = { holder=336304 } # Beric (nc)
8283.1.1 = { holder=342304 } # Goodwin (nc)