#House Qarghiz
600.1.1={
	liege="d_new_ghis"
}
7858.1.1 = { holder=34569149 } # Urkhaz (nc)
7869.1.1 = { holder=34469149 } # Grazhar (nc)
7893.1.1 = { holder=34369149 } # Zhezzan (nc)
7916.1.1 = { holder=34269149 } # Skahaz (nc)
7960.1.1 = { holder=34069149 } # Yarkhaz (nc)

7992.1.1 = { holder=100069149 } # Skahaz (nc)
8038.1.1 = { holder=100269149 } # Prendahl (nc)
8053.1.1 = { holder=100469149 } # Ghazdor (nc)
8076.1.1 = { holder=100569149 } # Yurkhaz (nc)
8085.1.1 = { holder=100969149 } # Fendahl (nc)
8107.1.1 = { holder=101069149 } # Morghaz (nc)
8144.1.1 = { holder=101269149 } # Morghaz (nc)
8153.1.1 = { holder=101369149 } # Fendahl (nc)
8181.1.1 = { holder=101769149 } # Reznak (nc)
8201.1.1 = { holder=101969149 } # Fendahl (nc)
8220.1.1 = { holder=102069149 } # Yezzan (nc)
8237.1.1 = { holder=102469149 } # Azzak (nc)
8286.1.1 = { holder=102669149 } # Grazdan (nc)
