#House Yew
900.1.1={
	liege="d_crakehall"
}
7839.1.1 = { holder=344222 } # Adrian (nc)
7861.1.1 = { holder=343222 } # Addam (nc)
7876.1.1 = { holder=342222 } # Alan (nc)
7903.1.1 = { holder=341222 } # Manfryd (nc)
7929.1.1 = { holder=340222 } # Bryce (nc)

7945.1.1 = { holder=152222 } # Polliver (nc)
7975.1.1 = { holder=153222 } # Damon (nc)
7996.1.1 = { holder=300222 } # Manford (nc)
8039.1.1 = { holder=303222 } # Gerion (nc)
8058.1.1 = { holder=307222 } # Garrison (nc)
8094.1.1 = { holder=311222 } # Quenton (nc)
8132.1.1 = { holder=313222 } # Genna (nc)
8161.1.1 = { holder=315222 } # Lewys (nc)
8170.1.1 = { holder=316222 } # Ormond (nc)
8186.1.1 = { holder=319222 } # Manfryd (nc)
8233.1.1 = { holder=321222 } # Roland (nc)	
8270.1.1 = {holder=222}
8293.1.1 = {holder=4222 } #Manfryd Yew (C)