#House Orme
900.1.1={ law=succ_primogeniture law=cognatic_succession
	liege="d_tumbleton"
}
7879.1.1 = { holder=6043256 } # Russell (nc)
7881.1.1 = { holder=6042256 } # Gareth (nc)
7937.1.1 = { holder=6041256 } # Lymond (nc)
7962.1.1 = { holder=6040256 } # Orton (nc)

7983.1.1 = { holder=6000256 } # Lyman (nc)
8009.1.1 = { holder=6002256 } # Androw (nc)
8017.1.1 = { holder=6007256 } # Gyles (nc)
8028.1.1 = { holder=6009256 } # Lyonel (nc)
8074.1.1 = { holder=6015256 } # Canther (nc)
8081.1.1 = { holder=6016256 } # Horras (nc)
8098.1.1 = { holder=6020256 } # Bayard (nc)
8127.1.1 = { holder=6022256 } # Arryn (nc)
8154.1.1 = { holder=6025256 } # Horras (nc)
8185.1.1 = { holder=6027256 } # Reynard (nc)
8216.1.1 = { holder=6028256 } # Garth (nc)
8251.1.1 = { holder=6034256 } # Harrold (nc)

8261.1.1={
	holder=256
}





