#House Sheqethi
600.1.1={
	liege="d_hesh"
	law = succ_ultimogeniture
}
7868.1.1 = { holder=34455923 } # Otemis (nc)
7886.1.1 = { holder=34355923 } # Metigay (nc)
7905.1.1 = { holder=34255923 } # Bagha (nc)
7929.1.1 = { holder=34155923 } # Kundac (nc)
7955.1.1 = { holder=34055923 } # Balgici (nc)

7973.1.1 = { holder=10055923 } # Pono (nc)
8010.1.1 = { holder=10355923 } # Motho (nc)
8057.1.1 = { holder=10555923 } # Jhogo (nc)
8064.1.1 = { holder=10955923 } # Malakho (nc)
8076.1.1 = { holder=10755923 } # Pono (nc)
8082.1.1 = { holder=11555923 } # Jommo (nc)
8124.1.1 = { holder=12355923 } # Drogo (nc)
8160.1.1 = { holder=12555923 } # Moro (nc)
8173.1.1 = { holder=12855923 } # Zekko (nc)
8220.1.1 = { holder=12955923 } # Jommo (nc)
8232.1.1 = { holder=13255923 } # Qotho (nc)
8270.1.1 = { holder=13555923 } # Mago (nc)

