7851.1.1 = { holder=340559257 } # Bear (nc)
7878.1.1 = { holder=341559257 } # Frog (nc)
7909.1.1 = { holder=343559257 } # Eel (nc)
7941.1.1 = { holder=345559257 } # Eel (nc)
7951.1.1 = { holder=346559257 } # Stag (nc)
7989.1.1 = { holder=10559257 } # Fox (nc)
8009.1.1 = { holder=11559257 } # Lion (nc)
8015.1.1 = { holder=15559257 } # Direwolf (nc)
8031.1.1 = { holder=17559257 } # Lion (nc)
8066.1.1 = { holder=19559257 } # Cat (nc)
8089.1.1 = { holder=20559257 } # Eagle (nc)
8114.1.1 = { holder=22559257 } # Snowbear (nc)
8137.1.1 = { holder=24559257 } # Anteater (nc)
8139.1.1 = { holder=27559257 } # Mammoth (nc)
8174.1.1 = { holder=26559257 } # Giant (nc)
8206.1.1 = { holder=30559257 } # Seal (nc)
8213.1.1={
	liege="k_beyond_wall"
}
8220.1.1 = { holder=35559257 } # Elk (nc)
8226.9.9={
	liege="0"
}
8245.1.1 = { holder=37559257 } # Bear (nc)
8261.1.1 = { holder=38559257 } # Donkey (nc)
8271.1.1 = { holder=41559257 } # Deer (nc)

#8290.1.1 = { holder=40559257 } # Unicorn (nc)

8282.1.1={
	holder=157002
}
#8289.1.1 = { holder=40559257 } # Beetle (nc)
8298.1.1={
	liege="k_beyond_wall"
}
8300.2.10={
	holder=999000666
}