600.1.1={
	law = slavery_2
	law = succ_turkish_succession
	law = agnatic_succession
}
7600.1.1 = { 
	liege = d_gogossos
}
7880.1.1 = { holder=1000352 } # Parquello (nc)
7915.1.1 = { holder=1001352 } # Aelix (nc)
7917.1.1 = { holder=1004352 } # Aelix (nc)
7950.1.1 = {
	holder = 0 # Red Death
	liege = 0
}
8125.1.1 = {
	liege = k_basilisk_isles
}
8155.1.1 = {
	liege = 0
}
8300.1.1={
	liege = k_basilisk_isles
}