#House Sabbag
600.1.1={
	liege="d_yin"
}
7862.1.1 = { holder=34469195 } # Ping (nc)
7877.1.1 = { holder=34369195 } # Fai (nc)
7903.1.1 = { holder=34269195 } # Yuen (nc)
7941.1.1 = { holder=34169195 } # Shinu (nc)
7966.1.1 = { holder=34069195 } # Rho (nc)

7995.1.1 = { holder=10069195 } # Ubayd (nc)
8036.1.1 = { holder=10169195 } # Ubayd (nc)
8048.1.1 = { holder=10369195 } # Jibril (nc)
8086.1.1 = { holder=10669195 } # Shamir (nc)
8104.1.1 = { holder=11169195 } # Nizam (nc)
8111.1.1 = { holder=11269195 } # Yahya (nc)
8143.1.1 = { holder=11869195 } # Yusuf (nc)
8177.1.1 = { holder=12169195 } # Isa (nc)
8214.1.1 = { holder=12469195 } # Abdul (nc)
8220.1.1 = { holder=12669195 } # Nizam (nc)
8254.1.1 = { holder=13169195 } # Yusuf (nc)
8279.1.1 = { holder=13469195 } # Is'mail (nc)

