600.1.1={
	liege="d_trader_town"
}
7858.1.1 = { holder=34569167 } # Xo (nc)
7881.1.1 = { holder=34469167 } # Huan (nc)
7911.1.1 = { holder=34369167 } # Rai (nc)
7935.1.1 = { holder=34269167 } # Vuen (nc)
7966.1.1 = { holder=34169167 } # Sun (nc)
7977.1.1 = { holder=34069167 } # Can (nc)

7996.1.1 = { holder=10069167 } # Trang (nc)
8026.1.1 = { holder=10369167 } # Mirza (nc)
8046.1.1 = { holder=10469167 } # Jabir (nc)
8076.1.1 = { holder=10769167 } # Yusuf (nc)
8113.1.1 = { holder=11169167 } # Gafur (nc)
8163.1.1 = { holder=11469167 } # Nizam (nc)
8173.1.1 = { holder=11569167 } # Mansur (nc)
8201.1.1 = { holder=11769167 } # Aghlab (nc)
8241.1.1 = { holder=12069167 } # Husam (nc)
8250.1.1 = { holder=12169167 } # Najib (nc)
8276.1.1 = { holder=12369167 } # Mubarak (nc)



