#House Thelius
600.1.1={
	liege="k_pentos"
}
7869.1.1 = { holder=34469124 } # Arano (nc)
7879.1.1 = { holder=34369124 } # Harlano (nc)
7904.1.1 = { holder=34269124 } # Beleqor (nc)
7931.1.1 = { holder=34169124 } # Rufo (nc)
7955.1.1 = { holder=34069124 } # Nereo (nc)

7988.1.1 = { holder=100069124 } # Daario (nc)
8024.1.1 = { holder=100169124 } # Tycho (nc)
8030.1.1 = { holder=100369124 } # Ollo (nc)
8048.1.1 = { holder=100669124 } # Terro (nc)
8071.1.1 = { holder=101069124 } # Beqqo (nc)
8096.1.1 = { holder=101469124 } # Ferrego (nc)
8129.1.1 = { holder=101669124 } # Collio (nc)
8150.1.1 = { holder=101869124 } # Meralyn (nc)
8153.1.1 = { holder=102069124 } # Byan (nc)
8176.1.1 = { holder=102269124 } # Moreo (nc)
8215.1.1 = { holder=102769124 } # Meralyn (nc)
8224.1.1 = { holder=102969124 } # Allaquo (nc)
8275.1.1 = { holder=103369124 } # Tagganaro (nc)
