1.1.1 = {
	law = succ_turkish_succession
	law = agnatic_succession
}
7860.1.1 = { holder=340559143 } # Stiv (nc)
7877.1.1 = { holder=341559143 } # Qhorin (nc)
7913.1.1 = { holder=343559143 } # Walton (nc)
7938.1.1 = { holder=345559143 } # Byam (nc)
7979.1.1 = { holder=347559143 } # Doss (nc)
7986.1.1 = { holder=10559143 } # Cayn (nc)
8022.1.1 = { holder=11559143 } # Torghen (nc)
8033.1.1 = { holder=14559143 } # Eyron (nc)
8052.1.1 = { holder=18559143 } # Devyn (nc)
8060.1.1 = { holder=19559143 } # Walton (nc)
8085.1.1 = { holder=22559143 } # Jojen (nc)
8096.1.1 = { holder=23559143 } # Gerrick (nc)
8127.1.1 = { holder=26559143 } # Dywen (nc)
8155.1.1 = { holder=27559143 } # Gariss (nc)
8175.1.1 = { holder=31559143 } # Briar (nc)
8213.1.1={
	liege="k_beyond_wall"
}
8215.1.1 = { holder=33559143 } # Dormund (nc)
8224.1.1 = { holder=35559143 } # Mance (nc)
8226.9.9={
	liege="0"
}
8260.1.1 = { holder=38559143 } # Arnolf (nc)
8286.1.1 = { holder=42559143 } # Devyn (nc)

8290.1.1 = {
	holder=157019 #Howd the Wanderer
}

8298.1.1 = {
	liege="k_beyond_wall"
}
8300.2.10 = {
	holder=999000666
}
