#House Aladda
600.1.1={
	liege="d_faros"
}
7864.1.1 = { holder=34555932 } # Nasuh (nc)
7883.1.1 = { holder=34455932 } # Furkan (nc)
7902.1.1 = { holder=34355932 } # Wazar (nc)
7942.1.1 = { holder=34255932 } # Zahed (nc)
7950.1.1 = { holder=34155932 } # Bakir (nc)
7974.1.1 = { holder=34055932 } # Qamar (nc)

7995.1.1 = { holder=100055932 } # Samir (nc)
8040.1.1 = { holder=100455932 } # Aarif (nc)
8055.1.1 = { holder=100555932 } # Alim (nc)
8077.1.1 = { holder=101055932 } # Ali_Ali (nc)
8100.1.1 = { holder=101255932 } # Husam (nc)
8110.1.1 = { holder=101455932 } # Aram (nc)
8139.1.1 = { holder=101655932 } # Jaleel (nc)
8143.1.1 = { holder=101855932 } # Zeyd (nc)
8189.1.1 = { holder=102255932 } # Hasan_Hasan (nc)
8216.1.1 = { holder=102455932 } # Khalil (nc)
8234.1.1 = { holder=102555932 } # Mirza (nc)
8249.1.1 = { holder=102855932 } # Sadiq (nc)
8288.1.1 = { holder=103055932 } # Wahab (nc)

