#House Sluggolsh
2000.1.1 = {
	liege="d_ibbish"
	law = succ_primogeniture
	law = agnatic_succession
}
7863.1.1 = { holder=34555931 } # Torr (nc)
7881.1.1 = { holder=34455931 } # Toth (nc)
7895.1.1 = { holder=34355931 } # Buzogg (nc)
7930.1.1 = { holder=34255931 } # Poleg (nc)
7949.1.1 = { holder=34155931 } # Toth (nc)
7970.1.1 = {
	liege="k_ibben"
}
7971.1.1 = { holder=34055931 } # Fanog (nc)
7994.1.1 = { holder=1055931 } # Cull (nc)
8029.1.1 = { holder=1255931 } # Gurn (nc)
8041.1.1 = { holder=1755931 } # Jogg (nc)
8049.1.1 = { holder=1955931 } # Brogg (nc)
8106.1.1 = { holder=2255931 } # Jogg (nc)
8132.1.1 = { holder=2655931 } # Durr (nc)
8158.1.1 = { holder=3355931 } # Bodger (nc)
8169.1.1 = { holder=3555931 } # Cull (nc)
8204.1.1 = { holder=3755931 } # Quort (nc)
8224.1.1 = { holder=3855931 } # Drogg (nc)
8232.1.1 = { holder=3955931 } # Joth (nc)
8264.1.1 = { holder=4155931 } # Howd (nc)
8289.1.1 = { holder=40555931 } # Eleogg (nc)
