#House Urrathon
600.1.1={
	liege="d_qarkash"
}
7862.1.1 = { holder=343350004 } # Regon (nc)
7879.1.1 = { holder=342350004 } # Sallor (nc)
7921.1.1 = { holder=341350004 } # Orios (nc)
7950.1.1 = { holder=340350004 } # Nades (nc)

7991.1.1 = { holder=150350004 } # Xarvo (nc)
8017.1.1 = { holder=100350004 } # Sallor (nc)
8036.1.1 = { holder=102350004 } # Orbelo (nc)
8082.1.1 = { holder=103350004 } # Bolquello (nc)
8133.1.1 = { holder=107350004 } # Vogarro (nc)
8161.1.1 = { holder=108350004 } # Orbelo (nc)
8184.1.1 = { holder=114350004 } # Yorko (nc)
8201.1.1 = { holder=117350004 } # Colloquo (nc)
8221.1.1 = { holder=119350004 } # Qavo (nc)
8268.1.1 = { holder=122350004 } # Lotho (nc)
8280.1.1 = { holder=125350004 } # Qarro (nc)