#House Risley
900.1.1={ 
	law=succ_primogeniture 
	law=cognatic_succession
	liege="d_red_lake"
}
7800.1.1 = { 
	liege="d_northmarch"  # Osgrey's become overlords
}
7862.1.1 = { holder=88000891 } # Russel (nc)
7868.1.1 = { holder=88000890 } # Richard (nc)
7901.1.1 = { holder=88000889 } # Rodrik (nc)
7933.1.1 = { holder=88000888 } # Olmond (nc)
7960.1.1 = { holder=88000887 } # Raymun (nc)

7996.1.1 = { holder=88000885 } # Lucas (nc)
8014.1.1 = { holder=88000884 } # Ellard (nc)
8022.1.1={
	liege="d_red_lake" #Osgreys fall in prominence
}
8027.1.1 = { holder=88000883 } # Jon (nc)
8072.1.1 = { holder=88000882 } # Rolland (nc)
8095.1.1 = { holder=88000881 } # Russell (nc)
8121.1.1 = { holder=88000880 } # Marq (nc)
8126.1.1 = { holder=88000803 } # Victor (C)
8136.1.1 = { holder=88000804 } # Eden (nc) 
8165.1.1 = { holder=1001425 } # Owen (nc)
8196.1.1 = { holder=1021425 } # Randyll (nc)
8200.1.1 = { holder=1031425 } # Robert (nc)
8250.1.1 = { holder=1051425 } # Gunthor (nc)
8271.1.1={
	holder=88237
}








