#House Kivimaki
600.1.1={
	liege="d_samyriana"
	law = succ_seniority
	law = agnatic_succession
}
7860.1.1 = { holder=34455950 } # Aslak (nc)
7878.1.1 = { holder=34355950 } # Terho (nc)
7915.1.1 = { holder=34255950 } # Armas (nc)
7925.1.1 = { holder=34155950 } # Kalevi (nc)
7960.1.1 = { holder=34055950 } # Veli (nc)

7982.1.1 = { holder=10055950 } # Sami (nc)
8003.1.1 = { holder=10155950 } # Najib (nc)
8019.1.1 = { holder=10455950 } # Alim (nc)
8032.1.1 = { holder=10755950 } # Alim (nc)
8081.1.1 = { holder=10955950 } # Qawurd (nc)
8082.1.1 = { holder=11355950 } # Isa (nc)
8129.1.1 = { holder=11655950 } # Mukhtar (nc)
8145.1.1 = { holder=11955950 } # Isa (nc)
8147.1.1 = { holder=12355950 } # Mirza (nc)
8163.1.1 = { holder=12755950 } # Jaleel (nc)
8187.1.1 = { holder=13055950 } # Shamir (nc)
8219.1.1 = { holder=13255950 } # Jalil (nc)
8275.1.1 = { holder=13555950 } # Mahdi (nc)
8285.1.1 = { holder=13655950 } # Abdul (nc)
