#House Vuorinen
600.1.1={
	liege="d_bayasabhad"
	law = succ_seniority
	law = agnatic_succession
}
7840.1.1 = { holder=34455953 } # Otra (nc)
7858.1.1 = { holder=34355953 } # Jalkava (nc)
7889.1.1 = { holder=34255953 } # Vartia (nc)
7905.1.1 = { holder=34155953 } # Paaso (nc)
7949.1.1 = { holder=34055953 } # Markku (nc)

7971.1.1 = { holder=10055953 } # Alim (nc)
8003.1.1 = { holder=10155953 } # Nizam (nc)
8019.1.1 = { holder=10455953 } # Azam (nc)
8032.1.1 = { holder=10755953 } # Jalil (nc)
8081.1.1 = { holder=10955953 } # Nasr (nc)
8082.1.1 = { holder=11355953 } # Abdullah (nc)
8129.1.1 = { holder=11655953 } # Ali_Ali (nc)
8145.1.1 = { holder=11955953 } # Hussayn (nc)
8147.1.1 = { holder=12355953 } # Youkhanna (nc)
8163.1.1 = { holder=12755953 } # Jaleel (nc)
8187.1.1 = { holder=13055953 } # Youkhanna (nc)
8219.1.1 = { holder=13255953 } # Mukhtar (nc)
8275.1.1 = { holder=13555953 } # Murad (nc)
8285.1.1 = { holder=13655953 } # Shaiban (nc)
