#House Fenn
6000.1.1={
	liege="d_theneck"
	law = succ_primogeniture
}
7849.1.1 = { holder=344073 } # Theomore (nc)
7868.1.1 = { holder=343073 } # Jaremy (nc)
7899.1.1 = { holder=342073 } # Borion (nc)
7921.1.1 = { holder=341073 } # Hoarfrost (nc)
7951.1.1 = { holder=340073 } # Kyle (nc)

7977.1.1 = { holder=13073 } # Lonnel (nc)
8023.1.1 = { holder=11073 } # Harrion (nc)
8039.1.1 = { holder=10073 } # Jojen (nc)
8046.1.1 = { holder=9073 } # Bowen (nc)
8084.1.1 = { holder=8073 } # Howland (nc)
8133.1.1 = { holder=6073 } # Harwin (nc)
8164.1.1 = { holder=5073 } # Beron (nc)
8195.1.1 = { holder=4073 } # Benjicot (nc)
8244.1.1 = { holder=2073 } # Karlon (nc)
8262.1.1 = {
	holder = 73
}
