#House Sathmantes
600.1.1={
	law = succ_turkish_succession
	law = agnatic_succession
}
7861.1.1 = { holder=345300546 } # Marohr (nc)
7878.1.1 = { holder=344300546 } # Joss (nc)
7892.1.1 = { holder=343300546 } # Joraquo (nc)
7908.1.1 = { holder=342300546 } # Conos (nc)
7935.1.1 = { holder=341300546 } # Syrno (nc)
7963.1.1 = { holder=340300546 } # Rallono (nc)

7980.1.1 = { holder=150300546 } # Vaelar (nc)
8024.1.1 = { 
	liege="d_northern_stepstones"
} 
8029.1.1 = { 
	liege = 0
}
8036.1.1 = { holder=100300546 } # Roro (nc)
8079.1.1 = { holder=105300546 } # Sallodhor (nc)
8096.6.1={
	liege="d_northern_stepstones"
}
8106.1.1 = { holder=106300546 } # Cossoma (nc)
8109.1.1={
	liege="k_stepstones"
}
8116.1.1={
	liege="0"
}
8129.1.1 = { holder=109300546 } # Syrio (nc)
8131.9.1 = {
	liege="k_stepstones"
}
8134.1.1 = {
	liege="0"
}
8157.1.1={
	liege="k_stepstones"
}
8159.1.1={
	liege="0"
}
8168.1.1 = { holder=112300546 } # Ordello (nc)
8196.1.1 = { holder=115300546 } # Illyrio (nc)
8205.1.1 = { holder=117300546 } # Ordello (nc)
8227.1.1 = { holder=118300546 } # Izembaro (nc)
8249.1.1 = { holder=122300546 } # Tycho (nc)
8258.1.1={
	liege="d_northern_stepstones"	#Changed to Last Valyrian Saan, as he is member of Band of the Nine
	#liege="k_stepstones"
}
8260.12.31={
	liege="0"
}
8274.1.1 = { holder=125300546 } # Khorane (C)
8284.1.1 = { 
	liege = d_northern_stepstones
}