1.1.1 = {
	law = succ_turkish_succession
	law = agnatic_succession
}
7859.1.1 = { holder=340559144 } # Halgor (nc)
7878.1.1 = { holder=343559144 } # Sigorn (nc)
7893.1.1 = { holder=344559144 } # Hallis (nc)
7935.1.1 = { holder=345559144 } # Gavin (nc)
7965.1.1 = { holder=348559144 } # Torwynd (nc)
7984.1.1 = { holder=10559144 } # Bodger (nc)
8011.1.1 = { holder=11559144 } # Owen (nc)
8024.1.1 = { holder=12559144 } # Harlon (nc)
8050.1.1 = { holder=15559144 } # Mors (nc)
8079.1.1 = { holder=16559144 } # Dryn (nc)
8101.1.1 = { holder=21559144 } # Gorne (nc)
8123.1.1 = { holder=22559144 } # Harmond (nc)
8131.1.1 = { holder=23559144 } # Alfyn (nc)
8148.1.1 = { holder=29559144 } # Henk (nc)
8213.1.1={
	liege="k_beyond_wall"
}
8215.1.1 = { holder=30559144 } # Arson (nc)
8226.9.9={
	liege="0"
}
8228.1.1 = { holder=32559144 } # Jeor (nc)
8256.1.1 = { holder=33559144 } # Lenyl (nc)
8267.1.1 = { holder=36559144 } # Halleck (nc)
8280.1.1 = {
	holder=157020 #Blind Doss (C)
}
8298.1.1={
	liege="k_beyond_wall"
}
8300.2.10={
	holder=999000666
}
