600.1.1={
	liege="k_leng"
}
7847.1.1 = { holder=34555962 } # Zathog (nc)
7872.1.1 = { holder=34455962 } # Yorith (nc)
7889.1.1 = { holder=34355962 } # Nycrama (nc)
7915.1.1 = { holder=34255962 } # Japhet (nc)
7937.1.1 = { holder=34155962 } # Kaalut (nc)
7976.1.1 = { holder=34055962 } # Eihort (nc)

7995.1.1 = { holder=100055962 } # Yusuf (nc)
8038.1.1 = { holder=100155962 } # Mirza (nc)
8053.1.1 = { holder=100655962 } # Mukhtar (nc)
8076.1.1 = { holder=100955962 } # Husam (nc)
8117.1.1 = { holder=101255962 } # Yusuf (nc)
8118.1.1 = { holder=101355962 } # Youkhanna (nc)
8167.1.1 = { holder=101555962 } # Najib (nc)
8177.1.1 = { holder=101855962 } # Uways (nc)
8179.1.1 = { holder=102155962 } # Uways (nc)
8222.1.1 = { holder=102455962 } # Sami (nc)
8276.1.1 = { holder=102955962 } # Alim (nc)
8288.1.1 = { holder=103255962 } # Jaleel (nc)


