#House Iranoran
6780.1.1 = { 
	law=succ_primogeniture 
	liege = d_essaria
} 
7855.1.1 = { holder=340662902 } # Jaekar (nc)
7880.1.1 = { holder=10002902 } # Vaermon (nc)
7929.1.1 = { holder=10012902 } # Qavo (nc)
7955.1.1 = { holder=10022902 } # Parquello (nc)

#Dothraki
7980.1.1 = { #It used to be 7970 for Zollo and 7932 for his father: Rovo (100600218)
	holder=101600218  # Zollo (nc)
	liege = d_hills_essaria
}
7985.1.1 = { holder = 100600210 liege = d_essaria } #Khal temmo
7999.1.1 = { 
	holder=101600218 
	liege = d_hills_essaria
}

8001.1.1 = { holder=104600218 } # Jhogo (nc)
8002.1.1 = { holder=108600218 } # Mengo (nc)
8032.1.1 = { holder=113600218 } # Arakho (nc)
8061.1.1 = { holder=114600218 } # Fogo (nc)
8083.1.1 = { holder=116600218 } # Loso (nc)
8094.1.1 = { holder=123600218 } # Jasso (nc)
8113.1.1 = { holder=126600218 } # Virsallo (nc)
8145.1.1 = { holder=127600218 } # Dhako (nc)
8191.1.1 = { holder=132600218 } # Fogo (nc)
8211.1.1 = { holder=135600218 } # Jarbo (nc)
8234.1.1 = { holder=140600218 } # Zhako (nc)
8273.1.1 = { holder=142600218 } # Bharbo (nc)
8290.1.1 = { holder=101600206 liege = d_essaria } #Zekko Canon