#House Vance
900.1.1={
	liege="d_wayfarersrest"
}
6648.1.1 = {
    holder=650153 #Armistead (C)
}
6675.1.1 = {
	holder = 0
}
7751.1.1 = {
    holder=652153 #Robert (C)
}
7785.1.1 = {
	holder=653153
}
7840.1.1 = {
	holder=344153
}
7860.1.1 = { holder=343153 } # Robert (nc)
7885.1.1 = { holder=342153 } # Gerald (nc)
7917.1.1 = { holder=341153 } # Harry (nc)
7944.1.1 = { holder=340153 } # Whalen (nc)

7967.1.1={ holder=550153 } # Dafyn
7986.1.1={
	holder=9153
}
8010.1.1={
	holder=21154
}
8043.1.2={
	holder=20154
}
8055.1.1={
	holder=19154
}
8078.1.1={
	holder=18154
}
8102.1.1={
	holder=17154
}
8130.1.1={
	holder=15154
}
8155.1.1={
	holder=14154
}
8174.1.1={
	holder=13154
}
8203.1.1={
	holder=12154
}
8214.1.1={
	holder=11154
}
8266.1.1={
	holder=22154
}
8277.1.1={
	holder=154
}
8298.9.20={
   holder=1154 # Karyl Vance (C)
}  