6000.1.1={
	liege="d_karhold"
	law = succ_primogeniture
}
7850.1.1 = { holder=344091 } # Eyron (nc)
7866.1.1 = { holder=343091 } # Lothor (nc)
7895.1.1 = { holder=342091 } # Mark (nc)
7911.1.1 = { holder=341091 } # Mors (nc)
7941.1.1 = { holder=340091 } # Harmond (nc)

7952.1.1 = { holder=14091 } # Leobald (nc)
8002.1.1 = { holder=13091 } # Donnor (nc)
8021.1.1 = { holder=12091 } # Dorren (nc)
8071.1.1 = { holder=11091 } # Wynton (nc)
8090.1.1 = { holder=10091 } # Cley (nc)
8095.1.1 = { holder=9091 } # Bannen (nc)
8134.1.1 = { holder=8091 } # Cregan (nc)
8165.1.1 = { holder=7091 } # Ramsay (nc)
8191.1.1 = { holder=6091 } # Jorah (nc)
8231.1.1 = { holder=5091 } # Torren (nc)
8242.1.1 = { holder=4091 } # Daryn (nc)
8276.1.1 = {
	holder=91
}
