#House Zirratbanit
7854.1.1 = { holder=34433914 } # Ibnatum (nc)
7871.1.1 = { holder=34333914 } # Samuqan (nc)
7888.1.1 = { holder=34233914 } # Nergal (nc)
7919.1.1 = { holder=34133914 } # Wusum (nc)
7944.1.1 = { holder=34033914 } # Dadazig (nc)

7964.1.1 = { holder=10033914 } # Samuqan (nc)
8009.1.1 = { holder=10133914 } # La'um (nc)
8036.1.1 = { holder=10333914 } # Humbab (nc)
8054.1.1 = { holder=11333914 } # Naqir (nc)
8108.1.1 = { holder=11733914 } # Shulpae (nc)
8132.1.1 = { holder=12133914 } # Sidu (nc)
8139.1.1 = { holder=12333914 } # Warad (nc)
8171.1.1 = { holder=12533914 } # Palusum (nc)
8216.1.1 = { holder=12633914 } # Enlil (nc)
8227.1.1 = { holder=12933914 } # Damuzi (nc)
8261.1.1 = { holder=13133914 } # Dadanum (nc)
8262.1.1 = { holder=13233914 } # Limer (nc)


