900.1.1={ law=succ_primogeniture law=cognatic_succession
	liege="d_highgarden"
}

#House Tyrell
6620.1.1={holder=61000253} # Alester Tyrell # Tyrell first era
6655.1.1={holder=63000253} # Gareth Tyrell
6682.1.1={holder=64000253} # Leo Tyrell

6700.1.1={holder=0} #

7250.1.1={holder=66000253} # Leon Tyrell
7308.1.1={holder=67000253} # Osmund Tyrell
7345.1.1={holder=68000253} # Robert Tyrell
7371.1.1={holder=69000253} # Lorent Tyrell


7401.1.1={holder=0} #

7825.1.1 = { holder=340253 } # Garth (nc)
7841.1.1 = { holder=61200253 } # Alester (nc)
7860.1.1 = { holder=61300253 } # Artys (nc)
7889.1.1 = { holder=61400253 } # Lyonel (nc)
7916.1.1 = { holder=61600253 } # Gareth (nc)
7942.1.1 = { holder=61800253 } # Robert (nc)
7984.1.1 = { holder=62200253 } # Osmund (nc)
7988.1.1 = { holder=60000253 } # Gyles Tyrell 	
7989.1.1 = { holder=16253 } #Harlen Tyrell

#House Westbrook
7998.6.6 = { holder=3000240 } # Edwyd (nc)
8001.1.1 = { holder=3001240 } # Owen (nc)
8058.1.1 = { holder=3006240 } # Hosman (nc)
8066.1.1 = { holder=3007240 } # Rycherd (nc)
8079.1.1 = { holder=3009240 } # Owain (nc)
8097.1.1 = { holder=3016240 } # Leyton (nc)
8131.1.1 = { holder=3019240 } # Paxter (nc)
8140.1.1 = { holder=3021240 } # Harrold (nc)
8175.1.1 = { holder=3024240 } # Desmond (nc)
8193.1.1 = { holder=3026240 } # Cleyton (nc)
8231.1.1 = { holder=3030240 } # Mathis (nc)
8255.1.1 = { holder=3031240 } # Luthor (nc)
8265.1.1={
	holder=240
}



