#House Estren
900.1.1={
	liege="d_hornvale"
}
7870.1.1 = { holder=344201 } # Lewys (nc)
7883.1.1 = { holder=343201 } # Osbert (nc)
7910.1.1 = { holder=342201 } # Lyman (nc)
7934.1.1 = { holder=341201 } # Elmer (nc)
7966.1.1 = { holder=340201 } # Egon (nc)

7976.1.1 = { holder=301201 } # Elys (nc)
8023.1.1 = { holder=300201 } # Loren (nc)
8049.1.1 = { holder=306201 } # Dunsen (nc)
8095.1.1 = { holder=309201 } # Tybolt (nc)
8107.1.1 = { holder=312201 } # Daven (nc)
8128.1.1 = { holder=316201 } # Daven (nc)
8153.1.1 = { holder=317201 } # Loren (nc)
8187.1.1 = { holder=318201 } # Lewys (nc)
8191.1.1 = { holder=319201 } # Garrison (nc)
8218.1.1 = { holder=324201 } # Leo (nc)
8243.1.1 = { holder=326201 } # Roland (nc)	
8274.1.1 = { holder=201 } # Regenard (c)