1.1.1={
	#liege="e_iron_throne"
	law = nightswatch_elective
	law = centralization_4
}
120.1.1 = {
	holder=830059 #The Night's King
}
141.1.1 = {
	holder = 0
}


6200.1.1 = {
	holder=121400 #Tristan Mudd
}
6218.1.1 = {
	holder = 0
}
6270.1.1 = {
	holder=121403 #Roderick Flint
}
6286.1.1 = {
	holder = 0
}
6365.1.1 = {
	holder=121406 #Marq Rankenfell
}
6378.1.1 = {
	holder = 0
}
6410.1.1 = {
	holder=121404 #Robin Hill
}
6428.1.1 = {
	holder = 0
}


7285.1.1 = {
	holder=1052105 #Crowl
}
7322.1.1 = {
	holder = 0
}
7600.1.1 = {
	holder=822059 #Osric Stark
}

7660.5.1  = {
	holder = 0
}
7781.1.1 = { 
	holder=121401 # Runcel hightower 
} 
7808.1.1  = {
	holder = 0
}
7886.1.1 = {
	holder=1011868 #Manderly
}
7924.1.1 = {
	holder=1012868 #Durrandon
}
7936.1.1 = {
	holder=1014868 #Greyjoy
}
7943.1.1 = {
	holder=1015868 #Lannister
}
7960.1.1 = {
	holder=1000868 #Martell
}
7980.1.1 = {
	holder=11966 #Harras Hoare
}
8009.1.1 = { holder=1001868 } #Bolton
8028.1.1 = {
	holder=3003264 #Orbert Caswell
}
8037.1.1 = { holder=1003868 } #Wull
8049.1.1 = { holder=1004868 } #Lothor Burley
8062.1.1 = { holder=1005868 } #Tyrell
8081.1.1 = { holder=1006868 } #Cerwyn
8108.1.1 = { holder=1007868 } #Tallhart
8137.1.1 = { holder=1008868 } #Templeton
8161.1.1 = { holder=1009868 } #Stackspear
8192.1.1 = { holder=1010868 } #Orme
8217.1.1 = {
	holder=3067362 #Sleepy Jack Musgood
}
8239.1.1 = {
	holder=77026 #Bloodraven
}

8252.6.1 = { holder=1013868 } #Buckler

8276.1.1 = {	
	holder=121000 #Qorgyle aka good old Jantos
}
8288.1.1 = {	
	holder=336 #Jeor Mormont
}
8299.7.8 = {
	holder=200353 #Janos Slynt #Interim Commander
}
8300.3.1 = {	
	holder=1002059 #Jon Snow
	effect = { copy_title_history = d_nightswatch_dummy } #Remove janos Slynt from history
}




