#House Oakheart
1.1.1={
	law=succ_primogeniture 
	law=cognatic_succession
	liege="e_reach"
}	
22.1.1 = { holder=60800237 } # John the Oak (C)
75.1.1 = { holder=0 }
7870.1.1 = { holder=340237 } # Orbert (nc)
7881.1.1 = { holder=60140237 } # Gormon (nc)
7885.1.1 = { holder=60130237 } # Alder (nc)
7907.1.1 = { holder=60120237 } # Filbert (nc)
7988.1.1 = { holder=60110237 } # Alester (nc)
7990.1.1 = { holder=60000237 } # Olyvar (nc)

7998.6.6={
	liege="k_reach"
}
8003.1.1={
	holder=60100237
}
8012.8.1={
	holder=24237
}
8035.1.1={
	holder=23237
}
8066.1.1={
	holder=21237
}
8102.1.1={
	holder=20237
}
8119.1.1={
	holder=40237
}
8137.1.1={
	holder=16237
}
8164.1.1={
	holder=15237
}
8178.1.1={
	holder=14237
}
8195.3.7={
	liege = 0
}
8196.1.1={
	holder=11237
}
8196.6.1 = {
	liege = "k_reach"
}
8235.1.1={
	holder=10237
}
8272.1.1={
	holder=237
}





