7920.1.1 = {
	holder=341600235 # Virgo (nc)
	law = slavery_2
	historical_nomad = yes
	liege = k_dothraki
}
7933.1.1 = { holder=340600235 } # Cohollo (nc)
7951.1.1 = { 
	holder=600222 #Zhako (C)
	liege = 0
}
7995.1.1 = { holder=100600202 } # Jhaquo (nc)
8014.1.1 = { holder=102600202 } # Jhaquo (nc)
8055.1.1 = { holder=104600202 } # Qotho (nc)
8073.1.1 = { holder=107600202 } # Mago (nc)
8102.1.1 = { holder=111600202 } # Bharbo (nc)
8104.1.1 = { holder=114600202 } # Bharbo (nc)
8140.1.1 = { holder=117600202 } # Fogo (nc)
8144.1.1 = { holder=118600202 } # Qotho (nc)
8180.1.1 = { holder=119600202 } # Aggo (nc)
8193.1.1 = { holder=120600202 } # Bharbo (nc)
8202.1.1 = { holder=122600202 } # Temmo (nc)
8243.1.1 = { holder=127600202 } # Drogo (nc)
8260.1.1 = { holder=130600202 } # Zollo (nc)

8287.1.1 = {
	liege = k_dothraki #Khal Drogo
	holder=3300102 #Jhaqo
}
8298.10.10 = {
	liege = 0
}
