#House Anttila
600.1.1={
	law = succ_seniority
	law = agnatic_succession
}
7849.1.1 = { holder=34455948 } # Saku (nc)
7869.1.1 = { holder=34355948 } # Hyrkoon (nc)
7892.1.1 = { holder=34255948 } # Hyrkoon (nc)
7914.1.1 = { holder=34155948 } # Byrkoon (nc)
7945.1.1 = { holder=34055948 } # Hyro (nc)

7982.1.1 = { holder=10055948 } # Gafur (nc)
8003.1.1 = { holder=10155948 } # Yusuf (nc)
8019.1.1 = { holder=10455948 } # Bakr (nc)
8032.1.1 = { holder=10755948 } # Abdul (nc)
8081.1.1 = { holder=10955948 } # Nizam (nc)
8082.1.1 = { holder=11355948 } # Ali_Ali (nc)
8129.1.1 = { holder=11655948 } # Ubayd (nc)
8145.1.1 = { holder=11955948 } # Sami (nc)
8147.1.1 = { holder=12355948 } # Burhanaddin (nc)
8163.1.1 = { holder=12755948 } # Halil (nc)
8187.1.1 = { holder=13055948 } # Jalil (nc)
8219.1.1 = { holder=13255948 } # Fadl (nc)
8275.1.1 = { holder=13555948 } # Abdullah (nc)
8285.1.1 = { holder=13655948 } # Mukhtar (nc)
