600.1.1={
	liege="k_qarth"
}
7849.1.1 = { holder=34435000 } # Kathon (nc)
7856.1.1 = { holder=34335000 } # Agon Kree (nc)
7895.1.1 = { holder=34235000 } # Xathos (nc)
7915.1.1 = { holder=34135000 } # Thersito (nc)
7950.1.1 = { holder=34035000 } # Chilon Cedes (nc)

7981.1.1 = { holder=10035000 } # Ordello (nc)
8025.1.1 = { holder=10135000 } # Pyat (nc)
8032.1.1 = { holder=10435000 } # Urrathon (nc)
8047.1.1 = { holder=10535000 } # Mathos (nc)
8070.1.1 = { holder=10935000 } # Surindos (nc)
8115.1.1 = { holder=11135000 } # Wendello (nc)
8133.1.1 = { holder=11435000 } # Ordello (nc)
8161.1.1 = { holder=12035000 } # Lotho (nc)
8194.1.1 = { holder=12135000 } # Pyat (nc)
8200.1.1 = { holder=12535000 } # Methyso (nc)
8217.1.1 = { holder=12835000 } # Ognos (nc)
8246.1.1 = { holder=13335000 } # Belicho (nc)
8280.1.1 = { holder=13635000 } # Xaro Xhoan (nc)
