4000.1.1 = {
	active = yes
	liege = k_the_most_devout
	law = succ_open_elective
}
8028.1.1={
	holder=351321 #Damon Morrrigen
}
8042.6.1={
	holder=1754362 #Joffrey Doggett
}
8048.6.2={ #Supressed, disbanded by Jaehaerys I
	liege = 0
	holder=0
	active = no
}
8165.1.1={ #given great sept of baelor
	capital = 226
}
8300.3.1 = { #cersei
	active = yes
	liege = k_the_most_devout
	law = succ_open_elective
	holder = 60000081 #Theodan Wells
}
