7000.1.1 = { 
	law = slavery_2
	law = succ_primogeniture
	law = enatic_succession
	law = centralization_2
	law = privilege_vassal_king
	liege = e_yi_ti
	effect = {
		add_law = privilege_vassal_king
	}
} 
7860.1.1 = { holder=34055963 } # Lavinia (nc)
7885.1.1 = { 
	holder = 15055963 # Khiara the Great (C)
} 
7898.1.1 = {
	liege = 0
}
7941.1.1 = { holder=15155963 } # Turua (nc) 
7962.1.1 = { holder=15255963 } # Lavinia (nc)

7995.1.1 = { holder=10055963 } # Shogofa (nc)
8031.1.1 = { holder=10255963 } # Nyawela (nc)
8039.1.1 = { holder=10655963 } # Simin (nc)
8075.1.1 = { holder=10755963 } # Alim (nc)
8096.1.1 = { holder=10855963 } # Rasa (nc)
8126.1.1 = { holder=11255963 } # Semeah (nc)
8147.1.1 = { holder=11655963 } # Reshawna (nc)
8177.1.1 = { holder=11855963 } # Shola (nc)
8197.1.1 = { holder=12055963 } # Layla (nc)
8221.1.1 = { holder=12255963 } # Paywand (nc)
8265.1.1 = { holder=12555963 } # Jahaira (nc)




