900.1.1={
	law = succ_primogeniture
	law = cognatic_succession
	law = centralization_1
	law = privilege_vassal_king
	law = slavery_0
	effect = {
		add_law = privilege_vassal_king
	}
}
2979.1.1={ holder=174405 }	#The Griffin King
3000.1.1={ 
	holder=0 
	active = no
}
