1.1.1={
	law = succ_primogeniture
	law = cognatic_succession
}

6470.1.1 = { holder = 550881801 } #Jon Brightstone, King of The Fingers
6479.1.1={
	holder=0
}
6492.1.1 = { holder = 5551176 } #Gawayne Corbray
6523.1.1 = { holder = 551176 } #Qyle Corbray
6537.1.1 = { holder=552176 } # Jaimie
6539.1.1={
	holder=0
}