500.1.1={ 
	liege="c_blackhaven"
}
#House Cole
7601.1.1 = { holder=60001007 } # Triston (nc)
7608.1.1 = { holder=60021007 } # Lothor (nc)
7621.1.1 = { holder=60051007 } # Malcolm (nc)
7642.1.1 = { holder=60081007 } # Allar (nc)
7667.1.1 = { holder=60121007 } # Clarence (nc)
7687.1.1 = { holder=60131007 } # Monford (nc)
7708.1.1 = { holder=60181007 } # Gwayne (nc)

#Cole exiled
7731.2.1 = { holder = 306303 } # Rickard Dondarrion (nc)
7760.1.1 = { holder = 307303 } # Devan Dondarrion (nc)
7776.1.1 = { holder = 200303 } # Lyonel Dondarrion (C)
7812.1.1 = { holder = 201303 } # Manfred Dondarrion (C)
7841.1.1 = { holder = 310303 } # Gulian Dondarrion (nc)
7871.1.1 = { holder = 303 } # Edric Dondarrion (nc)
7896.1.1 = { holder = 1303 } # Beric Dondarrion (C)
7898.10.28={ holder = 2303 } 



