500.1.1={ 
	liege="c_ib_sar"
}
7590.1.1 = { holder=1055929 } # Slugg (nc)
7636.1.1 = { holder=1255929 } # Bodger (nc)
7648.1.1 = { holder=1655929 } # Tugg (nc)
7685.1.1 = { holder=1855929 } # Jogg (nc)
7689.1.1 = { holder=2055929 } # Bodger (nc)
7721.1.1 = { holder=2455929 } # Quort (nc)
7749.1.1 = { holder=2955929 } # Draloth (nc)
7762.1.1 = { holder=3355929 } # Ygon (nc)
7806.1.1 = { holder=3455929 } # Cull (nc)
7814.1.1 = { holder=3855929 } # Brogg (nc)
7858.1.1 = { holder=3955929 } # Groo (nc)
7897.1.1 = { holder=40055929 } # Slugg (nc)
