500.1.1={ 
	liege="c_lyseneforest"
}
7590.1.1 = { holder=11001386 } # Doniphos (nc)
7627.1.1 = { holder=10001386 } # Sullhiem (nc)
7663.1.1 = { holder=10021386 } # Tagganaro (nc)
7667.1.1 = { holder=10061386 } # Qarro (nc)
7712.1.1 = { holder=10101386 } # Lysono (nc)
7728.1.1 = { holder=10131386 } # Roggo (nc)
7762.1.1 = { holder=10171386 } # Gyleno (nc)
7797.1.1 = { holder=10231386 } # Collio (nc)
7821.1.1 = { holder=10271386 } # Roro (nc)
7834.1.1 = { holder=10311386 } # Syrio (nc)
7859.1.1={ holder = 0 } #Ninepenny king
7859.12.31 = { holder = 10311386 } 
7878.1.1={
	holder=88108 #Tregar Ormollen
}


