500.1.1={ 
	liege="c_pentos"
}
7564.1.1 = { holder=100300012 } # Yorko (nc)
7606.1.1 = { holder=100300526 } # Gyleno (nc)
7615.1.1 = { holder=101300526 } # Jaqen (nc)
7654.1.1 = { holder=102174360 } # Narbo (nc)
7657.1.1 = { holder=104174366 } # Denyo (nc)
7689.1.1 = { holder=109174360 } # Izembaro (nc)
7694.1.1 = { holder=110174360 } # Ezzelyno (nc)
7709.1.1 = { holder=112300012 } # Izembaro (nc)
7728.1.1 = { holder=114300012 } # Denyo (nc)
7730.1.1 = { holder=119300526 } # Izembaro (nc)
7743.1.1 = { holder=114174366 } # Lotho (nc)
7771.1.1 = { holder=116174366 } # Gyloro (nc)
7775.1.1 = { holder=121174360 } # Izembaro (nc)
7798.1.1 = { holder=125174366 } # Brusco (nc)
7800.1.1 = { holder=126174356 } # Daario (nc)
7812.1.1 = { holder=128174356 } # Noho (nc)
7817.1.1 = { holder=130300012 } # Ordello (nc)
7831.1.1 = { holder=132300012 } # Meralyn (nc)
7840.1.1 = { holder=126174366 } # Ternesio (nc)
7858.1.1 = { holder=129174366 } # Terro (nc)
7885.1.1 = { holder=134174356 } # Ternesio (nc)
7890.1.1={ holder=600000040 } # Illyrio



