500.1.1={ 
	liege="k_braavos"
	holding_dynasty = 300004 # House Zalyne
}
7589.1.1 = { holder=100300004 } # Ternesio (nc)
7632.1.1 = { holder=101300004 } # Denyo (nc)
7643.1.1 = { holder=104300004 } # Tagganaro (nc)
7661.1.1 = { holder=105300004 } # Ferrego (nc)
7679.1.1 = { holder=150300004 } # Uthero Zalyne he of the Uncloaking (c)
7708.1.1 = { holder=112300004 } # Roggo (nc)
7740.1.1 = { holder=115300004 } # Terro (nc)
7756.1.1 = { holder=118300004 } # Lotharo (C)
7770.1.1 = { holder=120300004 } # Tormo (nc)
7807.1.1 = { holder=123300004 } # Cossomo (nc)
7821.1.1 = { holder=127300004 } # Gyleno (nc)
7836.1.1 = { holder=130300004 } # Narbo (nc)
7854.1.1 = { holder=134300004 } # Cossomo (nc)




