500.1.1={ 
	liege="k_tyrosh"
	holding_dynasty = 300533 # Ryndoon
}

7570.1.1 = { holder=150300533 } # Illyrio (nc)
7615.1.1 = { holder=100300533 } # Groleo (nc)
7651.1.1 = { holder=102300533 } # Ferrego (nc)
7662.1.1 = { holder=104300533 } # Meralyn (nc)
7706.1.1 = { holder=108300533 } ##### Racallio Ryndoon
7734.1.1 = { holder=109300533 } # Areo (nc)
7754.1.1 = { holder=114300533 } # Denyo (nc)
7759.1.1 = { holder=118300533 } # Byan (nc)
7818.1.1 = { holder=122300533 } # Illyrio (nc)
7828.1.1 = { holder=123300533 } # Roggo (nc)
7856.1.1 = { holder=127300533 } # Ollo (nc)
# 7859.1.1={ liege="d_tyrosh" } #Ninepenny king
# 7859.12.31 = { liege="k_tyrosh" }




