1523.1.1={ 
	liege="k_valyria"
	holding_dynasty = 496045 # Tyvar
}

7595.1.1 = { holder=10006045 } # Haerys (nc)
7626.1.1 = { holder=10016045 } # Baelor (nc)
7637.1.1 = { holder=10026045 } # Gaemon (nc)
7675.1.1 = { holder=10056045 } # Jaekar (nc)
7684.1.1 = { holder=10086045 } # Aenys (nc)
7712.1.1 = { holder=10116045 } # Aemon (nc)
7752.1.1 = { holder=10126045 } # Maegor (nc)
7760.1.1 = { holder=10156045 } # Aegon (nc)
7787.1.1 = { holder=10186045 } # Maelys (nc)
7804.1.1 = { holder=10236045 } # Aegon (nc)
7840.1.1 = { holder=10266045 } # Aenar (nc)
7879.1.1 = { holder=10276045 } # Aenar (nc)
7904.1.1 = { holder=10296045 } # Aerion (nc)
