7575.1.1 = { holder=10559301 } # Dryn (nc)
7620.1.1 = { holder=11559301 } # Tormund (nc)
7638.1.1 = { holder=13559301 } # Jojen (nc)
7667.1.1 = { holder=15559301 } # Calon (nc)
7701.1.1 = { holder=16559301 } # Stiv (nc)
7735.1.1 = { holder=17559301 } # Medger (nc)
7756.1.1 = { holder=19559301 } # Del (nc)
7766.1.1 = { holder=23559301 } # Brogg (nc)
7804.1.1 = { holder=25559301 } # Arson (nc)
7813.1.1={
	liege="k_beyond_wall"
}
7826.9.9={
	liege="0"
}
7833.1.1 = { holder=30559301 } # Howd (nc)
7873.1.1 = { holder=31559301 } # Soren (nc)
7889.1.1 = { holder=33559301 } # Errok (nc)
7898.1.1={
	liege="k_beyond_wall"
}
7900.1.1={
	holder=999000666
}
