400.1.1 = {liege="d_duskendale"}

7594.1.1 = { holder=3000034 } # Anguy Buckwell (nc)
7601.1.1 = { holder=3001034 } # Morros Buckwell (nc)
7613.1.1 = { holder=3002034 } # Ferret Buckwell (nc)
7657.1.1 = { holder=3004034 } # Cyrenna Buckwell (nc)
7666.1.1 = { holder=3005034 } # Alliser Buckwell (nc)
7700.1.1 = { holder=3006034 } # Aurane Buckwell (nc)
7737.1.1 = { holder=3011034 } # Guncer Buckwell (nc)
7765.1.1 = { holder=3016034 } # Joyeuse Buckwell (nc)
7777.1.1 = { holder=3019034 } # Hubard Buckwell (nc)
7802.1.1 = { holder=3020034 } # Bryen Buckwell (nc)
7844.1.1 = { holder=3025034 } # Eustace Buckwell (nc)
7856.1.1 = { holder=3026034 } # Donnel Buckwell (nc)
7896.1.1 = { holder=3030034 } # Morgan Buckwell (nc)
