200.1.1={
	liege="d_nefer"
}
7595.1.1 = { holder=10069207 } # Akin (nc)
7637.1.1 = { holder=10269207 } # Khalil (nc)
7651.1.1 = { holder=10769207 } # Idris (nc)
7667.1.1 = { holder=10969207 } # Zeyd (nc)
7708.1.1 = { holder=11369207 } # Akin (nc)
7734.1.1 = { holder=11469207 } # Fadl (nc)
7755.1.1 = { holder=11669207 } # Youkhanna (nc)
7768.1.1 = { holder=11969207 } # Mirza (nc)
7789.1.1 = { holder=12069207 } # Zeyd (nc)
7820.1.1 = { holder=12169207 } # Ghalib (nc)
7844.1.1 = { holder=12569207 } # Shamir (nc)
7861.1.1 = { holder=12969207 } # Yahya (nc)



