1.1.1={ law=succ_primogeniture law=cognatic_succession
	liege="d_oldtown"
}

1.1.1 = { holder=6000284 } # Bors the Breaker (C)

1.1.1 = { holder=0 }

7430.1.1 = { holder=6200284 } # Boryan (nc)
7468.1.1 = { holder=6300284 } # Turan (nc)
7492.1.1 = { holder=6400284 } # Andrik (nc)
7538.1.1 = { holder=6600284 } # Perceon (nc)
7572.1.1 = { holder=6800284 } # Barrett (nc)

7574.1.1 = { holder=3000284 } # Bors (nc)
7599.1.1 = { holder=3001284 } # John (nc)
7619.1.1 = { holder=3006284 } # Victor (nc)
7678.1.1 = { holder=3010284 } # Reynard (nc)
7706.1.1 = { holder=3011284 } # Horras (nc)
7724.1.1 = { holder=3016284 } # Lorent (nc)
7743.1.1 = { holder=3017284 } # Rickard (nc)
7744.1.1 = { holder=3019284 } # Lyonel (nc)
7801.1.1 = { holder=3020284 } # Petyr (nc)
7804.1.1 = { holder=3022284 } # Ben (nc)
7818.1.1 = { holder=3024284 } # Gerold (nc)
7840.1.1 = { holder=3029284 } # Buford (nc)
7876.1.1 = { holder=3033284 } # Moryn (nc)
7889.1.1={
	holder=284 #Jon
}
7896.1.1={
	holder=1284 #Alysanne
}



