5600.1.1={
	liege="d_blackwood"
	law = succ_primogeniture
}
6490.1.1={holder=150150} # Donnel
6507.1.1 = { holder = 0 }

7259.1.1 = { holder=152150 } #Roderick (C)
7280.1.1 = { holder=155150 } #Aethelmure
7300.1.1 = { holder=  0 }

7497.2.1={holder=60400150} # Torrhen Blackwood
7517.11.7={holder=60300150} # Agnes Blackwood
7533.1.1 = {holder=60200150} # Brynden Blackwood
7580.1.1={holder=60000150} # Rodrik Blackwood
7595.1.1={holder=35150} # Theomar Blackwood

7606.1.1={
	holder=34150
}
7640.1.1={
	holder=33150
}
7654.1.1={
	holder=152150
}
7680.1.1={
	holder=155150
}
7709.1.1={
	holder=30150
}
7721.1.1={
	holder=29150
}
7729.8.1={
	holder=28150
}
7790.1.1={
	holder=26150
}
7806.1.1={
	holder=22150
}
7830.1.1={
	holder=21150
}
7858.1.1={
	holder=19150
}
7881.1.1={
	holder=150
}
