500.1.1={
    liege="e_riverlands"
	law = succ_primogeniture
	law = cognatic_succession
	holder=0
}


7598.2.1={
    holder=10001438 # House Mandrake
}

7609.1.1={
	holder=9001438
}
7625.1.1={
	holder=8001438
}
7645.1.1={
	holder=7001438
}
7677.1.1={
	holder=6001438
}
7691.1.1={
	holder=5001438
}
7708.1.1={
	holder=4001438
}
7745.1.1={
	holder=3001438
}
7778.1.1={
	holder=2001438
}
7792.1.1={
	holder=1001438
}
7795.3.7={
	liege= 0
}
7796.1.1={
	liege="k_riverlands"
	holder=1159 # House Tully
}
7810.1.1={
	holder=10159
}
7858.1.1={
	holder=175159
}
7865.1.1 = {
	holder=159
}
7899.10.15={
	holder=4159
}
7900.4.15 = {
	holder=127 #Walder Frey
}
