#NOTE: The holder of this title has the House Dondarrion dynasty tracker set in roberts_rebellion_events
1.1.1 = { liege="e_stormlands" }

7594.1.1 = { holder = 300303 } # Alaric Dondarrion (nc)

7606.1.1 = { holder = 301303 } # Donnel Dondarrion (nc)
7643.1.1 = { holder = 302303 } # Harbert Dondarrion (nc)
7669.1.1 = { holder = 303303 } # Galladon Dondarrion (nc)
7686.1.1 = { holder = 304303 } # Maric Dondarrion (nc)
7707.1.1 = { holder = 306303 } # Rickard Dondarrion (nc)
7760.1.1 = { holder = 307303 } # Devan Dondarrion (nc)
7776.1.1 = { holder = 200303 } # Lyonel Dondarrion (C)
7812.1.1 = { holder = 201303 } # Manfred Dondarrion (C)
7841.1.1 = { holder = 310303 } # Gulian Dondarrion (nc)
7871.1.1 = { holder = 303 } # Edric Dondarrion (nc)
7896.1.1 = { holder = 1303 } # Beric Dondarrion (C)
7898.10.28={ holder = 2303 } 
