500.1.1 = {liege="d_wendwater"}

7570.1.1 = { holder=60100323} # Alaric Staedmon (nc)
7597.2.2 = { holder=300323 } # Arrec Staedmon (nc)
7600.2.27 = { holder=301323 } # Arstan Staedmon (nc)
7605.1.1 = { holder=302323 } # Armond Staedmon (nc)
7635.1.1 = { holder=306323 } # Arstan Staedmon (nc)
7656.1.1 = { holder=310323 } # Addam Staedmon (nc)
7695.1.1 = { holder=317323 } # Bryen Staedmon (nc)
7703.1.1 = { holder=313323 } # Corenna Staedmon (nc)
7732.1.1 = { holder=319323 } # Bonifer Staedmon (nc)
7764.1.1 = { holder=326323 } # Arrec Staedmon (nc)
7777.1.1 = { holder=327323 } # Mylenda Staedmon (nc)
7789.1.1 = { holder=328323 } # Matriice Staedmon (nc)
7813.1.1 = { holder=329323 } # Casper Staedmon (nc)
7831.1.1 = { holder=330323 } # Criston Staedmon (nc)
7862.1.1 = { holder=335323 } # Simon Staedmon (nc)
7877.1.1 = { holder=200323 } # Alesander Staedmon (C)

