400.1.1 = {liege="d_stokeworth"}

7594.1.1 = { holder=3001039 } # Pate Byrch (nc)
7635.1.1 = { holder=3004039 } # Will Byrch (nc)
7672.1.1 = { holder=3008039 } # Gendry Byrch (nc)
7710.1.1 = { holder=3013039 } # Monford Byrch (nc)
7746.1.1 = { holder=3015039 } # Alaric Byrch (nc)
7770.1.1 = { holder=3018039 } # Triston Byrch (nc)
7796.1.1 = { holder=3019039 } # Monford Byrch (nc)
7804.1.1 = { holder=3021039 } # Matthos Byrch (nc)
7866.1.1 = { holder=3027039 } # Clayton Byrch (nc)
7887.1.1 = { holder=3032039 } # Devan Byrch (nc)
