5600.1.1={
	liege="d_acornsridge"
	law = succ_primogeniture
}
7585.1.1={
	holder=68160
}
7604.1.1={
	holder=67160
}
7654.1.1={
	holder=65160
}
7666.1.1={
	holder=64160
}
7694.1.1={
	holder=63160
}
7699.1.1={
	holder=62160
}
7713.1.1={
	holder=61160
}
7726.1.1={
	holder=60160
}
7753.1.1={
	holder=59160
}
7765.1.1={
	holder=57160
}
7789.1.1={
	holder=56160
}
7795.1.1={
	holder=55160
}
7800.1.1={
	holder=54160
}
7840.1.1={
	holder=42160
}
7872.1.1={
	holder=2160
}
7882.1.1={
	liege=0
}
7884.1.1={
	holder=32160
}
7884.1.1={
	liege="d_acornsridge"
}
7897.10.1={
	holder=22160
}

