#House Xhanu
7587.1.1 = { 
	holder=100304006 
	liege=d_omburu
	law = succ_seniority
	law = cognatic_succession
} # Doshuru (nc)
7625.1.1 = { holder=101304006 } # Xhonodo (nc)
7632.1.1 = { holder=106304006 } # Qubhar (nc)
7682.1.1 = { holder=108304006 } # Xaro (nc)
7707.1.1 = { holder=112304006 } # Xhal (nc)
7709.1.1 = { holder=117304006 } # Jiradhar (nc)
7751.1.1 = { holder=121304006 } # Tal (nc)
7766.1.1 = { holder=123304006 } # Eskender (nc)
7805.1.1 = { holder=126304006 } # Isodo (nc)
7835.1.1 = { holder=131304006 } # Xhondo (nc)
7858.1.1 = { holder=132304006 } # Punuxharo (nc)




