7200.1.1={
	liege="e_stormlands"
	law = succ_primogeniture
}
7594.1.1 = { holder=3000028 } # Jarman Chyttering (nc)

7639.1.1 = { holder=3001028 } # Monford Chyttering (nc)
7654.1.1 = { holder=3004028 } # Roger Chyttering (nc)
7675.1.1 = { holder=3006028 } # Monford Chyttering (nc)
7681.1.1 = { holder=3009028 } # Roger Chyttering (nc)
7722.1.1 = { holder=3011028 } # Lucos Chyttering (nc)
7743.1.1 = { holder=3014028 } # Jarman Chyttering (nc)
7795.1.1 = { holder=3019028 } # Monford Chyttering (nc)
7816.1.1 = { holder=3020028 } # Leona Chyttering (nc)
7839.1.1 = { holder=3025028 } # Jarman Chyttering (nc)
7862.1.1 = { holder=3028028 } # Lucos Chyttering (nc)
7870.1.1 = { holder=2030028 } # Jaremy Chyttering (C)

