5600.1.1={
	liege="d_theneck"
	law = succ_primogeniture
}
7586.1.1={
	holder = 22078
}
7611.1.1={
	holder = 21078
}
7640.1.1={
	holder = 20078
}
7664.1.1={
	holder = 19078
}
7671.1.1={
	holder = 18078
}
7704.1.1={
	holder = 17078
}
7716.1.1={
	holder = 16078
}
7762.1.1={
	holder = 14078
}
7788.1.1={
	holder = 13078
}
7813.1.1={
	holder = 12078
}
7839.1.1={
	holder = 11078
}
7851.1.1={
	holder = 10078
}
7870.1.1={
	holder = 78
}
