5600.1.1={
	liege="d_strongsong"
	law = succ_primogeniture
}
7596.1.1 = { holder=300175 } # Serwyn (nc)
7623.1.1 = { holder=302175 } # Jasper (nc)
7626.1.1 = { holder=303175 } # Yohn (nc)
7666.1.1 = { holder=304175 } # Denys (nc)
7695.1.1 = { holder=307175 }
7716.1.1 = { holder=310175 } # Randyll (nc)
7750.1.1 = { holder=313175 } # Wyl (nc)
7780.1.1 = { holder=315175 } # Robin (nc)
7787.1.1 = { holder=318175 } # Albar (nc)

7848.1.1={
	holder = 94092 #Benedar
}
7879.1.1={
	holder = 94079 	#Loras Loras Egen
}
