7575.1.1 = { holder=10559133 } # Mikken (nc)
7607.1.1 = { holder=11559133 } # Orell (nc)
7620.1.1 = { holder=14559133 } # Hareth (nc)
7667.1.1 = { holder=17559133 } # Henk (nc)
7679.1.1 = { holder=20559133 } # Alfyn (nc)
7727.1.1 = { holder=21559133 } # Gariss (nc)
7746.1.1 = { holder=23559133 } # Hallis (nc)
7747.1.1 = { holder=24559133 } # Calon (nc)
7784.1.1 = { holder=26559133 } # Bernarr (nc)
7839.1.1 = { holder=29559133 } # Torwynd (nc)
7856.1.1 = { holder=31559133 } # Gerrick (nc)
7863.1.1 = { holder=32559133 } # Devyn (nc)


