6600.1.1 = {
	liege = k_norvos
}

7595.1.1 = { holder=100069119 } # Ordello (nc)
7615.1.1 = { holder=100169119 } # Terro (nc)
7632.1.1 = { holder=100269119 } # Meralyn (nc)
7668.1.1 = { holder=100569119 } # Cossomo (nc)
7673.1.1 = { holder=100769119 } # Pynto (nc)
7728.1.1 = { holder=100869119 } # Ferrego (nc)
7737.1.1 = { holder=101269119 } # Luco (nc)
7743.1.1 = { holder=101469119 } # Beqqo (nc)
7780.1.1 = { holder=101669119 } # Illyrio (nc)
7806.1.1 = { holder=102069119 } # Ferrego (nc)
7836.1.1 = { holder=102669119 } # Ordello (nc)
7866.1.1 = { holder=102869119 } # Myrmello (nc)
7870.1.1 = { holder=103269119 } # Ezzelyno (nc)

