200.1.1={
	law = succ_open_elective
	law = true_cognatic_succession
}
7584.1.1 = { holder=100305620 } # Allaquo (nc)
7618.1.1 = { holder=102305620 } # Methyso (nc)
7645.1.1 = { holder=104305620 } # Taena (nc)
7673.1.1 = { holder=105305620 } # Moqorro (nc)
7705.1.1 = { holder=107305620 } # Serenei (nc)
7742.1.1 = { holder=108305620 } # Rolloquo (nc)
7757.1.1 = { holder=111305620 } # Moqorro (nc)
7784.1.1 = { holder=113305620 } # Benerro (nc)
7792.1.1 = { holder=116305620 } # Rolloquo (nc)
7831.1.1 = { holder=118305620 } # Belicho (nc)
7845.1.1 = { holder=119305620 } # Vysarro (nc)
7879.1.1 = { holder=124305620 } # Qarro (nc)
7895.1.1 = { holder=127305620 } # Korra (C)
