100.1.1={
	liege="d_riverrun"
}


7647.1.1={
	holder=1010211
}
7677.1.1={
	holder=1009211
}
7683.1.1={
	holder=1008211
}
7715.1.1={
	holder=1007211 # Benfrey (SC)
}
7730.5.8={
	holder=1006211 # Belgrave (nc)
}
7757.1.1={
	holder=1005211
}
7759.1.1={
	holder=1004211
}
7801.1.1={
	holder=1003211
}
7840.1.1={
	holder=1002211
}
7853.1.1={
	holder=1001211
}
7880.1.1={
	holder=1000211 # Belgrave (SC)
}
7899.5.1={
    holder=3000211 # William (SC)
}	
