#c_deep_den
500.1.1={
	liege="d_goldroad"
}

7596.1.1 = {holder=20217}
7632.1.1 = {holder=19217}
7668.1.1 = {holder=18217}
7685.1.1 = {holder=17217}
7709.1.1 = {holder=16217}
7729.6.6 = {holder=15217}
7754.1.1 = {holder=14217}
7779.1.1 = {holder=13217}
7784.1.1 = {holder=12217}
7796.5.5 = {holder=11217}
7845.1.1 = {holder=10217}
7867.1.1 = {holder=1217}
7881.1.1 = {holder=217}
