200.1.1={
	law = succ_open_elective
	law = enatic_succession
}
7560.1.1 = { holder=103600207 } # Irri (C)
7598.1.1 = { holder=100010305 } # Sezza (nc)
7605.1.1 = { holder=101010305 } # Gezzella (nc)
7609.1.1 = { holder=102010305 } # Yezza (nc)
7650.1.1 = { holder=103010305 } # Mezzala (nc)
7664.1.1 = { holder=104010305 } # Jezhane (nc)
7698.1.1 = { holder=105010305 } # Mellezzara (nc)
7725.1.1 = { holder=106010305 } # Azzara (nc)
7742.1.1 = { holder=107010305 } # Mezzala (nc)
7767.1.1 = { holder=108010305 } # Ellezzara (nc)
7793.1.1 = { holder=109010305 } # Azzara (nc)
7825.1.1 = { holder=110010305 } # Yezza (nc)
7841.1.1 = { holder=111010305 } # Sezza (nc)
7868.1.1 = { holder=112010305 } # Sezza (nc)

