1523.1.1={
	liege = d_valyria
}

7595.1.1 = { holder=10006052 } # Rhaekar (nc)
7632.1.1 = { holder=10026052 } # Otherys (nc)
7661.1.1 = { holder=10036052 } # Vaekar (nc)
7670.1.1 = { holder=10076052 } # Rhaekar (nc)
7709.1.1 = { holder=10116052 } # Vaermon (nc)
7740.1.1 = { holder=10156052 } # Aegor (nc)
7787.1.1 = { holder=10186052 } # Aemon (nc)
7798.1.1 = { holder=10206052 } # Maelys (nc)
7810.1.1 = { holder=10226052 } # Valarr (nc)
7849.1.1 = { holder=10246052 } # Jaekar (nc)
7860.1.1 = { holder=10296052 } # Aerion (nc)
7876.1.1 = { holder=10336052 } # Vaermon (nc)
