1123.1.1={
	liege="k_lys"
}
7570.1.1 = { holder=150300546 } # Vaelar (nc)
7636.1.1 = { holder=100300546 } # Roro (nc)
7679.1.1 = { holder=105300546 } # Sallodhor (nc)
7706.1.1 = { holder=106300546 } # Cossoma (nc)
7729.1.1 = { holder=109300546 } # Syrio (nc)
7768.1.1 = { holder=112300546 } # Ordello (nc)
7796.1.1 = { holder=115300546 } # Illyrio (nc)
7805.1.1 = { holder=117300546 } # Ordello (nc)
7827.1.1 = { holder=118300546 } # Izembaro (nc)
7849.1.1 = { holder=122300546 } # Tycho (nc)

