1123.1.1={
	liege="k_pentos"
}

7595.1.1 = { holder=100069126 } # Denyo (nc)
7632.1.1 = { holder=100169126 } # Orbelo (nc)
7637.1.1 = { holder=100369126 } # Ezzelyno (nc)
7643.1.1 = { holder=100869126 } # Moreo (nc)
7661.1.1 = { holder=100969126 } # Beqqo (nc)
7680.1.1 = { holder=101069126 } # Gyloro (nc)
7704.1.1 = { holder=101469126 } # Terro (nc)
7744.1.1 = { holder=101669126 } # Roggo (nc)
7773.1.1 = { holder=101969126 } # Moredo (nc)
7774.1.1 = { holder=102069126 } # Joss (nc)
7835.1.1 = { holder=102169126 } # Terro (nc)
7840.1.1 = { holder=102569126 } # Tagganaro (nc)
7866.1.1 = { holder=102669126 } # Allaquo (nc)
7890.1.1 = { holder=102769126 } # Daario (nc)
