5600.1.1={
	liege="d_blackwood"
	law = succ_primogeniture
}
7533.1.1 = {  
	liege="e_riverlands"
	holder=11366 # Harwyn Hoare
} 
7556.1.1 = { holder=11466 } # Harrock
7560.1.1 = { holder=11566 } # Harren (C)

7591.1.1={
	liege="d_blackwood"
	holder=24134
}
7609.1.1={
	holder=23134
}
7630.1.1={
	holder=22134
}
7637.1.1={
	holder=21134
}
7676.1.1={
	holder=19134
}
7695.1.1={
	holder=18134
}
7718.1.1={
	holder=17134
}
7737.1.1={
	holder=16134
}
7748.1.1={
	holder=15134
}
7783.1.1={
	holder=14134
}
7807.1.1={
	holder=13134
}
7837.1.1={
	holder=12134
}
7859.1.1={
	holder=134
}
