5000.1.1={
	liege="d_sarnath"
	law = succ_primogeniture
}
7592.1.1 = { holder=10056813 } # Lokesh (nc)
7623.1.1 = { holder=10256813 } # Utkarsh (nc)
7658.1.1 = { holder=10556813 } # Lakshan (nc)
7670.1.1 = { holder=11056813 } # Harihar (nc)
7710.1.1 = { holder=11356813 } # Atharvan (nc)
7719.1.1 = { holder=11756813 } # Manaar (nc)
7752.1.1 = { holder=12156813 } # Palash (nc)
7770.1.1 = { holder=12456813 } # Ekavir (nc)
7792.1.1 = { holder=12656813 } # Sagar (nc)
7814.1.1 = { holder=12856813 } # Taresh (nc)
7839.1.1 = { holder=13056813 } # Onkar (nc)
7854.1.1 = { holder=13356813 } # Harith (nc)
7886.1.1 = { holder=13556813 } # Yogesh (nc)

