1123.1.1={
	liege="k_myr"
}
7570.1.1 = { holder=150300525 } # Moredo (nc)
7623.1.1 = { holder=100300525 } # Gylono (nc)
7642.1.1 = { holder=101300525 } # Pynto (nc)
7682.1.1 = { holder=102300525 } # Pynto (nc)
7687.1.1 = { holder=104300525 } # Rogga (nc)

7696.6.1 = {
	holder=106300542
}
7700.1.1 = {
	holder=10081386
}
7704.1.1 = {
	holder=112300516
}
7714.1.1 = {
	holder=113300544
}
7731.1.1 = { 
	holder=108300525 # Syrio (nc)
} 
7753.1.1 = { holder=110300525 } # Ordello (nc)
7796.1.1 = { holder=115300525 } # Lanna (nc)

7811.1.1 = { holder=117300525 } # Mero (nc)
7851.1.1 = { holder=120300525 } # Gyloro (nc)

