1.1.1 = {liege="d_shipbreaker"}

7594.1.1 = { holder=300361 } # Durran Swygert (nc)
7604.1.1 = { holder=301361 } # Joffrey Swygert (nc)
7624.1.1 = { holder=303361 } # Lyonel Swygert (nc)
7662.1.1 = { holder=306361 } # Gawen Swygert (nc)
7683.1.1 = { holder=308361 } # Ronnet Swygert (nc)
7719.1.1 = { holder=309361 } # Raymund Swygert (nc)
7739.1.1 = { holder=310361 } # Simon Swygert (nc)
7754.1.1 = { holder=313361 } # Byron Swygert (nc)
7776.1.1 = { holder=315361 } # Arstan Swygert (nc)
7821.1.1 = { holder=318361 } # Endrew Swygert (nc)
7841.1.1 = { holder=319361 } # Elinor Swygert (nc)
7860.1.1 = { holder=322361 } # Gunthor Swygert (nc)

