5600.1.1={
	liege="d_southstone"
	law = succ_primogeniture
}
7595.1.1={
	holder=22148
}
7634.1.1={
	holder=21148
}
7644.1.1={
	holder=20148
}
7659.1.1={
	holder=19148
}
7707.1.1={
	holder=17148
}
7748.1.1={
	holder=15148
}
7772.1.1={
	holder=14148
}
7806.1.1={
	holder=13148
}
7854.1.1={
	holder=148
}
7875.1.1 = {
	holder=4148
}
7883.1.1={
	holder=124148
}
