1923.1.1={
	liege="k_skahazadhan"
	law=succ_primogeniture 
	law=cognatic_succession
}
7495.1.1 = { holder=1000220 } # Paezhar (nc)
7535.1.1 = { holder=1001220 } # Haznak (nc)
7574.1.1 = { holder=1004220 } # Skahaz (nc)
7591.1.1 = { holder=1006220 } # Zaraq (nc)
7626.1.1 = { holder=1008220 } # Gorzhak (nc)
7658.1.1 = { holder=1012220 } # Ghazdor (nc)
7690.1.1 = { holder=1015220 } # Yurkhaz (nc)
7703.1.1 = { holder=1017220 } # Grazdhan (nc)
7724.1.1 = { holder=1019220 } # Bharkaz (nc)
7750.1.1 = { holder=1023220 } # Yarkhaz (nc)
7782.1.1 = { holder=1027220 } # Barkhaz (nc)
7805.1.1 = { holder=1033220 } # Hizdhar (nc)
7818.1.1 = { holder=1035220 } # Faezdhar (nc)

