500.1.1={
	liege="d_oldstones"
}
7590.1.1={
	holder=19142
}
7614.1.1={
	holder=18142
}
7641.1.1={
	holder=17142
}
7651.1.1={
	holder=16142
}
7661.1.1={
	holder=15142
}
7675.1.1={
	holder=14142
}
7707.1.1={
	holder=12142
}
7749.1.1={
	holder=11142
}
7771.1.1={
	holder=21142
}
7795.1.1={
	holder=9142
}
7813.1.1={
	holder=8142
}
7831.1.1={
	holder=7142
}
7846.1.1={
	holder=6142
}
7881.1.1={
	holder=142
}
