100.1.1={
	liege="e_riverlands"
	law = succ_primogeniture
}

7550.1.1 = { holder=311472	} # Osfryd (nc)
7580.1.1 = { holder=321472	} # Lyman (nc)
7605.1.1 = { holder=341472	} # Lucos (nc)
7637.1.1 = { holder=351472	} # Loghain (nc)
7654.1.1 = { holder=361472	} # Eustace (nc)
7700.1.1 = { holder=371472	} # Perkin (nc)
7723.1.1 = { holder=381472	} # Owain (C)
7730.5.5 = { holder=391472	} # Parmen (nc)
7751.1.1 = { holder=421472	} # Leslyn (nc)
7775.1.1 = { holder=441472	} # Osney (nc)
7812.1.1 = { holder=101472	} # Balman (nc)
7862.1.1 = { holder=1472	} # Owain (nc)