1123.1.1={
	liege="k_myr"
}

7595.1.1 = { holder=100300703 } # Gyleno (nc)
7634.1.1 = { holder=110300703 } # Izembaro (nc)
7640.1.1 = { holder=120300703 } # Thoros (nc)
7678.1.1 = { holder=107300703 } # Thoros (nc)
7689.1.1 = { holder=111300703 } # Ezzelyno (nc)
7700.1.1 = { holder=112300703 } # Moreo (nc)
7728.1.1 = { holder=113300703 } # Morosh (nc)
7768.1.1 = { holder=115300703 } # Mero (nc)
7805.1.1 = { holder=156300703 } # Areo (nc)
7832.1.1 = { holder=121300703 } # Joss (nc)
7868.1.1 = { holder=125300703 } # Myrmello (nc)
7873.1.1 = { holder=130300703 } # Qarro (nc)
7892.1.1 = { holder=131300703 } # Allaquo (nc)
