1.1.1 = { liege="e_stormlands" }

7594.1.1 = { holder=300302 } # Barristan Selmy (nc)

7613.1.1 = { holder=301302 } # Lyonel Selmy (nc)
7614.1.1 = { holder=302302 } # Othell Selmy (nc)
7640.1.1 = { holder=303302 } # Cyrenna Selmy (nc)
7665.1.1 = { holder=311302 } # Humfrey Selmy (nc)
7679.1.1 = { holder=313302 } # Lyonel Selmy (nc)
7708.1.1 = { holder=318302 } # Myles Selmy (nc)
7736.1.1 = { holder=322302 } # Sebara Selmy (Sc)
7767.1.1 = { holder=327302 } # Beren Selmy (Sc)
7776.1.1 = { holder=330302 } # Beram Selmy (Sc)
7807.1.1 = { holder=332302 } # Arstan Selmy (nc)
7860.1.1 = { holder=200302 } # Lyonel Selmy (C)
7870.1.1 = { holder=334302 } # Paxter Selmy (nc)
7895.1.1 = { holder=202302 } # Arstan Selmy (C)
