200.1.1={
	liege="d_piqui_jungle"
}
7595.1.1 = { holder=10069101 } # Aghlab (nc)
7632.1.1 = { holder=10269101 } # Abdullah (nc)
7655.1.1 = { holder=10669101 } # Nizam (nc)
7674.1.1 = { holder=10869101 } # Bahir (nc)
7712.1.1 = { holder=11069101 } # Hafiz (nc)
7750.1.1 = { holder=11169101 } # Husam (nc)
7786.1.1 = { holder=11469101 } # Azam (nc)
7794.1.1 = { holder=11769101 } # Yusuf (nc)
7806.1.1 = { holder=12169101 } # Qawurd (nc)
7840.1.1 = { holder=12469101 } # Bahir (nc)
7842.1.1 = { holder=12869101 } # Uways (nc)
7870.1.1 = { holder=12969101 } # Ghalib (nc)



