1123.1.1={
	liege="k_qarth"
}

7595.1.1 = { holder=100069161 } # Sybassion (nc)
7636.1.1 = { holder=100169161 } # Urrathon (nc)
7637.1.1 = { holder=100569161 } # Semython (nc)
7677.1.1 = { holder=100769161 } # Ordello (nc)
7678.1.1 = { holder=101069161 } # Pyat (nc)
7711.1.1 = { holder=101369161 } # Wendello (nc)
7729.1.1 = { holder=101769161 } # Navathos (nc)
7753.1.1 = { holder=101969161 } # Vogarro (nc)
7766.1.1 = { holder=102169161 } # Navathos (nc)
7797.1.1 = { holder=102469161 } # Wendello (nc)
7833.1.1 = { holder=102769161 } # Egon (nc)
7841.1.1 = { holder=103269161 } # Lotho (nc)
7871.1.1 = { holder=103469161 } # Nyessos (nc)
