200.1.1={
	liege="d_jinqi"
}
7595.1.1 = { holder=10069191 } # Murad (nc)
7631.1.1 = { holder=10569191 } # Idris (nc)
7659.1.1 = { holder=10769191 } # Husam (nc)
7665.1.1 = { holder=11069191 } # Wahab (nc)
7722.1.1 = { holder=11869191 } # Qawurd (nc)
7734.1.1 = { holder=11969191 } # Is'mail (nc)
7767.1.1 = { holder=12369191 } # Aarif (nc)
7801.1.1 = { holder=12569191 } # Burhanaddin (nc)
7813.1.1 = { holder=13169191 } # Sadiq (nc)
7854.1.1 = { holder=13369191 } # Jibril (nc)
7859.1.1 = { holder=13769191 } # Shujah (nc)
7889.1.1 = { holder=13969191 } # Alim (nc)


