6600.1.1={
	liege="e_north"
	law = succ_primogeniture
}
7561.1.1={
	holder=13104
}
7606.1.1={
	holder=12104
}
7615.1.1={
	holder=11104
}
7625.1.1={
	holder=10104
}
7659.1.1={
	holder=9104
}
7702.1.1={
	holder=8104
}
7711.1.1={
	holder=7104
}
7761.1.1={
	holder=6104
}
7794.1.1={
	holder=5104
}
7805.1.1={
	holder=4104
}
7839.1.1={
	holder=3104
}
7882.1.1={
	holder=104
}
