#c_lannisport
500.1.1={
	liege="d_casterly_rock"
	effect = { 
		holder_scope = { character_event = { id = roberts_rebellion.23 } } #cadets
	}
}

7500.1.1 = { holder=3550190 } # Raynard (nc)
7524.1.1 = { holder=3551190 } # Jaime (nc)
7552.1.1 = { holder=3552190 } # Lancel (nc)
7616.1.1 = { holder=3558190 } # Raynald (nc)
7637.1.1 = { holder=3559190 } # Dennis (nc)
7689.1.1 = { holder=3565190 } # Loren (nc)
7695.1.1 = { holder=3500190 } # Selmond (nc) 
7733.1.1 = { holder=3501190 } # Maynard (nc)
7764.1.1 = { holder=3507190 } # Gregor (nc)
7783.1.1 = { holder=3510190 } # Tyrion (nc)
7803.1.1 = { holder=3512190 } # Willem (nc)
7843.1.1 = { holder=3514190 } # Lambert (nc)
7864.1.1 = { holder=3515190 } # Rollam (nc)
7884.1.1 = { holder=3517190 } # Tyran (nc)
