200.1.1={
	liege="d_lhazosh"
	law = succ_ultimogeniture
}
7585.1.1 = { holder=10055916 } # Jommo (nc)
7618.1.1 = { holder=10355916 } # Fogo (nc)
7635.1.1 = { holder=10655916 } # Zollo (nc)
7687.1.1 = { holder=10855916 } # Aggo (nc)
7694.1.1 = { holder=11155916 } # Iggo (nc)
7738.1.1 = { holder=11755916 } # Ogo (nc)
7776.1.1 = { holder=12155916 } # Zollo (nc)
7785.1.1 = { holder=12655916 } # Bharbo (nc)
7798.1.1 = { holder=12955916 } # Haggo (nc)
7839.1.1 = { holder=13455916 } # Cohollo (nc)
7866.1.1 = { holder=13655916 } # Pono (nc)
7869.1.1 = { holder=14055916 } # Rakharo (nc)
