#House Uxo
7584.1.1 = { 
	holder=100304010 
	liege=d_the_three_exiles
	law = succ_seniority
	law = cognatic_succession
} # Koroxhar (nc)
7623.1.1 = { holder=104304010 } # Isodo (nc)
7652.1.1 = { holder=106304010 } # Tal (nc)
7675.1.1 = { holder=109304010 } # Manahuru (nc)
7714.1.1 = { holder=112304010 } # Eskender (nc)
7737.1.1 = { holder=118304010 } # Xhakan (nc)
7745.1.1 = { holder=122304010 } # Bapato (nc)
7809.1.1 = { holder=128304010 } # Xhakan (nc)
7838.1.1 = { holder=131304010 } # Rudo (nc)
7865.1.1 = { holder=137304010 } # Dubaku (nc)
7885.1.1 = { holder=141304010 } # Jarado (nc)



