5000.1.1={
	liege="d_gornath"
	law = succ_primogeniture
}
7592.1.1 = { holder=10056803 } # Burhan (nc)
7621.1.1 = { holder=10156803 } # Sahat (nc)
7656.1.1 = { holder=10556803 } # Ekavir (nc)
7693.1.1 = { holder=10656803 } # Shyam (nc)
7704.1.1 = { holder=11256803 } # Taresh (nc)
7733.1.1 = { holder=11756803 } # Taresh (nc)
7753.1.1 = { holder=11956803 } # Jaafar (nc)
7764.1.1 = { holder=12156803 } # Yathavan (nc)
7800.1.1 = { holder=12256803 } # Paarth (nc)
7852.1.1 = { holder=12456803 } # Jash (nc)
7878.1.1 = { holder=12856803 } # Bhagesh (nc)

