1612.1.1={
	liege="d_port_yhos"
}
7596.1.1 = { holder=150350020 } # Izembaro (nc)
7616.1.1 = { holder=100350020 } # Xaro (nc)
7662.1.1 = { holder=101350020 } # Nyessos (nc)
7689.1.1 = { holder=104350020 } # Ognos (nc)
7702.1.1 = { holder=108350020 } # Wullon (nc)
7743.1.1 = { holder=114350020 } # Zathor (nc)
7770.1.1 = { holder=118350020 } # Methyso (nc)
7778.1.1 = { holder=122350020 } # Navathos (nc)
7811.1.1 = { holder=123350020 } # Mathos (nc)
7822.1.1 = { holder=126350020 } # Navathos (nc)
7851.1.1 = { holder=132350020 } # Navathos (nc)
7870.1.1 = { holder=133350020 } # Navathos (nc)
7894.1.1 = { holder=136350020 } # Egon (nc)

