200.1.1={
	liege="d_valysar"
}
7595.1.1 = { holder=10069203 } # Alios (nc)
7623.1.1 = { holder=10169203 } # Vogarro (nc)
7644.1.1 = { holder=10669203 } # Ordello (nc)
7667.1.1 = { holder=10869203 } # Moqorro (nc)
7691.1.1 = { holder=10969203 } # Belicho (nc)
7726.1.1 = { holder=11369203 } # Ordello (nc)
7739.1.1 = { holder=11669203 } # Vysarro (nc)
7760.1.1 = { holder=11769203 } # Parquello (nc)
7792.1.1 = { holder=12069203 } # Parquello (nc)
7827.1.1 = { holder=12569203 } # Methyso (nc)
7841.1.1 = { holder=12769203 } # Doniphos (nc)
7865.1.1 = { holder=12969203 } # Lotho (nc)
7879.1.1 = { holder=13369203 } # Moqorro (nc)
