#c_maunhill
1.1.1={
	liege="e_westerlands"
}
7594.1.1 = {	
holder=312226
}
7598.6.6 = {	
holder=309226 
}
7637.1.1 = {	
holder=308226
}
7654.1.1 = {	
holder=307226
}
7687.1.1 = {	
holder=306226
}
7715.1.1 = {	
holder=305226
}
7721.1.1 = {	
holder=304226
}
7747.1.1 = {	
holder=303226
}
7768.1.1 = {	
holder=203226
}
7776.6.3 = {	
holder=3050226
}
7795.1.1 = {	
holder=202226
}
7831.1.1 = {	
holder=302226
}
7846.1.1 = {	
holder=301226
}	



