200.1.1={
	liege="d_trader_town"
}
7595.1.1 = { holder=10069167 } # Qawurd (nc)
7626.1.1 = { holder=10369167 } # Mirza (nc)
7646.1.1 = { holder=10469167 } # Jabir (nc)
7676.1.1 = { holder=10769167 } # Yusuf (nc)
7713.1.1 = { holder=11169167 } # Gafur (nc)
7763.1.1 = { holder=11469167 } # Nizam (nc)
7773.1.1 = { holder=11569167 } # Mansur (nc)
7801.1.1 = { holder=11769167 } # Aghlab (nc)
7841.1.1 = { holder=12069167 } # Husam (nc)
7850.1.1 = { holder=12169167 } # Najib (nc)
7876.1.1 = { holder=12369167 } # Mubarak (nc)



