6600.1.1 = {
	liege = k_norvos
}

7595.1.1 = { holder=100069118 } # Illyrio (nc)
7639.1.1 = { holder=100269118 } # Pynto (nc)
7642.1.1 = { holder=100569118 } # Yorko (nc)
7658.1.1 = { holder=100869118 } # Qarro (nc)
7710.1.1 = { holder=101169118 } # Collio (nc)
7750.1.1 = { holder=101569118 } # Gyloro (nc)
7751.1.1 = { holder=101869118 } # Joss (nc)
7809.1.1 = { holder=102069118 } # Tagganaro (nc)
7824.1.1 = { holder=102569118 } # Ternesio (nc)
7841.1.1 = { holder=102669118 } # Roggo (nc)
7872.1.1 = { holder=102969118 } # Tagganaro (nc)
7881.1.1 = { holder=103169118 } # Terro (nc)
