1123.1.1={
	liege="k_pentos"
}

7595.1.1 = { holder=100069124 } # Daario (nc)
7624.1.1 = { holder=100169124 } # Tycho (nc)
7630.1.1 = { holder=100369124 } # Ollo (nc)
7648.1.1 = { holder=100669124 } # Terro (nc)
7671.1.1 = { holder=101069124 } # Beqqo (nc)
7696.1.1 = { holder=101469124 } # Ferrego (nc)
7729.1.1 = { holder=101669124 } # Collio (nc)
7750.1.1 = { holder=101869124 } # Meralyn (nc)
7753.1.1 = { holder=102069124 } # Byan (nc)
7776.1.1 = { holder=102269124 } # Moreo (nc)
7815.1.1 = { holder=102769124 } # Meralyn (nc)
7824.1.1 = { holder=102969124 } # Allaquo (nc)
7875.1.1 = { holder=103369124 } # Tagganaro (nc)
