200.1.1={
	liege="d_myr"
}
7583.1.1 = { holder=150300516 } # Belequo (nc)
7623.1.1 = { holder=100300525 } # Gylono (nc)
7642.1.1 = { holder=101300525 } # Pynto (nc)
7682.1.1 = { holder=102300700 } # Noho (nc)
7684.1.1 = { holder=103300700 } #### Craghas Crabfeeder
7708.11.11 = { holder=106174355 } # Terro (nc)
7735.1.1 = { holder=113300534 } # Daario (nc)
7747.1.1 = { holder=108300700 } # Ezzelyno (nc)
7766.1.1 = { holder=110300525 } # Ordello (nc)
7796.1.1 = { holder=117300534 } # Ferrego (nc)
7807.1.1 = { holder=121300534 } # Pynto (nc)
7835.1.1 = { holder=121174355 } # Beqqo (nc)
7858.1.1 = { holder=120300525 } # Gyloro (nc)
7885.1.1 = { holder=125300700 } # Roro (nc)
7893.1.1 = { holder=121300525 } # Terro (nc)
