1123.1.1={
	liege="k_myr"
}

7595.1.1 = { holder=100300707 } # Beqqo (nc)
7632.1.1 = { holder=101300707 } # Collio (nc)
7639.1.1 = { holder=103300707 } # Orbelo (nc)
7641.1.1 = { holder=105300707 } # Pynto (nc)
7677.1.1 = { holder=109300707 } # Meralyn (nc)
7732.1.1 = { holder=114300707 } # Ternesio (nc)
7757.1.1 = { holder=115300707 } # Joss (nc)
7758.1.1 = { holder=118300707 } # Groleo (nc)
7771.1.1 = { holder=120300707 } # Narbo (nc)
7783.1.1 = { holder=124300707 } # Ollo (nc)
7839.1.1 = { holder=125300707 } # Areo (nc)
7842.1.1 = { holder=132300707 } # Cossomo (nc)
