1.1.1 = {
	law = succ_turkish_succession
	law = agnatic_succession
}
7586.1.1 = { holder=10559143 } # Cayn (nc)
7622.1.1 = { holder=11559143 } # Torghen (nc)
7633.1.1 = { holder=14559143 } # Eyron (nc)
7652.1.1 = { holder=18559143 } # Devyn (nc)
7660.1.1 = { holder=19559143 } # Walton (nc)
7685.1.1 = { holder=22559143 } # Jojen (nc)
7696.1.1 = { holder=23559143 } # Gerrick (nc)
7727.1.1 = { holder=26559143 } # Dywen (nc)
7755.1.1 = { holder=27559143 } # Gariss (nc)
7775.1.1 = { holder=31559143 } # Briar (nc)
7813.1.1={
	liege="k_beyond_wall"
}
7815.1.1 = { holder=33559143 } # Dormund (nc)
7824.1.1 = { holder=35559143 } # Mance (nc)
7826.9.9={
	liege="0"
}
7860.1.1 = { holder=38559143 } # Arnolf (nc)
#7886.1.1 = { holder=42559143 } # Devyn (nc)

7882.1.1={
	holder=157008
}
7898.1.1={
	liege="k_beyond_wall"
}
7900.1.1={
	holder=999000666
}
