200.1.1={
	liege="d_trader_town"
}
7595.1.1 = { holder=10069168 } # Murad (nc)
7623.1.1 = { holder=10269168 } # Mahdi (nc)
7676.1.1 = { holder=10569168 } # Wahab (nc)
7699.1.1 = { holder=10769168 } # Hafiz (nc)
7719.1.1 = { holder=10869168 } # Azam (nc)
7737.1.1 = { holder=11269168 } # Mukhtar (nc)
7762.1.1 = { holder=11669168 } # Abdul (nc)
7775.1.1 = { holder=11869168 } # Mukhtar (nc)
7830.1.1 = { holder=12269168 } # Fadil (nc)
7849.1.1 = { holder=12369168 } # Wahab (nc)
7864.1.1 = { holder=12569168 } # Sadiq (nc)
7894.1.1 = { holder=13169168 } # Hussayn (nc)



