5600.1.1={
	liege="d_whiteharbor"
	law = succ_primogeniture
}
7572.1.1={
	holder=16088
}
7613.1.1={
	holder=15088
}
7631.1.1={
	holder=14088
}
7637.1.1={
	holder=13088
}
7668.1.1={
	holder=12088
}
7708.1.1={
	holder=10088
}
7751.1.1={
	holder=9088
}
7766.1.1={
	holder=8088
}
7774.1.1={
	holder=7088
}
7804.1.1={
	holder=6088
}
7840.1.1={
	holder=5088
}
7862.1.1={
	holder=88
}
