500.1.1={
liege="e_iron_isles"
law=succ_primogeniture law=cognatic_succession
}
3650.1.1 = {
	holder = 5011121 #Regnar
}
3678.1.1 = { holder = 0 }
7478.1.1 = { holder=3100121 } # Urek (nc)
7540.1.1 = { holder=3201121 } # Gevin (nc)
7585.1.1 = { holder=6000121 } # Theon (nc)

7598.2.1 = { holder=6002121 } # Dunstan (nc)
7637.1.1 = { holder=6003121 } # Lenwood (nc)
7653.1.1 = { holder=6004121 } # Meldred (nc)
7687.1.1 = { holder=6009121 } # Ralf (nc)
7740.1.1 = { holder=6013121 } # Hilmar the Cunning
7754.1.1 = { holder=6017121 } # Gynir (nc)
7810.1.1 = { holder=6019121 } # Wex (nc)
7813.1.1 = { holder=6024121 } # Wex (nc)

7847.1.1 = {	
	holder=121
}

