1.1.1 = {liege="e_stormlands"}

7570.1.1 = { holder=300320 } # Criston Penrose (nc)
7604.1.1 = { holder=301320 } # Humfrey Penrose (nc)
7634.1.1 = { holder=305320 } # Brus Penrose (nc)
7665.1.1 = { holder=306320 } # Joffrey Penrose (nc)
7680.1.1 = { holder=307320 } # Arstan Penrose (nc)
7685.1.1 = { holder=308320 } # Cortnay Penrose (nc)
7719.1.1 = { holder=309320 } # Alesander Penrose (nc)
7729.1.1 = { holder=312320 } # Durran Penrose (nc)
7763.1.1 = { holder=313320 } # Ronald Penrose (nc)
7773.1.1 = { holder=200320 } # Ronnel Penrose (C)
7795.1.1 = { holder=204320 } # Robin Penrose (C)
7821.1.1 = { holder=314320 } # Davos Penrose (nc)
7862.1.1 = { holder=205320 } # Steffon Penrose (C)
