#c_peckledon
500.1.1={
	liege="d_goldroad"
}
7595.1.1 = { holder = 318219 }
7643.1.1 = { holder = 200219 }
7658.1.1 = { holder = 315219 }
7678.1.1 = { holder = 313219 }
7709.1.1 = { holder = 312219 }
7730.3.17 = { holder = 311219 }
7743.1.1 = { holder = 309219}
7765.1.1 = { holder = 305219 }
7804.1.1 = { holder = 304219 }
7827.1.1 = { holder = 303219 }
7848.1.1 = { holder = 301219 }
7859.3.8 = { holder = 300219 }
7859.3.9 = {	
holder=219
}
