500.1.1={
	liege="d_golden_tooth"
}
7594.1.1={
	holder=29206
}
7598.6.6={
	holder=27206
}
7663.1.1={
	holder=23206
}
7682.1.1={
	holder=21206
}
7711.1.1={
	holder=19206
}
7746.1.1={
	holder=15206
}
7775.1.1={
	holder=13206
}
7778.1.1={
	holder=11206
}
7800.1.1={
	holder=8206
}
7810.2.11={
	holder=6206
}
7850.1.1={
	holder=206
}
