200.1.1={
	liege="d_port_moraq"
}
7596.1.1 = { holder=1055933 } # Aram (nc)
7622.1.1 = { holder=1155933 } # Azam (nc)
7648.1.1 = { holder=1455933 } # Fadil (nc)
7676.1.1 = { holder=1655933 } # Is'mail (nc)
7698.1.1 = { holder=1955933 } # Husam (nc)
7701.1.1 = { holder=2355933 } # Aarif (nc)
7748.1.1 = { holder=2455933 } # Mahdi (nc)
7760.1.1 = { holder=2855933 } # Mubarak (nc)
7794.1.1 = { holder=3255933 } # Qadir (nc)
7829.1.1 = { holder=3355933 } # Isa (nc)
7875.1.1 = { holder=3655933 } # Mukhtar (nc)
7899.1.1 = { holder=4055933 } # Sadiq (nc)

