200.1.1={
	liege="d_vahar"
}

7595.1.1 = { holder=100055941 } # Jaleel (nc)
7632.1.1 = { holder=100155941 } # Youkhanna (nc)
7640.1.1 = { holder=100355941 } # Qadir (nc)
7654.1.1 = { holder=100555941 } # Sami (nc)
7730.1.1 = { holder=100655941 } # Hussayn (nc)
7744.1.1 = { holder=100955941 } # Ghalib (nc)
7773.1.1 = { holder=101355941 } # Aarif (nc)
7792.1.1 = { holder=101455941 } # Idris (nc)
7818.1.1 = { holder=101755941 } # Bakr (nc)
7857.1.1 = { holder=102155941 } # Mukhtar (nc)
7895.1.1 = { holder=102555941 } # Bahir (nc)

