1123.1.1={ 
	liege="k_pentos"
}
7575.1.1 = { holder=100300526 } # Gyleno (nc)
7615.1.1 = { holder=101300526 } # Jaqen (nc)
7654.1.1 = { holder=108300526 } # Tregar (nc)
7660.1.1 = { holder=114300526 } # Narbo (nc)
7685.1.1 = { holder=115300526 } # Gyloro (nc)
7687.1.1 = { holder=116300526 } # Orbelo (nc)
7708.1.1 = { holder=119300526 } # Izembaro (nc)
7743.1.1 = { holder=123300526 } # Ternesio (nc)
7765.1.1 = { holder=125300526 } # Gyleno (nc)
7787.1.1 = { holder=128300526 } # Daario (nc)
7811.1.1 = { holder=130300526 } # Ordello (nc)
7820.1.1 = { holder=131300526 } # Luco (nc)
7828.1.1 = { holder=134300526 } # Terro (nc)
7837.1.1 = { holder=136300526 } # Syrio (nc)
7850.1.1 = { holder=140300526 } # Ternesio (nc)
7876.1.1 = { holder=141300526 } # Brusco (nc)
7877.1.1 = { holder=143300526 } # Ordello (nc)
7881.1.1 = { holder=145300526 } # Ordello(nc)
7899.6.1 = { holder=149300526 } # Tycho (nc)



