#c_redbramble
500.1.1={
	liege="d_silverhill"
}
7570.1.1 = { holder=300231 } # Lambert (nc)
7600.6.6 = { holder=303231 } # Tion (nc)
7622.1.1 = { holder=304231 } # Harwyn (nc)
7660.1.1 = { holder=305231 } # Tobbot (nc)
7666.1.1 = { holder=306231 } # Addam (nc)
#7729.1.1 = { holder=307231 } # Leonella (nc)
7729.1.1 = { holder=310231 } # Leo (nc)
7732.1.1 = { holder=313231 } # Theomore (nc)
7750.1.1 = { holder=318231 } # Cedric (nc)
7801.1.1 = { holder=320231 } # Rafford (nc)
7813.1.1 = { holder=323231 } # Jaime (nc)
7841.1.1 = { holder=325231 } # Tyrek (nc)
7859.1.1 = { holder=328231 } # Kevan (nc)
7867.1.1 = {holder=231} 
