400.1.1={
	liege="d_rosby"
}
7580.1.1 = { holder=300038 } # Robin (nc)
7605.1.1 = { holder=300138 } # Janos (nc)
7627.1.1 = { holder=300338 } # Alan (nc)
7682.1.1 = { holder=300738 } # Howard (nc)
7703.1.1 = { holder=300938 } # Ardrian (nc)
7730.1.26={ holder=301138 } # Rorge (nc)
7744.1.1 = { holder=301238 } # Jacelyn (nc)
7783.1.1 = { holder=301438 } # Bronn (nc)
7795.1.1 = { holder=301638 } # Mortimer (nc)
7800.1.1 = { holder=301938 } # Qarlton (nc)
7814.1.1 = { holder=302238 } # Ferret (nc)
7828.1.1={
	holder = 2039 	#Rymond Rosby
}
7866.1.1={
	holder = 38	#Gyles Rosby
}
