#NOTE: The holder of this title has the House Varner dynasty tracker set in roberts_rebellion_events
500.1.1={ law=succ_primogeniture law=cognatic_succession
	liege="e_reach"
}
7587.1.1 = { holder=6000258 } # Alyn (nc)

7619.1.1 = { holder=6001258 } # Hosman (nc)
7664.1.1 = { holder=6003258 } # Dareon (nc)
7671.1.1 = { holder=6005258 } # Leo (nc)
7708.1.1 = { holder=6007258 } # Byren (nc)
7711.1.1 = { holder=6010258 } # Olymer (nc)
7755.1.1 = { holder=6016258 } # Martyn (nc)
7779.1.1 = { holder=6017258 } # Eustace (nc)
7783.1.1 = { holder=6018258 } # Runceford (nc)
7831.1.1 = { holder=6020258 } # Lucas (nc)
7846.1.1 = { holder=6022258 } # Lucas (nc)

7880.1.1={
	holder=258
}





