1123.1.1={
	liege="k_qohor"
}

7595.1.1 = { holder=100069131 } # Daario (nc)
7631.1.1 = { holder=100169131 } # Areo (nc)
7651.1.1 = { holder=100469131 } # Ferrego (nc)
7682.1.1 = { holder=100969131 } # Ordello (nc)
7709.1.1 = { holder=101269131 } # Moredo (nc)
7740.1.1 = { holder=101469131 } # Oro (nc)
7741.1.1 = { holder=101669131 } # Syrio (nc)
7763.1.1 = { holder=102069131 } # Beqqo (nc)
7810.1.1 = { holder=102369131 } # Ollo (nc)
7811.1.1 = { holder=102869131 } # Tregar (nc)
7843.1.1 = { holder=103169131 } # Ordello (nc)
7882.1.1 = { holder=103369131 } # Lotho (nc)
7896.1.1 = { holder=103469131 } # Cossomo (nc)
