#c_sarsfield
500.1.1={
	liege="d_castamere"
}
7594.1.1 = {	
	holder=311233
}
7636.1.1 = {	
	holder=310233
}
7639.3.6 = {	
	holder=309233
}
7669.1.1 = {	
	holder=308233
}
7704.1.1 = {	
	holder=307233
}
7735.1.1 = {	
	holder=305233
}
7757.12.7 = {	
	holder=304233
}
7815.1.1 = {	
	holder=302233
}
7871.1.1 = {	
	holder=300233
}
7876.1.1 = {	
	holder=233
}
