5600.1.1={
	liege="e_riverlands"
	law = succ_primogeniture
}
7565.1.1 = { holder=100174429 } # Pate (nc)

7612.1.1 = { holder=101174429 } # Lucamore (nc)
7619.1.1 = { holder=104174429 } # Harys (nc)
7649.1.1 = { holder=105174429 } # Whalen (nc)
7661.1.1 = { holder=110174429 } # Raymun (nc)
7670.1.1 = { holder=113174429 } # Jammos (nc)
7683.1.1 = { holder=116174429 } # Edmund (nc)
7715.1.1 = { holder=119174429 } # Edwyn (nc)
7750.1.1 = { holder=123174429 } # Colmar (nc)
7770.1.1 = { holder=124174429 } # Osmynd (nc)
7828.1.1 = { holder=128174429 } # Edmure (nc)
7836.1.1 = { holder=132174429 } # Theomar (nc)
7859.1.1 = { holder=136174429 } # Wilbert (nc)
7862.1.1 = { holder=140174429 } # Quincy (nc)
