1123.1.1={
	liege="d_saath"
	law = succ_primogeniture
}
7535.1.1 = { holder=10056802 } # Vishruth (nc)
7575.1.1 = { holder=10256802 } # Nayan (nc)
7608.1.1 = { holder=10456802 } # Uttamesh (nc)
7634.1.1 = { holder=10956802 } # Vishruth (nc)
7642.1.1 = { holder=11356802 } # Jaafar (nc)
7675.1.1 = { holder=11556802 } # Kedaar (nc)
7683.1.1 = { holder=11956802 } # Onkar (nc)
7721.1.1 = { holder=12156802 } # Manaar (nc)
7759.1.1 = { holder=12356802 } # Paarth (nc)
7769.1.1 = { holder=12756802 } # Harshil (nc)
7788.1.1 = { holder=12856802 } # Balavant (nc)
7805.1.1 = { holder=13456802 } # Nayan (nc)
7828.1.1 = { holder=14056802 } # Dahak (nc)
7866.1.1 = { holder=14356802 } # Dinesh (nc)
7881.1.1 = { holder=14456802 } # Rathin (nc)
