1123.1.1={
	liege="k_pentos"
}

7595.1.1 = { holder=100069123 } # Ordello (nc)
7632.1.1 = { holder=100169123 } # Lotho (nc)
7642.1.1 = { holder=100269123 } # Tormo (nc)
7663.1.1 = { holder=100469123 } # Groleo (nc)
7669.1.1 = { holder=100769123 } # Moredo (nc)
7703.1.1 = { holder=100969123 } # Joss (nc)
7746.1.1 = { holder=101069123 } # Byan (nc)
7772.1.1 = { holder=101169123 } # Terro (nc)
7794.1.1 = { holder=101569123 } # Oro (nc)
7826.1.1 = { holder=101969123 } # Collio (nc)
7846.1.1 = { holder=102169123 } # Ternesio (nc)
