500.1.1={
	liege="d_the_bite"
}
###stricklands###
7569.1.1 = { holder=30001428 } # Robert (nc)

7606.1.1 = { holder=30011428 } # Anslem (nc)
7620.1.1 = { holder=30041428 } # Elwood (nc)
7649.1.1 = { holder=30081428 } # Amelryc (nc)
7673.1.1 = { holder=30091428 } # Edwyn (nc)
7693.1.1 = { holder=30101428 } # Titus (nc)
7723.1.1 = { holder=30151428 } # Hectyr (nc)
7776.1.1 = { holder=30231428 } # Pelleas (nc)
7792.1.1 = { holder=30241428 } # Quentyn (nc)

7796.1.1={

	holder=3020248 # Gormon
}
7810.1.1 = { holder=3021248 } # Runceford (nc)
7844.1.1 = { holder=3026248 } # Hosman (nc)
7870.1.1={
	holder=248 #Dontos (nc)
}
