#House Xhurabo
7580.1.1 = { 
	holder=100304035 
	liege=d_indigo_straits
	law = succ_seniority
	law = cognatic_succession
} # Simbhar (nc)
7624.1.1 = { holder=101304035 } # Xhelimo (nc)
7653.1.1 = { holder=105304035 } # Gwalahuru (nc)
7680.1.1 = { holder=107304035 } # Kwasdo (nc)
7713.1.1 = { holder=109304035 } # Jiradhar (nc)
7718.1.1 = { holder=110304035 } # Abrafo (nc)
7731.1.1 = { holder=113304035 } # Udo (nc)
7753.1.1 = { holder=116304035 } # Odingaxho (nc)
7756.1.1 = { holder=117304035 } # Koraxha (nc)
7783.1.1 = { holder=118304035 } # Makhan (nc)
7815.1.1 = { holder=120304035 } # Xhelimo (nc)
7862.1.1 = { holder=124304035 } # Udo (nc)
7888.1.1 = { holder=126304035 } # Orengo (nc)

