4600.1.1={
	law = succ_primogeniture
	liege = k_pentos
}
7577.1.1 = { holder=100174909 } # Lothor (nc)
7615.1.1 = { holder=101174909 } # Ballabar (nc)
7635.1.1 = { holder=105174909 } # Vardis (nc)
7660.1.1 = { holder=112174909 } # Ballabar (nc)
7718.1.1 = { holder=117174909 } # Serwyn (nc)
7727.1.1 = { holder=120174909 } # Umfred (nc)
7734.1.1 = { holder=127174909 } # Serwyn (nc)
7767.1.1 = { holder=128174909 } # Royce (nc)
7799.1.1 = { holder=133174909 } # Tim (nc)
7868.1.1 = { holder=136174909 } # Donnel (nc)
7882.1.1 = { holder=138174909 } # Donnel (nc)
