5600.1.1={
	liege="e_north"
}
7594.1.1={
	holder=15100
}
7603.1.1={
	holder=14100
}
7616.1.1={
	holder=13100
}
7628.1.1={
	holder=12100
}
7658.1.1={
	holder=11100
}
7700.1.1={
	holder=9100
}
7723.1.1={
	holder=8100
}
7761.1.1={
	holder=7100
}
7769.1.1={
	holder=6100
}
7812.1.1={
	holder=5100
}
7825.1.1={
	holder=4100
}
7862.1.5={
	holder=100
}
