5600.1.1={
	liege="d_theneck"
	law = succ_primogeniture
}
7594.1.1={
	holder = 11073
}
7639.1.1={
	holder = 10073
}
7646.1.1={
	holder = 9073
}
7684.1.1={
	holder = 8073
}
7733.1.1={
	holder = 6073
}
7764.1.1={
	holder = 5073
}
7795.1.1={
	holder = 4073
}
7844.1.1={
	holder = 2073
}
7862.1.1={
	holder = 73
}
