1.1.1 = {
	law = succ_turkish_succession
	law = agnatic_succession
}
7582.1.1 = { holder=101559122 } # Hareth (nc)
7613.1.1 = { holder=103559122 } # Dywen (nc)
7651.1.1 = { holder=105559122 } # Dormund (nc)
7665.1.1 = { holder=107559122 } # Lenn (nc)
7693.1.1={
	holder=109559122 # Ryk (nc)
}
7730.1.1 = { holder=112559122 } # Mikken (nc)
7791.1.1 = { holder=114559122 } # Torwynd (nc)

7830.1.1 = { holder=116559122 } # Gerrick (nc)
7853.1.1 = { holder=119559122 } # Arthor (nc)

