#House Agbelu
7583.1.1 = { 
	holder=100304011 
	liege=d_omburu
	law = succ_seniority
	law = cognatic_succession
} # Ratemo (nc)
7640.1.1 = { holder=101304011 } # Isingodo (nc)
7645.1.1 = { holder=103304011 } # Lusaxharo (nc)
7658.1.1 = { holder=105304011 } # Gwalahuru (nc)
7672.1.1 = { holder=110304011 } # Nyadundo (nc)
7714.1.1 = { holder=113304011 } # Eskender (nc)
7719.1.1 = { holder=116304011 } # Jarado (nc)
7725.1.1 = { holder=117304011 } # Simbhar (nc)
7785.1.1 = { holder=122304011 } # Gatubhar (nc)
7803.1.1 = { holder=125304011 } # Jalahuru (nc)
7839.1.1 = { holder=130304011 } # Chakoro (nc)
7846.1.1 = { holder=131304011 } # Thabo (nc)
7882.1.1 = { holder=133304011 } # Chibundo (nc)
7895.1.1 = { holder=134304011 } # Tapuhuru (nc)



