7200.1.1={
	#liege="e_stormlands"
	law = succ_primogeniture
}
7520.1.1={
	#liege="e_iron_isles"
}
7568.1.1 = { holder=312174411 } # Balman (nc)
7598.2.1={
	liege="e_iron_throne"
}
7611.1.1 = { holder=313174411 } # Qarlton (nc)
7627.1.1 = { holder=311174411 } # Dobber (nc)
7652.1.1 = { holder=310174411 } # Will (nc)
7676.1.1 = { holder=308174411 } # Gyles (nc)
7697.1.1 = { holder=307174411 } # Jaremy (nc)
7723.1.1 = { holder=306174411 } # Alan (nc)
7752.1.1 = { holder=305174411 } # Crispian (nc)
7776.1.1 = { holder=304174411 } # Clement (nc)
7796.1.1 = { holder=303174411 } # Mortimer (nc)
7815.1.1 = { holder=302174411 } # Robin (nc)
7854.1.1 = { holder=300174411 } # Maric (nc)
7865.1.1 = { holder=301174411 } # Alyn (nc)
