#House Ebaharo
7560.1.1 = { 
	holder=100304020 
	liege=d_golden_head
	law = succ_seniority
	law = cognatic_succession
} # Mermesbhar (nc)
7613.1.1 = { holder=101304020 } # Gwalahuru (nc)
7624.1.1 = { holder=103304020 } # Jaramogo (nc)
7654.1.1 = { holder=105304020 } # Bapato (nc)
7676.1.1 = { holder=112304020 } # Xaro (nc)
7708.1.1 = { holder=113304020 } # Quhuru (nc)
7737.1.1 = { holder=115304020 } # Gatubhar (nc)
7756.1.1 = { holder=116304020 } # Xhakan (nc)
7777.1.1 = { holder=118304020 } # Konde (nc)
7812.1.1 = { holder=121304020 } # Xhonodo (nc)
7840.1.1 = { holder=127304020 } # Eskender (nc)
7898.1.1 = { holder=128304020 } # Odingaxho (nc)

