500.1.1={ 
	law=succ_primogeniture 
	law=agnatic_succession
	liege="d_harlaw"
}
5051.1.1 = {
	holder = 500122
}
5098.1.1 = {
	holder = 501122
}
5115.1.1 = {
	holder = 0
}
7478.1.1 = { holder=3100122 } # Gorold (nc)
7540.1.1 = { holder=3201122 } # Lenwood (nc)
7575.1.1 = { holder=300122 } # Ambrode (nc)
7598.2.1 = { holder=302122 } # Sigrin (nc)
7632.1.1 = { holder=308122 } # Cotter (nc)
7660.1.1 = { holder=310122 } # Tom (nc)
7690.1.1 = { holder=312122 } # Gormond (nc)
7715.1.1 = { holder=313122 } # Maron (nc)
7725.1.1 = { holder=316122 } # Kromm (nc)
7763.1.1 = {	
	holder=16122  #Theomore
}	
7801.1.1 = {	
	holder=14122  #Tristifer #(nc)
}
7834.1.1 = {	
	holder=6122  #Sigrin (nc)
}
7859.1.1 = {	
	holder=3122  #Sigfryd (nc)
}
7890.1.1 = {	
	holder=122 #Rodrik
}
