#House Bone
7595.1.1 = { 
	holder=100304001 
	liege=d_parrot_bay
	law = succ_seniority
	law = cognatic_succession
} # Arkamun (nc)
7613.1.1 = { holder=101304001 } # Sango (nc)
7642.1.1 = { holder=105304001 } # Qaro (nc)
7676.1.1 = { holder=107304001 } # Rudo (nc)
7685.1.1 = { holder=110304001 } # Rudo (nc)
7752.1.1 = { holder=111304001 } # Isodo (nc)
7783.1.1 = { holder=113304001 } # Orengo (nc)
7791.1.1 = { holder=117304001 } # Olujondo (nc)
7793.1.1 = { holder=115304001 } # Isodo (nc)
7802.1.1 = { holder=118304001 } # Qubhar (nc)
7829.1.1 = { holder=121304001 } # Qubhar (nc)
7864.1.1 = { holder=127304001 } # Delmabhar (nc)
7871.1.1 = { holder=130304001 } # Kwasdo (nc)
7876.1.1 = { holder=131304001 } # Koroxhar (nc)

