#House Jho
7592.1.1 = { 
	holder=100304041 
	liege=d_the_three_exiles
	law = succ_seniority
	law = cognatic_succession
} # Abrafo (nc)
7637.1.1 = { holder=102304041 } # Chakoro (nc)
7652.1.1 = { holder=104304041 } # Arkamun (nc)
7672.1.1 = { holder=106304041 } # Xhakan (nc)
7678.1.1 = { holder=107304041 } # Jalabhar (nc)
7697.1.1 = { holder=111304041 } # Qubhar (nc)
7712.1.1 = { holder=112304041 } # Anyim (nc)
7722.1.1 = { holder=114304041 } # Koroxhar (nc)
7734.1.1 = { holder=116304041 } # Doshuru (nc)
7800.1.1 = { holder=119304041 } # Gatubhar (nc)
7838.1.1 = { holder=121304041 } # Chakoro (nc)
7850.1.1 = { holder=123304041 } # Orengo (nc)
7873.1.1 = { holder=127304041 } # Makhan (nc)


