5600.1.1={
	liege="d_thecrossing"
}
7595.1.1={
	holder=26127
}
7609.1.1={
	holder=25127
}
7629.1.1={
	holder=24127
}
7676.1.1={
	holder=23127
}
7691.1.1={
	holder=22127
}
7711.1.1={
	holder=21127
}
7722.1.1={
	holder=20127 # Forrest Frey
}
7730.1.1 = {
	holder=18127 # Whalen Frey
}
7769.1.1={
	holder=16127 # Orland Frey
}
7810.1.1={
	holder=10127
}
7831.1.1={
	holder=127
}
