1123.1.1={ 
	liege="k_pentos"
}
7585.1.1 = { holder=100174356 } # Ordello (nc)
7637.1.1 = { holder=104174356 } # Tregar (nc)
7650.1.1 = { holder=105174356 } # Pynto (nc)
7672.1.1 = { holder=107174356 } # Roro (nc)
7676.1.1 = { holder=112174356 } # Lotho (nc)
7681.1.1 = { holder=108174356 } # Tregar (nc)
7704.1.1 = { holder=110174356 } # Roro (nc)
7714.1.1 = { holder=113174356 } # Areo (nc)
7728.1.1 = { holder=115174356 } # Myrmello (nc)
7743.1.1 = { holder=122174356 } # Joss (nc)
7757.1.1 = { holder=123174356 } # Tagganaro (nc)
7785.1.1 = { holder=126174356 } # Daario (nc)
7812.1.1 = { holder=128174356 } # Noho (nc)
7817.1.1 = { holder=129174356 } # Illyrio (nc)
7838.1.1 = { holder=130174356 } # Gyleno (nc)
7878.1.1 = { holder=133174356 } # Areo (nc)
7881.1.1 = { holder=134174356 } # Ternesio (nc)
7892.1.1 = { holder=136174356 } # Moredo (nc)





