200.1.1={
	liege="k_braavos"
}

7595.1.1 = { holder=100300527 } # Ternesio (nc)
7635.1.1 = { holder=101300527 } # Myrmello (nc)
7653.1.1 = { holder=103300527 } # Lotho (nc)
7674.1.1 = { holder=106300527 } # Syrio (nc)
7683.1.1 = { holder=108300527 } # Roggo (nc)
7721.1.1 = { holder=113300527 } # Gyloro (nc)
7737.1.1 = { holder=115300527 } # Gyleno (nc)
7766.1.1 = { holder=117300527 } # Myrmello (nc)
7798.1.1 = { holder=119300527 } # Moredo (nc)
7816.1.1 = { holder=120300527 } # Tormo (nc)
7821.1.1 = { holder=125300527 } # Mero (nc)
7870.1.1 = { holder=129300527 } # Gyleno (nc)
7876.1.1 = { holder=126009 } # Syrio (c)
7897.1.1 = { holder=132300527 } # Brusco (nc)


