200.1.1={
	liege="d_tiqui"
}
7596.1.1 = { holder=10055959 } # Sadiq (nc)
7629.1.1 = { holder=10355959 } # Hussayn (nc)
7640.1.1 = { holder=10655959 } # Muzaffaraddin (nc)
7679.1.1 = { holder=10755959 } # Nizam (nc)
7691.1.1 = { holder=10855959 } # Aarif (nc)
7707.1.1 = { holder=11355959 } # Jaleel (nc)
7766.1.1 = { holder=11655959 } # Husam (nc)
7807.1.1 = { holder=11855959 } # Bahir (nc)
7816.1.1 = { holder=11955959 } # Hafiz (nc)
7837.1.1 = { holder=12255959 } # Ghalib (nc)
7889.1.1 = { holder=12755959 } # Abdul (nc)


