#NOTE: The holder of this title has the House Mullendore dynasty tracker set in roberts_rebellion_events
500.1.1={ law=succ_primogeniture law=cognatic_succession
	liege="d_oldtown"
}
7573.1.1 = { holder=3000290 } # Waldon (nc)
7598.1.1 = { holder=3001290 } # Alester (nc)
7636.1.1 = { holder=3004290 } # Garth (nc)
7666.1.1 = { holder=3006290 } # Alekyne (nc)
7695.1.1 = { holder=3010290 } # Lucia (nc)
7709.1.1 = { holder=3013290 } # Igon (nc)
7749.1.1 = { holder=3014290 } # Garlan (nc)
7783.1.1 = { holder=3017290 } # Jon (nc)
7803.1.1 = { holder=3020290 } # Horas (nc)
7831.1.1 = { holder=3021290 } # Androw (nc)
7857.1.1 = { holder=3023290 } # Alester (nc)
7869.1.1={
	holder=290 #Martyn
}



