1123.1.1={
	liege="d_isle_of_cedars"
}

7595.1.1 = { holder=100069146 } # Alios (nc)
7636.1.1 = { holder=100169146 } # Bolquello (nc)
7637.1.1 = { holder=100569146 } # Rolloquo (nc)
7647.1.1 = { holder=101069146 } # Beqqo (nc)
7661.1.1 = { holder=101169146 } # Lotho (nc)
7705.1.1 = { holder=101369146 } # Belicho (nc)
7725.1.1 = { holder=101469146 } # Yorko (nc)
7743.1.1 = { holder=101569146 } # Malaquo (nc)
7798.1.1 = { holder=101769146 } # Alios (nc)
7802.1.1 = { holder=102369146 } # Malaquo (nc)
7809.1.1 = { holder=102569146 } # Bolquello (nc)
7837.1.1 = { holder=102969146 } # Parquello (nc)
7871.1.1 = { holder=103169146 } # Navaphos (nc)
