200.1.1={
	liege="d_volantis"
}
7583.1.1 = { holder=100174372 } 
7645.1.1 = { holder=102174372 } 
7649.1.1 = { holder=105174372 } 
7676.1.1 = { holder=107174372 } 
7679.1.1 = { holder=110174372 } 
7694.1.1 = { holder=111174372 } 
7721.1.1 = { holder=112174372 } 
7759.1.1 = { holder=123174372 } 
7767.1.1 = { holder=125174372 } 
7770.1.1 = { holder=127174372 } 
7798.1.1 = { holder=133174372 } 
7831.1.1 = { holder=135174372 } 
7860.1.1 = { holder=137174372 } 
7876.1.1 = { holder=138174372 } 
7878.1.1 = { holder=142174372 } 
