501.1.1={
	liege="k_lorath"
}

7555.1.1 = { holder=100300560 } # Tormo (nc)
7603.1.1 = { holder=101300560 } # Ternesio (nc)
7621.1.1 = { holder=107300560 } # Byan (nc)
7637.1.1 = { holder=108300560 } # Mellario (nc)
7642.1.1 = { holder=113300560 } # Meralyn (nc)
7685.1.1 = { holder=117300560 } # Joss (nc)
7712.1.1 = { holder=120300560 } # Beqqo (nc)
7734.1.1 = { holder=123300560 } # Tormo (nc)
7742.1.1 = { holder=126300560 } # Beqqo (nc)
7767.1.1 = { holder=124300560 } # Illyrio (nc)
7783.1.1 = { holder=128300560 } # Allaquo (nc)
7799.1.1 = { holder=133300560 } # Byan (nc)
7812.1.1 = { holder=134300560 } # Qarro (nc)
7833.1.1 = { holder=135300560 } # Moreo (nc)
7867.1.1 = { holder=136300560 } # Noho (nc)
7870.1.1 = { holder=140300560 } # Joss (nc)
7879.1.1 = { holder=144300560 } # Denyo (nc)

