6600.1.1={
	liege="d_stoneway"
	law = true_cognatic_succession
}

7590.1.1 = { holder=65019 } # Edwyle (nc)
7612.1.1 = { holder=65119 } # Aryon (nc)
7653.1.1 = { holder=65419 } # Colin (nc)
7675.1.1 = { holder=65619 } # Tremond (nc)
7707.1.1 = { holder=65819 } # Alaric (nc)
7739.1.1 = { holder=651019 } # Gulian (nc)
7757.1.1 = { holder=651619 } # Arthur (nc)
7758.1.1 = { holder=651819 } # Olyvar (nc)
7760.1.1 = { holder=651919 } # Ederyn (nc)
7799.1.1 = { holder=652019 } # Sylva (nc)
7823.1.1 = { holder=652319 } # Willam (nc)
7827.1.1 = { holder=652519 } # Armen (nc)
7848.1.1 = {  holder=19 } # Edmynd (nc)
