#House Xhone
7580.1.1 = { 
	holder=100304036 
	liege=d_parrot_bay
	law = succ_seniority
	law = cognatic_succession
} # Tal (nc)
7617.1.1 = { holder=102304036 } # Xhal (nc)
7644.1.1 = { holder=104304036 } # Xhelimo (nc)
7663.1.1 = { holder=107304036 } # Jiradhar (nc)
7678.1.1 = { holder=108304036 } # Gatubhar (nc)
7680.1.1 = { holder=113304036 } # Chibundo (nc)
7724.1.1 = { holder=114304036 } # Anyim (nc)
7754.1.1 = { holder=118304036 } # Dubaku (nc)
7780.1.1 = { holder=120304036 } # Doshuru (nc)
7812.1.1 = { holder=124304036 } # Oluhuru (nc)
7851.1.1 = { holder=128304036 } # Gebhuya (nc)
7865.1.1 = { holder=129304036 } # Nyadundo (nc)
7873.1.1 = { holder=133304036 } # Kwasdo (nc)
