200.1.1={
	liege="d_zabhad"
}
7595.1.1 = { holder=1055936 } # Abdullah (nc)
7619.1.1 = { holder=1355936 } # Mubarak (nc)
7653.1.1 = { holder=1655936 } # Sadiq (nc)
7656.1.1 = { holder=1955936 } # Nizam (nc)
7678.1.1 = { holder=2055936 } # Jabir (nc)
7705.1.1 = { holder=2455936 } # Mubarak (nc)
7729.1.1 = { holder=2855936 } # Hafiz (nc)
7761.1.1 = { holder=2955936 } # Isa (nc)
7770.1.1 = { holder=3055936 } # Azam (nc)
7803.1.1 = { holder=3455936 } # Aarif (nc)
7813.1.1 = { holder=4055936 } # Alim (nc)
7870.1.1 = { holder=4255936 } # Hafiz (nc)
7890.1.1 = { holder=5055936 } # Aghlab (nc)

