200.1.1={
	law = succ_seniority
	law = agnatic_succession
}
7545.1.1 = { holder=10055951 } # Qawurd (nc)
7603.1.1 = { holder=10155951 } # Abdullah (nc)
7619.1.1 = { holder=10455951 } # Husam (nc)
7632.1.1 = { holder=10755951 } # Sadiq (nc)
7681.1.1 = { holder=10955951 } # Mirza (nc)
7682.1.1 = { holder=11355951 } # Bakr (nc)
7729.1.1 = { holder=11655951 } # Nizam (nc)
7745.1.1 = { holder=11955951 } # Nizam (nc)
7747.1.1 = { holder=12355951 } # Hafiz (nc)
7763.1.1 = { holder=12755951 } # Abdul (nc)
7787.1.1 = { holder=13055951 } # Isa (nc)
7819.1.1 = { holder=13255951 } # Mirza (nc)
7875.1.1 = { holder=13555951 } # Shamir (nc)
7885.1.1 = { holder=13655951 } # Youkhanna (nc)
