1.1.1={ law=succ_primogeniture law=cognatic_succession
	liege="e_reach"
}
45.1.1 = { holder=6000250 } # Rowan Gold-tree (C)
70.1.1 = { holder=0 }
7400.1.1 = { holder=6200250 } # Ronard (nc)
7455.1.1 = { holder=6300250 } # Theodore (nc)
7465.1.1 = { holder=6400250 } # Ryelle (nc)
7493.1.1 = { holder=6500250 } # Perceon (nc)
7504.1.1 = { holder=6800250 } # Linden (nc)
7539.1.1 = { holder=6900250 } # Titus (nc)
7554.1.1 = { holder=6110250 } # Theo (nc)

7590.1.1={
	holder=21250
}

7647.1.1={
	holder=20250
}
7675.1.1={
	holder=19250
}
7697.1.1={
	holder=18250
}
7714.1.1={
	holder=17250
}
7735.1.1={
	holder=16250
}
7757.1.1={
	holder=15250
}
7760.1.1={
	holder=13250
}
7796.1.1={
	holder=12250
}
7824.1.1={
	holder=11250
}
7864.1.1={
	holder=88106
}
7890.1.1={
	holder=88033
}





