#House Qho
7585.1.1 = { 
	holder=100304003 
	law = succ_seniority
	law = cognatic_succession
} # Jalabhar (nc)
7646.1.1 = { holder=101304003 } # Xhal (nc)
7663.1.1 = { holder=103304003 } # Thabo (nc)
7674.1.1 = { holder=105304003 } # Jaramogo (nc)
7675.1.1 = { holder=106304003 } # Adeyemu (nc)
7703.1.1 = { holder=109304003 } # Rudo (nc)
7752.1.1 = { holder=112304003 } # Odingaxho (nc)
7769.1.1 = { holder=117304003 } # Koroxhar (nc)
7787.1.1 = { holder=120304003 } # Konde (nc)
7831.1.1 = { holder=119304003 } # Alayaya (nc)
7835.1.1 = { holder=124304003 } # Anyim (nc)
7860.1.1 = { holder=126304003 } # Xhal (nc)
