200.1.1={
	liege="k_leng"
	law = succ_primogeniture
	law = enatic_succession
}

7595.1.1 = { holder=10055963 } # Shogofa (nc)
7631.1.1 = { holder=10255963 } # Nyawela (nc)
7639.1.1 = { holder=10655963 } # Simin (nc)
7675.1.1 = { holder=10755963 } # Alim (nc)
7696.1.1 = { holder=10855963 } # Rasa (nc)
7726.1.1 = { holder=11255963 } # Semeah (nc)
7747.1.1 = { holder=11655963 } # Reshawna (nc)
7777.1.1 = { holder=11855963 } # Shola (nc)
7797.1.1 = { holder=12055963 } # Layla (nc)
7821.1.1 = { holder=12255963 } # Paywand (nc)
7865.1.1 = { holder=12555963 } # Jahaira (nc)


