501.1.1={
	liege="k_lorath"
}
6059.1.1={ 
	holder=901174999 #Qarlton the great
} 
6079.1.1={ holder = 0 }
7575.1.1 = { holder=100300560 } # Tormo (nc)
7603.1.1 = { holder=101300560 } # Ternesio (nc)
7621.1.1 = { holder=107300560 } # Byan (nc)
7637.1.1 = { holder=102300548 } # Brusco (nc)
7645.1.1 = { holder=104300548 } # Izembaro (nc)
7647.1.1 = { holder=106300548 } # Lotho (nc)
7683.1.1 = { holder=113300560 } # Meralyn (nc)
7685.1.1 = { holder=117300560 } # Joss (nc)
7712.1.1 = { holder=110300548 } # Roro (nc)
7714.1.1 = { holder=112300548 } # Tagganaro (nc)
7735.1.1 = { holder=115300528 } # Ezzelyno (nc)
7740.1.1 = { holder=118300549 } # Mero (nc)
7766.1.1 = { holder=121300549 } # Oro (nc)
7769.1.1 = { holder=124300537 } # Tycho (nc)
7775.1.1 = { holder=125300537 } # Pynto (nc)
7783.1.1 = { holder=130300537 } # Yorko (nc)
7820.1.1 = { holder=134300560 } # Qarro (nc)
7833.1.1 = { holder=135300560 } # Moreo (nc)
7867.1.1 = { holder=136300560 } # Noho (nc)
7870.1.1 = { holder=131300528 } # Gyleno (nc)
