5000.1.1={
	#liege="k_sarnor"
	effect = {
		holder_scope = { 
			k_sarnor = {
				holder_scope = {
					make_tributary = { who = PREVPREV percentage = 0.1 }
				}
			}
		}	
	}
	law = succ_primogeniture
}
7563.1.1 = { holder=10056810 } # Nitish (nc)
7621.1.1 = { holder=10156810 } # Ekavir (nc)
