#House Gowonu
7586.1.1 = { 
	holder=100304021 
	law = succ_seniority
	law = cognatic_succession
} # Mermesbhar (nc)
7612.1.1 = { holder=102304021 } # Chakoro (nc)
7645.1.1 = { holder=105304021 } # Xhelimo (nc)
7674.1.1 = { holder=109304021 } # Tapuhuru (nc)
7676.1.1 = { holder=110304021 } # Jiradhar (nc)
7702.1.1 = { holder=112304021 } # Simbhar (nc)
7725.1.1 = { holder=117304021 } # Paro (nc)
7785.1.1 = { holder=120304021 } # Lusaxharo (nc)
7800.1.1 = { holder=122304021 } # Thabo (nc)
7842.1.1 = { holder=125304021 } # Ujja (nc)
7851.1.1 = { holder=126304021 } # Simbhar (nc)
7866.1.1 = { holder=128304021 } # Xhelimo (nc)
7877.1.1 = { holder=129304021 } # Jiradhar (nc)
7894.1.1 = { holder=132304021 } # Paro (nc)

