1123.1.1={
	liege="k_qarth"
}
 7591.1.1 = { holder=150350005 } # Sybassion (nc)
 7625.1.1 = { holder=100350005 } # Mallor (nc)
 7649.1.1 = { holder=101350005 } # Pyat (nc)
 7690.1.1 = { holder=108350005 } # Egon (nc)
 7709.1.1 = { holder=110350005 } # Nyessos (nc)
 7735.1.1 = { holder=111350005 } # Vogarro (nc)
 7774.1.1 = { holder=115350005 } # Horonno (nc)
 7794.1.1 = { holder=117350005 } # Belicho (nc)
 7802.1.1 = { holder=122350005 } # Navaphos (nc)
 7827.1.1 = { holder=129350005 } # Xaro Xhoan (nc)
 7865.1.1 = { holder=132350005 } # Pyat (nc)
 7868.1.1 = { holder=135350005 } # Ordello (nc)
 7894.1.1 = { holder=139350005 } # Methyso (nc)
