501.1.1={
	liege="k_lorath"
}
7590.1.1 = { holder=200300528} 
7626.1.1 = { holder=102300549 }
7653.1.1 = { holder=114300560 }
7670.1.1 = { holder=111300549 }
7714.1.1 = { holder=122300560 }
7725.1.1 = { holder=115300548 }
7760.1.1 = { holder=127300549 }
7785.1.1 = { holder=129300537 }
7844.1.1 = { holder=133300528 }
7870.1.1 = { holder=142300560 }

