2940.1.1={
	liege="k_princespassTK"
	law = succ_primogeniture
	law = true_cognatic_succession
	
	holder = 150014 #Ferris
}

2973.1.1={ holder = 0 }

7252.1.1 = { holder = 152014 } #Garrison
7305.1.1 = { 
	liege="e_dorne" # conquered by the Martell's.
	holder = 0 
}
7517.1.1 = { holder = 154014 }
7560.1.1 = { holder = 155014 }
7588.1.1 = { 
	holder=60014 # Aron (nc)
} 
7612.1.1 = { holder=60114 } # Cassana (nc)
7632.1.1 = { holder=60414 } # Franklyn (nc)
7680.1.1 = { holder=60714 } # Marya (nc)
7702.1.1 = { holder=60914 } # Gerold (nc)
7705.1.1 = { holder=61114 } # Trystane (nc)
7722.1.1 = { holder=61314 } # Dorea (nc)



7762.1.1 = { holder=61714 } # Symon (nc)

7795.1.1 = { holder=61814 } # Franklyn (nc)
7824.1.1 = { holder=62114 } # Aron (nc)
7837.1.1 = { holder=62214 } # Garin (nc)
7854.1.1 = { holder=63014 } # Gerold (nc)

