5000.1.1={
	liege="k_sarnor"
	law = succ_primogeniture
}
7595.1.1 = { holder=10056800 } # Onkar (nc)
7621.1.1 = { holder=10156800 } # Bhagesh (nc)
7653.1.1 = { holder=10656800 } # Harith (nc)
7676.1.1 = { holder=10756800 } # Jash (nc)
7706.1.1 = { holder=11056800 } # Darshan (nc)
7736.1.1 = { holder=11456800 } # Girivar (nc)
7752.1.1 = { holder=11756800 } # Nitish (nc)
7777.1.1 = { holder=11956800 } # Nayan (nc)
7787.1.1 = { holder=12456800 } # Ganesh (nc)
7830.1.1 = { holder=12856800 } # Manish (nc)
7856.1.1 = { holder=13256800 } # Vyomesh (nc)
7866.1.1 = { holder=13456800 } # Harihar (nc)
