5000.1.1={
	#liege="k_sarnor"
	effect = {
		holder_scope = { 
			k_sarnor = {
				holder_scope = {
					make_tributary = { who = PREVPREV percentage = 0.1 }
				}
			}
		}	
	}
	law = succ_primogeniture
}
7595.1.1 = { holder=10056801 } # Taresh (nc)
7635.1.1 = { holder=10156801 } # Harshil (nc)
7673.1.1 = { holder=10456801 } # Bhagesh (nc)
7704.1.1 = { holder=10656801 } # Tarakesh (nc)
7735.1.1 = { holder=10856801 } # Manaar (nc)
7742.1.1 = { holder=11056801 } # Vyomesh (nc)
7795.1.1 = { holder=11256801 } # Kushal (nc)
7799.1.1 = { holder=11556801 } # Vishruth (nc)
7808.1.1 = { holder=11956801 } # Ishwar (nc)
7879.1.1 = { holder=12056801 } # Uttamesh (nc)
7897.1.1 = { holder=12156801 } # Uttamesh (nc)
