#House Qo
7016.1.1 = {
	holder=150304005  # Xanda
	law = succ_seniority
	law = cognatic_succession
} 
7058.1.1 = { holder=151304005 } # Chatana
7090.1.1 = { holder=0 }

7537.1.1 = { holder=153304005 } #
7579.1.1 = { holder=154304005 } #
7595.1.1 = { holder=100304005 } # Gatubhar (nc)
7657.1.1 = { holder=102304005 } # Thabo (nc)
7686.1.1 = { holder=105304005 } # Delmabhar (nc)
7690.1.1 = { holder=107304005 } # Xhonodo (nc)
7699.1.1 = { holder=108304005 } # Oluhuru (nc)
7752.1.1 = { holder=109304005 } # Xhoan (nc)
7755.1.1 = { holder=114304005 } # Xanda (C)
7778.1.1 = { holder=118304005 } # Isingodo (nc)
7803.1.1 = { holder=121304005 } # Thabo (nc)
7821.1.1 = { holder=122304005 } # Xhelimo (nc)
7835.1.1 = { holder=124304005 } # Jalahuru (nc)
7873.1.1 = { holder=125304005 } # Doshuru (nc)
