#NOTE: The holder of this title has the House Ambrose dynasty tracker set in roberts_rebellion_events
500.1.1={ law=succ_primogeniture law=cognatic_succession
	liege="e_reach"
}
7592.1.1 = { holder=6000297 } # Samwell (nc)
7618.1.1 = { holder=6002297 } # Emmon (nc)
7639.1.1 = { holder=6007297 } # Theodore (nc)
7670.1.1 = { holder=6010297 } # Moryn (nc)
7680.1.1 = { holder=6011297 } # Florian (nc)
7700.1.1 = { holder=6014297 } # Marq (C)
7730.5.8 = { holder=6015297 } # Bryan (nc)
7779.1.1 = { holder=6021297 } # Fredrec (nc)
7795.1.1 = { holder=6025297 } # Elyas (nc)
7807.1.1 = { holder=6027297 } # Tristram (nc)
7823.1.1 = { holder=6030297 } # Arryn (nc)
7848.1.1 = { holder=6034297 } # Harrold (nc)

7874.1.1={
	holder=297
}




