1123.1.1={
	liege="k_tyrosh"
}
7587.1.1 = { holder=150300024 } # Myrmello (nc)
7628.1.1 = { holder=100300533 } # Groleo (nc)
7651.1.1 = { holder=100300543 } # Mallaquo (nc)
7664.1.1 = { holder=101300544 } # Jaqen (nc)
7679.1.1 = { holder=103300543 } # Roggo (nc)
7698.1.1 = { holder=105300542 } # Syrio (nc)
7708.1.1 = { holder=108300533 } ##### Racallio Ryndoon
7734.1.1 = { holder=109300024 } # Ordello (nc)
7746.1.1 = { holder=113300542 } # Beqqo (nc)
7765.1.1 = { holder=122300024 } # Oro (nc)
7803.1.1 = { holder=121300544 } # Ordello (nc)
7834.1.1 = { holder=128300024 } # Tycho (nc)

7865.6.1 = {  
	holder=128300024 # Tycho (nc)
} 
7870.1.1 = { holder=130300024 } # Gyloro (nc)
7878.1.1 = { holder=131300024 } # Syrio (nc)
