5078.1.1 = {
	liege = e_new_valyria
}
7595.1.1 = { holder=100069190 } # Yarkhaz (nc)
7630.1.1 = { holder=100269190 } # Yurkhaz (nc)
7649.1.1 = { holder=100769190 } # Barkhaz (nc)
7678.1.1 = { holder=100869190 } # Grazdan (nc)
7723.1.1 = { holder=101469190 } # Grazdhar (nc)
7728.1.1 = { holder=101769190 } # Barghaz (nc)
7746.1.1 = { holder=101969190 } # Barghaz (nc)
7803.1.1 = { holder=102169190 } # Faezdhar (nc)
7807.1.1 = { holder=102569190 } # Morghaz (nc)
7832.1.1 = { holder=102669190 } # Mazdhan (nc)
7869.1.1 = { holder=103169190 } # Miklaz (nc)
7878.1.1 = { holder=103669190 } # Faezdhar (nc)


