4390.1.1 = {
	liege = e_new_valyria
	law = slavery_2
	law = republic_law_oligarchy
	law = succ_feudal_elective
	law = agnatic_succession
	law = centralization_1
	effect = { add_law = republic_law_oligarchy }
}
7495.1.1 = { holder=1000208 } # Grazdhar (nc)
7530.1.1 = { holder=1001208 } # Yarkhaz (nc)
7582.1.1 = { holder=1002208 } # Morghaz (nc)
7609.1.1 = { holder=1005208 } # Reznak (nc)
7629.1.1 = { holder=1006208 } # Zaraq (nc)
7655.1.1 = { holder=1008208 } # Ghazdor (nc)
7693.1.1 = { holder=1009208 } # Grazdhar (nc)
7724.1.1 = { holder=1012208 } # Fendahl (nc)
7738.1.1 = { holder=1014208 } # Marghaz (nc)
7753.1.1 = { holder=1017208 } # Haznak (nc)
7783.1.1 = { holder=1021208 } # Skahaz (nc)
7816.1.1 = { holder=1023208 } # Fendahl (nc)


