210.1.1 = { 
	holder=150012 #Yoren
	law = succ_primogeniture
	law = cognatic_succession
}
235.1.1 = { holder = 0 }
6400.1.1 = { holder = 152012 } #Yorick I
6440.1.1 = { holder = 153012 } #Yorick II
6468.1.1 = { holder = 154012 } #Olyvar
6481.1.1 = { holder = 0 }

7241.1.1 = { holder = 156012 } #Yorick III
7268.1.1 = { holder = 157012 } #Yorick IV
7295.1.1 = { holder = 158012 } #Yorick V
7311.1.1 = { # after being defeated by the Martell's.
	holder = 0
}
