#CODE;ENGLISH;FRENCH;GERMAN;;SPANISH;;;;;;;;;x
b_gormon_point;Gormon's Point;;;;;;;;;;;;;x
b_peakesbridge;Peake's Bridge;;;;;;;;;;;;;x
b_firemeadow;Fire Meadow;;;;;;;;;;;;;x
b_seadragonwatch1;Greywolf's Den;;;;;;;;;;;;;x
b_seadragonwatch2;Shipwright's Watch;;;;;;;;;;;;;x
b_seadragonwatch3;Brandon's Lament;;;;;;;;;;;;;x
b_drakedwelling;Drake's Dwelling;;;;;;;;;;;;;x
b_dragon_hall;Drake Hall;;;;;;;;;;;;;x
b_drakesdale;Drake's Dale;;;;;;;;;;;;;x
b_snow;Snow Keep;Colser;;;Nieve;;;;;;;;;x
b_sky;Sky Keep;Harbot;;;Cielo;;;;;;;;;x
d_skane;Skane;Skane;;;Skane;;;;;;;;;x
c_skane;Skane;Skane;;;Skane;;;;;;;;;x
b_skaggswatch;Skagg Watch;;;;;;;;;;;;;x
b_skane;Skane;Skane;;;Skane;;;;;;;;;x
#PROV1200;Skane;Skane;;;;;;;;;;;;x
c_the_gates_of_the_moon;Gates of the Moon;Les Portes de la Lune;Gates of the Moon;Gates of the Moon;Puertas de la Luna;;;;;;;;;x
b_the_gates_of_the_moon;The Gates of the Moon;Les Portes de la Lune;The Gates of the Moon;The Gates of the Moon;Puertas de la Luna;;;;;;;;;x
b_the_gates_of_the_moon_town;Gateston;;;;;;;;;;;;;x
b_the_gates_of_the_moon_sept;the Gate;;;;;;;;;;;;;x
PROV1201;Gates of the Moon;Les Portes de la Lune;The Gates of the Moon;The Gates of the Moon;Puertas de la Luna;;;;;;;;;x
PROV1202;The City of Oldtown;;;;;;;;;;;;;x
c_oldtown_city;Oldtown City;;;;;;;;;;;;;x
b_oldtown_city_walls;The Gates of Oldtown;;;;;;;;;;;;;x
b_oldtown_city;Oldtown;;;;;;;;;;;;;x
b_oldtown_ragpickers_wynd;Ragpicker's Wynd;;;;;;;;;;;;;x
b_oldtown_thieves_market;Thieves Market;;;;;;;;;;;;;x
b_oldtown_docklands;Oldtown Docks;;;;;;;;;;;;;x
b_oldtown_sailors_sept;The Sailor's Sept;;;;;;;;;;;;;x
b_oldtown_seven_shrines;The Seven Shrines;;;;;;;;;;;;;x
PROV286;The Hightower;;;;;;;;;;;;;x
c_oldtown;The Hightower;;;;;;;;;;;;;x
b_oldtown;The Black Stone Fortress;;;;;;;;;;;;;x
b_oakmere;The Hightower Vaults;;;;;;;;;;;;;x
b_hapsford;The Hightower Beacon;;;;;;;;;;;;;x
PROV1203;King's Landing;;;;;;;;;;;;;x
c_kl_city;King's Landing;;;;;;;;;;;;;x
b_kl_dragon_gate;The Dragon Gate;;;;;;;;;;;;;x
b_kl_kings_gate;The King's Gate;;;;;;;;;;;;;x
b_kl_baelor_sept;The Great Sept of Baelor;;;;;;;;;;;;;x
b_kl_flea_bottom;Flea Bottom;;;;;;;;;;;;;x
b_kl_dragon_pit;The Dragon Pit;;;;;;;;;;;;;x
b_kl_cobblers_square;Cobbler's Square;;;;;;;;;;;;;x
b_kl_dockyards;The King's Landing Docks;;;;;;;;;;;;;x
PROV226;The Red Keep;;;;;;;;;;;;;x
c_kings_landing;The Red Keep;;;;;;;;;;;;;x
b_red_keep;Maegor's Holdfast;;;;;;;;;;;;;x
b_rk_tower_hand;The Tower of the Hand;;;;;;;;;;;;;x
b_rk_kitchen_keep;The Kitchen Keep;;;;;;;;;;;;;x
b_rk_sept;The Red Keep;;;;;;;;;;;;;x
b_rk_maidenvault;The Maidenvault;;;;;;;;;;;;;x
b_rk_black_cells;The Black Cells;;;;;;;;;;;;;x
D_BLACKWATER_MOUTH;Blackwater Estuary;Baie de la Néra;;;Bahía del Aguasnegras;;;;;;;;;x
c_iron_holt;Iron Holt;;;;;;;;;;;;;x
b_iron_holt;Iron Holt;;;;;;;;;;;;;x
d_saltcliffe;Saltcliffe;;;;;;;;;;;;;x
PROV1205;Shield Row;;;;;;;;;;;;;x
c_shield_row;Shield Row;;;;;;;;;;;;;x
b_shield_row_mbs;Shield Row;;;;;;;;;;;;;x
PROV1206;Hangmyre;;;;;;;;;;;;;x
c_hangmyre;Hangmyre;;;;;;;;;;;;;x
b_hangmyre_mbs;Hangmyre;;;;;;;;;;;;;x
PROV1207;Grey Garden;;;;;;;;;;;;;x
c_grey_garden;Grey Garden;;;;;;;;;;;;;x
b_grey_garden_mbs;Grey Garden;;;;;;;;;;;;;x
PROV1208;Glimmering Tower;;;;;;;;;;;;;x
c_tower_of_glimmering;Tower of Glimmering;;;;;;;;;;;;;x
b_tower_of_glimmering_mbs;Tower of Glimmering;;;;;;;;;;;;;x
PROV1209;Nettlebank;;;;;;;;;;;;;x
c_nettlebank;Nettlebank;;;;;;;;;;;;;x
b_nettlebank_mbs;Nettlebank;;;;;;;;;;;;;x
d_orkmont;Orkmont;;;;;;;;;;;;;x
PROV1210;Faroar;;;;;;;;;;;;;x
c_faroar_mbs;Faroar;;;;;;;;;;;;;x
b_faroar_mbs;Faroar;;;;;;;;;;;;;x
PROV1211;Corpse Lake;;;;;;;;;;;;;x
c_corpse_lake;Corpse Lake;;;;;;;;;;;;;x
b_corpse_lake_mbs;Corpse Lake;;;;;;;;;;;;;x
PROV1212;Stonehouse;;;;;;;;;;;;;x
c_stonehouse;Stonehouse;;;;;;;;;;;;;x
b_stonehouse_mbs;Stonehouse;;;;;;;;;;;;;x
d_old_wyk;Old Wyk;;;;;;;;;;;;;x
d_seastone_isles;Blacktyde;;;;;;;;;;;;;x
PROV1213;Saltford;;;;;;;;;;;;;x
c_saltford;Saltford;;;;;;;;;;;;;x
b_saltford_mbs;Saltford;;;;;;;;;;;;;x
b_ironmaker_mbs;Ironmaker Keep;;;;;;;;;;;;;x
b_hardstone_mbs;Hardstone Hills;;;;;;;;;;;;;x
b_hammerhome_temple_mbs;Hammergrave;;;;;;;;;;;;;x
PROV1214;Bay of Morne;;;;;;;;;;;;;x
PROV1215;Nagga's Cradle;;;;;;;;;;;;;x
PROV1216;Hoare Castle;;;;;;;;;;;;;x
c_hoare_castle;Hoare Castle;;;;;;;;;;;;;x
b_hoare_castle_mbs;Hoare Castle;;;;;;;;;;;;;x
b_hoareton_mbs;Chainton;;;;;;;;;;;;;x
b_hoaregrave_mbs;Blackgrave;;;;;;;;;;;;;x
b_hoare_soundship_mbs;Soundship;;;;;;;;;;;;;x
PROV1217;Morne;;;;;;;;;;;;;x
c_morne;Morne;;;;;;;;;;;;;x
b_morne_mbs;Morne;;;;;;;;;;;;;x
b_morne_sept_mbs;Just Maiden;;;;;;;;;;;;;x
b_morne_town_mbs;Sunwatch;;;;;;;;;;;;;x
b_morne_new_mbs;Galladon's Lament;;;;;;;;;;;;;x
