d_winter = {
	color={ 128 255 255 }
	color2={ 255 255 255 }
	
	title = "OTHER"
	foa = "OTHER_FOA"
	short_name = yes
	
	capital = 6 # Shivering Forest

	dignity = 100

	# Always exists
	landless = yes

	culture = white_walker
	religion = cold_gods
	
	# Cannot be held as a secondary title
	primary = yes
	
	can_be_claimed = no
	can_be_usurped = no
}

d_winter_essos = {
	color={ 128 255 255 }
	color2={ 255 255 255 }
	
	title = "OTHER"
	foa = "OTHER_FOA"
	short_name = yes
	
	capital = 820 #The Five Forts

	dignity = 100

	# Always exists
	landless = yes

	culture = white_walker
	religion = cold_gods
	
	# Cannot be held as a secondary title
	primary = yes
	
	can_be_claimed = no
	can_be_usurped = no
}