7998.2.1={
	liege="c_kl_city"
	law = succ_appointment	
	effect = {
		set_title_flag = military_command
		holder_scope = {
			if = {
				limit = { primary_title = { title = PREVPREV } }
				set_government_type = military_command_government_city 
				PREV = { succession = appointment }
				recalc_succession = yes
			}
		}
	}	
}
8125.1.1 = {
	holder = 150285 #Gwayne Hightower
}
8130.1.26 = {
	holder = 0
}
8276.1.1 = {
	holder = 696969106 #Humfrey
}




