#House Slate
1.1.1={
	liege="k_blackpoolTK"
	law = succ_primogeniture
}
2963.1.1 = { 
	holder=655001 
} #
3021.1.1 = { 
	holder=0 
}
7201.1.1 = { 
	liege="e_north" #Slates
	holder=655003 
} 
7271.1.1 = { 
	holder=0 
}
7861.1.1 = { 
	holder=344071 # Gerhard (nc)
	liege="d_whiteharbor"
} 
7884.1.1 = { holder=343071 } # Karlon (nc)
7912.1.1 = { holder=342071 } # Cley (nc)
7933.1.1 = { holder=341071 } # Hallis (nc)
7961.1.1 = { holder=340071 } # Theodan (nc)

7976.1.1 = { holder=24071 } # Calon (nc)
8005.1.1 = { holder=23071 } # Joseth (nc)
8043.1.1 = { holder=22071 } # Owen (nc)
8069.1.1 = { holder=21071 } # Damon (nc)
8118.1.1 = { holder=19071 } # Ronnel (nc)
8145.1.1 = { holder=18071 } # Harlon (nc)
8191.1.1 = { holder=16071 } # Beren (nc)
8199.1.1 = { holder=15071 } # Hugo (nc)
8245.1.1 = { holder=13071 } # Mark (nc)
8280.1.1 = {
	holder=71
}
