900.1.1={ law=succ_primogeniture law=cognatic_succession
	liege="d_harlaw"
}
7835.1.1={holder=6033111}
7885.1.1={holder=6032111}
7910.1.1={holder=6031111}
7935.1.1={holder=6030111}
7960.1.1 = { holder=6004111 }
7986.1.1 = { holder=6006111 }
8010.1.1 = { holder=6000111 } # Lucimore (nc)
8027.1.1 = { holder=6001111 } # Steffarion (nc)
8045.1.1 = { holder=6005111 } # Gyles (nc)
8076.1.1 = { holder=6007111 } # Robin (nc)
8112.1.1 = { holder=6011111 } # Lenwood (nc)
8133.1.1 = { holder=6014111 } # Adrack (nc)
8157.1.1 = { holder=6016111 } # Urek (nc)
8200.1.1 = { holder=6017111 } # Balon (nc)
8220.1.1 = { holder=6022111 } # Tristifer (nc)
8252.1.1 = { holder=6026111 } # Victarion (nc)

8272.1.1 = {	
	holder=3000111
}
8292.1.1 = {
	holder=3003111
}





