1.1.1={
	liege="e_iron_isles"
	law = agnatic_succession
	law = succ_primogeniture
}
#House Greyiron
2917.1.1 = { holder = 5001508 } #Urras  Greyiron
2942.1.1 = { holder = 5011508 } #Erich I Greyiron
2943.1.1 = { holder = 0 } 
2956.1.1 = { holder = 5021508 } #Theon I Greyiron (nc)
2993.1.1 = { holder = 354066 } #Sylas  
3009.1.1 = { holder = 5031508 } #Balon I Greyiron (nc)
3034.1.1 = { holder = 0 }

#House Hoare
3487.1.1 = { holder = 355066 } #Harrag  Hoare
3519.1.1 = { holder = 357066 } #Erich II Hoare

#House Greyiron
3545.1.1 = { holder = 5041508 } #Urrathon I Greyiron (nc)
3556.1.1 = { holder = 5051508 } #Urrathon II Greyiron (nc)
3578.1.1 = { holder = 0 } 
3638.1.1 = { holder = 5061508 } #Urragon I Greyiron (nc)
3658.1.1 = { holder = 0 }

#House Hoare 
3670.1.1 = { holder = 358066 } #Qhored  Hoare
3745.1.1 = { holder = 0 }

#House Greyiron
4159.1.1 = { holder = 5071508 } #Balon III Greyiron (nc)
4177.1.1 = { holder = 5081508 } #Erich III Greyiron (nc)
4216.1.1 = { holder = 5091508 } #Rognar I Greyiron (nc)
4230.1.1 = { holder = 0 } 
4238.1.1 = { holder = 5101508 } #Erich IV Greyiron (nc)
4278.1.1 = { holder = 5111508 } #Urrathon III Greyiron (nc)
4287.1.1 = { holder = 0 } 

5014.1.1 = { holder = 5241508 } #Urragon II Greyiron (nc)
5043.1.1 = { holder = 5121508 } #Urragon III Greyiron
5087.1.1 = { holder = 0 } 
5089.1.1 = { holder = 5131508 } #Torgon  Greyiron
5129.1.1 = { holder = 5171508 } #Urragon IV Greyiron

5181.1.1 = { 
	holder = 5201508  #Urron  Greyiron
	law = succ_primogeniture
} 
5203.1.1 = { holder = 0 }

6490.1.1 = { holder = 5251508 } #Joron II Greyiron (nc)
6521.1.1 = { holder = 5211508 } #Euron I Greyiron (nc)
6540.1.1 = { holder = 5221508 } #Balon VII Greyiron (nc)
6563.1.1 = { holder = 5231508 } #Rognar II Greyiron

#House Hoare
6584.1.1 = { holder = 359066 } #Harras  Hoare
6605.1.1 = { holder = 360066 } #Wulfgar  Hoare
6639.1.1 = { holder = 361066 } #Harrag Hoare (nc)
6648.1.1 = { holder = 362066 } #Euron II Hoare (nc)
6671.1.1 = { holder = 363066 } #Horgan  Hoare
6692.1.1 = { holder = 3163066 } #Balon VIII Hoare (nc)

6734.1.1 = { holder = 0 }

7458.1.1 = { holder = 364066 } #Fergon  Hoare
7470.1.1 = { holder = 365066 } #Othgar I Hoare
7518.1.1 = { holder = 366066 } #Othgar II Hoare
7539.1.1 = { holder = 367066 } #Craghorn  Hoare
7547.1.1 = { holder = 368066 } #Harmund I Hoare
7598.1.1 = { holder = 369066 } #Harmund II Hoare
7612.1.1 = { holder = 370066 } #Harmund III Hoare
7615.1.1 = { holder = 371066 } #Hagon  Hoare
7622.1.1 = { holder = 0 }

#House Orkwood
7866.1.1 = { holder=343116 } # Urron (nc)
7883.1.1 = { holder=342116 } # Andrik (nc)
7906.1.1 = { holder=341116 } # Boremund (nc)
7932.1.1 = { holder=340116 } # Buron (nc)

7947.1.1 = { holder=105116 } # Quenton (nc)
7994.1.1 = { holder=100116 } # Euron (nc)
7998.2.1={
	liege="k_iron_isles"
}

8013.1.1 = { holder=101116 } # Rolfe (nc)
8024.1.1 = { holder=103116 } # Sigfryd (nc)
8061.1.1 = { holder=111116 } # Burton (nc)
8090.1.1 = { holder=114116 } # Drennan (nc)
8148.1.1 = { holder=121116 } # Dagon (nc)
8156.1.1 = { holder=123116 } # Harrag (nc)
8161.1.1 = { holder=124116 } # Rolfe (nc)
8180.1.1 = { holder=128116 } # Werlag (nc)
8209.1.1 = { holder=129116 } # Aeron (nc)
8214.1.1 = { holder=135116 } # Lorren (nc)
8249.1.1 = { holder=138116 } # Urek (nc)
8285.1.1 = { holder=116 } # Alyn
8289.1.1={
	liege="e_iron_isles"
}
8289.6.1={
	liege="k_iron_isles"
}
8299.3.4 = {
	liege="e_iron_isles"
}