1.1.1={
	law = succ_primogeniture
	law = cognatic_succession
	holder=1050079
	effect = {
		holder_scope = {
			set_special_character_title = barrowking_male
		}	
	}
}
80.1.1={
	holder=0
}
6422.1.1={
	holder=848003
}
6476.1.1={
	holder=0
}