1.1.1={
	law = succ_primogeniture
	law = cognatic_succession

}
6402.1.1={
	holder = 848001 #Gaven Greywolf
}
6442.1.1={
	holder = 0 #Brandon
}
6602.1.1={
	holder = 665001 #Fisher
}
6662.1.1={
	holder = 0 #
}