900.1.1={ law=succ_primogeniture law=cognatic_succession
	liege="c_holyhall"
}
7849.1.1 = { holder=3034263 } # Leo (nc)
7860.1.1 = { holder=3033263 } # Morgan (nc)
#House Merryweather (side branch)
7917.1.1={holder=60000263}
7940.1.1={holder=251477}
7947.1.1={holder=261477}

#House Weatherwax
7970.1.1={holder=271477}
8000.1.1={holder=281477}
8020.1.1={holder=151477}
8047.1.1={holder=161477}
8069.1.1 = { holder=171477 }	#Owen (nc)
8102.1.1 = { holder=181477 }	#Perwyn (nc)
8124.1.1 = { holder=191477 }	#Warryn (nc)
8151.1.1 = { holder=211477 }	#Triston (nc)
8168.1.1 = { holder=221477 }	#Gerold (nc)
8197.1.1 = { holder=231477 }	#Gerold (nc)
8215.1.1 = { holder=241477 }	#Arlan (nc)
8249.1.1 = { holder=141477 }	#Laswell (nc)
8283.1.1 = { holder=1477 }		#Willem (nc)
8294.1.1 = { holder=101477 }	#Josua (nc)
