#barony under Uplands
3.1.1={
	liege="c_uplands"
}
#House Cobb
7846.1.1={holder=30174833}
7900.1.1={holder=31174833}
7925.1.1={holder=32174833}
7950.1.1={holder=33174833}
7975.1.1={holder=34174833}
8010.1.1 = { holder=16174833 } 	#Alekyne (nc)
8030.1.1 = { holder=17174833 }	#Laswell (nc)
8042.1.1 = { holder=18174833 }	#Forley (nc)
8087.1.1 = { holder=19174833 }	#Unwin (nc)
8105.1.1 = { holder=20174833 }	#Hobber (nc)
8144.1.1 = { holder=27174833 }	#Talbert (nc)
8190.1.1 = { holder=29174833 }	#Mathis (nc)
8225.1.1 = { holder=174833 }	#Bayard (nc)
8274.1.1 = { holder=10174833 }	#Gunthor (nc)
8292.1.1 = { holder=11174833 }	#Olymer (nc)
