#House Reymnos
900.1.1={ 
	liege="c_deepforest"
}
7851.1.1 = { holder=344300529 } # Vyran (nc)
7898.1.1 = { holder=343300529 } # Ryos (nc)
7899.1.1 = { holder=342300529 } # Rargo (nc)
7935.1.1 = { holder=341300529 } # Garrid (nc)
7954.1.1 = { holder=340300529 } # Vogys (nc)

7973.1.1 = { holder=100300529 } # Ordello (nc)
8023.1.1 = { holder=101300529 } # Daario (nc)
8037.1.1 = { holder=103300529 } # Areo (nc)
8048.1.1 = { holder=110300529 } # Myrmello (nc)
8065.1.1 = { holder=112300529 } # Gyloro (nc)
8081.1.1 = { holder=113300529 } # Ternesio (nc)
8133.1.1 = { holder=114300529 } # Syrio (nc)
8136.1.1 = { holder=115300529 } # Areo (nc)
8149.1.1 = { holder=116300529 } # Vargo (nc)
8174.1.1 = { holder=120300529 } # Myrmello (nc)
8186.1.1 = { holder=123300529 } # Lotho (nc)
8202.1.1 = { holder=126300529 } # Syrio (nc)
8255.1.1 = { holder=128300529 } # Jaqen (nc)
8260.1.1 = { holder=129300529 } # Illyrio (nc)
8265.1.1 = { holder=133300529 } # Byan (nc)
8271.1.1 = { holder=136300529 } # Meralyn (nc)



