#House Hazkar
600.1.1={
	liege="c_demon_road"
}
7855.1.1 = { holder=355360011 } # Grazdan (nc)
7871.1.1 = { holder=354360011 } # Miklaz (nc)
7901.1.1 = { holder=352360011 } # Grazdan (nc)
7941.1.1 = { holder=351360011 } # Hazkar (nc)
7964.1.1 = { holder=350360011 } # Skahaz (nc)
7988.1.1 = { holder=349360011 } # Grazdan (nc)
8024.1.1 = { holder=348360011 } # Garnhak (nc)
8034.1.1 = { holder=347360011 } # Hazkar (nc)
8083.1.1 = { holder=346360011 } # Draqaz (nc)
8099.1.1 = { holder=345360011 } # Liznuq (nc)
8103.1.1 = { holder=344360011 } # Ozzak (nc)
8135.1.1 = { holder=343360011 } # Hizdahr (nc)
8159.1.1 = { holder=342360011 } # Uhzaq (nc)
8189.1.1 = { holder=341360011 } # Gorzhak (nc)
8201.1.1 = { holder=340360011 } # Zharaq (nc)
8242.1.1 = { holder=101360011 } # Hizdahr (nc)
8300.1.1 = { holder=104360011 } # Yarkhaz (nc)