#House Elliver
6000.1.1={
	liege="c_dreadfort"
	law = succ_primogeniture
}
7870.1.1 = { holder=3451877 } # Roger (nc)
7885.1.1 = { holder=3441877 } # Halys (nc)
7932.1.1 = { holder=3431877 } # Eddard (nc)
7944.1.1 = { holder=3421877 } # Lothor (nc)
7975.1.1 = { holder=3411877 } # Cayn (nc)
7992.1.1 = { holder=3401877 } # Jaremy (nc)
8000.1.1 = { holder=31877 } # Ramsay (nc)
8031.1.1 = { holder=41877 } # Raymun (nc)
8080.1.1 = { holder=51877 } # Osric (nc)
8101.1.1 = { holder=71877 } # Qhorin (nc)
8170.1.1 = { holder=81877 } # Porther (nc)
8185.1.1 = { holder=91877 } # Theodor (nc)
8231.1.1 = { holder=101877 } # Daryn (nc)
8261.1.1 = {
	holder=1877 # Harmond (nc)
}
#House Bolton
8299.11.5 = { 
	holder = 87
}