6000.1.1={
	liege="c_thetwins"
	law = succ_primogeniture
}
###House Nayland###
7843.1.1 = { holder=144174434 }
7900.1.1 = { holder=143174434 }
7921.1.1 = { holder=142174434 }
7943.1.1 = { holder=141174434 }
7970.1.1 = { holder=140174434 }
7995.1.1 = { holder=100174434 } # Andrey (nc)
8025.1.1 = { holder=101174434 } # Robin (nc)
8038.1.1 = { holder=103174434 } # Ned (nc)
8044.1.1 = { holder=105174434 } # Lyman (nc)
8097.1.1 = { holder=109174434 } # Jonthor (nc)
8122.1.1 = { holder=111174434 } # Jeffory (nc)
8152.1.1 = { holder=116174434 } # Bryan (nc)
8183.1.1 = { holder=119174434 } # Cleos (nc)
8191.1.1 = { holder=123174434 } # Wilbert (nc)
8192.1.1 = { holder=124174434 } # Harry (nc)
8217.1.1 = { holder=128174434 } # Creighton (nc)
8252.1.1 = { holder=130174434 } # Luceon (nc)
8289.1.1 = { holder=132174434 } # Jared (nc)
