#House Uteuran
900.1.1={ 
	liege="c_myr"
}
7859.1.1 = { holder=344300534 } # Haros (nc)
7878.1.1 = { holder=343300534 } # Adaros (nc)
7911.1.1 = { holder=342300534 } # Aryos (nc)
7931.1.1 = { holder=341300534 } # Larys (nc)
7953.1.1 = { holder=340300534 } # Bhoros (nc)

7966.1.1 = { holder=150300534 } # Tycho (nc)
8020.1.1 = { holder=100300534 } # Molloq (nc)
8053.1.1 = { holder=103300534 } # Izembaro (nc)
8091.1.1 = { holder=105300534 } # Moredo (nc)
8130.1.1 = { holder=111300534 } # Ordello (nc)
8140.1.1 = { holder=113300534 } # Daario (nc)
8147.1.1 = { holder=117300534 } # Ferrego (nc)
8207.1.1 = { holder=121300534 } # Pynto (nc)
8235.1.1 = { holder=123300534 } # Byan (nc)
8253.1.1 = { holder=126300534 } # Collio (nc)
8262.1.1 = { holder=130300534 } # Ferrego (nc)







