900.1.1={ law=succ_primogeniture law=cognatic_succession
	liege="c_coldmoat"
}
#House Osgrey
7776.1.1={
	holder=83006
}
7811.1.1={
	holder=83005
}
7844.1.1={
	holder=83004
}
#Osgreys of leafy lake
7850.1.1={
	holder=88318
}
7897.1.1={
	holder=88317
}
7915.1.1={
	holder=88316
}
7940.1.1={
	holder=88315
}
7975.1.1={
	holder=88296
}
8010.1.1={
	holder=88297
}
8030.1.1={
	holder=88298
}
8040.1.1={
	holder=88299
}
8060.1.1={
	holder=88300
}
8080.1.1={
	holder=88301
}
8110.1.1={
	holder=88302
}
8130.1.1={
	holder=88304
}
8165.1.1={
	holder=88305
}
8184.1.1={
	holder=88310
}
8190.1.1={
	holder=88197 #conklyns
}
8220.1.1={
	holder=88198
}
8265.1.1={
	holder=88199
}
8293.1.1={
	holder=88201
}






