#House Lathtis
600.1.1={
	liege="c_lorathishore"
}
7865.1.1 = { holder=344300549 } # Rano (nc)
7898.1.1 = { holder=343300549 } # Haros (nc)
7908.1.1 = { holder=342300549 } # Arar (nc)
7935.1.1 = { holder=341300549 } # Jorys (nc)
7967.1.1 = { holder=340300549 } # Thorenhor (nc)

7985.1.1 = { holder=100300549 } # Ollo (nc)
8036.1.1 = { holder=101300549 } # Ezzelyno (nc)
8069.1.1 = { holder=106300549 } # Ezzelyno (nc)
8076.1.1 = { holder=110300549 } # Myrmello (nc)
8097.1.1 = { holder=112300549 } # Mellario (nc)
8108.1.1 = { holder=116300549 } # Qarro (nc)
8129.1.1 = { holder=118300549 } # Mero (nc)
8166.1.1 = { holder=121300549 } # Oro (nc)
8169.1.1 = { holder=124300549 } # Lotho (nc)
8202.1.1 = { holder=128300549 } # Tagganaro (nc)
8211.1.1 = { holder=133300549 } # Noho (nc)
8234.1.1 = { holder=135300549 } # Moreo (nc)
8256.1.1 = { holder=136300549 } # Orbelo (nc)
8299.1.1 = { holder=143300549 } # Groleo (nc)