#House Tagaros
7850.1.1 = { 
	liege=k_volantis
	holding_dynasty=174603
} 
7852.1.1 = { holder=342174603 } # Parquello (nc)
7870.1.1 = { holder=100174603 } # Marqelo Tagaros (C)
7906.1.1 = { holder=341174603 } # Rolloquo (nc)
7921.1.1 = { holder=340174603 } # Vaekar (nc)
7934.1.1 = { holder=101174603 } # Ordello (nc)
7966.1.1 = { holder=102174603 } # Belicho (nc)
7998.1.1 = { 
	liege = 0
	holder = 0
}