600.1.1={
	liege="d_asshai"
}
7845.1.1 = { holder=34532901 } # Bunuth (nc)
7869.1.1 = { holder=34432901 } # Arganth (nc)
7892.1.1 = { holder=34332901 } # Tehuth (nc)
7905.1.1 = { holder=34232901 } # Shamash (nc)
7934.1.1 = { holder=34132901 } # Gudeath (nc)
7962.1.1 = { holder=34032901 } # Palusum (nc)

7990.1.1 = { holder=10032901 } # Sumalika (nc)
8017.1.1 = { holder=10532901 } # Awil (nc)
8043.1.1 = { holder=10732901 } # Dadanum (nc)
8054.1.1 = { holder=11132901 } # Mamagal (nc)
8114.1.1 = { holder=11532901 } # Damuzi (nc)
8133.1.1 = { holder=11932901 } # Qasmath (nc)
8147.1.1 = { holder=12132901 } # Samuqan (nc)
8176.1.1 = { holder=12532901 } # Utu (nc)
8215.1.1 = { holder=12932901 } # Ibnatum (nc)
8240.1.1 = { holder=13332901 } # Qasmath (nc)
8273.1.1 = { holder=13632901 } # Bunuth (nc)
8274.1.1 = { holder=13932901 } # Yatum (nc)


