#House Votyris
7000.1.1 = {
	liege = d_norvos
}
7851.1.1 = { holder=345300563 } # Hyan (nc)
7868.1.1 = { holder=344300563 } # Malonar (nc)
7889.1.1 = { holder=343300563 } # Tybero (nc)
7905.1.1 = { holder=342300563 } # Horo (nc)
7930.1.1 = { holder=341300563 } # Norello (nc)
7955.1.1 = { holder=340300563 } # Moro (nc)

7971.1.1 = { holder=100300563 } # Myrmello (nc)
8008.1.1 = { holder=103300563 } # Izembaro (nc)
8023.1.1 = { holder=107300563 } # Roro (nc)
8045.1.1 = { holder=110300563 } # Ordello (nc)
8067.1.1 = { holder=114300563 } # Allaquo (nc)
8086.1.1 = { holder=115300563 } # Beqqo (nc)
8112.1.1 = { holder=116300563 } # Denyo (nc)
8114.1.1 = { holder=117300563 } # Meralyn (nc)
8133.1.1 = { holder=122300563 } # Ferrego (nc)
8143.1.1 = { holder=124300563 } # Narbo (nc)
8191.1.1 = { holder=127300563 } # Orbelo (nc)
8244.1.1 = { holder=129300563 } # Meralyn (nc)
8252.1.1 = { holder=131300563 } # Joss (nc)
8263.1.1 = { holder=135300563 } # Tormo (nc)
8264.1.1 = { holder=133300563 } # Orbelo (nc)
8270.1.1 = { holder=138300563 } # Gyleno (nc)
8271.1.1 = { holder=143300563 } # Daario (nc)

