6000.1.1={
	liege="d_oldstones"
}
# House Mallister
7822.1.1 = { holder=550128 } # Petyr (C)
7843.1.1 = { holder=551128 } # Zachery (nc)
7884.1.1 = { holder=552128 } # Jonthor (nc)
7917.1.1 = { holder=553128 } # Bennifer (nc)
7946.1.1 = { holder=554128 } # Petyr (nc)
7968.1.1 = { holder=555128 } # Walder (nc)

7986.1.1 = {
	holder=17128 
}
8022.1.1={
	holder=15128
}
8048.1.1={
	holder=14128
}
8080.1.1={
	holder=13128
}
8098.1.1={
	holder=12128
}
8108.1.1={
	holder=11128
}
8120.1.1={
	holder=40128
}
8131.1.1={
	holder=10128
}
8144.1.1={
	holder=9128
}
8180.1.1={
	holder=8128
}
8217.1.1={
	holder=18128
}
8239.1.1={
	holder=5128
}
8258.1.1={
	holder=4128
}
8272.1.1={
	holder=128
}