#c_crakehall
50.1.1 = { holder=3990227} # Crake (C)
900.1.1={
	liege="d_crakehall"
}
7820.1.1 = { holder=396227 } # Tymeon (nc)
7840.1.1 = { holder=397227 } # Harys (nc)
7871.1.1 = { holder=398227 } # Ryland (nc)
7888.1.1 = { holder=390227 } # Cragon (nc)
7935.1.1 = { holder=392227 } # Loreon (nc)
7961.1.1 = { holder=394227 } # Roland (nc)
7980.1.1 = { holder=395227 } # Sumner (nc)
7982.1.1 = { holder=31227 } # Lyle (c)
8045.1.1 = {holder=29227}
8056.1.1 = {holder=28227}
8078.1.1 = {holder=600227}
8105.1.1 = {holder=27227 } # Shiera Crakehall (C)
8140.1.1 = {holder=26227} # Jonos Crakehall
8173.1.1 = {holder=510227} # Burton Crakehall
8185.1.1 = {holder=23227} # Garen Crakehall
8196.6.1={
	holder=20227
}
8212.7.7 = {holder=10227}	
8254.1.1 = {holder=227}
8281.1.1 = {holder=7227}