7861.1.1 = { 
	holder=345607304 # Tudin (nc)
	liege = d_east_plains
}
7886.1.1 = { holder=344607304 } # Dzobolin (nc)
7901.1.1 = { holder=343607304 } # Noyer (nc)
7929.1.1 = { holder=342607304 } # Temer (nc)
7951.1.1 = { holder=341607304 } # Kail (nc)
7963.1.1 = { holder=340607304 } # Auluon (nc)

7974.1.1 = { holder=100607304 } # Ehsan (nc)
8005.1.1 = { holder=101607304 } # Qader (nc)
8027.1.1 = { holder=103607304 } # Qudratu (nc)
8039.1.1 = { holder=106607304 } # Jakan (nc)
8083.1.1 = { holder=109607304 } # Rasoul (nc)
8109.1.1 = { holder=112607304 } # Tarakai (nc)
8149.1.1 = { holder=115607304 } # Ramez (nc)
8177.1.1 = { holder=118607304 } # Aarak (nc)
8179.1.1 = { holder=120607304 } # Tarakai (nc)
8224.1.1 = { holder=122607304 } # Inzir (nc)
8250.1.1 = { holder=123607304 } # Jakan (nc)
8275.1.1 = { holder=124607304 } # Sadaf (nc)
8291.1.1 = { holder=126607304 } # Janan (nc)