#House Ahasunnu
7865.1.1 = { holder=34533911 } # Ammith (nc)
7883.1.1 = { holder=34433911 } # Mushtal (nc)
7903.1.1 = { holder=34333911 } # Nawirum (nc)
7925.1.1 = { holder=34233911 } # Palusum (nc)
7945.1.1 = { holder=34133911 } # Shepsin (nc)
7977.1.1 = { holder=34033911 } # Lipith (nc)

7992.1.1 = { holder=10033911 } # Kurum (nc)
8034.1.1 = { holder=10233911 } # Yasmath (nc)
8043.1.1 = { holder=10533911 } # Mushtal (nc)
8072.1.1 = { holder=11033911 } # Arganth (nc)
8090.1.1 = { holder=11333911 } # Belshun (nc)
8154.1.1 = { holder=11933911 } # Lugatum (nc)
8164.1.1 = { holder=12233911 } # Kugbau (nc)
8188.1.1 = { holder=12633911 } # Munawirtum (nc)
8200.1.1 = { holder=12833911 } # Ibnatum (nc)
8215.1.1 = { holder=13033911 } # Sumalika (nc)
8223.1.1 = { holder=13233911 } # Iluath (nc)
8272.1.1 = { holder=13733911 } # Shepsin (nc)
8297.1.1 = { holder=14233911 } # Shusuen (nc)


