#House Toland
7240.1.1={
	liege="d_brokenarm"
	law = true_cognatic_succession
}
7863.1.1 = { holder=35374 } # Obara (nc)
7884.1.1 = { holder=35364 } # Oberyn (nc)
7915.1.1 = { holder=35354 } # Obella (nc)
7933.1.1 = { holder=35344 } # Perros (nc)
7960.1.1 = { holder=35004 } # Castos (nc)
7996.1.1 = { holder=35014 } # Cassana (nc)
8007.1.1 = { holder=35024 } # Allar (nc)
8012.1.1 = { holder=35074 } # Lewyn (nc)
8051.1.1 = { holder=35114 } # Nymerios (nc)
8080.1.1 = { holder=35124 } # Harmen (nc)
8108.1.1 = { holder=35174 } # Doran (nc)
8131.1.1 = { holder=35204 } # Marya (nc)
8157.5.16 = { holder=35214 } # Ryon (nc)
8183.1.1 = { holder=35274 } # Lythene (nc)
8254.1.1 = { holder=35294 } # Liane (nc)
8259.2.8 = { holder=35334 } # Armen (nc)
8279.3.2 = { holder=1004 } # Nymeria (c)