#House Zamesh
600.1.1={
	liege="d_yiti_delta"
}
7844.1.1 = { holder=34569104 } # Xuan (nc)
7869.1.1 = { holder=34469104 } # Fuen (nc)
7899.1.1 = { holder=34369104 } # Chan (nc)
7920.1.1 = { holder=34269104 } # Shen (nc)
7949.1.1 = { holder=34169104 } # Par (nc)
7972.1.1 = { holder=34069104 } # Luq (nc)

7993.1.1 = { holder=10069104 } # Vinh (nc)
8038.1.1 = { holder=10469104 } # Bai (nc)
8045.1.1 = { holder=10669104 } # Chen (nc)
8073.1.1 = { holder=10869104 } # Bao (nc)
8123.1.1 = { holder=11169104 } # Hao (nc)
8132.1.1 = { holder=11669104 } # Ji (nc)
8151.1.1 = { holder=11969104 } # Bai (nc)
8184.1.1 = { holder=12069104 } # Han (nc)
8211.1.1 = { holder=12369104 } # Shun (nc)
8252.1.1 = { holder=12769104 } # Duc (nc)
8255.1.1 = { holder=12869104 } # Dong (nc)
8288.1.1 = { holder=13169104 } # Vinh (nc)

