#House Cassel
6000.1.1={
	liege="d_winterfell"
	law = succ_primogeniture
}
7859.1.1 = { holder=344060 } # Farlen (nc)
7873.1.1 = { holder=343060 } # Mark (nc)
7912.1.1 = { holder=342060 } # Arthor (nc)
7932.1.1 = { holder=341060 } # Robett (nc)
7949.1.1 = { holder=340060 } # Artos (nc)

7979.1.1 = { holder=21060 } # Cley (nc)
8020.1.1 = { holder=18060 } # Cregan (nc)
8041.1.1 = { holder=17060 } # Cregard (nc)
8062.1.1 = { holder=16060 } # Dywen (nc)
8080.1.1 = { holder=15060 } # Cley (nc)
8121.1.1 = { holder=13060 } # Benard (nc)
8161.1.1 = { holder=12060 } # Mark (nc)
8175.1.1 = { holder=11060 } # Quent (nc)
8202.1.1 = { holder=10060 } # Hallis (nc)
8248.1.1 = { holder=2060 }
8281.1.1 = {
	holder=60 #Martyn Cassel (C)
}
8284.1.1 = {
	holder=4060 #Jory Cassel (C)
}
8298.8.1 = {
	holder=3060 #Rodrik Cassel (C)
}
8299.6.29 = {
	holder=9060 #Beth Cassel (C)
}