#House Loraq
600.1.1={
	liege="k_meereen"
}
7858.1.1 = { holder=345360003 } # Hizdahr (nc)
7869.1.1 = { holder=150360003 } # Zharaq the Liberator (C)
7905.1.1 = { holder=344360003 } # Korghaz (nc)
7914.1.1 = { holder=343360003 } # Hizdahr (nc)
7948.1.1 = { holder=342360003 } # Uhzaq (nc)
7969.1.1 = { holder=341360003 } # Yazzak (nc)
7992.1.1 = { holder=340360003 } # Kazak (nc)

8016.1.1 = { holder=100360003 } # Hizdhar (nc)
8047.1.1 = { holder=102360003 } # Hizdhar (nc)
8090.1.1 = { holder=105360003 } # Grazdan (nc)
8106.1.1 = { holder=111360003 } # Hizdhar (nc)
8124.1.1 = { holder=114360003 } # Hizdhar (nc)
8160.1.1 = { holder=118360003 } # Kraznys (nc)
8179.1.1 = { holder=120360003 } # Hizdhar (nc)
8212.1.1 = { holder=122360003 } # Hizdhario (nc)
8238.1.1 = { holder=124360003 } # Moredo (nc)
8250.1.1 = { holder=129360003 } # Barkhaz (nc)
8286.1.1={
	holder=16571013 # Hizdhar
}