#House Norcross
900.1.1={ law=succ_primogeniture law=cognatic_succession
	liege="d_brightwater"
}
7851.1.1={ holder=313279} # Chester (nc)
7882.1.1={ holder=311279} # Uther (nc)
7900.1.1={ holder=309279} # Quenton (nc)
7922.1.1={ holder=306279} # Reynard (nc)
7952.1.1={ holder=305279} # Hosman (nc)

7970.1.1={ holder=303279} # Norman
8017.1.1={ holder=300279} # Owen
8035.1.1={ holder=302279} # Arys
8063.1.1={ holder=307279} # Ronnel
8079.1.1={ holder=308279} # Tymond
8123.1.1={ holder=310279} # Tyler (C)
8130.5.8={ holder=312279} # Rickard
8166.1.1={ holder=315279} # Victaria
8176.1.1={ holder=317279} # Imry
8203.1.1={ holder=319279} # Franklyn
8241.1.1={ holder=321279} # Gormon
8273.1.1={holder=1279} # Ronnel




