#House Peasebury
202.1.1 = {liege="e_stormlands"}
7851.1.1 = { holder=344273 } # Lucas (nc)
7860.1.1 = { holder=343273 } # Humfrey (nc)
7912.1.1 = { holder=342273 } # Benther (nc)
7941.1.1 = { holder=341273 } # Rorton (nc)
7963.1.1 = { holder=340273 } # Josmyn (nc)

7970.1.1 = { holder=300273 } # Rolland (nc)
7998.2.27={
	liege = k_stormlands
}
8008.1.1 = { holder=301273 } # Petyr (nc)
8029.1.1 = { holder=302273 } # Renly (nc)
8074.1.1 = { holder=303273 } # Patrek (nc)
8098.1.1 = { holder=304273 } # Rolland (nc)
8112.1.1 = { holder=305273 } # Robin (nc)
8138.1.1 = { holder=307273 } # Raymund (nc)
8154.1.1 = { holder=308273 } # Renfred (nc)
8195.1.1 = { holder=309273 } # Rickard (nc)
8249.1.1 = { holder=310273 } # Ronnet (nc)
8250.1.1 = { holder=311273 } # Rolland (nc)
8289.1.1 = { holder=200273 } # Robin Peasebury (C)
8299.7.1 = { liege="k_stormlands" }