#House Staunton
7600.1.1={
	liege="e_riverlands"
	law = succ_primogeniture
}
7855.1.1 = { holder=344041 } # Loghain (nc)
7871.1.1 = { holder=343041 } # Corwyn (nc)
7912.1.1 = { holder=342041 } # Trebor (nc)
7923.1.1 = { holder=341041 } # Renfred (nc)
7933.1.1 = { 
	liege="e_stormlands"
}
7958.1.1 = {
	liege="e_riverlands"
}
7962.1.1 = { holder=340041 } # Symond (nc)

7975.1.1 = { holder=6002141 } # Samwell (nc)
7998.2.1 = {
	liege="e_iron_throne"
}
8006.1.1 = { holder=6000041 } # Eustace (nc)
8022.1.1 = { holder=6000141 } # Alaric (nc)
8059.2.1 = { holder=6000441 } # Clayton (nc)
8083.1.1 = { holder=6000841 } # Maric (nc)
8089.1.1 = { holder=6000941 } # Belgrave (nc)
8113.1.1 = { holder=6001041 } # Arneld (nc)
8129.9.2 = { holder=6001241 } # Lothar (nc)
8169.1.1 = { holder=6001641 } # Lucos (nc)
8227.1.1 = { holder=6001741 } # Howard (nc)
8239.1.1 = { holder=6002341 } # Oswell (nc)
8247.1.1 = { holder=6002741 } # Symond (C)

8290.1.1={
	holder = 41 	#Lothor Staunton
}
