#House Gargalen
7240.1.1={

	liege="e_dorne"

	law = true_cognatic_succession
	law = succ_primogeniture
}
7864.1.1 = { holder=35327 } # Ursula (nc)
7880.1.1 = { holder=35297 } # Mors (nc)
7911.1.1 = { holder=35287 } # Marei (nc)
7976.1.1 = { holder=35027 } # Mors (nc)
8003.1.1 = { holder=35007 } # Tremos (nc)
8047.1.1 = { holder=35017 } # Quentyn (nc)
8066.1.1 = { holder=35057 } # Alyse (nc)
8069.1.1 = { holder=35067 } # Tremond (nc)
8104.1.1 = { holder=35117 } # Arthur (nc)
8137.1.1 = { holder=35167 } # Allyria (nc)
#8157.8.7 = {liege=k_dorne} #Dornish Conquest
#8160.1.4 = {liege=e_dorne} #Dornish Rebellion
8187.1.1 = { holder=35187 } # Daemon (nc)
8187.6.1 = {liege="k_dorne"}
8201.1.1 = { holder=35217 } # Cerenna (nc)
8244.1.1 = { holder=35257 } # Quentyn (nc)
8245.1.1 = { holder=7 } # Tremond (c)