#House Qorgyle
7240.1.1={
	liege="e_dorne"
	law = true_cognatic_succession
}
7853.1.1 = { holder=65715 } # Cassella (nc)
7886.1.1 = { holder=65615 } # Idella (nc)
7905.1.1 = { holder=65515 } # Jantos (nc)
7925.1.1 = { holder=65415 } # Jannet (nc)
7961.1.1 = { holder=60215 } # Moriah (nc)
7998.1.1 = { holder=60015 } # Allar (nc)
8006.1.1 = { holder=60115 } # Lythene (nc)
8045.1.1 = { holder=60315 } # Leyla (nc)
8059.1.1 = { holder=60415 } # Bedwyck (nc)
8063.1.1 = { holder=60615 } # Arron (nc)
8066.1.1 = { holder=60915 } # Quentyn (nc)
8110.1.1 = { holder=61115 } # Ganlos (nc)
8177.1.1 = { holder=61515 } # Balan (nc)
8178.1.1 = { holder=61815 } # Allanys (nc)
8187.6.1 = {liege=k_dorne}
8190.1.1 = { holder=62315 } # Arthur (nc)
8209.1.1 = { holder=62515 } # Harmen (nc)
8236.1.1 = { holder=62815 } # Allar (nc)
8259.2.8 = { holder=5015 } # Qymors (nc)
8259.2.9 = { holder=15 } # Quentyn (C)