#House Sarsfield
900.1.1={
	liege="d_castamere"
}
7868.1.1 = { holder=344233 } # Byram (nc)
7881.1.1 = { holder=343233 } # Hendrick (nc)
7887.1.1 = { holder=342233 } # Joffrey (nc)
7923.1.1 = { holder=341233 } # Garth (nc)
7942.1.1 = { holder=340233 } # Sylvi (nc)

7967.1.1 = { holder=600233 } # Selmond (nc)
8010.1.1 = { holder=311233 } # Melwyn (nc)
8036.1.1 = { holder=310233 } # Quenton (nc)
8039.3.6 = { holder=309233 } # Steffon (nc)
8069.1.1 = { holder=308233 } # Mandon (nc)
8104.1.1 = { holder=307233 } # Marwyn (nc)
8135.1.1 = { holder=305233 } # Nestor (nc)
8157.12.7 = { holder=304233 } # Tytos (nc)
8215.1.1 = { holder=302233 } # Steffon (nc)
8271.1.1 = { holder=300233 } # Martyn (nc)
8276.1.1 = {	
	holder=233
}