#House Xhurabo
7800.1.1 = {
	liege=d_indigo_straits
	law = succ_seniority
	law = cognatic_succession
}
7851.1.1 = { holder=340304035 } # Makhan (nc)
7876.1.1 = { holder=341304035 } # Isoba (nc)
7884.1.1 = { holder=342304035 } # Chataya (nc)
7930.1.1 = { holder=343304035 } # Ujja (nc)
7948.1.1 = { holder=344304035 } # Shanika (nc)
7973.1.1 = { holder=345304035 } # Paya (nc)
8009.1.1 = { holder=100304035 } # Simbhar (nc)
8024.1.1 = { holder=101304035 } # Xhelimo (nc)
8053.1.1 = { holder=105304035 } # Gwalahuru (nc)
8080.1.1 = { holder=107304035 } # Kwasdo (nc)
8113.1.1 = { holder=109304035 } # Jiradhar (nc)
8118.1.1 = { holder=110304035 } # Abrafo (nc)
8131.1.1 = { holder=113304035 } # Udo (nc)
8153.1.1 = { holder=116304035 } # Odingaxho (nc)
8156.1.1 = { holder=117304035 } # Koraxha (nc)
8183.1.1 = { holder=118304035 } # Makhan (nc)
8215.1.1 = { holder=120304035 } # Xhelimo (nc)
8262.1.1 = { holder=124304035 } # Udo (nc)
8288.1.1 = { holder=126304035 } # Orengo (nc)

