600.1.1={
	liege="d_jiege"
}
7995.1.1 = { holder=10069193 }
8028.1.1 = { holder=10269193 }
8029.1.1 = { holder=10369193 }
8065.1.1 = { holder=10669193 }
8110.1.1 = { holder=11069193 }
8116.1.1 = { holder=11569193 }
8142.1.1 = { holder=11669193 }
8177.1.1 = { holder=11769193 }
8198.1.1 = { holder=11969193 }
8225.1.1 = { holder=12169193 }
8244.1.1 = { holder=12469193 }
8264.1.1 = { holder=12869193 }
8297.1.1 = { holder=13769193 }



