#House Yarwyck
900.1.1={
	liege="d_castamere"
}
7868.1.1 = { holder=344205 } # Doryn (nc)
7886.1.1 = { holder=343205 } # Dormund (nc)
7908.1.1 = { holder=342205 } # Tanton (nc)
7935.1.1 = { holder=341205 } # Patrice (nc)
7956.1.1 = { holder=340205 } # Terrence (nc)

7976.1.1 = { holder=302205 } # Melwyn (nc)
7993.1.1 = { holder=300205 } # Lewys (nc)
8029.1.1 = { holder=301205 } # Raynard (nc)
8064.1.1 = { holder=304205 } # Rafford (nc)
8065.1.1 = { holder=307205 } # Podrick (nc)
8120.1.1 = { holder=308205 } # Flement (nc)
8140.1.1 = { holder=309205 } # Othell (nc)
8164.1.1 = { holder=310205 } # Donnel (nc)
8186.1.1 = { holder=314205 } # Othell (nc)
8201.1.1 = { holder=318205 } # Samwell (nc)
8235.1.1 = { holder=319205 } # Jyanna (nc)
8244.1.1 = { holder=320205 } # Harwyn (nc)
8259.2.8 = { holder=205 } # Doryn (nc)