#House Bone
7800.1.1 = {
	liege=d_parrot_bay
	law = succ_seniority
	law = cognatic_succession
}
7871.1.1 = { holder=340304001 } # Jalabhar (nc)
7886.1.1 = { holder=341304001 } # Koraxha (nc)
7912.1.1 = { holder=342304001 } # Xhal (nc)
7932.1.1 = { holder=343304001 } # Thabo (nc)
7950.1.1 = { holder=344304001 } # Olujondo (nc)
7987.1.1 = { holder=345304001 } # Nyadundo (nc)
8017.1.1 = { holder=101304001 } # Sango (nc)
8042.1.1 = { holder=105304001 } # Qaro (nc)
8076.1.1 = { holder=107304001 } # Rudo (nc)
8085.1.1 = { holder=110304001 } # Rudo (nc)
8152.1.1 = { holder=111304001 } # Isodo (nc)
8183.1.1 = { holder=113304001 } # Orengo (nc)
8191.1.1 = { holder=117304001 } # Olujondo (nc)
8193.1.1 = { holder=115304001 } # Isodo (nc)
8202.1.1 = { holder=118304001 } # Qubhar (nc)
8229.1.1 = { holder=121304001 } # Qubhar (nc)
8264.1.1 = { holder=127304001 } # Delmabhar (nc)
8271.1.1 = { holder=130304001 } # Kwasdo (nc)
8276.1.1 = { holder=131304001 } # Koroxhar (nc)

