900.1.1={ 
	law=succ_primogeniture 
	law=agnatic_succession
	liege="d_harlaw"
}
7859.1.1 = { holder=341122 } # Harl (nc)
7874.1.1 = { holder=340122 } # Harras (nc)

7901.1.1 = { holder=3100122 } # Gorold (nc)
7940.1.1 = { holder=3201122 } # Lenwood (nc)
7975.1.1 = { holder=300122 } # Ambrode (nc)
7998.2.1 = { holder=302122 } # Sigrin (nc)
8032.1.1 = { holder=308122 } # Cotter (nc)
8060.1.1 = { holder=310122 } # Tom (nc)
8090.1.1 = { holder=312122 } # Gormond (nc)
8115.1.1 = { holder=313122 } # Maron (nc)
8134.5.1 = { holder=316122 } # Kromm (nc)
8163.1.1 = {	
	holder=16122  #Theomore
}	
8201.1.1 = {	
	holder=14122  #Tristifer #(nc)
}
8234.1.1 = {	
	holder=6122  #Sigrin (nc)
}
8259.1.1 = {	
	holder=8122 #Harmund (nc)
}
8295.1.1 = {	
	holder=4122 #Hotho
}



