7600.1.1 = { liege="k_volantis" }
#House Tagaros
7852.1.1 = { holder=342174603 } # Parquello (nc)
7870.1.1 = { holder=100174603 } # Marqelo Tagaros (C)
7906.1.1 = { holder=341174603 } # Rolloquo (nc)
7921.1.1 = { holder=340174603 } # Vaekar (nc)
7934.1.1 = { holder=101174603 } # Ordello (nc)
7966.1.1 = { holder=102174603 } # Belicho (nc)

#Dothraki
7998.1.1 = { 
	holder=100600219  # Harro (nc)
	liege = d_painted_mountains
}
8023.1.1 = { holder=103600219 } # Harro (nc)
8045.1.1 = { holder=105600219 } # Mengo (nc)
8060.1.1 = { holder=108600219 } # Mosko (nc)
8112.1.1 = { holder=114600219 } # Zhako (nc)
8146.1.1 = { holder=116600219 } # Virsallo (nc)
8154.1.1 = { holder=119600219 } # Marro (nc)
8166.1.1 = { holder=124600219 } # Rogo (nc)
8194.1.1 = { holder=128600219 } # Najaho (nc)
8199.1.1 = { holder=131600219 } # Harro (nc)
8231.1.1 = { holder=133600219 } # Haggo (nc)
8262.1.1 = { holder=140600219 } # Motho (c)