#House Staegone
7600.1.1 = {
	liege="k_volantis"
}
7870.1.1 = { holder=343174600 } # Tregyros (nc)
7883.1.1 = { holder=342174600 } # Vogys (nc)
7911.1.1 = { holder=341174600 } # Nakodos (nc)
7961.1.1 = { holder=340174600 } # Lysiros (nc)
7975.1.1 = { holder=108174600 } # Colloquo (nc)

#Dothraki
7998.1.1 = {  
	holder=100600219  # Harro (nc)
	liege = d_painted_mountains
}
8023.1.1 = { holder=103600219 } # Harro (nc)
8045.1.1 = { holder=105600219 } # Mengo (nc)
8060.1.1 = { holder=108600219 } # Mosko (nc)
8112.1.1 = { holder=114600219 } # Zhako (nc)
8146.1.1 = { holder=116600219 } # Virsallo (nc)
8154.1.1 = { holder=119600219 } # Marro (nc)
8166.1.1 = { holder=124600219 } # Rogo (nc)
8194.1.1 = { holder=128600219 } # Najaho (nc)
8199.1.1 = { holder=131600219 } # Harro (nc)
8231.1.1 = { holder=133600219 } # Haggo (nc)
8262.1.1 = { holder=140600219 } # Motho (C)