6000.1.1={
	liege="d_widowswatch"
	de_jure_liege = d_widowswatch
	law = succ_primogeniture
}
7830.1.1={
	holder=1024084
}
7874.1.1={
	holder=1014084
}
7901.1.1={
	holder=1013084
}
7926.1.1={
	holder=1006084
}
7945.1.1={
	holder=1007084
}
7968.1.1={
	holder=16084
}
8005.1.1={
	holder=15084
}
8021.1.1={
	holder=14084
}
8046.1.1={
	holder=13084
}
8060.1.1={
	holder=12084
}
8068.1.1={
	holder=11084
}
8114.1.1={
	holder=10084
}
8152.1.1={
    holder=9084
}	
8167.1.1={
	holder=8084
}
8189.1.1={
	holder=7084
}
8219.1.1={
	holder=5084
}
8264.1.1={
	holder=4084
}
8273.1.1={
	holder=3084
}
8282.1.1={
	holder=84
}
