6200.1.1={
	liege="e_vale"
	law = succ_primogeniture
}
7830.1.1 = { holder=3029180 }
7895.1.1 = { holder=3028180 }
7912.1.1 = { holder=3027180 }
7942.1.1 = { holder=3026180 }
7977.1.1 = { holder=3025180 }
7994.1.1 = { holder=3002180 }
7999.1.1={ 
	liege="k_vale"
} 
8021.1.1 = { holder=3000180 } # Kyle (nc)
8037.1.1 = { holder=3001180 } # Hugo (nc)
8058.1.1 = { holder=3004180 } # Alyx (nc)
8085.1.1 = { holder=3010180 } # Jason (nc)
8137.1.1 = { holder=3012180 } # Tommard (nc)
8143.1.1 = { holder=3015180 } # Dennett (nc)
8153.1.1 = { holder=3017180 } # Donnel (nc)
8157.6.9 = { holder=3018180 } # Eddard (nc)
8206.1.1 = { holder=3019180 } # Elbyn (nc)
8264.1.1 = { holder=3024180 } # Elmar (nc)
8270.1.1={
	holder = 94081 	#Lord Jorah Wydman
}