#House Antoun
600.1.1={
	liege="d_tiqui"
}
7859.1.1 = { holder=34569214 } # Puen (nc)
7881.1.1 = { holder=34469214 } # Zuan (nc)
7911.1.1 = { holder=34369214 } # Joi (nc)
7930.1.1 = { holder=34269214 } # Nhu (nc)
7949.1.1 = { holder=34169214 } # Aho (nc)
7967.1.1 = { holder=34069214 } # Voi (nc)

7988.1.1 = { holder=10069214 } # Idris (nc)
8032.1.1 = { holder=10169214 } # Gafur (nc)
8038.1.1 = { holder=10469214 } # Khaireddin (nc)
8094.1.1 = { holder=10569214 } # Abdul (nc)
8117.1.1 = { holder=10769214 } # Qawurd (nc)
8124.1.1 = { holder=11569214 } # Nasr (nc)
8146.1.1 = { holder=11669214 } # Muzaffaraddin (nc)
8182.1.1 = { holder=12069214 } # Sami (nc)
8217.1.1 = { holder=12469214 } # Gafur (nc)
8244.1.1 = { holder=12869214 } # Mukhtar (nc)
8256.1.1 = { holder=13069214 } # Hasan_Hasan (nc)
8291.1.1 = { holder=13269214 } # Sadiq (nc)


