7000.1.1 = {
	liege = k_hazdahn
}
7859.1.1 = { holder=34469190 } # Hizdahr (nc)
7877.1.1 = { holder=34369190 } # Miklaz (nc)
7909.1.1 = { holder=34269190 } # Ghazdor (nc)
7936.1.1 = { holder=34169190 } # Hizdahr (nc)
7957.1.1 = { holder=34069190 } # Hazrak (nc)

7975.1.1 = { holder=10069190 } # Maezon (nc)
8010.1.1 = { holder=10269190 } # Skahaz (nc)
8015.1.1 = {
	liege = 0
	holder = 0
}
