#House Sluggolsh
7843.1.1 = {
	liege="k_ibben"
	law = succ_primogeniture
	law = agnatic_succession
}
7863.1.1 = { holder=34555931 } # Torr (nc)
7881.1.1 = { holder=34455931 } # Toth (nc)
7895.1.1 = { holder=34355931 } # Buzogg (nc)
7930.1.1 = { holder=34255931 } # Poleg (nc)
7949.1.1 = { holder=34155931 } # Toth (nc)

#Dothraki
7970.1.1 = { #Fall of Ibbish
	holder = 0
	liege = 0
}