1.1.1={ 
	law=succ_primogeniture 
	law=cognatic_succession
	liege="e_reach"
}
7270.1.1 = { holder=600080 } # Marlon (nc)
7305.1.1 = { holder=610080 } # Merle (nc)
7326.1.1 = { holder=620080 } # Mandel (nc)
7347.1.1 = { holder=630080 } # Mandon (nc)
7360.1.1 = { holder=0 }