6200.1.1={
	law = succ_primogeniture
}
6334.1.1 = { holder=550187 } # Yorwyck (nc)
6358.1.1 = { holder=551187 } # Yorwyck (nc)
6383.1.1 = { holder=552187 } # Yorwyck (nc)
6413.1.1 = { holder=553187 } # Yorwyck (nc)
6445.1.1 = { holder=554187 } # Yorwyck (nc)

6475.1.1 = { holder=555187 } # Yorwyck (c)
6500.1.1 = { holder=556187 } # Robar (nc)
6531.1.1 = { holder=557187 } # Robar (c)
6538.6.6 = {
	holder = 0 
	liege="e_vale"
}
7830.1.1 = { holder=3601187 }
7878.1.1 = { holder=3501187 }
7890.1.1 = { holder=3100187 }
7940.1.1 = { holder=3201187 }
7954.1.1 = { holder=3401187 }
7980.1.1 = { holder=3301187 }
7994.1.1 = { holder=3000187 } # Robar IV (nc)
7999.1.1={ 
	liege="k_vale"
} 
8030.1.1 = { holder=3001187 } # Bryen (nc)
8050.1.1 = { holder=3004187 } # Raymar (nc)
8083.1.1 = { holder=3007187 } # Yorbert (C)
8102.1.1 = { holder=30091871 } # Rhea (C)
8115.1.1 = { holder=3010187 } # Willam (SC)
8130.5.22 = { holder=3016187 } # Gunthor (C)
8140.1.1 = { holder=88000444 } # Guncer (SC)
8145.1.1 = { holder=8800399 } # Andar (SC) 
8170.1.1 = { holder=3015187 } # Rolland (nc)
8180.1.1 = { holder=3017187 } # Osney (nc)
8231.1.1 = { holder=3018187 } # Damon (nc)
8242.1.1 = { holder=3019187 } # Uthor (nc)
8277.1.1={
	holder=94068 #Bronze Yohn
}