#House Stokeworth
7600.1.1={
	liege="e_riverlands"
	law = succ_primogeniture
}
7859.1.1 = { holder=344035 } # Desmond (nc)
7875.1.1 = { holder=343035 } # Bennard (nc)
7919.1.1 = { holder=342035 } # Rennifer (nc)
7934.1.1 = { holder=341035 } # Mortimer (nc)
7961.1.1 = { holder=340035 } # Lorent (nc)

7985.1.1 = { holder=6001935 } # Rickard (nc)
7998.2.1={
	liege="e_iron_throne"
}
8000.1.1 = { holder=6000035 } # Osmund (nc)
8026.1.1 = { holder=6000235 } # Alyn (C)
8038.1.1 = { holder=6000535 } # Mortimer (nc)
8063.1.1 = { holder=6000735 } # Roger (nc)
8096.1.1 = { holder=6000935 } # Gwayne (nc)
8120.1.1 = { holder=6001035 } # Guncer (nc)
8130.1.26 = { holder=6001335 } # Mortimer (nc)
8183.1.1 = { holder=6001735 } # Rorge (nc)
8224.1.1 = { holder=6001835 } # Lucos (nc)

8245.1.1={
	holder = 10035 #Bennard stokeworth
}
8285.1.1={
	holder = 77102 #Tanda stokeworth
}
8300.3.1={
	holder = 200035 #Bronn
}