6200.1.1={
	law = succ_primogeniture
}

6470.1.1 = { holder = 550881800 } #Dywen Shell, King of The Fingers
6479.1.1={ holder = 550176 } #Corwyn Corbray
6492.1.1 = { holder = 5551176 } #Gawayne Corbray
6523.1.1 = { holder = 551176 } #Qyle Corbray
6537.1.1 = { holder=552176 } # Jaimie
6539.1.1={
	holder=0
}
