1.1.1={
	law = succ_primogeniture
	law = cognatic_succession
	effect = {
		holder_scope = {
			set_special_character_title = dreadking_male
		}	
	}
}
5364.1.1 = { holder=1050087 } # Royce 
5397.1.1 = { holder=1051087 } # Royce II
5425.1.1 = { holder=0 } 
5678.1.1 = { holder=1053087 } # Royce III
5726.1.1 = { holder=1054087} # Royce IV
5757.1.1 = { holder=0 } 

6456.1.1={
	holder = 1055087  # Rogar the Huntsman
}
6479.1.1={
	holder = 0
}