7850.1.1={
	law = slavery_2
	law = centralization_2
}
7898.1.1 = { holder=150360003 } # Zharaq zo Loraq (C)
7905.1.1 = { holder=344360007 } # Oznak zo Pahl (nc)
7908.1.1 = { holder=343360007 } # Azzak zo Pahl (nc)
7911.1.1 = { holder=344360003 } # Korghaz zo Loraq (nc)
7914.1.1 = { holder=343360004 } # Gorzhak zo Galare (nc)
7929.1.1 = { holder=342360007 } # Morghaz zo Pahl (nc)
7940.1.1 = { holder=341360007 } # Ozzan zo Pahl (nc)
7959.1.1 = { holder=342360003 } # Uhzaq zo Loraq (nc)
7969.1.1 = { holder=340360007 } # Marghaz zo Pahl (nc)

7995.1.1 = { holder=150360004 } # Phaezdhar zo Galare (nc)
8020.1.1 = { holder=100360003 } # Hizdhar zo Loraq (nc)
8047.1.1 = { holder=100360004 } # Grazdan zo Galare (nc)
8053.1.1 = { holder=101360007 } # Maezon zo Pahl (nc)
8079.1.1 = { holder=101360008 } # Gorhaz mo Reznak (nc)
8087.1.1 = { holder=103360004 } # Grazdan zo Galare (nc)
8105.1.1 = { holder=104360007 } # Hizdhar zo Pahl (nc)
8112.1.1 = { holder=111360003 } # Hizdhar zo Loraq (nc)
8124.1.1 = { holder=112360004 } # Marghaz zo Galare (nc)
8166.1.1 = { holder=118360003 } # Kraznys zo Loraq (nc)
8179.1.1 = { holder=120360003 } # Hizdhar zo Loraq (nc)
8212.1.1 = { holder=123360004 } # Paezhar zo Galare (nc)
8229.1.1 = { holder=123360008 } # Mazdhak mo Reznak (nc)
8233.1.1 = { holder=119360007 } # Mazdhan zo Pahl (nc)
8238.1.1 = { holder=121360007 } # Ghazdor zo Pahl (nc)
8267.1.1 = { holder=128360004 } # Gorzhak zo Galare (nc)
8287.1.1={
	holder=125360007 # Miklaz zo Pahl (C)
}
8300.1.1={
	law = succ_primogeniture
	#law = succ_seniority
	law = cognatic_succession
	law = centralization_2
	law = slavery_0
	law = treaty_breach_1
	holder=77041 # Daenerys
}
