623.1.1={
	law = succ_primogeniture
	law = agnatic_succession
	law = centralization_1
	law = slavery_3
	law = first_night_1
}
3578.1.1 = {
	holder=500107 #Loron the Old Kraken	
}
3632.1.1 = {
	holder=501107
}
3638.1.1 = {
	holder=502107
}
3670.1.1 = { holder=0 }

4230.1.1 = {
	holder = 503107
}
4238.1.1 = { holder = 0 }

4287.1.1 = {
	holder = 504107
}
4303.1.1 = {
	holder = 505107
}
4337.1.1 = { holder = 0 }

4978.1.1 = {
	holder = 506107
}
5014.1.1 = { holder = 0 }