#k_westerlands
7000.1.1 = {
	effect = { 
		set_variable = { which = "lord_paramount_status" value = 1 }
		holder_scope = { set_government_type = feudal_government_LP }
		any_previous_holder = {
			limit = { NOT = { tier = EMPEROR } }
			set_government_type = feudal_government_LP
		}
	}
	law = succ_primogeniture
	law = cognatic_succession
	law = centralization_2
	law = slavery_0
	law = investiture_law_2
	law = first_night_1
}
7998.7.6 = {
	holder=85190 # Loren
	liege="e_iron_throne"
}
8020.1.1={
	holder=1001190
}
8026.1.1 = {
holder=86190 # Lyman Lannister
}
8043.1.1={
	liege = 0
}
8044.1.1={
	liege = "e_iron_throne"
}
8048.6.2 = {
	law = investiture_law_1 
}
8059.2.1 = {
holder=87190 # Tygett Lannister
}
8060.1.1={ law = first_night_0 } #First Night abolished
8090.1.1 = {
holder=1060190 # Tymond Lannister
}
8125.1.1 = {
holder=96190 # Jason Lannister
}
8129.4.1={
	liege = 0
}
8129.6.8 = {
holder=89190 # Loren Lannister
}
8131.1.8={
	liege = "e_iron_throne"
}
8167.1.1 = {
holder=92190 # Jonn Lannister
}
8186.1.1 = {
holder=99190 # Damon Lannister
}
8195.3.7={
	liege = 0
}
8196.6.1={
	liege = "e_iron_throne"
}
8210.1.1 = {
holder=5188 # Tybolt Lannister
}
8212.2.1 = {
holder=60100190 # Serelle Lannister
}
8212.6.1 = {
holder=102190 # Gerold Lannister
}
8243.1.1 = {
holder=1190	# Tytos Lannister
}
8259.11.1={
	liege=0
}
8260.12.31={
	liege="e_iron_throne"
}	
8267.1.1 = {	
holder=190 # Tywin
}

8282.9.15={
	liege = 0
}
8282.12.31={
	liege = "e_iron_throne"
}
8299.1.1={
	liege=0
}
8300.2.9={
holder=4190 #Cersei
}