1.1.1={
	law = succ_primogeniture
	law = cognatic_succession
	effect = {
		holder_scope = {
			set_special_character_title = wolfking_male
		}	
	}
}
2963.1.1={
	holder = 1040124 #
}	
3009.1.1 = {
	holder = 0
}