1.1.1={
	liege="e_yi_ti"
	law = succ_primogeniture
	law = agnatic_succession
	law = slavery_0
	law = privilege_vassal_king
	effect = {
		add_law = privilege_vassal_king
	}
}

2100.1.1 = { holder = 10055956 }
2135.1.1 = { holder = 0 }
2256.1.1 = { holder = 10055957 }
2293.1.1 = { holder = 0 }
2800.1.1 = { holder = 10055961 } # Qaun (nc)
2819.1.1 = { holder = 10155961 } # An (nc)
2839.1.1 = { holder = 10355961 } # Gai (nc)
2858.1.1 = { holder = 10455961 } # Mao (nc)
2866.1.1 = { holder = 10555961 } # Tho (nc)
2881.1.1 = { holder = 10655961 } # Kim (nc)
2905.1.1 = { holder = 10755961 } # Dong (nc)
2931.1.1 = { holder = 10855961 } # Quan (nc)
2940.1.1 = { holder = 10955961 } # Huu (nc)
2945.1.1 = { holder = 0 }
7845.1.1 = { holder = 34455954 }
7876.1.1 = { holder = 34355954 }
7898.1.1 = { holder = 34255954 }
7937.1.1 = { holder = 34155954 }
7964.1.1 = { holder = 34055954 }
7996.1.1 = { holder = 10055954 }
8027.1.1 = { holder = 10155954 }
8056.1.1 = { holder = 10655954 }
8079.1.1 = { holder = 10755954 }
8081.1.1 = { holder = 11155954 }
8123.1.1 = { holder = 11455954 }
8156.1.1 = { holder = 11755954 }
8165.1.1 = { holder = 11955954 }
8197.1.1 = { holder = 12155954 }
8221.1.1 = { holder = 12355954 }
8252.1.1 = { holder = 13055954 }


